<?xml version="1.0" encoding="utf-8"?>
<COLLADA xmlns="http://www.collada.org/2005/11/COLLADASchema" version="1.4.1">
  <asset>
    <contributor>
      <author>Blender User</author>
      <authoring_tool>Blender 2.79.0</authoring_tool>
    </contributor>
    <created>2020-02-20T18:47:07</created>
    <modified>2020-02-20T18:47:07</modified>
    <unit name="meter" meter="1"/>
    <up_axis>Z_UP</up_axis>
  </asset>
  <library_cameras>
    <camera id="Camera-camera" name="Camera">
      <optics>
        <technique_common>
          <perspective>
            <xfov sid="xfov">49.13434</xfov>
            <aspect_ratio>1.777778</aspect_ratio>
            <znear sid="znear">0.1</znear>
            <zfar sid="zfar">100</zfar>
          </perspective>
        </technique_common>
      </optics>
      <extra>
        <technique profile="blender">
          <shiftx sid="shiftx" type="float">0</shiftx>
          <shifty sid="shifty" type="float">0</shifty>
          <YF_dofdist sid="YF_dofdist" type="float">0</YF_dofdist>
        </technique>
      </extra>
    </camera>
    <camera id="Camera_001-camera" name="Camera.001">
      <optics>
        <technique_common>
          <perspective>
            <xfov sid="xfov">49.13434</xfov>
            <aspect_ratio>1.777778</aspect_ratio>
            <znear sid="znear">0.1</znear>
            <zfar sid="zfar">100</zfar>
          </perspective>
        </technique_common>
      </optics>
      <extra>
        <technique profile="blender">
          <shiftx sid="shiftx" type="float">0</shiftx>
          <shifty sid="shifty" type="float">0</shifty>
          <YF_dofdist sid="YF_dofdist" type="float">0</YF_dofdist>
        </technique>
      </extra>
    </camera>
    <camera id="Camera_002-camera" name="Camera.002">
      <optics>
        <technique_common>
          <perspective>
            <xfov sid="xfov">49.13434</xfov>
            <aspect_ratio>1.777778</aspect_ratio>
            <znear sid="znear">0.1</znear>
            <zfar sid="zfar">100</zfar>
          </perspective>
        </technique_common>
      </optics>
      <extra>
        <technique profile="blender">
          <shiftx sid="shiftx" type="float">0</shiftx>
          <shifty sid="shifty" type="float">0</shifty>
          <YF_dofdist sid="YF_dofdist" type="float">0</YF_dofdist>
        </technique>
      </extra>
    </camera>
  </library_cameras>
  <library_lights>
    <light id="Lamp-light" name="Lamp">
      <technique_common>
        <point>
          <color sid="color">1 1 1</color>
          <constant_attenuation>1</constant_attenuation>
          <linear_attenuation>0</linear_attenuation>
          <quadratic_attenuation>0.00111109</quadratic_attenuation>
        </point>
      </technique_common>
      <extra>
        <technique profile="blender">
          <type sid="type" type="int">0</type>
          <flag sid="flag" type="int">0</flag>
          <mode sid="mode" type="int">8192</mode>
          <gamma sid="blender_gamma" type="float">1</gamma>
          <red sid="red" type="float">1</red>
          <green sid="green" type="float">1</green>
          <blue sid="blue" type="float">1</blue>
          <shadow_r sid="blender_shadow_r" type="float">0</shadow_r>
          <shadow_g sid="blender_shadow_g" type="float">0</shadow_g>
          <shadow_b sid="blender_shadow_b" type="float">0</shadow_b>
          <energy sid="blender_energy" type="float">1</energy>
          <dist sid="blender_dist" type="float">29.99998</dist>
          <spotsize sid="spotsize" type="float">75</spotsize>
          <spotblend sid="spotblend" type="float">0.15</spotblend>
          <halo_intensity sid="blnder_halo_intensity" type="float">1</halo_intensity>
          <att1 sid="att1" type="float">0</att1>
          <att2 sid="att2" type="float">1</att2>
          <falloff_type sid="falloff_type" type="int">2</falloff_type>
          <clipsta sid="clipsta" type="float">1.000799</clipsta>
          <clipend sid="clipend" type="float">30.002</clipend>
          <bias sid="bias" type="float">1</bias>
          <soft sid="soft" type="float">3</soft>
          <compressthresh sid="compressthresh" type="float">0.04999995</compressthresh>
          <bufsize sid="bufsize" type="int">2880</bufsize>
          <samp sid="samp" type="int">3</samp>
          <buffers sid="buffers" type="int">1</buffers>
          <filtertype sid="filtertype" type="int">0</filtertype>
          <bufflag sid="bufflag" type="int">0</bufflag>
          <buftype sid="buftype" type="int">2</buftype>
          <ray_samp sid="ray_samp" type="int">1</ray_samp>
          <ray_sampy sid="ray_sampy" type="int">1</ray_sampy>
          <ray_sampz sid="ray_sampz" type="int">1</ray_sampz>
          <ray_samp_type sid="ray_samp_type" type="int">0</ray_samp_type>
          <area_shape sid="area_shape" type="int">1</area_shape>
          <area_size sid="area_size" type="float">0.1</area_size>
          <area_sizey sid="area_sizey" type="float">0.1</area_sizey>
          <area_sizez sid="area_sizez" type="float">1</area_sizez>
          <adapt_thresh sid="adapt_thresh" type="float">0.000999987</adapt_thresh>
          <ray_samp_method sid="ray_samp_method" type="int">1</ray_samp_method>
          <shadhalostep sid="shadhalostep" type="int">0</shadhalostep>
          <sun_effect_type sid="sun_effect_type" type="int">0</sun_effect_type>
          <skyblendtype sid="skyblendtype" type="int">1</skyblendtype>
          <horizon_brightness sid="horizon_brightness" type="float">1</horizon_brightness>
          <spread sid="spread" type="float">1</spread>
          <sun_brightness sid="sun_brightness" type="float">1</sun_brightness>
          <sun_size sid="sun_size" type="float">1</sun_size>
          <backscattered_light sid="backscattered_light" type="float">1</backscattered_light>
          <sun_intensity sid="sun_intensity" type="float">1</sun_intensity>
          <atm_turbidity sid="atm_turbidity" type="float">2</atm_turbidity>
          <atm_extinction_factor sid="atm_extinction_factor" type="float">1</atm_extinction_factor>
          <atm_distance_factor sid="atm_distance_factor" type="float">1</atm_distance_factor>
          <skyblendfac sid="skyblendfac" type="float">1</skyblendfac>
          <sky_exposure sid="sky_exposure" type="float">1</sky_exposure>
          <sky_colorspace sid="sky_colorspace" type="int">0</sky_colorspace>
        </technique>
      </extra>
    </light>
    <light id="Lamp_001-light" name="Lamp.001">
      <technique_common>
        <point>
          <color sid="color">1 1 1</color>
          <constant_attenuation>1</constant_attenuation>
          <linear_attenuation>0</linear_attenuation>
          <quadratic_attenuation>0.00111109</quadratic_attenuation>
        </point>
      </technique_common>
      <extra>
        <technique profile="blender">
          <type sid="type" type="int">0</type>
          <flag sid="flag" type="int">0</flag>
          <mode sid="mode" type="int">8192</mode>
          <gamma sid="blender_gamma" type="float">1</gamma>
          <red sid="red" type="float">1</red>
          <green sid="green" type="float">1</green>
          <blue sid="blue" type="float">1</blue>
          <shadow_r sid="blender_shadow_r" type="float">0</shadow_r>
          <shadow_g sid="blender_shadow_g" type="float">0</shadow_g>
          <shadow_b sid="blender_shadow_b" type="float">0</shadow_b>
          <energy sid="blender_energy" type="float">1</energy>
          <dist sid="blender_dist" type="float">29.99998</dist>
          <spotsize sid="spotsize" type="float">75</spotsize>
          <spotblend sid="spotblend" type="float">0.15</spotblend>
          <halo_intensity sid="blnder_halo_intensity" type="float">1</halo_intensity>
          <att1 sid="att1" type="float">0</att1>
          <att2 sid="att2" type="float">1</att2>
          <falloff_type sid="falloff_type" type="int">2</falloff_type>
          <clipsta sid="clipsta" type="float">1.000799</clipsta>
          <clipend sid="clipend" type="float">30.002</clipend>
          <bias sid="bias" type="float">1</bias>
          <soft sid="soft" type="float">3</soft>
          <compressthresh sid="compressthresh" type="float">0.04999995</compressthresh>
          <bufsize sid="bufsize" type="int">2880</bufsize>
          <samp sid="samp" type="int">3</samp>
          <buffers sid="buffers" type="int">1</buffers>
          <filtertype sid="filtertype" type="int">0</filtertype>
          <bufflag sid="bufflag" type="int">0</bufflag>
          <buftype sid="buftype" type="int">2</buftype>
          <ray_samp sid="ray_samp" type="int">1</ray_samp>
          <ray_sampy sid="ray_sampy" type="int">1</ray_sampy>
          <ray_sampz sid="ray_sampz" type="int">1</ray_sampz>
          <ray_samp_type sid="ray_samp_type" type="int">0</ray_samp_type>
          <area_shape sid="area_shape" type="int">1</area_shape>
          <area_size sid="area_size" type="float">0.1</area_size>
          <area_sizey sid="area_sizey" type="float">0.1</area_sizey>
          <area_sizez sid="area_sizez" type="float">1</area_sizez>
          <adapt_thresh sid="adapt_thresh" type="float">9.99987e-4</adapt_thresh>
          <ray_samp_method sid="ray_samp_method" type="int">1</ray_samp_method>
          <shadhalostep sid="shadhalostep" type="int">0</shadhalostep>
          <sun_effect_type sid="sun_effect_type" type="int">0</sun_effect_type>
          <skyblendtype sid="skyblendtype" type="int">1</skyblendtype>
          <horizon_brightness sid="horizon_brightness" type="float">1</horizon_brightness>
          <spread sid="spread" type="float">1</spread>
          <sun_brightness sid="sun_brightness" type="float">1</sun_brightness>
          <sun_size sid="sun_size" type="float">1</sun_size>
          <backscattered_light sid="backscattered_light" type="float">1</backscattered_light>
          <sun_intensity sid="sun_intensity" type="float">1</sun_intensity>
          <atm_turbidity sid="atm_turbidity" type="float">2</atm_turbidity>
          <atm_extinction_factor sid="atm_extinction_factor" type="float">1</atm_extinction_factor>
          <atm_distance_factor sid="atm_distance_factor" type="float">1</atm_distance_factor>
          <skyblendfac sid="skyblendfac" type="float">1</skyblendfac>
          <sky_exposure sid="sky_exposure" type="float">1</sky_exposure>
          <sky_colorspace sid="sky_colorspace" type="int">0</sky_colorspace>
        </technique>
      </extra>
    </light>
    <light id="Lamp_002-light" name="Lamp.002">
      <technique_common>
        <point>
          <color sid="color">1 1 1</color>
          <constant_attenuation>1</constant_attenuation>
          <linear_attenuation>0</linear_attenuation>
          <quadratic_attenuation>0.00111109</quadratic_attenuation>
        </point>
      </technique_common>
      <extra>
        <technique profile="blender">
          <type sid="type" type="int">0</type>
          <flag sid="flag" type="int">0</flag>
          <mode sid="mode" type="int">8192</mode>
          <gamma sid="blender_gamma" type="float">1</gamma>
          <red sid="red" type="float">1</red>
          <green sid="green" type="float">1</green>
          <blue sid="blue" type="float">1</blue>
          <shadow_r sid="blender_shadow_r" type="float">0</shadow_r>
          <shadow_g sid="blender_shadow_g" type="float">0</shadow_g>
          <shadow_b sid="blender_shadow_b" type="float">0</shadow_b>
          <energy sid="blender_energy" type="float">1</energy>
          <dist sid="blender_dist" type="float">29.99998</dist>
          <spotsize sid="spotsize" type="float">75</spotsize>
          <spotblend sid="spotblend" type="float">0.15</spotblend>
          <halo_intensity sid="blnder_halo_intensity" type="float">1</halo_intensity>
          <att1 sid="att1" type="float">0</att1>
          <att2 sid="att2" type="float">1</att2>
          <falloff_type sid="falloff_type" type="int">2</falloff_type>
          <clipsta sid="clipsta" type="float">1.000799</clipsta>
          <clipend sid="clipend" type="float">30.002</clipend>
          <bias sid="bias" type="float">1</bias>
          <soft sid="soft" type="float">3</soft>
          <compressthresh sid="compressthresh" type="float">0.04999995</compressthresh>
          <bufsize sid="bufsize" type="int">2880</bufsize>
          <samp sid="samp" type="int">3</samp>
          <buffers sid="buffers" type="int">1</buffers>
          <filtertype sid="filtertype" type="int">0</filtertype>
          <bufflag sid="bufflag" type="int">0</bufflag>
          <buftype sid="buftype" type="int">2</buftype>
          <ray_samp sid="ray_samp" type="int">1</ray_samp>
          <ray_sampy sid="ray_sampy" type="int">1</ray_sampy>
          <ray_sampz sid="ray_sampz" type="int">1</ray_sampz>
          <ray_samp_type sid="ray_samp_type" type="int">0</ray_samp_type>
          <area_shape sid="area_shape" type="int">1</area_shape>
          <area_size sid="area_size" type="float">0.1</area_size>
          <area_sizey sid="area_sizey" type="float">0.1</area_sizey>
          <area_sizez sid="area_sizez" type="float">1</area_sizez>
          <adapt_thresh sid="adapt_thresh" type="float">9.99987e-4</adapt_thresh>
          <ray_samp_method sid="ray_samp_method" type="int">1</ray_samp_method>
          <shadhalostep sid="shadhalostep" type="int">0</shadhalostep>
          <sun_effect_type sid="sun_effect_type" type="int">0</sun_effect_type>
          <skyblendtype sid="skyblendtype" type="int">1</skyblendtype>
          <horizon_brightness sid="horizon_brightness" type="float">1</horizon_brightness>
          <spread sid="spread" type="float">1</spread>
          <sun_brightness sid="sun_brightness" type="float">1</sun_brightness>
          <sun_size sid="sun_size" type="float">1</sun_size>
          <backscattered_light sid="backscattered_light" type="float">1</backscattered_light>
          <sun_intensity sid="sun_intensity" type="float">1</sun_intensity>
          <atm_turbidity sid="atm_turbidity" type="float">2</atm_turbidity>
          <atm_extinction_factor sid="atm_extinction_factor" type="float">1</atm_extinction_factor>
          <atm_distance_factor sid="atm_distance_factor" type="float">1</atm_distance_factor>
          <skyblendfac sid="skyblendfac" type="float">1</skyblendfac>
          <sky_exposure sid="sky_exposure" type="float">1</sky_exposure>
          <sky_colorspace sid="sky_colorspace" type="int">0</sky_colorspace>
        </technique>
      </extra>
    </light>
  </library_lights>
  <library_images/>
  <library_geometries>
    <geometry id="Cylinder_002-mesh" name="Cylinder.002">
      <mesh>
        <source id="Cylinder_002-mesh-positions">
          <float_array id="Cylinder_002-mesh-positions-array" count="192">0 0.01899999 -0.02805 0 0.01899999 0.02805 0.003706634 0.01863491 -0.02805 0.003706634 0.01863491 0.02805 0.007270932 0.01755362 -0.02805 0.007270932 0.01755362 0.02805 0.0105558 0.01579791 -0.02805 0.0105558 0.01579791 0.02805 0.01343494 0.01343494 -0.02805 0.01343494 0.01343494 0.02805 0.01579791 0.0105558 -0.02805 0.01579791 0.0105558 0.02805 0.01755362 0.007270932 -0.02805 0.01755362 0.007270932 0.02805 0.01863491 0.003706634 -0.02805 0.01863491 0.003706634 0.02805 0.01899999 0 -0.02805 0.01899999 0 0.02805 0.01863491 -0.003706634 -0.02805 0.01863491 -0.003706634 0.02805 0.01755362 -0.007270932 -0.02805 0.01755362 -0.007270932 0.02805 0.01579791 -0.0105558 -0.02805 0.01579791 -0.0105558 0.02805 0.01343494 -0.01343494 -0.02805 0.01343494 -0.01343494 0.02805 0.0105558 -0.01579791 -0.02805 0.0105558 -0.01579791 0.02805 0.007270932 -0.01755362 -0.02805 0.007270932 -0.01755362 0.02805 0.003706634 -0.01863491 -0.02805 0.003706634 -0.01863491 0.02805 0 -0.01899999 -0.02805 0 -0.01899999 0.02805 -0.003706634 -0.01863491 -0.02805 -0.003706634 -0.01863491 0.02805 -0.007270932 -0.01755362 -0.02805 -0.007270932 -0.01755362 0.02805 -0.0105558 -0.01579791 -0.02805 -0.0105558 -0.01579791 0.02805 -0.01343494 -0.01343494 -0.02805 -0.01343494 -0.01343494 0.02805 -0.01579791 -0.0105558 -0.02805 -0.01579791 -0.0105558 0.02805 -0.01755362 -0.007270932 -0.02805 -0.01755362 -0.007270932 0.02805 -0.01863491 -0.003706634 -0.02805 -0.01863491 -0.003706634 0.02805 -0.01899999 0 -0.02805 -0.01899999 0 0.02805 -0.01863491 0.003706634 -0.02805 -0.01863491 0.003706634 0.02805 -0.01755362 0.007270932 -0.02805 -0.01755362 0.007270932 0.02805 -0.01579791 0.0105558 -0.02805 -0.01579791 0.0105558 0.02805 -0.01343494 0.01343494 -0.02805 -0.01343494 0.01343494 0.02805 -0.0105558 0.01579791 -0.02805 -0.0105558 0.01579791 0.02805 -0.007270932 0.01755362 -0.02805 -0.007270932 0.01755362 0.02805 -0.003706634 0.01863491 -0.02805 -0.003706634 0.01863491 0.02805</float_array>
          <technique_common>
            <accessor source="#Cylinder_002-mesh-positions-array" count="64" stride="3">
              <param name="X" type="float"/>
              <param name="Y" type="float"/>
              <param name="Z" type="float"/>
            </accessor>
          </technique_common>
        </source>
        <source id="Cylinder_002-mesh-normals">
          <float_array id="Cylinder_002-mesh-normals-array" count="180">0.09801793 0.9951847 0 0.2902921 0.9569382 0 0.4713907 0.8819245 0 0.6343951 0.7730091 0 0.773009 0.6343951 0 0.8819243 0.471391 0 0.956938 0.2902922 0 0.9951846 0.0980187 0 0.9951848 -0.0980165 0 0.956938 -0.2902922 0 0.8819246 -0.4713906 0 0.773009 -0.6343951 0 0.6343951 -0.7730091 0 0.471391 -0.8819244 0 0.2902921 -0.9569382 0 0.09801793 -0.9951847 0 -0.09801793 -0.9951847 0 -0.2902877 -0.9569395 0 -0.4713972 -0.8819211 0 -0.6343951 -0.7730091 0 -0.773009 -0.6343951 0 -0.8819243 -0.471391 0 -0.956938 -0.2902922 0 -0.9951846 -0.0980187 0 -0.9951848 0.0980165 0 -0.9569394 0.2902878 0 -0.8819211 0.4713972 0 -0.773009 0.6343951 0 -0.6343951 0.7730091 0 -0.471391 0.8819244 0 0 0 1 -0.2902877 0.9569395 0 -0.09801948 0.9951846 0 0 0 -1 0.471391 0.8819244 0 0.8819246 0.4713906 0 0.9951848 0.0980165 0 0.9951846 -0.0980187 0 0.8819243 -0.471391 0 0.4713907 -0.8819245 0 -0.4713976 -0.8819208 0 -0.8819246 -0.4713906 0 -0.9951848 -0.0980165 0 -0.9951846 0.0980187 0 -0.8819208 0.4713976 0 -0.4713907 0.8819245 0 5.37666e-6 0 1 5.37639e-6 0 1 -5.37639e-6 0 1 -6.91887e-7 0 1 1.61241e-7 0 1 -3.63086e-6 0 -1 3.70219e-6 0 -1 -3.70219e-6 0 -1 -3.70211e-6 0 -1 3.63093e-6 0 -1 -1.81544e-6 0 -1 1.9437e-6 0 -1 1.3838e-6 0 -1 -1.94634e-7 0 -1</float_array>
          <technique_common>
            <accessor source="#Cylinder_002-mesh-normals-array" count="60" stride="3">
              <param name="X" type="float"/>
              <param name="Y" type="float"/>
              <param name="Z" type="float"/>
            </accessor>
          </technique_common>
        </source>
        <vertices id="Cylinder_002-mesh-vertices">
          <input semantic="POSITION" source="#Cylinder_002-mesh-positions"/>
        </vertices>
        <triangles count="124">
          <input semantic="VERTEX" source="#Cylinder_002-mesh-vertices" offset="0"/>
          <input semantic="NORMAL" source="#Cylinder_002-mesh-normals" offset="1"/>
          <p>1 0 2 0 0 0 3 1 4 1 2 1 5 2 6 2 4 2 7 3 8 3 6 3 9 4 10 4 8 4 11 5 12 5 10 5 13 6 14 6 12 6 15 7 16 7 14 7 17 8 18 8 16 8 19 9 20 9 18 9 21 10 22 10 20 10 23 11 24 11 22 11 25 12 26 12 24 12 27 13 28 13 26 13 29 14 30 14 28 14 31 15 32 15 30 15 33 16 34 16 32 16 35 17 36 17 34 17 37 18 38 18 36 18 39 19 40 19 38 19 41 20 42 20 40 20 43 21 44 21 42 21 45 22 46 22 44 22 47 23 48 23 46 23 49 24 50 24 48 24 51 25 52 25 50 25 53 26 54 26 52 26 55 27 56 27 54 27 57 28 58 28 56 28 59 29 60 29 58 29 37 30 21 30 5 30 61 31 62 31 60 31 63 32 0 32 62 32 30 33 46 33 62 33 1 0 3 0 2 0 3 1 5 1 4 1 5 34 7 34 6 34 7 3 9 3 8 3 9 4 11 4 10 4 11 35 13 35 12 35 13 6 15 6 14 6 15 36 17 36 16 36 17 37 19 37 18 37 19 9 21 9 20 9 21 38 23 38 22 38 23 11 25 11 24 11 25 12 27 12 26 12 27 39 29 39 28 39 29 14 31 14 30 14 31 15 33 15 32 15 33 16 35 16 34 16 35 17 37 17 36 17 37 40 39 40 38 40 39 19 41 19 40 19 41 20 43 20 42 20 43 41 45 41 44 41 45 22 47 22 46 22 47 42 49 42 48 42 49 43 51 43 50 43 51 25 53 25 52 25 53 44 55 44 54 44 55 27 57 27 56 27 57 28 59 28 58 28 59 45 61 45 60 45 5 30 3 30 1 30 1 30 63 30 5 30 63 30 61 30 5 30 61 30 59 30 57 30 57 46 55 46 53 46 53 30 51 30 45 30 51 30 49 30 45 30 49 30 47 30 45 30 45 47 43 47 41 47 41 30 39 30 37 30 37 30 35 30 33 30 33 30 31 30 29 30 29 30 27 30 21 30 27 30 25 30 21 30 25 48 23 48 21 48 21 30 19 30 17 30 17 30 15 30 13 30 13 48 11 48 9 48 9 30 7 30 5 30 61 30 57 30 5 30 57 30 53 30 5 30 45 30 41 30 53 30 41 30 37 30 53 30 37 30 33 30 21 30 33 30 29 30 21 30 21 30 17 30 13 30 13 49 9 49 5 49 21 30 13 30 5 30 5 50 53 50 37 50 61 31 63 31 62 31 63 32 1 32 0 32 62 33 0 33 2 33 2 33 4 33 6 33 6 33 8 33 10 33 10 51 12 51 6 51 12 52 14 52 6 52 14 33 16 33 18 33 18 33 20 33 14 33 20 53 22 53 14 53 22 33 24 33 26 33 26 33 28 33 30 33 30 33 32 33 34 33 34 33 36 33 38 33 38 54 40 54 46 54 40 55 42 55 46 55 42 33 44 33 46 33 46 33 48 33 50 33 50 33 52 33 54 33 54 33 56 33 62 33 56 56 58 56 62 56 58 33 60 33 62 33 62 33 2 33 14 33 2 33 6 33 14 33 22 57 26 57 14 57 26 33 30 33 14 33 30 33 34 33 46 33 34 33 38 33 46 33 46 58 50 58 54 58 46 59 54 59 62 59 62 33 14 33 30 33</p>
        </triangles>
      </mesh>
    </geometry>
    <geometry id="Cylinder_003-mesh" name="Cylinder.003">
      <mesh>
        <source id="Cylinder_003-mesh-positions">
          <float_array id="Cylinder_003-mesh-positions-array" count="192">0 0.01899999 -0.02805 0 0.01899999 0.02805 0.003706634 0.01863491 -0.02805 0.003706634 0.01863491 0.02805 0.007270932 0.01755362 -0.02805 0.007270932 0.01755362 0.02805 0.0105558 0.01579791 -0.02805 0.0105558 0.01579791 0.02805 0.01343494 0.01343494 -0.02805 0.01343494 0.01343494 0.02805 0.01579791 0.0105558 -0.02805 0.01579791 0.0105558 0.02805 0.01755362 0.007270932 -0.02805 0.01755362 0.007270932 0.02805 0.01863491 0.003706634 -0.02805 0.01863491 0.003706634 0.02805 0.01899999 0 -0.02805 0.01899999 0 0.02805 0.01863491 -0.003706634 -0.02805 0.01863491 -0.003706634 0.02805 0.01755362 -0.007270932 -0.02805 0.01755362 -0.007270932 0.02805 0.01579791 -0.0105558 -0.02805 0.01579791 -0.0105558 0.02805 0.01343494 -0.01343494 -0.02805 0.01343494 -0.01343494 0.02805 0.0105558 -0.01579791 -0.02805 0.0105558 -0.01579791 0.02805 0.007270932 -0.01755362 -0.02805 0.007270932 -0.01755362 0.02805 0.003706634 -0.01863491 -0.02805 0.003706634 -0.01863491 0.02805 0 -0.01899999 -0.02805 0 -0.01899999 0.02805 -0.003706634 -0.01863491 -0.02805 -0.003706634 -0.01863491 0.02805 -0.007270932 -0.01755362 -0.02805 -0.007270932 -0.01755362 0.02805 -0.0105558 -0.01579791 -0.02805 -0.0105558 -0.01579791 0.02805 -0.01343494 -0.01343494 -0.02805 -0.01343494 -0.01343494 0.02805 -0.01579791 -0.0105558 -0.02805 -0.01579791 -0.0105558 0.02805 -0.01755362 -0.007270932 -0.02805 -0.01755362 -0.007270932 0.02805 -0.01863491 -0.003706634 -0.02805 -0.01863491 -0.003706634 0.02805 -0.01899999 0 -0.02805 -0.01899999 0 0.02805 -0.01863491 0.003706634 -0.02805 -0.01863491 0.003706634 0.02805 -0.01755362 0.007270932 -0.02805 -0.01755362 0.007270932 0.02805 -0.01579791 0.0105558 -0.02805 -0.01579791 0.0105558 0.02805 -0.01343494 0.01343494 -0.02805 -0.01343494 0.01343494 0.02805 -0.0105558 0.01579791 -0.02805 -0.0105558 0.01579791 0.02805 -0.007270932 0.01755362 -0.02805 -0.007270932 0.01755362 0.02805 -0.003706634 0.01863491 -0.02805 -0.003706634 0.01863491 0.02805</float_array>
          <technique_common>
            <accessor source="#Cylinder_003-mesh-positions-array" count="64" stride="3">
              <param name="X" type="float"/>
              <param name="Y" type="float"/>
              <param name="Z" type="float"/>
            </accessor>
          </technique_common>
        </source>
        <source id="Cylinder_003-mesh-normals">
          <float_array id="Cylinder_003-mesh-normals-array" count="180">0.09801793 0.9951847 0 0.2902921 0.9569382 0 0.4713907 0.8819245 0 0.6343951 0.7730091 0 0.773009 0.6343951 0 0.8819243 0.471391 0 0.956938 0.2902922 0 0.9951846 0.0980187 0 0.9951848 -0.0980165 0 0.956938 -0.2902922 0 0.8819246 -0.4713906 0 0.773009 -0.6343951 0 0.6343951 -0.7730091 0 0.471391 -0.8819244 0 0.2902921 -0.9569382 0 0.09801793 -0.9951847 0 -0.09801793 -0.9951847 0 -0.2902877 -0.9569395 0 -0.4713972 -0.8819211 0 -0.6343951 -0.7730091 0 -0.773009 -0.6343951 0 -0.8819243 -0.471391 0 -0.956938 -0.2902922 0 -0.9951846 -0.0980187 0 -0.9951848 0.0980165 0 -0.9569394 0.2902878 0 -0.8819211 0.4713972 0 -0.773009 0.6343951 0 -0.6343951 0.7730091 0 -0.471391 0.8819244 0 0 0 1 -0.2902877 0.9569395 0 -0.09801948 0.9951846 0 0 0 -1 0.471391 0.8819244 0 0.8819246 0.4713906 0 0.9951848 0.0980165 0 0.9951846 -0.0980187 0 0.8819243 -0.471391 0 0.4713907 -0.8819245 0 -0.4713976 -0.8819208 0 -0.8819246 -0.4713906 0 -0.9951848 -0.0980165 0 -0.9951846 0.0980187 0 -0.8819208 0.4713976 0 -0.4713907 0.8819245 0 5.37666e-6 0 1 5.37639e-6 0 1 -5.37639e-6 0 1 -6.91887e-7 0 1 1.61241e-7 0 1 -3.63086e-6 0 -1 3.70219e-6 0 -1 -3.70219e-6 0 -1 -3.70211e-6 0 -1 3.63093e-6 0 -1 -1.81544e-6 0 -1 1.9437e-6 0 -1 1.3838e-6 0 -1 -1.94634e-7 0 -1</float_array>
          <technique_common>
            <accessor source="#Cylinder_003-mesh-normals-array" count="60" stride="3">
              <param name="X" type="float"/>
              <param name="Y" type="float"/>
              <param name="Z" type="float"/>
            </accessor>
          </technique_common>
        </source>
        <vertices id="Cylinder_003-mesh-vertices">
          <input semantic="POSITION" source="#Cylinder_003-mesh-positions"/>
        </vertices>
        <triangles count="124">
          <input semantic="VERTEX" source="#Cylinder_003-mesh-vertices" offset="0"/>
          <input semantic="NORMAL" source="#Cylinder_003-mesh-normals" offset="1"/>
          <p>1 0 2 0 0 0 3 1 4 1 2 1 5 2 6 2 4 2 7 3 8 3 6 3 9 4 10 4 8 4 11 5 12 5 10 5 13 6 14 6 12 6 15 7 16 7 14 7 17 8 18 8 16 8 19 9 20 9 18 9 21 10 22 10 20 10 23 11 24 11 22 11 25 12 26 12 24 12 27 13 28 13 26 13 29 14 30 14 28 14 31 15 32 15 30 15 33 16 34 16 32 16 35 17 36 17 34 17 37 18 38 18 36 18 39 19 40 19 38 19 41 20 42 20 40 20 43 21 44 21 42 21 45 22 46 22 44 22 47 23 48 23 46 23 49 24 50 24 48 24 51 25 52 25 50 25 53 26 54 26 52 26 55 27 56 27 54 27 57 28 58 28 56 28 59 29 60 29 58 29 37 30 21 30 5 30 61 31 62 31 60 31 63 32 0 32 62 32 30 33 46 33 62 33 1 0 3 0 2 0 3 1 5 1 4 1 5 34 7 34 6 34 7 3 9 3 8 3 9 4 11 4 10 4 11 35 13 35 12 35 13 6 15 6 14 6 15 36 17 36 16 36 17 37 19 37 18 37 19 9 21 9 20 9 21 38 23 38 22 38 23 11 25 11 24 11 25 12 27 12 26 12 27 39 29 39 28 39 29 14 31 14 30 14 31 15 33 15 32 15 33 16 35 16 34 16 35 17 37 17 36 17 37 40 39 40 38 40 39 19 41 19 40 19 41 20 43 20 42 20 43 41 45 41 44 41 45 22 47 22 46 22 47 42 49 42 48 42 49 43 51 43 50 43 51 25 53 25 52 25 53 44 55 44 54 44 55 27 57 27 56 27 57 28 59 28 58 28 59 45 61 45 60 45 5 30 3 30 1 30 1 30 63 30 5 30 63 30 61 30 5 30 61 30 59 30 57 30 57 46 55 46 53 46 53 30 51 30 45 30 51 30 49 30 45 30 49 30 47 30 45 30 45 47 43 47 41 47 41 30 39 30 37 30 37 30 35 30 33 30 33 30 31 30 29 30 29 30 27 30 21 30 27 30 25 30 21 30 25 48 23 48 21 48 21 30 19 30 17 30 17 30 15 30 13 30 13 48 11 48 9 48 9 30 7 30 5 30 61 30 57 30 5 30 57 30 53 30 5 30 45 30 41 30 53 30 41 30 37 30 53 30 37 30 33 30 21 30 33 30 29 30 21 30 21 30 17 30 13 30 13 49 9 49 5 49 21 30 13 30 5 30 5 50 53 50 37 50 61 31 63 31 62 31 63 32 1 32 0 32 62 33 0 33 2 33 2 33 4 33 6 33 6 33 8 33 10 33 10 51 12 51 6 51 12 52 14 52 6 52 14 33 16 33 18 33 18 33 20 33 14 33 20 53 22 53 14 53 22 33 24 33 26 33 26 33 28 33 30 33 30 33 32 33 34 33 34 33 36 33 38 33 38 54 40 54 46 54 40 55 42 55 46 55 42 33 44 33 46 33 46 33 48 33 50 33 50 33 52 33 54 33 54 33 56 33 62 33 56 56 58 56 62 56 58 33 60 33 62 33 62 33 2 33 14 33 2 33 6 33 14 33 22 57 26 57 14 57 26 33 30 33 14 33 30 33 34 33 46 33 34 33 38 33 46 33 46 58 50 58 54 58 46 59 54 59 62 59 62 33 14 33 30 33</p>
        </triangles>
      </mesh>
    </geometry>
  </library_geometries>
  <library_controllers/>
  <library_visual_scenes>
    <visual_scene id="Scene" name="Scene">
      <node id="Camera" name="Camera" type="NODE">
        <matrix sid="transform">0.6859207 -0.3240135 0.6515582 7.481132 0.7276763 0.3054208 -0.6141704 -6.50764 0 0.8953956 0.4452714 5.343665 0 0 0 1</matrix>
        <instance_camera url="#Camera-camera"/>
      </node>
      <node id="Lamp" name="Lamp" type="NODE">
        <matrix sid="transform">-0.2908646 -0.7711008 0.5663932 4.076245 0.9551712 -0.1998834 0.2183912 1.005454 -0.05518906 0.6045247 0.7946723 5.903862 0 0 0 1</matrix>
        <instance_light url="#Lamp-light"/>
      </node>
      <node id="Camera_001" name="Camera_001" type="NODE">
        <matrix sid="transform">0.6859207 -0.3240135 0.6515582 7.481132 0.7276763 0.3054209 -0.6141704 -6.50764 -4.01133e-9 0.8953956 0.4452714 5.343665 0 0 0 1</matrix>
        <instance_camera url="#Camera_001-camera"/>
      </node>
      <node id="Lamp_001" name="Lamp_001" type="NODE">
        <matrix sid="transform">-0.2908646 -0.7711008 0.5663933 4.076245 0.9551712 -0.1998833 0.2183912 1.005454 -0.05518904 0.6045247 0.7946723 5.903862 0 0 0 1</matrix>
        <instance_light url="#Lamp_001-light"/>
      </node>
      <node id="Cylinder_001" name="Cylinder_001" type="NODE">
        <matrix sid="transform">1 0 0 0 0 1 0 0 0 0 1 0 0 0 0 1</matrix>
        <instance_geometry url="#Cylinder_002-mesh" name="Cylinder_001"/>
      </node>
      <node id="Camera_002" name="Camera_002" type="NODE">
        <matrix sid="transform">0.6859207 -0.3240135 0.6515582 7.481132 0.7276763 0.3054209 -0.6141704 -6.50764 -4.01133e-9 0.8953956 0.4452714 5.343665 0 0 0 1</matrix>
        <instance_camera url="#Camera_002-camera"/>
      </node>
      <node id="Lamp_002" name="Lamp_002" type="NODE">
        <matrix sid="transform">-0.2908646 -0.7711008 0.5663933 4.076245 0.9551712 -0.1998833 0.2183912 1.005454 -0.05518904 0.6045247 0.7946723 5.903862 0 0 0 1</matrix>
        <instance_light url="#Lamp_002-light"/>
      </node>
      <node id="Cylinder_002" name="Cylinder_002" type="NODE">
        <matrix sid="transform">1 0 0 0 0 1 0 0 0 0 1 0 0 0 0 1</matrix>
        <instance_geometry url="#Cylinder_003-mesh" name="Cylinder_002"/>
      </node>
    </visual_scene>
  </library_visual_scenes>
  <scene>
    <instance_visual_scene url="#Scene"/>
  </scene>
</COLLADA>