<?xml version="1.0" encoding="utf-8"?>
<COLLADA xmlns="http://www.collada.org/2005/11/COLLADASchema" version="1.4.1">
  <asset>
    <contributor>
      <author>Blender User</author>
      <authoring_tool>Blender 2.78.0 commit date:2017-02-24, commit time:14:33, hash:e92f2352830</authoring_tool>
    </contributor>
    <created>2017-07-14T10:06:20</created>
    <modified>2017-07-14T10:06:20</modified>
    <unit name="meter" meter="1"/>
    <up_axis>Z_UP</up_axis>
  </asset>
  <library_images/>
  <library_effects>
    <effect id="Kunststoff_druckteile_002_002-effect">
      <profile_COMMON>
        <technique sid="common">
          <phong>
            <emission>
              <color sid="emission">0 0 0 1</color>
            </emission>
            <ambient>
              <color sid="ambient">0 0 0 1</color>
            </ambient>
            <diffuse>
              <color sid="diffuse">0.5 0.5 0.5 1</color>
            </diffuse>
            <specular>
              <color sid="specular">0.5 0.5 0.5 1</color>
            </specular>
            <shininess>
              <float sid="shininess">50</float>
            </shininess>
            <index_of_refraction>
              <float sid="index_of_refraction">1</float>
            </index_of_refraction>
          </phong>
        </technique>
      </profile_COMMON>
    </effect>
    <effect id="Gummi_004_002-effect">
      <profile_COMMON>
        <technique sid="common">
          <phong>
            <emission>
              <color sid="emission">0 0 0 1</color>
            </emission>
            <ambient>
              <color sid="ambient">0 0 0 1</color>
            </ambient>
            <diffuse>
              <color sid="diffuse">0.1 0.1 0.1 1</color>
            </diffuse>
            <specular>
              <color sid="specular">0.025 0.025 0.025 1</color>
            </specular>
            <shininess>
              <float sid="shininess">50</float>
            </shininess>
            <index_of_refraction>
              <float sid="index_of_refraction">1</float>
            </index_of_refraction>
          </phong>
        </technique>
      </profile_COMMON>
    </effect>
  </library_effects>
  <library_materials>
    <material id="Kunststoff_druckteile_002_002-material" name="Kunststoff_druckteile_002_002">
      <instance_effect url="#Kunststoff_druckteile_002_002-effect"/>
    </material>
    <material id="Gummi_004_002-material" name="Gummi_004_002">
      <instance_effect url="#Gummi_004_002-effect"/>
    </material>
  </library_materials>
  <library_geometries>
    <geometry id="Cylinder_026-mesh" name="Cylinder.026">
      <mesh>
        <source id="Cylinder_026-mesh-positions">
          <float_array id="Cylinder_026-mesh-positions-array" count="735">0.003550827 1.86159e-5 0.002007424 0.003550827 1.86164e-5 0.00699675 0.003198802 -0.001523852 0.002007424 0.003198802 -0.001523852 0.00699675 0.002212345 -0.002760827 0.002007424 0.002212345 -0.002760827 0.00699675 7.86889e-4 -0.003447294 0.002007424 7.86889e-4 -0.003447294 0.00699675 -7.95259e-4 -0.003447294 0.002007424 -7.95258e-4 -0.003447294 0.00699675 -0.00222069 -0.002760827 0.002007424 -0.00222069 -0.002760827 0.00699675 -0.003207147 -0.001523852 0.002007424 -0.003207147 -0.001523852 0.00699675 -0.003559231 1.8615e-5 0.002007424 -0.003559231 1.8615e-5 0.00699675 -0.003207147 0.001561045 0.002007424 -0.003207147 0.001561045 0.00699675 -0.00222069 0.00279802 0.002007424 -0.00222069 0.00279802 0.00699675 -7.9526e-4 0.003484487 0.002007424 -7.9526e-4 0.003484487 0.00699675 7.86888e-4 0.003484487 0.002007424 7.86888e-4 0.003484487 0.00699675 0.002212345 0.00279802 0.002007424 0.002212345 0.00279802 0.00699675 0.003198802 0.001561045 0.002007424 0.003198802 0.001561045 0.00699675 0.004815042 7.08956e-4 0.00699675 0.0046373 -0.001450359 0.00699675 0.003540277 -0.003318786 0.00699675 0.001713216 -0.004537284 0.00699675 -4.03541e-4 -0.0048334 0.00699675 -0.002469182 -0.004179656 0.00699675 -0.004046618 -0.002694308 0.00699675 -0.004823386 -6.71724e-4 0.00699675 -0.004645705 0.001487612 0.00699675 -0.003548622 0.003356039 0.00699675 -0.001749575 0.004563391 0.00699675 -2.46881e-4 0.004818439 0.00699675 0.002460837 0.004216849 0.00699675 0.004038274 0.002731561 0.00699675 -2.46881e-4 0.006697297 0.00699675 0.001953542 0.008444309 0.00699675 0.003877222 0.008711755 0.006819307 0.008262753 0.00870788 0.006776034 0.006625711 -0.001904428 0.00699675 0.004980683 -0.0047279 0.00699675 0.002442002 -0.006346821 0.00699675 0.003040552 -0.007832825 0.00205934 -6.92937e-4 -0.008376717 0.00205934 -0.004254221 -0.007249593 0.00205934 -0.006973803 -0.004688858 0.00205934 -0.008313 -0.001201748 0.00205934 -0.008006572 0.002521038 0.00205934 -0.006115257 0.005742251 0.00205934 -0.003013551 0.007823824 0.00205934 -2.4688e-4 0.008263528 0.00205934 -2.4688e-4 0.007065415 0.004659593 -0.002606928 0.006689131 0.004659593 -0.00526154 0.004907548 0.004659593 -0.006880283 0.002150654 0.004659593 -0.007142543 -0.001035511 0.004659593 -0.005996346 -0.004020035 0.004659593 -0.003668785 -0.006211638 0.004659593 -6.20809e-4 -0.007176339 0.004659593 0.002586722 -0.006705999 0.004659593 0.003619909 -0.009104132 0.00205934 0.003347396 -0.00843048 0.004659593 0.01078778 -6.36454e-5 0.01068145 0.01050919 0.005009353 0.009668886 0.009022593 0.008005142 0.007736325 -2.4688e-4 0.008318066 0.00471127 0.01002866 0.01082181 0.00241214 0.003854215 0.01081925 0.002425789 0.01008415 -0.008939981 0.002085447 0.01008141 -0.007245719 0.005737602 0.007601857 -0.004152536 0.008468568 0.01009398 -0.004134297 0.008425235 0.0141313 -9.79428e-4 0.01017135 0.01553624 0.003816664 0.009296774 0.01640957 0.007552981 0.006533801 0.01692366 0.009676277 0.002403974 0.0153774 -0.00162363 0.009772062 0.02016818 0.002756834 0.008218228 0.02265173 0.005606591 0.005628764 0.02398657 0.007177293 0.002003014 0.01600766 -0.002100884 0.009435892 0.02193039 0.001074075 0.007835149 0.02526682 0.00297892 0.005449712 0.02697223 0.003971457 0.001925349 0.01676499 -0.002844274 0.009025692 0.02227354 -9.48421e-4 0.007555186 0.02600932 -2.09158e-4 0.005150556 0.02777993 2.28747e-4 0.001722455 0.0171945 -0.004014074 0.008369326 0.02065688 -0.003836452 0.007603824 0.02416092 -0.003758668 0.005764842 0.02647292 -0.003707289 0.002326071 0.01119291 -0.00785309 0.001586019 0.01119083 -0.006564617 0.004363596 0.01120036 -0.004198253 0.006557881 0.01408767 -0.007799029 0.001586019 0.01406067 -0.006166577 0.00455147 0.01409512 -0.004144191 0.006557881 0.02038061 -0.005934894 0.00455147 0.02041935 -0.004144191 0.006557881 0.02282327 -0.005934894 0.003784954 0.02454787 -0.005934894 0.001364409 0.01408767 -0.006254673 0.001586019 0.001938521 0.01052623 0.002425789 -2.4688e-4 0.009196519 0.002425789 0.004918456 -0.004640281 0.00205934 0.008244931 0.01082104 0.002416074 0.006326913 -0.00204873 0.00205934 0.006571054 0.001519262 0.00205934 0.005218923 0.0042423 0.00205934 0.002289354 0.005988776 0.00205934 0.003550827 1.86159e-5 -0.002007424 0.003550827 1.86159e-5 -0.00699675 0.003198802 -0.001523852 -0.002007424 0.003198802 -0.001523852 -0.00699675 0.002212345 -0.002760827 -0.002007424 0.002212345 -0.002760827 -0.00699675 7.86889e-4 -0.003447294 -0.002007424 7.86889e-4 -0.003447294 -0.00699675 -7.95259e-4 -0.003447294 -0.002007424 -7.95258e-4 -0.003447294 -0.00699675 -0.00222069 -0.002760827 -0.002007424 -0.00222069 -0.002760827 -0.00699675 -0.003207147 -0.001523852 -0.002007424 -0.003207147 -0.001523852 -0.00699675 -0.003559231 1.8615e-5 -0.002007424 -0.003559231 1.8615e-5 -0.00699675 -0.003207147 0.001561045 -0.002007424 -0.003207147 0.001561045 -0.00699675 -0.00222069 0.00279802 -0.002007424 -0.00222069 0.00279802 -0.00699675 -7.9526e-4 0.003484487 -0.002007424 -7.9526e-4 0.003484487 -0.00699675 7.86888e-4 0.003484487 -0.002007424 7.86888e-4 0.003484487 -0.00699675 0.002212345 0.00279802 -0.002007424 0.002212345 0.00279802 -0.00699675 0.003198802 0.001561045 -0.002007424 0.003198802 0.001561045 -0.00699675 0.004815042 7.08955e-4 -0.00699675 0.0046373 -0.001450359 -0.00699675 0.003540277 -0.003318786 -0.00699675 0.001713216 -0.004537284 -0.00699675 -4.03541e-4 -0.0048334 -0.00699675 -0.002469182 -0.004179656 -0.00699675 -0.004046618 -0.002694308 -0.00699675 -0.004823386 -6.71724e-4 -0.00699675 -0.004645705 0.001487612 -0.00699675 -0.003548622 0.003356039 -0.00699675 -0.001749575 0.004563391 -0.00699675 -2.46881e-4 0.004818439 -0.00699675 0.002460837 0.004216849 -0.00699675 0.004038274 0.002731561 -0.00699675 -2.46881e-4 0.006697297 -0.00699675 0.001953542 0.008444309 -0.00699675 0.003877222 0.008711755 -0.006819307 0.008262753 0.00870788 -0.006776034 0.006625711 -0.001904428 -0.00699675 0.004980683 -0.0047279 -0.00699675 0.002442002 -0.006346821 -0.00699675 0.003040552 -0.007832825 -0.00205934 -6.92937e-4 -0.008376717 -0.00205934 -0.004254221 -0.007249593 -0.00205934 -0.006973803 -0.004688858 -0.00205934 -0.008313 -0.001201748 -0.00205934 -0.008006572 0.002521038 -0.00205934 -0.006115257 0.005742251 -0.00205934 -0.003013551 0.007823824 -0.00205934 -2.4688e-4 0.008263528 -0.00205934 -2.4688e-4 0.007065415 -0.004659593 -0.002606928 0.006689131 -0.004659593 -0.00526154 0.004907548 -0.004659593 -0.006880283 0.002150654 -0.004659593 -0.007142543 -0.001035511 -0.004659593 -0.005996346 -0.004020035 -0.004659593 -0.003668785 -0.006211638 -0.004659593 -6.20809e-4 -0.007176339 -0.004659593 0.002586722 -0.006705999 -0.004659593 0.003619909 -0.009104132 -0.00205934 0.003347396 -0.00843048 -0.004659593 0.01078778 -6.36463e-5 -0.01068145 0.01050919 0.005009353 -0.009668886 0.009022593 0.008005142 -0.007736325 -2.4688e-4 0.008318066 -0.00471127 0.01002866 0.01082181 -0.00241214 0.003854215 0.01081925 -0.002425789 0.01008415 -0.008939981 -0.002085447 0.01008141 -0.007245719 -0.005737602 0.007601857 -0.004152536 -0.008468568 0.01009398 -0.004134297 -0.008425235 0.0141313 -9.79429e-4 -0.01017135 0.01553624 0.003816664 -0.009296774 0.01640957 0.007552981 -0.006533801 0.01692366 0.009676277 -0.002403974 0.0153774 -0.00162363 -0.009772062 0.02016818 0.002756834 -0.008218228 0.02265173 0.005606591 -0.005628764 0.02398657 0.007177293 -0.002003014 0.01600766 -0.002100884 -0.009435892 0.02193039 0.001074075 -0.007835149 0.02526682 0.00297892 -0.005449712 0.02697223 0.003971457 -0.001925349 0.01676499 -0.002844274 -0.009025692 0.02227354 -9.48421e-4 -0.007555186 0.02600932 -2.09158e-4 -0.005150556 0.02777993 2.28747e-4 -0.001722455 0.0171945 -0.004014074 -0.008369326 0.02065688 -0.003836452 -0.007603824 0.02416092 -0.003758668 -0.005764842 0.02647292 -0.003707289 -0.002326071 0.01119291 -0.00785309 -0.001586019 0.01119083 -0.006564617 -0.004363596 0.01120036 -0.004198253 -0.006557881 0.01408767 -0.007799029 -0.001586019 0.01406067 -0.006166577 -0.00455147 0.01409512 -0.004144191 -0.006557881 0.02038061 -0.005934894 -0.00455147 0.02041935 -0.004144191 -0.006557881 0.02282327 -0.005934894 -0.003784954 0.02454787 -0.005934894 -0.001364409 0.01408767 -0.006254673 -0.001586019 0.001938521 0.01052623 -0.002425789 -2.4688e-4 0.009196519 -0.002425789 0.004918456 -0.004640281 -0.00205934 0.008244931 0.01082104 -0.002416074 0.006326913 -0.00204873 -0.00205934 0.006571054 0.001519262 -0.00205934 0.005218923 0.0042423 -0.00205934 0.002289354 0.005988776 -0.00205934 0.003040552 -0.008106827 0 0.003722667 -0.009358108 0 0.004918456 -0.004914343 0 0.006326913 -0.002322793 0 0.006571054 0.00124526 0 0.005218923 0.003968298 0 0.002289354 0.005714774 0 -2.4688e-4 0.007921338 0 -2.4688e-4 0.0086295 0</float_array>
          <technique_common>
            <accessor source="#Cylinder_026-mesh-positions-array" count="245" stride="3">
              <param name="X" type="float"/>
              <param name="Y" type="float"/>
              <param name="Z" type="float"/>
            </accessor>
          </technique_common>
        </source>
        <source id="Cylinder_026-mesh-normals">
          <float_array id="Cylinder_026-mesh-normals-array" count="729">-0.6409045 -4.57789e-4 -0.7676205 -0.577724 0.2780888 -0.7673994 -0.6489976 0 0.7607905 -0.3992871 0.5038775 -0.7659487 -0.5847272 0.2815749 0.7607955 -0.1436856 0.6279076 -0.7649095 -0.4046536 0.5074117 0.7607818 0.1432245 0.6279233 -0.7649831 -0.1444178 0.6327285 0.7607879 0.4014775 0.5035942 -0.7649895 0.1444178 0.6327285 0.7607879 0.5802054 0.2795277 -0.7650007 0.4046281 0.5074179 0.7607912 0.6440249 9.15588e-5 -0.7650046 0.5847272 0.2815749 0.7607955 0.5802872 -0.2793093 -0.7650184 0.6489976 0 0.7607905 0.4016076 -0.503421 -0.7650352 0.5847272 -0.2815749 0.7607955 0.1433816 -0.627821 -0.7650377 0.4046536 -0.5074117 0.7607818 -0.1427085 -0.6275389 -0.7653949 0.1444178 -0.6327285 0.7607879 -0.3965058 -0.5014309 -0.768993 -0.1444178 -0.6327285 0.7607879 -0.5847272 -0.2815749 0.7607955 0.01715177 0.00915575 0.9998111 0 0 1 -0.5772122 -0.2780311 -0.7678053 -0.4046536 -0.5074117 0.7607818 0.03952187 -0.001281738 0.9992179 -0.169654 0.2033163 0.9643029 -0.1590347 0.3991281 0.9029977 -0.3125158 0.2955777 0.9027557 -0.4078244 0.1300106 0.9037569 -0.4220545 -0.05975723 0.9045988 -0.3532013 -0.2366781 0.9051146 -0.21507 -0.3665376 0.9052045 -0.03436487 -0.4245561 0.9047492 -0.09335768 -0.2606019 0.960922 0.004333674 0.004364192 0.9999812 -0.1908366 0.5522145 0.8115667 3.6623e-4 0.5672293 0.8235599 -0.5493476 -0.4831207 0.6817709 -0.3237439 0.3700104 0.8707941 -0.4256848 0.1942255 0.8837811 -0.01883035 0.695289 0.7184836 -0.7879661 0.51174 0.342391 -0.9568978 0.0563994 -0.2848964 -0.317986 0.8130174 -0.4877372 -0.3052535 0.7720452 0.5574644 -0.6051991 0.5682401 0.5575278 -0.6349852 0.5990945 -0.4877294 -0.7914206 0.2495544 0.5580108 -0.8315853 0.2637158 -0.4887944 -0.8208183 -0.1179878 0.5588706 -0.8633357 -0.1236039 -0.4892581 -0.7240667 -0.4864446 -0.4889777 -0.6880006 -0.4615767 0.560002 -0.4412107 -0.7530827 -0.4880571 -0.4196389 -0.7134472 0.5611564 -0.06961387 -0.8709519 -0.4864122 -0.06763076 -0.8242962 0.5621048 -0.8612892 -0.3871696 -0.3290606 -0.5501438 -0.7613995 0.3429471 -0.999683 -0.02517819 0 -0.4779881 -0.8783664 0 -0.5011819 -0.8528209 0.1466739 -0.4569632 -0.8196527 0.3454768 0.3957723 -0.8935397 0.2120165 0.4217778 -0.7113151 0.5622585 -0.211284 -0.35567 0.9104164 0.4722275 -0.7295981 0.4946593 0.1397174 -0.6657786 0.7329516 0.4314525 -0.8810335 0.1939812 0.1172859 -0.8585094 0.4992051 0.01953238 -0.912316 0.4090208 0.6624757 -0.724887 0.1888515 0.08801698 -0.8972609 0.4326384 0.09402966 -0.8771222 0.4709725 0.2494363 -0.6439625 0.7232523 0.152202 -0.8126187 0.5625704 0.2611528 -0.8995536 0.3501468 0.5487334 -0.4716421 0.6902503 0.7202509 -0.6935772 0.01376408 0.4472903 -0.88573 0.1241523 0.3474265 -0.8205602 0.4538457 -0.5939154 0.3349243 -0.7314987 -0.7074259 0.1922379 -0.6801421 -0.8697996 0.4934052 0 -0.7445074 -0.1647408 -0.6469692 -0.9552894 0.2956724 0 -0.5669219 -0.5434527 -0.6190789 -0.9848073 -0.1736513 0 -0.4252853 -0.573975 -0.6997752 -0.7456961 -0.6662862 0 -0.586759 -0.8097617 0 -0.6409045 -4.57789e-4 0.7676205 -0.6489976 0 -0.7607905 -0.577724 0.2780888 0.7673994 -0.5847272 0.2815749 -0.7607955 -0.3992871 0.5038775 0.7659487 -0.4046536 0.5074117 -0.7607818 -0.1436856 0.6279076 0.7649095 -0.1444178 0.6327285 -0.7607879 0.1432245 0.6279233 0.7649831 0.1444178 0.6327285 -0.7607879 0.4014775 0.5035942 0.7649895 0.4046536 0.5074117 -0.7607818 0.5802054 0.2795277 0.7650007 0.5847272 0.2815749 -0.7607955 0.6440249 9.15588e-5 0.7650046 0.6489976 0 -0.7607905 0.5802872 -0.2793093 0.7650184 0.5847272 -0.2815749 -0.7607955 0.4016076 -0.503421 0.7650352 0.4046536 -0.5074117 -0.7607818 0.1433816 -0.627821 0.7650377 0.1444178 -0.6327285 -0.7607879 -0.1427085 -0.6275389 0.7653949 -0.1444178 -0.6327285 -0.7607879 -0.3965058 -0.5014309 0.768993 -0.5847272 -0.2815749 -0.7607955 -0.4046536 -0.5074117 -0.7607818 0 0 -1 -0.5772122 -0.2780311 0.7678053 0.01715177 0.00915575 -0.9998111 -0.169654 0.2033163 -0.9643029 -0.1590347 0.3991281 -0.9029977 -0.3124883 0.2955805 -0.9027643 -0.4078244 0.1300106 -0.9037569 -0.4220545 -0.05975723 -0.9045988 -0.3532013 -0.2366781 -0.9051146 -0.21507 -0.3665376 -0.9052045 -0.03436487 -0.4245561 -0.9047492 -0.09335768 -0.2606019 -0.960922 0.004333674 0.004364192 -0.9999812 0.03952187 -0.001281738 -0.9992179 -0.1908366 0.5522145 -0.8115667 -0.3237439 0.3700104 -0.8707941 -0.4256848 0.1942255 -0.8837811 -0.01883035 0.695289 -0.7184836 -0.7879661 0.51174 -0.342391 -0.3052535 0.7720452 -0.5574644 -0.317986 0.8130174 0.4877372 -0.6051991 0.5682401 -0.5575278 -0.7914206 0.2495544 -0.5580108 -0.6349852 0.5990945 0.4877294 -0.8208183 -0.1179878 -0.5588706 -0.8315853 0.2637158 0.4887944 -0.6880006 -0.4615767 -0.560002 -0.7240667 -0.4864446 0.4889777 -0.4196389 -0.7134472 -0.5611564 -0.4412107 -0.7530827 0.4880571 -0.06763076 -0.8242962 -0.5621048 -0.06961387 -0.8709519 0.4864122 -0.5501438 -0.7613995 -0.3429471 -0.8612892 -0.3871696 0.3290606 -0.5011819 -0.8528209 -0.1466739 -0.4569632 -0.8196527 -0.3454768 0.3957723 -0.8935397 -0.2120165 0.4217778 -0.7113151 -0.5622585 -0.5493476 -0.4831207 -0.6817709 -0.211284 -0.35567 -0.9104164 0.1397174 -0.6657786 -0.7329516 0.4722275 -0.7295981 -0.4946593 0.4314525 -0.8810335 -0.1939812 0.3474265 -0.8205602 -0.4538457 0.01953238 -0.912316 -0.4090208 0.1172859 -0.8585094 -0.4992051 0.09402966 -0.8771222 -0.4709725 0.2494363 -0.6439625 -0.7232523 0.08801698 -0.8972609 -0.4326384 0.5487334 -0.4716421 -0.6902503 0.7202509 -0.6935772 -0.01376408 0.6624757 -0.724887 -0.1888515 0.4472903 -0.88573 -0.1241523 0.2611528 -0.8995536 -0.3501468 0.152202 -0.8126187 -0.5625704 -0.8633357 -0.1236039 0.4892581 -0.5939154 0.3349243 0.7314987 -0.7074259 0.1922379 0.6801421 -0.7445074 -0.1647408 0.6469692 -0.5669219 -0.5434527 0.6190789 -0.4252853 -0.573975 0.6997752 -0.9568978 0.0563994 0.2848964 0.836773 -0.4676138 0.2848654 0.836773 -0.4676138 -0.2848654 -0.6945359 0.2013076 0.6907209 -0.8934423 -0.4491779 0 -0.6945359 0.2013076 -0.6907209 3.6623e-4 0.5672293 -0.8235599 -0.8299013 0.5056071 0.2358503 -0.2956735 0.5681216 0.7679942 0.2285884 0.7278206 0.6465481 0.2461072 0.9381618 0.2434825 -0.2407355 0.3354366 0.9107847 0.2104918 0.3392835 0.9168314 -0.2176601 -0.04635804 0.9749231 0.1300122 -0.1836345 0.9743589 0.4424714 0.6150895 0.652598 0.5420829 0.8046095 0.2423838 0.3259434 0.2745494 0.9046456 0.189678 -0.2858141 0.9393257 0.1965447 -0.3632414 0.9107282 0.1890964 -0.3412342 0.9207615 0.6734511 0.3136525 0.669392 0.8614413 0.4439356 0.246658 0.4309052 0.07260596 0.8994716 0.7709829 -0.103461 0.6283959 0.4635288 -0.150949 0.8731297 0.9730089 -0.04886102 0.2255359 0.006378412 0.9729117 0.231089 -0.07043844 0.9739001 0.2157711 0.08276867 0.9663977 0.2433619 -0.8398395 0.5295768 0.1192402 -0.8299013 0.5056071 -0.2358503 -0.2956735 0.5681216 -0.7679942 0.08276867 0.9663977 -0.2433619 0.2461072 0.9381618 -0.2434825 -0.2407355 0.3354366 -0.9107847 0.2104918 0.3392835 -0.9168314 -0.2176601 -0.04635804 -0.9749231 0.1300122 -0.1836345 -0.9743589 0.2285884 0.7278206 -0.6465481 0.5420829 0.8046095 -0.2423838 0.4424714 0.6150895 -0.652598 0.3259434 0.2745494 -0.9046456 0.1965447 -0.3632414 -0.9107282 0.1890964 -0.3412342 -0.9207615 0.8614413 0.4439356 -0.246658 0.6734511 0.3136525 -0.669392 0.189678 -0.2858141 -0.9393257 0.4309052 0.07260596 -0.8994716 0.7709829 -0.103461 -0.6283959 0.4635288 -0.150949 -0.8731297 0.9730089 -0.04886102 -0.2255359 0.006378412 0.9729117 -0.231089 -0.3283895 0.9236718 -0.197461 -0.07043844 0.9739001 -0.2157711 -0.8398395 0.5295768 -0.1192402 -0.3283895 0.9236718 0.197461 -1 0 0</float_array>
          <technique_common>
            <accessor source="#Cylinder_026-mesh-normals-array" count="243" stride="3">
              <param name="X" type="float"/>
              <param name="Y" type="float"/>
              <param name="Z" type="float"/>
            </accessor>
          </technique_common>
        </source>
        <vertices id="Cylinder_026-mesh-vertices">
          <input semantic="POSITION" source="#Cylinder_026-mesh-positions"/>
        </vertices>
        <polylist material="Kunststoff_druckteile_002_002-material" count="363">
          <input semantic="VERTEX" source="#Cylinder_026-mesh-vertices" offset="0"/>
          <input semantic="NORMAL" source="#Cylinder_026-mesh-normals" offset="1"/>
          <vcount>3 3 3 3 3 3 3 3 3 3 3 3 3 3 3 3 3 3 3 3 3 3 3 3 3 3 3 3 3 3 3 3 3 3 3 3 3 3 3 3 3 3 3 3 3 3 3 3 3 3 3 3 3 3 3 3 3 3 3 3 3 3 3 3 3 3 3 3 3 3 3 3 3 3 3 3 3 3 3 3 3 3 3 3 3 3 3 3 3 3 3 3 3 3 3 3 3 3 3 3 3 3 3 3 3 3 3 3 3 3 3 3 3 3 3 3 3 3 3 3 3 3 3 3 3 3 3 3 3 3 3 3 3 3 3 3 3 3 3 3 3 3 3 3 3 3 3 3 3 3 3 3 3 3 3 3 3 3 3 3 3 3 3 3 3 3 3 3 3 3 3 3 3 3 3 3 3 3 3 3 3 3 3 3 3 3 3 3 3 3 3 3 3 3 3 3 3 3 3 3 3 3 3 3 3 3 3 3 3 3 3 3 3 3 3 3 3 3 3 3 3 3 3 3 3 3 3 3 3 3 3 3 3 3 3 3 3 3 3 3 3 3 3 3 3 3 3 3 3 3 3 3 3 3 3 3 3 3 3 3 3 3 3 3 3 3 3 3 3 3 3 3 3 3 3 3 3 3 3 3 3 3 3 3 3 3 3 3 3 3 3 3 3 3 3 3 3 3 3 3 3 3 3 3 3 3 3 3 3 3 3 3 3 3 3 3 3 3 3 3 3 3 3 3 3 3 3 3 3 3 3 3 3 3 3 3 3 3 3 3 3 3 3 3 3 3 3 3 3 3 3 3 3 3 3 3 3 3 3 3 3 3 3 </vcount>
          <p>0 0 2 1 1 2 2 1 4 3 3 4 4 3 6 5 5 6 6 5 8 7 7 8 8 7 10 9 9 10 10 9 12 11 11 12 12 11 14 13 13 14 14 13 16 15 15 16 16 15 18 17 17 18 18 17 20 19 19 20 20 19 22 21 21 22 22 21 24 23 23 24 27 25 41 26 40 27 26 28 0 0 27 25 24 23 26 28 25 29 1 2 28 30 41 26 25 29 40 27 39 31 23 24 39 31 38 32 21 22 38 32 37 33 19 20 37 33 36 34 17 18 36 34 35 35 15 16 35 35 34 36 13 14 34 36 33 37 11 12 33 37 32 38 9 10 32 38 31 39 7 8 31 39 30 27 5 6 30 27 29 40 3 4 29 40 28 30 40 27 43 41 39 31 41 26 44 42 43 41 31 39 48 43 47 44 30 27 47 44 46 45 29 40 46 45 45 46 28 30 45 46 41 26 58 47 57 48 56 49 59 50 56 49 60 51 60 51 55 52 61 53 61 53 54 54 62 55 62 55 53 56 52 57 63 58 52 57 51 59 64 60 51 59 50 61 65 62 50 61 49 63 39 31 58 47 59 50 38 32 59 50 60 51 37 33 60 51 61 53 36 34 61 53 62 55 35 35 62 55 63 58 34 36 63 58 64 60 33 37 64 60 32 38 32 38 65 62 66 64 49 63 236 65 237 66 49 63 67 67 66 64 66 64 68 68 31 39 75 69 76 70 67 67 48 43 77 71 47 44 76 70 100 72 78 73 75 69 99 74 76 70 100 72 103 75 104 76 99 74 102 77 103 75 103 75 105 78 106 79 96 80 95 81 104 76 105 78 107 82 97 83 103 75 102 77 109 84 108 85 107 82 103 75 105 78 103 75 107 82 97 83 96 80 106 79 107 82 108 85 97 83 95 81 78 73 101 86 14 13 53 56 16 15 16 15 54 54 18 17 18 17 55 52 20 19 20 19 56 49 22 21 12 11 52 57 14 13 10 9 51 59 12 11 8 7 50 61 10 9 6 5 49 63 8 7 49 63 112 87 236 65 112 87 114 88 238 89 114 88 115 90 239 91 115 90 116 92 240 93 116 92 117 94 241 95 117 94 57 48 242 96 24 23 22 21 57 48 26 28 24 23 117 94 0 0 26 28 116 92 2 1 0 0 115 90 4 3 2 1 114 88 6 5 4 3 49 63 78 73 77 71 48 43 76 70 78 73 68 68 118 97 119 98 120 99 120 99 121 100 122 101 122 101 123 102 124 103 124 103 125 104 126 105 126 105 127 106 128 107 128 107 129 108 130 109 130 109 131 110 132 111 132 111 133 112 134 113 134 113 135 114 136 115 136 115 137 116 138 117 138 117 139 118 140 119 140 119 141 120 142 121 145 122 143 123 158 124 144 125 145 122 118 97 142 121 143 123 144 125 119 98 145 122 159 126 143 123 141 120 157 127 141 120 139 118 156 128 139 118 137 116 155 129 137 116 135 114 154 130 135 114 133 112 153 131 133 112 131 110 152 132 131 110 129 108 151 133 129 108 127 106 150 134 127 106 125 104 149 135 125 104 123 102 148 124 123 102 121 100 147 136 121 100 119 98 146 137 158 124 157 127 161 138 159 126 158 124 161 138 149 135 148 124 165 139 148 124 147 136 164 140 147 136 146 137 163 141 146 137 159 126 163 141 176 142 177 143 174 144 177 143 178 145 174 144 178 145 179 146 173 147 179 146 180 148 172 149 180 148 181 150 170 151 181 150 182 152 169 153 182 152 183 154 168 155 183 154 184 156 167 157 157 127 156 128 177 143 156 128 155 129 178 145 155 129 154 130 179 146 154 130 153 131 180 148 153 131 152 132 181 150 152 132 151 133 182 152 151 133 150 134 182 152 150 134 149 135 184 156 167 157 185 158 237 66 167 157 184 156 185 158 184 156 149 135 186 159 193 160 185 158 194 161 166 162 165 139 195 163 194 161 196 164 218 165 193 160 194 161 217 166 218 165 219 167 222 168 217 166 218 165 221 169 221 169 222 168 224 170 214 171 224 170 222 168 223 172 224 170 215 173 221 169 227 174 220 175 226 176 227 174 221 169 223 172 225 177 221 169 215 173 224 170 214 171 225 177 215 173 226 176 213 178 222 168 219 167 132 111 134 113 171 179 134 113 136 115 172 149 136 115 138 117 173 147 138 117 140 119 174 144 130 109 132 111 170 151 128 107 130 109 169 153 126 105 128 107 168 155 124 103 126 105 167 157 167 157 236 65 230 180 230 180 238 89 232 181 232 181 239 91 233 182 233 182 240 93 234 183 234 183 241 95 235 184 235 184 242 96 175 185 142 121 235 184 175 185 144 125 234 183 235 184 118 97 233 182 234 183 120 99 232 181 233 182 122 101 230 180 232 181 124 103 167 157 122 101 196 164 166 162 195 163 194 161 186 159 196 164 99 74 75 69 217 166 237 66 75 69 67 67 75 69 237 66 193 160 237 66 185 158 193 160 102 77 99 74 220 175 109 84 102 77 227 174 109 84 227 174 108 85 98 186 108 85 216 187 2 1 3 4 1 2 4 3 5 6 3 4 6 5 7 8 5 6 8 7 9 10 7 8 10 9 11 12 9 10 12 11 13 14 11 12 14 13 15 16 13 14 16 15 17 18 15 16 18 17 19 20 17 18 20 19 21 22 19 20 22 21 23 24 21 22 24 23 25 29 23 24 25 29 27 25 40 27 0 0 1 2 27 25 26 28 27 25 25 29 27 25 1 2 41 26 23 24 25 29 39 31 21 22 23 24 38 32 19 20 21 22 37 33 17 18 19 20 36 34 15 16 17 18 35 35 13 14 15 16 34 36 11 12 13 14 33 37 9 10 11 12 32 38 7 8 9 10 31 39 5 6 7 8 30 27 3 4 5 6 29 40 1 2 3 4 28 30 43 41 42 188 39 31 40 27 41 26 43 41 30 27 31 39 47 44 29 40 30 27 46 45 28 30 29 40 45 46 45 46 44 42 41 26 59 50 58 47 56 49 56 49 55 52 60 51 55 52 54 54 61 53 54 54 53 56 62 55 63 58 62 55 52 57 64 60 63 58 51 59 65 62 64 60 50 61 66 64 65 62 49 63 38 32 39 31 59 50 37 33 38 32 60 51 36 34 37 33 61 53 35 35 36 34 62 55 34 36 35 35 63 58 33 37 34 36 64 60 64 60 65 62 32 38 31 39 32 38 66 64 67 67 49 63 237 66 67 67 68 68 66 64 68 68 48 43 31 39 76 70 68 68 67 67 100 72 101 86 78 73 99 74 100 72 76 70 101 86 100 72 104 76 100 72 99 74 103 75 104 76 103 75 106 79 106 79 96 80 104 76 106 79 105 78 97 83 109 84 108 85 103 75 108 85 98 186 97 83 104 76 95 81 101 86 53 56 54 54 16 15 54 54 55 52 18 17 55 52 56 49 20 19 56 49 57 48 22 21 52 57 53 56 14 13 51 59 52 57 12 11 50 61 51 59 10 9 49 63 50 61 8 7 112 87 238 89 236 65 114 88 239 91 238 89 115 90 240 93 239 91 116 92 241 95 240 93 117 94 242 96 241 95 57 48 243 189 242 96 117 94 24 23 57 48 116 92 26 28 117 94 115 90 0 0 116 92 114 88 2 1 115 90 112 87 4 3 114 88 4 3 112 87 49 63 78 73 48 43 68 68 119 98 121 100 120 99 121 100 123 102 122 101 123 102 125 104 124 103 125 104 127 106 126 105 127 106 129 108 128 107 129 108 131 110 130 109 131 110 133 112 132 111 133 112 135 114 134 113 135 114 137 116 136 115 137 116 139 118 138 117 139 118 141 120 140 119 141 120 143 123 142 121 159 126 145 122 158 124 145 122 119 98 118 97 143 123 145 122 144 125 146 137 119 98 159 126 158 124 143 123 157 127 157 127 141 120 156 128 156 128 139 118 155 129 155 129 137 116 154 130 154 130 135 114 153 131 153 131 133 112 152 132 152 132 131 110 151 133 151 133 129 108 150 134 150 134 127 106 149 135 149 135 125 104 148 124 148 124 123 102 147 136 147 136 121 100 146 137 157 127 160 190 161 138 162 191 159 126 161 138 166 162 149 135 165 139 165 139 148 124 164 140 164 140 147 136 163 141 159 126 162 191 163 141 175 185 176 142 174 144 178 145 173 147 174 144 179 146 172 149 173 147 180 148 171 179 172 149 171 179 180 148 170 151 170 151 181 150 169 153 169 153 182 152 168 155 168 155 183 154 167 157 176 142 157 127 177 143 177 143 156 128 178 145 178 145 155 129 179 146 179 146 154 130 180 148 180 148 153 131 181 150 181 150 152 132 182 152 150 134 183 154 182 152 183 154 150 134 184 156 236 65 167 157 237 66 184 156 186 159 185 158 149 135 166 162 186 159 185 158 186 159 194 161 196 164 219 167 218 165 194 161 218 165 217 166 221 169 218 165 222 168 220 175 217 166 221 169 223 172 221 169 224 170 213 178 214 171 222 168 225 177 223 172 215 173 225 177 226 176 221 169 215 173 216 187 226 176 196 164 213 178 219 167 134 113 172 149 171 179 136 115 173 147 172 149 138 117 174 144 173 147 140 119 175 185 174 144 132 111 171 179 170 151 130 109 170 151 169 153 128 107 169 153 168 155 126 105 168 155 167 157 236 65 238 89 230 180 238 89 239 91 232 181 239 91 240 93 233 182 240 93 241 95 234 183 241 95 242 96 235 184 242 96 243 189 175 185 140 119 142 121 175 185 142 121 144 125 235 184 144 125 118 97 234 183 118 97 120 99 233 182 120 99 122 101 232 181 167 157 230 180 122 101 186 159 166 162 196 164 75 69 193 160 217 166 99 74 217 166 220 175 102 77 220 175 227 174 227 174 226 176 108 85 108 85 226 176 216 187</p>
        </polylist>
        <polylist material="Gummi_004_002-material" count="131">
          <input semantic="VERTEX" source="#Cylinder_026-mesh-vertices" offset="0"/>
          <input semantic="NORMAL" source="#Cylinder_026-mesh-normals" offset="1"/>
          <vcount>3 3 3 3 3 3 3 3 3 3 3 3 3 3 3 3 3 3 3 3 3 3 3 3 3 3 3 3 3 3 3 3 3 3 3 3 3 3 3 3 3 3 3 3 3 3 3 3 3 3 3 3 3 3 3 3 3 3 3 3 3 3 3 3 3 3 3 3 3 3 3 3 3 3 3 3 3 3 3 3 3 3 3 3 3 3 3 3 3 3 3 3 3 3 3 3 3 3 3 3 3 3 3 3 3 3 3 3 3 3 3 3 3 3 3 3 3 3 3 3 3 3 3 3 3 3 3 3 3 3 3 </vcount>
          <p>42 188 43 41 72 192 71 193 81 194 82 195 70 196 80 197 71 193 69 198 79 199 70 196 81 194 85 200 86 201 80 197 84 202 85 200 79 199 83 203 84 202 91 204 78 73 95 81 87 205 78 73 91 204 85 200 89 206 90 207 84 202 88 208 89 206 83 203 87 205 88 208 83 203 78 73 87 205 79 199 78 73 83 203 69 198 78 73 79 199 89 206 93 209 90 207 88 208 92 210 89 206 87 205 91 204 92 210 93 209 97 83 94 211 92 210 96 80 93 209 91 204 95 81 92 210 45 46 113 212 44 42 43 41 44 42 74 213 71 193 73 214 113 212 57 48 58 47 111 215 42 188 72 192 39 31 57 48 111 215 243 189 46 45 47 44 69 198 46 45 71 193 45 46 70 196 71 193 69 198 69 198 77 71 78 73 160 190 190 216 161 138 189 217 191 218 200 219 188 220 189 217 198 221 187 222 188 220 197 223 199 224 200 219 204 225 198 221 199 224 203 226 197 223 198 221 202 227 209 228 213 178 196 164 205 229 209 228 196 164 203 226 204 225 208 230 202 227 203 226 207 231 201 232 202 227 206 233 201 232 205 229 196 164 197 223 201 232 196 164 187 222 197 223 196 164 207 231 208 230 211 234 206 233 207 231 210 235 205 229 206 233 210 235 211 234 212 236 215 173 210 235 211 234 214 171 209 228 210 235 213 178 163 141 162 191 231 237 161 138 228 238 192 239 189 217 163 141 231 237 175 185 229 240 176 142 160 190 157 127 190 216 175 185 243 189 229 240 164 140 187 222 165 139 164 140 163 141 189 217 188 220 187 222 189 217 187 222 196 164 195 163 94 211 98 186 212 236 90 207 94 211 208 230 86 201 90 207 204 225 82 195 86 201 200 219 73 214 82 195 191 218 73 214 191 218 113 212 111 215 110 241 229 240 111 215 229 240 244 242 110 241 74 213 228 238 74 213 113 212 192 239 43 41 110 241 111 215 72 192 43 41 111 215 73 214 71 193 82 195 80 197 81 194 71 193 79 199 80 197 70 196 82 195 81 194 86 201 81 194 80 197 85 200 80 197 79 199 84 202 86 201 85 200 90 207 85 200 84 202 89 206 84 202 83 203 88 208 93 209 94 211 90 207 92 210 93 209 89 206 88 208 87 205 92 210 97 83 98 186 94 211 96 80 97 83 93 209 95 81 96 80 92 210 113 212 74 213 44 42 110 241 43 41 74 213 45 46 71 193 113 212 58 47 72 192 111 215 72 192 58 47 39 31 111 215 244 242 243 189 47 44 77 71 69 198 71 193 46 45 69 198 190 216 229 240 161 138 229 240 228 238 161 138 199 224 189 217 200 219 189 217 199 224 198 221 188 220 198 221 197 223 203 226 199 224 204 225 202 227 198 221 203 226 201 232 197 223 202 227 207 231 203 226 208 230 206 233 202 227 207 231 205 229 201 232 206 233 208 230 212 236 211 234 207 231 211 234 210 235 209 228 205 229 210 235 212 236 216 187 215 173 211 234 215 173 214 171 210 235 214 171 213 178 162 191 192 239 231 237 162 191 161 138 192 239 191 218 189 217 231 237 229 240 190 216 176 142 157 127 176 142 190 216 243 189 244 242 229 240 187 222 195 163 165 139 187 222 164 140 189 217 98 186 216 187 212 236 94 211 212 236 208 230 90 207 208 230 204 225 86 201 204 225 200 219 82 195 200 219 191 218 191 218 231 237 113 212 110 241 228 238 229 240 74 213 192 239 228 238 113 212 231 237 192 239</p>
        </polylist>
      </mesh>
    </geometry>
  </library_geometries>
  <library_controllers/>
  <library_visual_scenes>
    <visual_scene id="Scene" name="Scene">
      <node id="VIS_hollie_right_hand_c" name="VIS_hollie_right_hand_c" type="NODE">
        <instance_geometry url="#Cylinder_026-mesh" name="VIS_hollie_right_hand_c">
          <bind_material>
            <technique_common>
              <instance_material symbol="Kunststoff_druckteile_002_002-material" target="#Kunststoff_druckteile_002_002-material"/>
              <instance_material symbol="Gummi_004_002-material" target="#Gummi_004_002-material"/>
            </technique_common>
          </bind_material>
        </instance_geometry>
      </node>
    </visual_scene>
  </library_visual_scenes>
  <scene>
    <instance_visual_scene url="#Scene"/>
  </scene>
</COLLADA>