<?xml version="1.0" encoding="utf-8"?>
<COLLADA xmlns="http://www.collada.org/2005/11/COLLADASchema" version="1.4.1">
  <asset>
    <contributor>
      <author>Blender User</author>
      <authoring_tool>Blender 2.77.0 commit date:2016-04-05, commit time:18:12, hash:abf6f08</authoring_tool>
    </contributor>
    <created>2017-07-27T16:14:40</created>
    <modified>2017-07-27T16:14:40</modified>
    <unit name="meter" meter="1"/>
    <up_axis>Z_UP</up_axis>
  </asset>
  <library_images>
    <image id="PBRFULL_MetalicAngleHigh-material_Base_Color_jpg" name="PBRFULL_MetalicAngleHigh-material_Base_Color_jpg">
      <init_from>PBRFULL_MetalicAngleHigh-material_Base_Color.jpg</init_from>
    </image>
  </library_images>
  <library_effects>
    <effect id="PBRFULL_MetalicAngleHigh-effect">
      <profile_COMMON>
        <newparam sid="PBRFULL_MetalicAngleHigh-material_Base_Color_jpg-surface">
          <surface type="2D">
            <init_from>PBRFULL_MetalicAngleHigh-material_Base_Color_jpg</init_from>
          </surface>
        </newparam>
        <newparam sid="PBRFULL_MetalicAngleHigh-material_Base_Color_jpg-sampler">
          <sampler2D>
            <source>PBRFULL_MetalicAngleHigh-material_Base_Color_jpg-surface</source>
          </sampler2D>
        </newparam>
        <technique sid="common">
          <phong>
            <emission>
              <color sid="emission">0 0 0 1</color>
            </emission>
            <ambient>
              <color sid="ambient">0 0 0 1</color>
            </ambient>
            <diffuse>
              <texture texture="PBRFULL_MetalicAngleHigh-material_Base_Color_jpg-sampler"/>
            </diffuse>
            <specular>
              <color sid="specular">0.5 0.5 0.5 1</color>
            </specular>
            <shininess>
              <float sid="shininess">50</float>
            </shininess>
            <index_of_refraction>
              <float sid="index_of_refraction">1</float>
            </index_of_refraction>
          </phong>
        </technique>
      </profile_COMMON>
    </effect>
  </library_effects>
  <library_materials>
    <material id="PBRFULL_MetalicAngleHigh-material" name="PBRFULL_MetalicAngleHigh">
      <instance_effect url="#PBRFULL_MetalicAngleHigh-effect"/>
    </material>
  </library_materials>
  <library_geometries>
    <geometry id="Cube_002-mesh" name="Cube.002">
      <mesh>
        <source id="Cube_002-mesh-positions">
          <float_array id="Cube_002-mesh-positions-array" count="1008">-0.1943976 -0.1943976 0 -0.1943976 -0.1943976 4 -0.1943976 0.1943976 0 -0.1943976 0.1943976 4 0.1943976 -0.1943976 0 0.1943976 -0.1943976 4 0.1943976 0.1943976 0 0.1943976 0.1943976 4 -0.1943976 -0.1943976 4 -0.1943976 0.1943976 4 -0.1943976 0.1943976 0 -0.1943976 -0.1943976 0 -0.1943976 0.1943976 4 0.1943976 0.1943976 4 0.1943976 0.1943976 0 -0.1943976 0.1943976 0 0.1943976 0.1943976 4 0.1943976 -0.1943976 4 0.1943976 -0.1943976 0 0.1943976 0.1943976 0 0.1943976 -0.1943976 4 -0.1943976 -0.1943976 4 -0.1943976 -0.1943976 0 0.1943976 -0.1943976 0 -0.2 -0.1189028 3.890769 -0.2 0.1189028 3.890769 -0.2 0.1189028 0.1092305 -0.2 -0.1189028 0.1092305 -0.1943976 0.1943976 0 -0.1943976 0.1943976 0 -0.1943976 0.1943976 4 -0.1943976 0.1943976 4 -0.1943976 -0.1943976 4 -0.1943976 -0.1943976 4 -0.1943976 -0.1943976 0 -0.1943976 -0.1943976 0 -0.1189028 0.2 3.890769 0.1189028 0.2 3.890769 0.1189028 0.2 0.1092305 -0.1189028 0.2 0.1092305 0.1943976 0.1943976 0 0.1943976 0.1943976 0 0.1943976 0.1943976 4 0.1943976 0.1943976 4 -0.1943976 0.1943976 4 -0.1943976 0.1943976 4 -0.1943976 0.1943976 0 -0.1943976 0.1943976 0 0.2 0.1189028 3.890769 0.2 -0.1189028 3.890769 0.2 -0.1189028 0.1092305 0.2 0.1189028 0.1092305 0.1943976 -0.1943976 0 0.1943976 -0.1943976 0 0.1943976 -0.1943976 4 0.1943976 -0.1943976 4 0.1943976 0.1943976 4 0.1943976 0.1943976 4 0.1943976 0.1943976 0 0.1943976 0.1943976 0 0.1189028 -0.2 3.890769 -0.1189028 -0.2 3.890769 -0.1189028 -0.2 0.1092305 0.1189028 -0.2 0.1092305 -0.1943976 -0.1943976 0 -0.1943976 -0.1943976 0 -0.1943976 -0.1943976 4 -0.1943976 -0.1943976 4 0.1943976 -0.1943976 4 0.1943976 -0.1943976 4 0.1943976 -0.1943976 0 0.1943976 -0.1943976 0 -0.1414735 -0.1155721 3.022357 -0.1414735 0.1155721 3.022357 -0.1414735 0.1155721 0.9776429 -0.1414735 -0.1155721 0.9776429 -0.1155721 0.1414735 3.022357 0.1155721 0.1414735 3.022357 0.1155721 0.1414735 0.9776429 -0.1155721 0.1414735 0.9776429 0.1414735 0.1155721 3.022357 0.1414735 -0.1155721 3.022357 0.1414735 -0.1155721 0.9776429 0.1414735 0.1155721 0.9776429 0.1155721 -0.1414735 3.022357 -0.1155721 -0.1414735 3.022357 -0.1155721 -0.1414735 0.9776429 0.1155721 -0.1414735 0.9776429 0.1434237 -0.1434237 4 0.1434237 0.1434237 4 -0.1434237 0.1434237 4 -0.1434237 -0.1434237 4 0.1013438 0.1013438 3.951263 0.1013438 -0.1013438 3.951263 -0.1013438 -0.1013438 3.951263 -0.1013438 0.1013438 3.951263 -0.1943976 -0.1943976 0 -0.1943976 -0.1943976 0 -0.1943976 -0.1943976 0 -0.1943976 -0.1943976 0 -0.1943976 -0.1943976 0 -0.1943976 -0.1943976 0 -0.1943976 -0.1943976 4 -0.1943976 -0.1943976 4 -0.1943976 -0.1943976 4 -0.1943976 -0.1943976 4 -0.1943976 -0.1943976 4 -0.1943976 -0.1943976 4 -0.1943976 0.1943976 4 -0.1943976 0.1943976 4 -0.1943976 0.1943976 4 -0.1943976 0.1943976 4 -0.1943976 0.1943976 4 -0.1943976 0.1943976 4 -0.1943976 0.1943976 0 -0.1943976 0.1943976 0 -0.1943976 0.1943976 0 -0.1943976 0.1943976 0 -0.1943976 0.1943976 0 -0.1943976 0.1943976 0 0.1943976 0.1943976 4 0.1943976 0.1943976 4 0.1943976 0.1943976 4 0.1943976 0.1943976 4 0.1943976 0.1943976 4 0.1943976 0.1943976 4 0.1943976 0.1943976 0 0.1943976 0.1943976 0 0.1943976 0.1943976 0 0.1943976 0.1943976 0 0.1943976 0.1943976 0 0.1943976 0.1943976 0 0.1943976 -0.1943976 4 0.1943976 -0.1943976 4 0.1943976 -0.1943976 4 0.1943976 -0.1943976 4 0.1943976 -0.1943976 4 0.1943976 -0.1943976 4 0.1943976 -0.1943976 0 0.1943976 -0.1943976 0 0.1943976 -0.1943976 0 0.1943976 -0.1943976 0 0.1943976 -0.1943976 0 0.1943976 -0.1943976 0 -0.1943976 0.1943976 4 -0.1943976 0.1943976 4 -0.1943976 0.1943976 4 -0.1943976 -0.1943976 4 -0.1943976 -0.1943976 4 -0.1943976 -0.1943976 4 -0.1943976 0.1943976 0 -0.1943976 0.1943976 0 -0.1943976 0.1943976 0 -0.1943976 -0.1943976 0 -0.1943976 -0.1943976 0 -0.1943976 -0.1943976 0 0.1943976 0.1943976 4 0.1943976 0.1943976 4 0.1943976 0.1943976 4 -0.1943976 0.1943976 4 -0.1943976 0.1943976 4 -0.1943976 0.1943976 4 0.1943976 0.1943976 0 0.1943976 0.1943976 0 0.1943976 0.1943976 0 -0.1943976 0.1943976 0 -0.1943976 0.1943976 0 -0.1943976 0.1943976 0 0.1943976 -0.1943976 4 0.1943976 -0.1943976 4 0.1943976 -0.1943976 4 0.1943976 0.1943976 4 0.1943976 0.1943976 4 0.1943976 0.1943976 4 0.1943976 -0.1943976 0 0.1943976 -0.1943976 0 0.1943976 -0.1943976 0 0.1943976 0.1943976 0 0.1943976 0.1943976 0 0.1943976 0.1943976 0 -0.1943976 -0.1943976 4 -0.1943976 -0.1943976 4 -0.1943976 -0.1943976 4 0.1943976 -0.1943976 4 0.1943976 -0.1943976 4 0.1943976 -0.1943976 4 -0.1943976 -0.1943976 0 -0.1943976 -0.1943976 0 -0.1943976 -0.1943976 0 0.1943976 -0.1943976 0 0.1943976 -0.1943976 0 0.1943976 -0.1943976 0 -0.2 0.1189028 3.890769 -0.2 0.1189028 3.890769 -0.2 -0.1189028 3.890769 -0.2 -0.1189028 3.890769 -0.2 -0.1189028 0.1092305 -0.2 -0.1189028 0.1092305 -0.2 0.1189028 0.1092305 -0.2 0.1189028 0.1092305 -0.1943976 0.1943976 0 -0.1943976 0.1943976 0 -0.1943976 0.1943976 0 -0.1943976 0.1943976 0 -0.1943976 0.1943976 4 -0.1943976 0.1943976 4 -0.1943976 0.1943976 4 -0.1943976 0.1943976 4 -0.1943976 -0.1943976 4 -0.1943976 -0.1943976 4 -0.1943976 -0.1943976 4 -0.1943976 -0.1943976 4 -0.1943976 -0.1943976 0 -0.1943976 -0.1943976 0 -0.1943976 -0.1943976 0 -0.1943976 -0.1943976 0 0.1189028 0.2 3.890769 0.1189028 0.2 3.890769 -0.1189028 0.2 3.890769 -0.1189028 0.2 3.890769 -0.1189028 0.2 0.1092305 -0.1189028 0.2 0.1092305 0.1189028 0.2 0.1092305 0.1189028 0.2 0.1092305 0.1943976 0.1943976 0 0.1943976 0.1943976 0 0.1943976 0.1943976 0 0.1943976 0.1943976 0 0.1943976 0.1943976 4 0.1943976 0.1943976 4 0.1943976 0.1943976 4 0.1943976 0.1943976 4 -0.1943976 0.1943976 4 -0.1943976 0.1943976 4 -0.1943976 0.1943976 4 -0.1943976 0.1943976 4 -0.1943976 0.1943976 0 -0.1943976 0.1943976 0 -0.1943976 0.1943976 0 -0.1943976 0.1943976 0 0.2 -0.1189028 3.890769 0.2 -0.1189028 3.890769 0.2 0.1189028 3.890769 0.2 0.1189028 3.890769 0.2 0.1189028 0.1092305 0.2 0.1189028 0.1092305 0.2 -0.1189028 0.1092305 0.2 -0.1189028 0.1092305 0.1943976 -0.1943976 0 0.1943976 -0.1943976 0 0.1943976 -0.1943976 0 0.1943976 -0.1943976 0 0.1943976 -0.1943976 4 0.1943976 -0.1943976 4 0.1943976 -0.1943976 4 0.1943976 -0.1943976 4 0.1943976 0.1943976 4 0.1943976 0.1943976 4 0.1943976 0.1943976 4 0.1943976 0.1943976 4 0.1943976 0.1943976 0 0.1943976 0.1943976 0 0.1943976 0.1943976 0 0.1943976 0.1943976 0 -0.1189028 -0.2 3.890769 -0.1189028 -0.2 3.890769 0.1189028 -0.2 3.890769 0.1189028 -0.2 3.890769 0.1189028 -0.2 0.1092305 0.1189028 -0.2 0.1092305 -0.1189028 -0.2 0.1092305 -0.1189028 -0.2 0.1092305 -0.1943976 -0.1943976 0 -0.1943976 -0.1943976 0 -0.1943976 -0.1943976 0 -0.1943976 -0.1943976 0 -0.1943976 -0.1943976 4 -0.1943976 -0.1943976 4 -0.1943976 -0.1943976 4 -0.1943976 -0.1943976 4 0.1943976 -0.1943976 4 0.1943976 -0.1943976 4 0.1943976 -0.1943976 4 0.1943976 -0.1943976 4 0.1943976 -0.1943976 0 0.1943976 -0.1943976 0 0.1943976 -0.1943976 0 0.1943976 -0.1943976 0 -0.1414735 0.1155721 3.022357 -0.1414735 0.1155721 3.022357 -0.1414735 -0.1155721 3.022357 -0.1414735 -0.1155721 3.022357 -0.1414735 0.1155721 0.9776429 -0.1414735 0.1155721 0.9776429 -0.1414735 -0.1155721 0.9776429 -0.1414735 -0.1155721 0.9776429 0.1155721 0.1414735 3.022357 0.1155721 0.1414735 3.022357 -0.1155721 0.1414735 3.022357 -0.1155721 0.1414735 3.022357 0.1155721 0.1414735 0.9776429 0.1155721 0.1414735 0.9776429 -0.1155721 0.1414735 0.9776429 -0.1155721 0.1414735 0.9776429 0.1414735 -0.1155721 3.022357 0.1414735 -0.1155721 3.022357 0.1414735 0.1155721 3.022357 0.1414735 0.1155721 3.022357 0.1414735 -0.1155721 0.9776429 0.1414735 -0.1155721 0.9776429 0.1414735 0.1155721 0.9776429 0.1414735 0.1155721 0.9776429 -0.1155721 -0.1414735 3.022357 -0.1155721 -0.1414735 3.022357 0.1155721 -0.1414735 3.022357 0.1155721 -0.1414735 3.022357 -0.1155721 -0.1414735 0.9776429 -0.1155721 -0.1414735 0.9776429 0.1155721 -0.1414735 0.9776429 0.1155721 -0.1414735 0.9776429 0.1434237 0.1434237 4 0.1434237 0.1434237 4 0.1434237 -0.1434237 4 0.1434237 -0.1434237 4 -0.1434237 -0.1434237 4 -0.1434237 -0.1434237 4 -0.1434237 0.1434237 4 -0.1434237 0.1434237 4 0.1013438 0.1013438 3.951263 0.1013438 0.1013438 3.951263 0.1013438 -0.1013438 3.951263 0.1013438 -0.1013438 3.951263 -0.1013438 -0.1013438 3.951263 -0.1013438 -0.1013438 3.951263 -0.1013438 0.1013438 3.951263 -0.1013438 0.1013438 3.951263</float_array>
          <technique_common>
            <accessor source="#Cube_002-mesh-positions-array" count="336" stride="3">
              <param name="X" type="float"/>
              <param name="Y" type="float"/>
              <param name="Z" type="float"/>
            </accessor>
          </technique_common>
        </source>
        <source id="Cube_002-mesh-normals">
          <float_array id="Cube_002-mesh-normals-array" count="174">0 0 -1 0.7568992 0 0.6535317 0 0 1 -0.9990965 0.02853512 0.03149545 -0.9989255 -0.0398581 0.02365237 -0.9990965 -0.02853512 0.03149545 -0.9990965 0.02853512 -0.03149545 -0.9989255 0.0398581 0.02365237 -0.9990965 -0.02853512 -0.03149545 -0.9989255 0.0398581 -0.02365237 -0.9989255 -0.0398581 -0.02365237 0.02853512 0.9990965 0.03149545 -0.0398581 0.9989255 0.02365237 -0.02853512 0.9990965 0.03149545 0.02853512 0.9990965 -0.03149545 0.0398581 0.9989255 0.02365237 -0.02853512 0.9990965 -0.03149545 0.0398581 0.9989255 -0.02365237 -0.0398581 0.9989255 -0.02365237 0.9990965 -0.02853512 0.03149545 0.9989255 0.0398581 0.02365237 0.9990965 0.02853512 0.03149545 0.9990965 -0.02853512 -0.03149545 0.9989255 -0.0398581 0.02365237 0.9990965 0.02853512 -0.03149545 0.9989255 -0.0398581 -0.02365237 0.9989255 0.0398581 -0.02365237 -0.02853512 -0.9990965 0.03149545 0.0398581 -0.9989255 0.02365237 0.02853512 -0.9990965 0.03149545 -0.02853512 -0.9990965 -0.03149545 -0.0398581 -0.9989255 0.02365237 0.02853512 -0.9990965 -0.03149545 -0.0398581 -0.9989255 -0.02365237 0.0398581 -0.9989255 -0.02365237 -1 0 0 -0.9977373 0 -0.06723403 -0.05679512 -0.9983859 0 -0.9977373 0 0.06723403 -0.05679512 0.9983859 0 0 1 0 0 0.9977373 -0.06723403 -0.9983859 0.05679512 0 0 0.9977373 0.06723403 0.9983859 0.05679512 0 1 0 0 0.9977373 0 -0.06723403 0.05679512 0.9983859 0 0.9977373 0 0.06723403 0.05679512 -0.9983859 0 0 -1 0 0 -0.9977373 -0.06723403 0.9983859 -0.05679512 0 0 -0.9977373 0.06723403 -0.9983859 -0.05679512 0 0 0.7568992 0.6535317 0 -0.7568992 0.6535317 -0.7568992 0 0.6535317</float_array>
          <technique_common>
            <accessor source="#Cube_002-mesh-normals-array" count="58" stride="3">
              <param name="X" type="float"/>
              <param name="Y" type="float"/>
              <param name="Z" type="float"/>
            </accessor>
          </technique_common>
        </source>
        <source id="Cube_002-mesh-map-0">
          <float_array id="Cube_002-mesh-map-0-array" count="1128">0.4348211 0.8338115 0.5375796 0.7370963 0.5375796 0.8338115 0.68845 0.6428482 0.675569 0.5819608 0.68845 0.5714932 0 0 0 0 0 0 0 0 0 0 0 0 0 0 0 0 0 0 0 0 0 0 0 0 0 0 0 0 0 0 0 0 0 0 0 0 0 0 0 0 0 0 0 0 0 0 0 0 0 0 0 0 0 0 0 0 0 0 0 0 0 0 0 0 0 0 0 0 0 0 0 0 0 0 0 0 0 0 0 0 0 0 0 0 0 0 0 0 0 0 0 0 0 0 0 0 0.1054014 0.00248754 0.02259624 0.02965927 0.002642989 0.00248754 0.1054016 0.9975125 0.0854482 0.02965927 0.1054014 0.00248754 0.002643108 0.9975125 0.08544832 0.9703407 0.1054016 0.9975125 0.002642989 0.00248754 0.02259641 0.9703407 0.002643108 0.9975125 0 0 0 0 0 0 0 0 0 0 0 0 0 0 0 0 0 0 0 0 0 0 0 0 0 0 0 0 0 0 0 0 0 0 0 0 0 0 0 0 0 0 0 0 0 0 0 0 0.1106877 0.9975125 0.1934929 0.9703407 0.2134461 0.9975125 0.1106876 0.00248754 0.1306409 0.9703407 0.1106877 0.9975125 0.213446 0.00248754 0.1306408 0.02965933 0.1106876 0.00248754 0.2134461 0.9975125 0.1934928 0.02965933 0.213446 0.00248754 0 0 0 0 0 0 0 0 0 0 0 0 0 0 0 0 0 0 0 0 0 0 0 0 0 0 0 0 0 0 0 0 0 0 0 0 0 0 0 0 0 0 0 0 0 0 0 0 0.3267767 0.9975125 0.4095818 0.9703407 0.4295352 0.9975125 0.3267767 0.00248754 0.3467299 0.9703407 0.3267767 0.9975125 0.4295352 0.00248754 0.3467299 0.02965933 0.3267767 0.00248754 0.4295352 0.9975125 0.4095819 0.02965933 0.4295352 0.00248754 0 0 0 0 0 0 0 0 0 0 0 0 0 0 0 0 0 0 0 0 0 0 0 0 0 0 0 0 0 0 0 0 0 0 0 0 0 0 0 0 0 0 0 0 0 0 0 0 0.3214906 0.00248754 0.2386854 0.02965927 0.2187321 0.00248754 0.3214907 0.9975125 0.3015373 0.02965927 0.3214906 0.00248754 0.2187322 0.9975125 0.3015374 0.9703407 0.3214907 0.9975125 0.2187321 0.00248754 0.2386854 0.9703407 0.2187322 0.9975125 0 0 0 0 0 0 0 0 0 0 0 0 0 0 0 0 0 0 0 0 0 0 0 0 0 0 0 0 0 0 0 0 0 0 0 0 0 0 0 0 0 0 0 0 0 0 0 0 0.4959125 0.00248754 0.4348212 0.5111231 0.4348211 0.00248754 0.9353854 0.00248754 0.997357 0.2185105 0.9345051 0.2185105 0.7210853 0.7271459 0.7365538 0.00248754 0.7365539 0.9431689 0.8672475 0.00248754 0.9292191 0.2185105 0.8663672 0.2185105 0.7157993 0.9431689 0.7003307 0.2185105 0.7157992 0.00248754 0.6286674 0.00248754 0.5675759 0.5111231 0.567576 0.00248754 0.9283389 0.4395086 0.8663672 0.2234857 0.9292191 0.2234857 0.778063 0.2185105 0.7625945 0.9431689 0.7625945 0.00248754 0.4357014 0.5160982 0.497673 0.7321212 0.4348211 0.7321212 0.8403267 0.9431689 0.8248581 0.2185105 0.8403267 0.00248754 0.6339533 0.5111231 0.6950447 0.00248754 0.6950447 0.5111231 0.8672475 0.6654818 0.9292191 0.8815047 0.8663672 0.8815047 0.783349 0.7271459 0.7988176 0.00248754 0.7988175 0.9431689 0.5719773 0.5160982 0.6339489 0.7321212 0.571097 0.7321212 0.8610812 0.9431689 0.8456127 0.2185105 0.8610812 0.00248754 0.5622899 0.00248754 0.5011986 0.5111231 0.5011985 0.00248754 0.9283388 0.6605066 0.8663672 0.4444837 0.9292191 0.4444837 0.8041036 0.7271459 0.8195722 0.00248754 0.8195721 0.9431689 0.5038393 0.5160982 0.565811 0.7321212 0.5029591 0.7321212 0.7573084 0.9431689 0.7418398 0.2185105 0.7573084 0.00248754 0.6456241 0.7370963 0.556338 0.7497764 0.5428656 0.7370963 0.6456241 0.8338115 0.6321517 0.7497764 0.6456241 0.7370963 0.5428656 0.8338115 0.6321517 0.8211315 0.6456241 0.8338115 0.5428656 0.7370963 0.556338 0.8211315 0.5428656 0.8338115 0.6928052 0.5160982 0.6392349 0.566518 0.6392349 0.5160982 0.6392349 0.5714932 0.652116 0.6323806 0.6392349 0.6428482 0.6574019 0.5714932 0.670283 0.6323806 0.6574019 0.6428482 0.652116 0.7191784 0.6392349 0.658291 0.652116 0.6478233 0.4348211 0.8338115 0.4348211 0.7370963 0.5375796 0.7370963 0.68845 0.6428482 0.675569 0.6323806 0.675569 0.5819608 0 0 0 0 0 0 0 0 0 0 0 0 0 0 0 0 0 0 0 0 0 0 0 0 0 0 0 0 0 0 0 0 0 0 0 0 0 0 0 0 0 0 0 0 0 0 0 0 0 0 0 0 0 0 0 0 0 0 0 0 0 0 0 0 0 0 0 0 0 0 0 0 0 0 0 0 0 0 0 0 0 0 0 0 0 0 0 0 0 0 0 0 0 0 0 0 0.1054014 0.00248754 0.0854482 0.02965927 0.02259624 0.02965927 0.1054016 0.9975125 0.08544832 0.9703407 0.0854482 0.02965927 0.002643108 0.9975125 0.02259641 0.9703407 0.08544832 0.9703407 0.002642989 0.00248754 0.02259624 0.02965927 0.02259641 0.9703407 0 0 0 0 0 0 0 0 0 0 0 0 0 0 0 0 0 0 0 0 0 0 0 0 0 0 0 0 0 0 0 0 0 0 0 0 0 0 0 0 0 0 0 0 0 0 0 0 0.1106877 0.9975125 0.1306409 0.9703407 0.1934929 0.9703407 0.1106876 0.00248754 0.1306408 0.02965933 0.1306409 0.9703407 0.213446 0.00248754 0.1934928 0.02965933 0.1306408 0.02965933 0.2134461 0.9975125 0.1934929 0.9703407 0.1934928 0.02965933 0 0 0 0 0 0 0 0 0 0 0 0 0 0 0 0 0 0 0 0 0 0 0 0 0 0 0 0 0 0 0 0 0 0 0 0 0 0 0 0 0 0 0 0 0 0 0 0 0.3267767 0.9975125 0.3467299 0.9703407 0.4095818 0.9703407 0.3267767 0.00248754 0.3467299 0.02965933 0.3467299 0.9703407 0.4295352 0.00248754 0.4095819 0.02965933 0.3467299 0.02965933 0.4295352 0.9975125 0.4095818 0.9703407 0.4095819 0.02965933 0 0 0 0 0 0 0 0 0 0 0 0 0 0 0 0 0 0 0 0 0 0 0 0 0 0 0 0 0 0 0 0 0 0 0 0 0 0 0 0 0 0 0 0 0 0 0 0 0.3214906 0.00248754 0.3015373 0.02965927 0.2386854 0.02965927 0.3214907 0.9975125 0.3015374 0.9703407 0.3015373 0.02965927 0.2187322 0.9975125 0.2386854 0.9703407 0.3015374 0.9703407 0.2187321 0.00248754 0.2386854 0.02965927 0.2386854 0.9703407 0 0 0 0 0 0 0 0 0 0 0 0 0 0 0 0 0 0 0 0 0 0 0 0 0 0 0 0 0 0 0 0 0 0 0 0 0 0 0 0 0 0 0 0 0 0 0 0 0.4959125 0.00248754 0.4959126 0.5111231 0.4348212 0.5111231 0.9353854 0.00248754 0.9964767 0.00248754 0.997357 0.2185105 0.7210853 0.7271459 0.7210853 0.2185104 0.7365538 0.00248754 0.8672475 0.00248754 0.9283388 0.00248754 0.9292191 0.2185105 0.7157993 0.9431689 0.7003307 0.727146 0.7003307 0.2185105 0.6286674 0.00248754 0.6286673 0.5111231 0.5675759 0.5111231 0.9283389 0.4395086 0.8672475 0.4395086 0.8663672 0.2234857 0.778063 0.2185105 0.778063 0.727146 0.7625945 0.9431689 0.4357014 0.5160982 0.4967927 0.5160982 0.497673 0.7321212 0.8403267 0.9431689 0.8248581 0.727146 0.8248581 0.2185105 0.6339533 0.5111231 0.6339533 0.00248754 0.6950447 0.00248754 0.8672475 0.6654818 0.9283388 0.6654818 0.9292191 0.8815047 0.783349 0.7271459 0.783349 0.2185104 0.7988176 0.00248754 0.5719773 0.5160982 0.6330686 0.5160982 0.6339489 0.7321212 0.8610812 0.9431689 0.8456127 0.727146 0.8456127 0.2185105 0.5622899 0.00248754 0.56229 0.5111231 0.5011986 0.5111231 0.9283388 0.6605066 0.8672475 0.6605066 0.8663672 0.4444837 0.8041036 0.7271459 0.8041036 0.2185104 0.8195722 0.00248754 0.5038393 0.5160982 0.5649307 0.5160982 0.565811 0.7321212 0.7573084 0.9431689 0.7418399 0.727146 0.7418398 0.2185105 0.6456241 0.7370963 0.6321517 0.7497764 0.556338 0.7497764 0.6456241 0.8338115 0.6321517 0.8211315 0.6321517 0.7497764 0.5428656 0.8338115 0.556338 0.8211315 0.6321517 0.8211315 0.5428656 0.7370963 0.556338 0.7497764 0.556338 0.8211315 0.6928052 0.5160982 0.6928052 0.566518 0.6392349 0.566518 0.6392349 0.5714932 0.652116 0.5819608 0.652116 0.6323806 0.6574019 0.5714932 0.670283 0.5819608 0.670283 0.6323806 0.652116 0.7191784 0.6392349 0.7087108 0.6392349 0.658291</float_array>
          <technique_common>
            <accessor source="#Cube_002-mesh-map-0-array" count="564" stride="2">
              <param name="S" type="float"/>
              <param name="T" type="float"/>
            </accessor>
          </technique_common>
        </source>
        <vertices id="Cube_002-mesh-vertices">
          <input semantic="POSITION" source="#Cube_002-mesh-positions"/>
        </vertices>
        <polylist material="PBRFULL_MetalicAngleHigh-material" count="188">
          <input semantic="VERTEX" source="#Cube_002-mesh-vertices" offset="0"/>
          <input semantic="NORMAL" source="#Cube_002-mesh-normals" offset="1"/>
          <input semantic="TEXCOORD" source="#Cube_002-mesh-map-0" offset="2" set="0"/>
          <vcount>3 3 3 3 3 3 3 3 3 3 3 3 3 3 3 3 3 3 3 3 3 3 3 3 3 3 3 3 3 3 3 3 3 3 3 3 3 3 3 3 3 3 3 3 3 3 3 3 3 3 3 3 3 3 3 3 3 3 3 3 3 3 3 3 3 3 3 3 3 3 3 3 3 3 3 3 3 3 3 3 3 3 3 3 3 3 3 3 3 3 3 3 3 3 3 3 3 3 3 3 3 3 3 3 3 3 3 3 3 3 3 3 3 3 3 3 3 3 3 3 3 3 3 3 3 3 3 3 3 3 3 3 3 3 3 3 3 3 3 3 3 3 3 3 3 3 3 3 3 3 3 3 3 3 3 3 3 3 3 3 3 3 3 3 3 3 3 3 3 3 3 3 3 3 3 3 3 3 3 3 3 3 3 3 3 3 3 3 </vcount>
          <p>115 0 0 139 0 1 97 0 2 325 1 3 335 1 4 327 1 5 144 2 6 103 2 7 108 2 8 202 2 9 204 2 10 200 2 11 153 2 12 116 2 13 98 2 14 208 2 15 212 2 16 210 2 17 156 2 18 110 2 19 120 2 20 226 2 21 228 2 22 224 2 23 165 2 24 128 2 25 117 2 26 232 2 27 236 2 28 234 2 29 168 2 30 122 2 31 132 2 32 250 2 33 252 2 34 248 2 35 177 2 36 140 2 37 129 2 38 256 2 39 260 2 40 258 2 41 180 2 42 134 2 43 104 2 44 274 2 45 276 2 46 272 2 47 189 2 48 99 2 49 141 2 50 280 2 51 284 2 52 282 2 53 145 3 54 194 4 55 148 5 56 150 6 57 192 7 58 145 3 59 154 8 60 198 9 61 150 6 62 148 5 63 196 10 64 154 8 65 152 2 66 201 2 67 118 2 68 146 2 69 29 2 70 10 2 71 111 2 72 30 2 73 9 2 74 114 2 75 31 2 76 109 2 77 149 2 78 211 2 79 105 2 80 155 2 81 33 2 82 8 2 83 100 2 84 34 2 85 11 2 86 102 2 87 35 2 88 96 2 89 157 11 90 218 12 91 160 13 92 162 14 93 216 15 94 157 11 95 166 16 96 222 17 97 162 14 98 160 13 99 220 18 100 166 16 101 164 2 102 225 2 103 130 2 104 158 2 105 41 2 106 14 2 107 123 2 108 42 2 109 13 2 110 126 2 111 43 2 112 121 2 113 161 2 114 235 2 115 112 2 116 167 2 117 45 2 118 12 2 119 119 2 120 46 2 121 15 2 122 3 2 123 47 2 124 2 2 125 169 19 126 242 20 127 172 21 128 174 22 129 240 23 130 169 19 131 178 24 132 246 25 133 174 22 134 172 21 135 244 26 136 178 24 137 176 2 138 249 2 139 142 2 140 170 2 141 53 2 142 18 2 143 135 2 144 54 2 145 17 2 146 138 2 147 55 2 148 133 2 149 173 2 150 259 2 151 124 2 152 179 2 153 57 2 154 16 2 155 131 2 156 58 2 157 19 2 158 7 2 159 59 2 160 6 2 161 181 27 162 266 28 163 184 29 164 186 30 165 264 31 166 181 27 167 190 32 168 270 33 169 186 30 170 184 29 171 268 34 172 190 32 173 188 2 174 273 2 175 101 2 176 182 2 177 65 2 178 22 2 179 106 2 180 66 2 181 21 2 182 0 2 183 67 2 184 1 2 185 185 2 186 283 2 187 136 2 188 191 2 189 69 2 190 20 2 191 143 2 192 70 2 193 23 2 194 5 2 195 71 2 196 4 2 197 288 35 198 294 35 199 290 35 200 289 36 201 195 36 202 193 36 203 293 37 204 25 37 205 199 37 206 295 38 207 26 38 208 197 38 209 24 39 210 75 39 211 27 39 212 296 40 213 302 40 214 298 40 215 297 41 216 219 41 217 217 41 218 301 42 219 37 42 220 223 42 221 303 43 222 38 43 223 221 43 224 36 44 225 79 44 226 39 44 227 304 45 228 310 45 229 306 45 230 305 46 231 243 46 232 241 46 233 309 47 234 49 47 235 247 47 236 311 48 237 50 48 238 245 48 239 48 49 240 83 49 241 51 49 242 312 50 243 318 50 244 314 50 245 313 51 246 267 51 247 265 51 248 317 52 249 61 52 250 271 52 251 319 53 252 62 53 253 269 53 254 60 54 255 87 54 256 63 54 257 125 2 258 322 2 259 137 2 260 113 2 261 320 2 262 125 2 263 107 2 264 326 2 265 113 2 266 137 2 267 324 2 268 107 2 269 328 2 270 332 2 271 330 2 272 323 55 273 94 55 274 91 55 275 90 56 276 329 56 277 321 56 278 89 57 279 93 57 280 88 57 281 115 0 282 127 0 283 139 0 284 325 1 285 333 1 286 335 1 287 144 2 288 147 2 289 103 2 290 202 2 291 206 2 292 204 2 293 153 2 294 151 2 295 116 2 296 208 2 297 214 2 298 212 2 299 156 2 300 159 2 301 110 2 302 226 2 303 230 2 304 228 2 305 165 2 306 163 2 307 128 2 308 232 2 309 238 2 310 236 2 311 168 2 312 171 2 313 122 2 314 250 2 315 254 2 316 252 2 317 177 2 318 175 2 319 140 2 320 256 2 321 262 2 322 260 2 323 180 2 324 183 2 325 134 2 326 274 2 327 278 2 328 276 2 329 189 2 330 187 2 331 99 2 332 280 2 333 286 2 334 284 2 335 145 3 336 192 7 337 194 4 338 150 6 339 198 9 340 192 7 341 154 8 342 196 10 343 198 9 344 148 5 345 194 4 346 196 10 347 152 2 348 203 2 349 201 2 350 146 2 351 207 2 352 29 2 353 111 2 354 205 2 355 30 2 356 114 2 357 28 2 358 31 2 359 149 2 360 209 2 361 211 2 362 155 2 363 215 2 364 33 2 365 100 2 366 213 2 367 34 2 368 102 2 369 32 2 370 35 2 371 157 11 372 216 15 373 218 12 374 162 14 375 222 17 376 216 15 377 166 16 378 220 18 379 222 17 380 160 13 381 218 12 382 220 18 383 164 2 384 227 2 385 225 2 386 158 2 387 231 2 388 41 2 389 123 2 390 229 2 391 42 2 392 126 2 393 40 2 394 43 2 395 161 2 396 233 2 397 235 2 398 167 2 399 239 2 400 45 2 401 119 2 402 237 2 403 46 2 404 3 2 405 44 2 406 47 2 407 169 19 408 240 23 409 242 20 410 174 22 411 246 25 412 240 23 413 178 24 414 244 26 415 246 25 416 172 21 417 242 20 418 244 26 419 176 2 420 251 2 421 249 2 422 170 2 423 255 2 424 53 2 425 135 2 426 253 2 427 54 2 428 138 2 429 52 2 430 55 2 431 173 2 432 257 2 433 259 2 434 179 2 435 263 2 436 57 2 437 131 2 438 261 2 439 58 2 440 7 2 441 56 2 442 59 2 443 181 27 444 264 31 445 266 28 446 186 30 447 270 33 448 264 31 449 190 32 450 268 34 451 270 33 452 184 29 453 266 28 454 268 34 455 188 2 456 275 2 457 273 2 458 182 2 459 279 2 460 65 2 461 106 2 462 277 2 463 66 2 464 0 2 465 64 2 466 67 2 467 185 2 468 281 2 469 283 2 470 191 2 471 287 2 472 69 2 473 143 2 474 285 2 475 70 2 476 5 2 477 68 2 478 71 2 479 288 35 480 292 35 481 294 35 482 289 36 483 291 36 484 195 36 485 293 37 486 73 37 487 25 37 488 295 38 489 74 38 490 26 38 491 24 39 492 72 39 493 75 39 494 296 40 495 300 40 496 302 40 497 297 41 498 299 41 499 219 41 500 301 42 501 77 42 502 37 42 503 303 43 504 78 43 505 38 43 506 36 44 507 76 44 508 79 44 509 304 45 510 308 45 511 310 45 512 305 46 513 307 46 514 243 46 515 309 47 516 81 47 517 49 47 518 311 48 519 82 48 520 50 48 521 48 49 522 80 49 523 83 49 524 312 50 525 316 50 526 318 50 527 313 51 528 315 51 529 267 51 530 317 52 531 85 52 532 61 52 533 319 53 534 86 53 535 62 53 536 60 54 537 84 54 538 87 54 539 125 2 540 320 2 541 322 2 542 113 2 543 326 2 544 320 2 545 107 2 546 324 2 547 326 2 548 137 2 549 322 2 550 324 2 551 328 2 552 334 2 553 332 2 554 323 55 555 331 55 556 94 55 557 90 56 558 95 56 559 329 56 560 89 57 561 92 57 562 93 57 563</p>
        </polylist>
      </mesh>
    </geometry>
  </library_geometries>
  <library_controllers/>
  <library_visual_scenes>
    <visual_scene id="Scene" name="Scene">
      <node id="WallAngle" name="WallAngle" type="NODE">
        <matrix sid="transform">1 0 0 0 0 1 0 0 0 0 1 0 0 0 0 1</matrix>
        <instance_geometry url="#Cube_002-mesh" name="WallAngle">
          <bind_material>
            <technique_common>
              <instance_material symbol="PBRFULL_MetalicAngleHigh-material" target="#PBRFULL_MetalicAngleHigh-material"/>
            </technique_common>
          </bind_material>
        </instance_geometry>
      </node>
    </visual_scene>
  </library_visual_scenes>
  <scene>
    <instance_visual_scene url="#Scene"/>
  </scene>
</COLLADA>