<?xml version="1.0" encoding="utf-8"?>
<COLLADA xmlns="http://www.collada.org/2005/11/COLLADASchema" version="1.4.1" xmlns:xsi="http://www.w3.org/2001/XMLSchema-instance">
  <asset>
    <contributor>
      <author>Blender User</author>
      <authoring_tool>Blender 2.79.0 commit date:2018-03-22, commit time:14:10, hash:f4dc9f9d68b</authoring_tool>
    </contributor>
    <created>2018-10-09T21:23:56</created>
    <modified>2018-10-09T21:23:56</modified>
    <unit name="meter" meter="1"/>
    <up_axis>Z_UP</up_axis>
  </asset>
  <library_images/>
  <library_effects>
    <effect id="Alpha_Joints_MAT_007-effect">
      <profile_COMMON>
        <technique sid="common">
          <phong>
            <emission>
              <color sid="emission">0 0 0 1</color>
            </emission>
            <ambient>
              <color sid="ambient">0 0 0 1</color>
            </ambient>
            <diffuse>
              <color sid="diffuse">0.122841 0.170315 0.177774 1</color>
            </diffuse>
            <specular>
              <color sid="specular">0.141024 0.141024 0.141024 1</color>
            </specular>
            <shininess>
              <float sid="shininess">2</float>
            </shininess>
            <transparent opaque="A_ONE">
              <color>1 1 1 1</color>
            </transparent>
            <index_of_refraction>
              <float sid="index_of_refraction">1</float>
            </index_of_refraction>
          </phong>
        </technique>
      </profile_COMMON>
    </effect>
  </library_effects>
  <library_materials>
    <material id="Alpha_Joints_MAT_007-material" name="Alpha_Joints_MAT_007">
      <instance_effect url="#Alpha_Joints_MAT_007-effect"/>
    </material>
  </library_materials>
  <library_geometries>
    <geometry id="Alpha_JointsMesh_328-mesh" name="Alpha_JointsMesh.328">
      <mesh>
        <source id="Alpha_JointsMesh_328-mesh-positions">
          <float_array id="Alpha_JointsMesh_328-mesh-positions-array" count="1146">-9.477334 6.161823 -3.680219 -9.380905 6.161823 -3.869479 -9.230714 6.161823 -4.019679 -9.041463 6.161823 -4.116099 -8.831665 6.161823 -4.149329 -8.621873 6.161823 -4.116099 -8.432623 6.161823 -4.019679 -8.282423 6.161823 -3.869479 -8.185995 6.161823 -3.680219 -8.152765 6.161823 -3.470419 -8.185995 6.161823 -3.260639 -8.282423 6.161823 -3.071389 -8.432615 6.161823 -2.921189 -8.621873 6.161823 -2.824759 -8.831673 6.161823 -2.791529 -9.041463 6.161823 -2.824759 -9.230713 6.161823 -2.921189 -9.380913 6.161823 -3.071389 -9.477334 6.161823 -3.260639 -9.510564 6.161823 -3.470429 -10.05151 6.316643 -3.866789 -9.869335 6.316643 -4.224349 -9.585575 6.316643 -4.508109 -9.228024 6.316643 -4.690299 -8.831665 6.316643 -4.753069 -8.435303 6.316643 -4.690299 -8.077754 6.316643 -4.508109 -7.793992 6.316643 -4.224349 -7.611802 6.316643 -3.866789 -7.549022 6.316643 -3.470429 -7.611802 6.316643 -3.074079 -7.793983 6.316643 -2.716519 -8.077754 6.316643 -2.432759 -8.435315 6.316643 -2.250569 -8.831665 6.316643 -2.187799 -9.228024 6.316643 -2.250569 -9.585575 6.316643 -2.432759 -9.869335 6.316643 -2.716519 -10.05152 6.316643 -3.074079 -10.1143 6.316643 -3.470429 -10.62087 6.572314 -4.051789 -10.35365 6.572314 -4.576239 -9.937464 6.572314 -4.992429 -9.413015 6.572314 -5.259639 -8.831665 6.572314 -5.351709 -8.250313 6.572314 -5.259639 -7.725872 6.572314 -4.992429 -7.309663 6.572314 -4.57624 -7.042443 6.572314 -4.051789 -6.950373 6.572314 -3.470429 -7.042443 6.572314 -2.889089 -7.309663 6.572314 -2.364639 -7.725872 6.572314 -1.948429 -8.250325 6.572314 -1.681209 -8.831673 6.572314 -1.589139 -9.413015 6.572314 -1.681219 -9.937455 6.572314 -1.948429 -10.35366 6.572314 -2.364639 -10.62088 6.572314 -2.889089 -10.71295 6.572314 -3.470429 -11.14817 6.921613 -4.223119 -10.80221 6.921613 -4.90212 -10.26335 6.921613 -5.440959 -9.584344 6.921613 -5.78694 -8.831665 6.921613 -5.906149 -8.078993 6.921613 -5.78694 -7.399983 6.921613 -5.440959 -6.861123 6.921613 -4.90212 -6.515153 6.921613 -4.223119 -6.395943 6.921613 -3.470429 -6.515153 6.921613 -2.717759 -6.861113 6.921613 -2.038749 -7.399983 6.921613 -1.499889 -8.078985 6.921613 -1.153919 -8.831665 6.921613 -1.034709 -9.584343 6.921613 -1.153919 -10.26334 6.921613 -1.499889 -10.8022 6.921613 -2.038749 -11.14817 6.921613 -2.717749 -11.26738 6.921613 -3.470429 -11.61843 7.355793 -4.375909 -11.20223 7.355793 -5.19274 -10.55398 7.355793 -5.840989 -9.737145 7.355793 -6.257189 -8.831665 7.355793 -6.400609 -7.926193 7.355793 -6.257189 -7.109353 7.355793 -5.84098 -6.461093 7.355793 -5.19274 -6.044893 7.355793 -4.375909 -5.901473 7.355793 -3.470419 -6.044893 7.355793 -2.56496 -6.461093 7.355794 -1.748119 -7.109353 7.355794 -1.09986 -7.926193 7.355794 -0.68366 -8.831665 7.355794 -0.54025 -9.737134 7.355794 -0.68366 -10.55398 7.355794 -1.099859 -11.20223 7.355793 -1.748119 -11.61843 7.355793 -2.564959 -11.76184 7.355793 -3.470419 -12.02007 7.864144 -4.506399 -11.54389 7.864144 -5.440959 -10.8022 7.864144 -6.182639 -9.867645 7.864144 -6.658819 -8.831665 7.864144 -6.82291 -7.795693 7.864144 -6.65882 -6.861123 7.864144 -6.18264 -6.119443 7.864144 -5.440959 -5.643253 7.864144 -4.50641 -5.479173 7.864144 -3.47043 -5.643253 7.864144 -2.434459 -6.119432 7.864144 -1.49989 -6.861123 7.864144 -0.75821 -7.795693 7.864144 -0.28203 -8.831664 7.864144 -0.11794 -9.867645 7.864144 -0.28203 -10.80221 7.864144 -0.75822 -11.54388 7.864144 -1.499889 -12.02006 7.864144 -2.434459 -12.18416 7.864144 -3.470429 -12.34321 8.434173 -4.6114 -11.81875 8.434173 -5.640669 -11.00191 8.434173 -6.457509 -9.972635 8.434173 -6.981949 -8.831673 8.434173 -7.16267 -7.690703 8.434173 -6.981949 -6.661413 8.434173 -6.45751 -5.844573 8.434173 -5.64067 -5.320133 8.434173 -4.6114 -5.139422 8.434173 -3.47043 -5.320133 8.434173 -2.32946 -5.844572 8.434173 -1.30018 -6.661413 8.434173 -0.48334 -7.690703 8.434173 0.04109996 -8.831664 8.434173 0.2218 -9.972635 8.434173 0.04109996 -11.00191 8.434173 -0.48334 -11.81875 8.434173 -1.30018 -12.34319 8.434173 -2.32946 -12.5239 8.434173 -3.470429 -12.57987 9.051814 -4.6883 -12.02007 9.051814 -5.78694 -11.14817 9.051814 -6.65882 -10.04953 9.051814 -7.218609 -8.831665 9.051814 -7.41151 -7.613802 9.051814 -7.21861 -6.515153 9.051814 -6.65882 -5.643253 9.051814 -5.786941 -5.083463 9.051814 -4.6883 -4.890582 9.051814 -3.47043 -5.083463 9.051814 -2.25257 -5.643253 9.051814 -1.15392 -6.515152 9.051815 -0.28203 -7.613802 9.051815 0.27775 -8.831673 9.051815 0.47064 -10.04953 9.051815 0.27775 -11.14817 9.051815 -0.28203 -12.02007 9.051814 -1.15392 -12.57987 9.051814 -2.25257 -12.77275 9.051814 -3.47043 -12.72422 9.701884 -4.73521 -12.14288 9.701884 -5.87617 -11.2374 9.701884 -6.78164 -10.09644 9.701873 -7.36297 -8.831665 9.701873 -7.563291 -7.566893 9.701884 -7.36298 -6.425923 9.701873 -6.78164 -5.520453 9.701873 -5.87617 -4.939103 9.701884 -4.735211 -4.738782 9.701873 -3.47042 -4.939102 9.701885 -2.20566 -5.520452 9.701873 -1.0647 -6.425932 9.701873 -0.15922 -7.566893 9.701873 0.42212 -8.831664 9.701873 0.62244 -10.09644 9.701873 0.42212 -11.2374 9.701885 -0.15922 -12.14288 9.701885 -1.0647 -12.72423 9.701885 -2.20567 -12.92455 9.701884 -3.47043 -12.77275 10.36836 -4.75097 -12.18416 10.36836 -5.90615 -11.26739 10.36836 -6.82291 -10.1122 10.36836 -7.4115 -8.831665 10.36836 -7.61431 -7.551122 10.36836 -7.4115 -6.395933 10.36836 -6.822911 -5.479173 10.36836 -5.90615 -4.890583 10.36836 -4.75097 -4.687763 10.36836 -3.470421 -4.890572 10.36836 -2.189891 -5.479173 10.36836 -1.034711 -6.395943 10.36836 -0.117941 -7.551122 10.36836 0.470639 -8.831664 10.36836 0.673459 -10.1122 10.36836 0.470639 -11.26738 10.36836 -0.11794 -12.18416 10.36836 -1.03472 -12.77274 10.36836 -2.1899 -12.97558 10.36836 -3.47043 -12.72422 11.03482 -4.735211 -12.14287 11.03482 -5.876171 -11.2374 11.03482 -6.78164 -10.09644 11.03482 -7.362971 -8.831665 11.03482 -7.563291 -7.566893 11.03482 -7.362971 -6.425923 11.03482 -6.781621 -5.520453 11.03482 -5.876151 -4.939103 11.03482 -4.735211 -4.738782 11.03482 -3.470421 -4.939102 11.03482 -2.205661 -5.520452 11.03482 -1.064701 -6.425932 11.03482 -0.1592209 -7.566893 11.03482 0.422119 -8.831664 11.03482 0.622439 -10.09643 11.03482 0.422119 -11.23739 11.03482 -0.1592209 -12.14288 11.03482 -1.064701 -12.72423 11.03482 -2.20567 -12.92455 11.03482 -3.47043 -12.57987 11.68488 -4.688301 -12.02007 11.68488 -5.786941 -11.14817 11.68488 -6.658821 -10.04953 11.68488 -7.21861 -8.831665 11.68488 -7.411501 -7.613803 11.68488 -7.218601 -6.515153 11.68488 -6.658821 -5.643253 11.68488 -5.786941 -5.083463 11.68488 -4.688301 -4.890572 11.68488 -3.470431 -5.083463 11.68488 -2.252571 -5.643263 11.68488 -1.153921 -6.515152 11.68488 -0.282031 -7.613802 11.68488 0.277749 -8.831664 11.68488 0.470639 -10.04953 11.68488 0.277749 -11.14818 11.68488 -0.282031 -12.02007 11.68488 -1.153921 -12.57987 11.68488 -2.252571 -12.77275 11.68488 -3.470431 -12.34321 12.30253 -4.611401 -11.81875 12.30253 -5.640671 -11.00191 12.30253 -6.457511 -9.972635 12.30253 -6.981941 -8.831673 12.30253 -7.162671 -7.690703 12.30253 -6.981951 -6.661413 12.30253 -6.457511 -5.844573 12.30253 -5.640681 -5.320133 12.30253 -4.611402 -5.139422 12.30253 -3.470431 -5.320133 12.30253 -2.329461 -5.844572 12.30253 -1.300181 -6.661413 12.30253 -0.483341 -7.690703 12.30253 0.04109895 -8.831665 12.30253 0.221799 -9.972635 12.30253 0.04109895 -11.00191 12.30253 -0.483341 -11.81875 12.30253 -1.300181 -12.34319 12.30253 -2.329461 -12.52392 12.30253 -3.470431 -12.02007 12.87255 -4.506412 -11.54389 12.87255 -5.440961 -10.80221 12.87255 -6.182641 -9.867645 12.87255 -6.658821 -8.831673 12.87255 -6.822911 -7.795693 12.87255 -6.658821 -6.861123 12.87255 -6.182641 -6.119433 12.87255 -5.440972 -5.643253 12.87255 -4.506412 -5.479173 12.87255 -3.470431 -5.643253 12.87255 -2.434461 -6.119442 12.87255 -1.499891 -6.861123 12.87255 -0.758222 -7.795693 12.87255 -0.282032 -8.831665 12.87255 -0.117941 -9.867633 12.87255 -0.282032 -10.8022 12.87255 -0.758211 -11.54388 12.87255 -1.499891 -12.02006 12.87255 -2.434461 -12.18414 12.87255 -3.470431 -11.61843 13.38091 -4.375911 -11.20223 13.38091 -5.192742 -10.55398 13.38091 -5.841002 -9.737145 13.38091 -6.257191 -8.831665 13.38091 -6.400602 -7.926193 13.38091 -6.257191 -7.109353 13.38091 -5.841002 -6.461093 13.38091 -5.192742 -6.044893 13.38091 -4.375911 -5.901483 13.38091 -3.470422 -6.044893 13.38091 -2.564962 -6.461093 13.38091 -1.748122 -7.109353 13.38091 -1.099862 -7.926193 13.38091 -0.683662 -8.831673 13.38091 -0.540252 -9.737145 13.38091 -0.683662 -10.55398 13.38091 -1.099861 -11.20223 13.38091 -1.748121 -11.61843 13.38091 -2.564961 -11.76184 13.38091 -3.470421 -11.14817 13.81508 -4.223121 -10.8022 13.81508 -4.902122 -10.26335 13.81508 -5.440961 -9.584344 13.81508 -5.786942 -8.831665 13.81508 -5.906151 -8.078993 13.81508 -5.786942 -7.399983 13.81508 -5.440962 -6.861113 13.81508 -4.902122 -6.515153 13.81508 -4.223121 -6.395943 13.81508 -3.470432 -6.515153 13.81508 -2.717751 -6.861123 13.81508 -2.038752 -7.399983 13.81508 -1.499892 -8.078993 13.81508 -1.153922 -8.831665 13.81508 -1.034712 -9.584344 13.81508 -1.153922 -10.26334 13.81508 -1.499892 -10.80221 13.81508 -2.038751 -11.14817 13.81508 -2.717751 -11.26738 13.81508 -3.470431 -10.62087 14.16439 -4.051792 -10.35366 14.16439 -4.576242 -9.937464 14.16439 -4.992431 -9.413015 14.16439 -5.259641 -8.831665 14.16439 -5.351712 -8.250313 14.16439 -5.259641 -7.725873 14.16439 -4.992431 -7.309663 14.16439 -4.576242 -7.042443 14.16439 -4.051792 -6.950373 14.16439 -3.470432 -7.042443 14.16439 -2.889091 -7.309663 14.16439 -2.364642 -7.725872 14.16439 -1.948432 -8.250313 14.16439 -1.681212 -8.831665 14.16439 -1.589142 -9.413015 14.16439 -1.681222 -9.937455 14.16439 -1.948432 -10.35365 14.16439 -2.364642 -10.62087 14.16439 -2.889091 -10.71295 14.16439 -3.470432 -10.05152 14.42005 -3.866792 -9.869335 14.42005 -4.224352 -9.585583 14.42005 -4.508112 -9.228024 14.42005 -4.690302 -8.831665 14.42005 -4.753072 -8.435315 14.42005 -4.690302 -8.077754 14.42005 -4.508112 -7.793983 14.42005 -4.224352 -7.611803 14.42005 -3.866792 -7.549022 14.42005 -3.470432 -7.611802 14.42005 -3.074082 -7.793983 14.42005 -2.716522 -8.077754 14.42005 -2.432762 -8.435303 14.42005 -2.250572 -8.831665 14.42005 -2.187802 -9.228014 14.42005 -2.250572 -9.585583 14.42005 -2.432762 -9.869335 14.42005 -2.716522 -10.05152 14.42005 -3.074082 -10.1143 14.42005 -3.470432 -9.477344 14.57488 -3.680222 -9.380913 14.57488 -3.869482 -9.230714 14.57488 -4.019682 -9.041464 14.57488 -4.116102 -8.831673 14.57488 -4.149332 -8.621873 14.57488 -4.116112 -8.432623 14.57488 -4.019682 -8.282424 14.57488 -3.869482 -8.185995 14.57488 -3.680222 -8.152765 14.57488 -3.470422 -8.185995 14.57488 -3.260642 -8.282423 14.57488 -3.071392 -8.432615 14.57488 -2.921192 -8.621873 14.57488 -2.824762 -8.831673 14.57488 -2.791532 -9.041463 14.57488 -2.824762 -9.230714 14.57488 -2.921192 -9.380913 14.57488 -3.071392 -9.477334 14.57488 -3.260642 -9.510575 14.57488 -3.470432 -8.831665 6.090704 -3.470419 -8.831665 14.64598 -3.470422</float_array>
          <technique_common>
            <accessor source="#Alpha_JointsMesh_328-mesh-positions-array" count="382" stride="3">
              <param name="X" type="float"/>
              <param name="Y" type="float"/>
              <param name="Z" type="float"/>
            </accessor>
          </technique_common>
        </source>
        <source id="Alpha_JointsMesh_328-mesh-normals">
          <float_array id="Alpha_JointsMesh_328-mesh-normals-array" count="1146">-0.3122423 -0.9445706 -0.1014459 -0.1487197 -0.9829601 -0.1080377 -0.1748435 -0.9829568 -0.05679589 -0.2656089 -0.9445704 -0.1929731 -0.1080377 -0.9829601 -0.1487197 -0.1929731 -0.9445704 -0.2656089 -0.05679589 -0.9829568 -0.1748435 -0.1014459 -0.9445706 -0.3122423 0 -0.9445746 -0.3282968 0 -0.982955 -0.1838462 0.05679589 -0.9829568 -0.1748435 0.1014459 -0.9445706 -0.3122423 0.1080377 -0.9829601 -0.1487197 0.1929731 -0.9445704 -0.2656089 0.1487197 -0.9829601 -0.1080377 0.2656089 -0.9445704 -0.1929731 0.3122423 -0.9445706 -0.1014459 0.1748435 -0.9829568 -0.05679589 0.3282968 -0.9445746 0 0.1838462 -0.982955 0 0.3122423 -0.9445706 0.1014459 0.1748435 -0.9829568 0.05679589 0.2656089 -0.9445704 0.1929731 0.1487197 -0.9829601 0.1080377 0.1080377 -0.9829601 0.1487197 0.1929731 -0.9445704 0.2656089 0.05679589 -0.9829568 0.1748435 0.1014459 -0.9445706 0.3122423 0 -0.9445746 0.3282968 0 -0.982955 0.1838462 -0.1014459 -0.9445706 0.3122423 -0.05679589 -0.9829568 0.1748435 -0.1929731 -0.9445704 0.2656089 -0.1080377 -0.9829601 0.1487197 -0.2656089 -0.9445704 0.1929731 -0.1487197 -0.9829601 0.1080377 -0.3122423 -0.9445706 0.1014459 -0.1748435 -0.9829568 0.05679589 -0.1838462 -0.982955 0 -0.3282968 -0.9445746 0 -0.4474717 -0.8824001 -0.1453932 -0.3806347 -0.8823999 -0.2765644 -0.2765612 -0.8823896 -0.3806608 -0.1453912 -0.8823881 -0.4474961 0 -0.8823944 -0.4705107 0.1453912 -0.8823881 -0.4474961 0.2765612 -0.8823896 -0.3806608 0.3806347 -0.8823999 -0.2765644 0.4474961 -0.8823881 -0.1453912 0.4705107 -0.8823944 0 0.4474961 -0.8823881 0.1453912 0.3806608 -0.8823896 0.2765612 0.2765612 -0.8823896 0.3806608 0.1453912 -0.8823881 0.4474961 0 -0.8823944 0.4705107 -0.1453932 -0.8824001 0.4474717 -0.2765612 -0.8823896 0.3806608 -0.3806608 -0.8823896 0.2765612 -0.4474961 -0.8823881 0.1453912 -0.4705107 -0.8823944 0 -0.4880931 -0.7974966 -0.3546328 -0.5737951 -0.7975022 -0.1864124 -0.3546328 -0.7974966 -0.4880931 -0.1864418 -0.7974976 -0.5737918 0 -0.7974917 -0.6033299 0.1864418 -0.7974976 -0.5737918 0.3546328 -0.7974966 -0.4880931 0.4880931 -0.7974966 -0.3546328 0.5737918 -0.7974976 -0.1864418 0.6033299 -0.7974917 0 0.5737951 -0.7975022 0.1864124 0.4880931 -0.7974966 0.3546328 0.3546328 -0.7974966 0.4880931 0.1864418 -0.7974976 0.5737918 0 -0.7974917 0.6033299 -0.1864418 -0.7974976 0.5737918 -0.3546328 -0.7974966 0.4880931 -0.4880931 -0.7974966 0.3546328 -0.5737918 -0.7974976 0.1864418 -0.6033299 -0.7974917 0 -0.5828925 -0.6934648 -0.423489 -0.6852119 -0.6934825 -0.2226358 -0.423489 -0.6934648 -0.5828925 -0.2226406 -0.6934667 -0.6852265 0 -0.6934576 -0.7204976 0.2226406 -0.6934667 -0.6852265 0.4234801 -0.6934807 -0.5828802 0.5828925 -0.6934648 -0.423489 0.6852119 -0.6934825 -0.2226358 0.7204823 -0.6934733 0 0.6852119 -0.6934825 0.2226358 0.5828801 -0.6934806 0.42348 0.4234801 -0.6934807 0.5828802 0.2226406 -0.6934667 0.6852265 0 -0.6934886 0.7204676 -0.2226406 -0.6934667 0.6852265 -0.423489 -0.6934648 0.5828925 -0.5828801 -0.6934806 0.42348 -0.6852265 -0.6934667 0.2226406 -0.7204676 -0.6934886 0 -0.7790423 -0.5736151 -0.2530987 -0.6626927 -0.5736073 -0.48147 -0.4814699 -0.5736072 -0.6626926 -0.2531273 -0.5736107 -0.7790363 0 -0.5736058 -0.8191316 0.2531273 -0.5736107 -0.7790363 0.4814699 -0.5736072 -0.6626926 0.6626927 -0.5736073 -0.48147 0.7790363 -0.5736107 -0.2531273 0.8191316 -0.5736058 0 0.7790423 -0.5736151 0.2530987 0.6626927 -0.5736073 0.48147 0.4814699 -0.5736072 0.6626926 0.2531273 -0.5736107 0.7790363 0 -0.5736058 0.8191316 -0.2531273 -0.5736107 0.7790363 -0.4814699 -0.5736072 0.6626926 -0.6626927 -0.5736073 0.48147 -0.7790363 -0.5736107 0.2531273 -0.8191316 -0.5736058 0 -0.8535237 -0.441121 -0.2773258 -0.7260549 -0.4411264 -0.527496 -0.527496 -0.4411264 -0.7260549 -0.2773258 -0.441121 -0.8535237 0 -0.4411239 -0.8974463 0.2773258 -0.441121 -0.8535237 0.527496 -0.4411264 -0.7260549 0.7260549 -0.4411264 -0.527496 0.8535237 -0.441121 -0.2773258 0.8974463 -0.4411239 0 0.8535237 -0.441121 0.2773258 0.7260549 -0.4411264 0.527496 0.527496 -0.4411264 0.7260549 0.2772976 -0.4411247 0.8535309 0 -0.4411239 0.8974463 -0.2772976 -0.4411247 0.8535309 -0.527496 -0.4411264 0.7260549 -0.7260549 -0.4411264 0.527496 -0.8535309 -0.4411247 0.2772976 -0.8974463 -0.4411239 0 -0.907482 -0.2992386 -0.2948439 -0.7719417 -0.299267 -0.5608434 -0.5608434 -0.299267 -0.7719417 -0.2948439 -0.2992386 -0.9074819 0 -0.2992393 -0.9541782 0.2948439 -0.2992386 -0.9074819 0.5608434 -0.299267 -0.7719417 0.7719417 -0.299267 -0.5608434 0.907482 -0.2992386 -0.2948439 0.9541694 -0.2992671 0 0.907482 -0.2992386 0.2948439 0.7719488 -0.2992392 0.5608485 0.5608485 -0.2992392 0.7719488 0.2948439 -0.2992386 0.9074819 0 -0.2992393 0.9541782 -0.2948439 -0.2992386 0.9074819 -0.5608485 -0.2992392 0.7719488 -0.7719488 -0.2992392 0.5608485 -0.907482 -0.2992386 0.2948439 -0.9541694 -0.2992671 0 -0.9401297 -0.1511593 -0.3054621 -0.7997253 -0.1511616 -0.5810247 -0.5810247 -0.1511616 -0.7997253 -0.3054621 -0.1511593 -0.9401297 0 -0.1511604 -0.9885092 0.3054344 -0.1511607 -0.9401385 0.5810247 -0.1511616 -0.7997253 0.7997253 -0.1511616 -0.5810247 0.9401297 -0.1511593 -0.3054621 0.9885092 -0.1511604 0 0.9401297 -0.1511593 0.3054621 0.7997253 -0.1511616 0.5810247 0.5810247 -0.1511616 0.7997253 0.3054621 -0.1511593 0.9401297 0 -0.1511604 0.9885092 -0.3054621 -0.1511593 0.9401297 -0.5810247 -0.1511616 0.7997253 -0.7997253 -0.1511616 0.5810247 -0.9401297 -0.1511593 0.3054621 -0.9885092 -0.1511604 0 -0.9510608 0 -0.309004 -0.8090303 0 -0.587767 -0.587767 0 -0.8090303 -0.309004 0 -0.9510608 0 0 -1 0.309004 0 -0.9510608 0.587767 0 -0.8090303 0.8090303 0 -0.587767 0.9510608 0 -0.309004 1 0 0 0.9510608 0 0.309004 0.8090158 0 0.587787 0.587767 0 0.8090303 0.309004 0 0.9510608 0 0 1 -0.309004 0 0.9510608 -0.587767 0 0.8090303 -0.8090303 0 0.587767 -0.9510608 0 0.309004 -1 0 0 -0.9401297 0.1511593 -0.3054621 -0.7997253 0.1511616 -0.5810247 -0.5810247 0.1511616 -0.7997253 -0.3054621 0.1511593 -0.9401297 0 0.1511604 -0.9885092 0.3054621 0.1511593 -0.9401297 0.5810247 0.1511616 -0.7997253 0.7997253 0.1511616 -0.5810247 0.9401297 0.1511593 -0.3054621 0.9885092 0.1511604 0 0.9401297 0.1511593 0.3054621 0.7997253 0.1511616 0.5810247 0.5810247 0.1511616 0.7997253 0.3054621 0.1511593 0.9401297 0 0.1511604 0.9885092 -0.3054621 0.1511593 0.9401297 -0.5810247 0.1511616 0.7997253 -0.7997253 0.1511616 0.5810247 -0.9401297 0.1511593 0.3054621 -0.9885092 0.1511604 0 -0.907482 0.2992386 -0.2948439 -0.7719488 0.2992392 -0.5608485 -0.5608485 0.2992392 -0.7719488 -0.2948439 0.2992386 -0.9074819 0 0.2992393 -0.9541782 0.2948439 0.2992386 -0.9074819 0.5608485 0.2992392 -0.7719488 0.7719488 0.2992392 -0.5608485 0.907482 0.2992386 -0.2948439 0.9541782 0.2992393 0 0.907482 0.2992386 0.2948439 0.7719488 0.2992392 0.5608485 0.5608485 0.2992392 0.7719488 0.2948439 0.2992386 0.9074819 0 0.2992393 0.9541782 -0.2948439 0.2992386 0.9074819 -0.5608485 0.2992392 0.7719488 -0.7719488 0.2992392 0.5608485 -0.907482 0.2992386 0.2948439 -0.9541782 0.2992393 0 -0.8535237 0.441121 -0.2773258 -0.7260549 0.4411264 -0.527496 -0.527496 0.4411264 -0.7260549 -0.2773258 0.441121 -0.8535237 0 0.4411239 -0.8974463 0.2773258 0.441121 -0.8535237 0.527496 0.4411264 -0.7260549 0.7260549 0.4411264 -0.527496 0.8535237 0.441121 -0.2773258 0.8974463 0.4411239 0 0.8535237 0.441121 0.2773258 0.7260549 0.4411264 0.527496 0.527496 0.4411264 0.7260549 0.2772976 0.4411247 0.8535309 0 0.4411239 0.8974463 -0.2772976 0.4411247 0.8535309 -0.527496 0.4411264 0.7260549 -0.7260549 0.4411264 0.527496 -0.8535237 0.441121 0.2773258 -0.8974463 0.4411239 0 -0.7790423 0.5736151 -0.2530987 -0.6626927 0.5736073 -0.48147 -0.4814699 0.5736072 -0.6626926 -0.2531273 0.5736107 -0.7790363 0 0.5736058 -0.8191316 0.2531273 0.5736107 -0.7790363 0.4814699 0.5736072 -0.6626926 0.6626927 0.5736073 -0.48147 0.7790363 0.5736107 -0.2531273 0.8191316 0.5736058 0 0.7790363 0.5736107 0.2531273 0.6626927 0.5736073 0.48147 0.4814699 0.5736072 0.6626926 0.2531273 0.5736107 0.7790363 0 0.5736058 0.8191316 -0.2531273 0.5736107 0.7790363 -0.4814699 0.5736072 0.6626926 -0.6626927 0.5736073 0.48147 -0.7790363 0.5736107 0.2531273 -0.8191316 0.5736058 0 -0.6852119 0.6934825 -0.2226358 -0.5828801 0.6934806 -0.42348 -0.423489 0.6934648 -0.5828925 -0.2226406 0.6934667 -0.6852265 0 0.6934576 -0.7204976 0.2226406 0.6934667 -0.6852265 0.423489 0.6934648 -0.5828925 0.5828801 0.6934806 -0.42348 0.6852119 0.6934825 -0.2226358 0.7204676 0.6934886 0 0.6852119 0.6934825 0.2226358 0.5828801 0.6934806 0.42348 0.423489 0.6934648 0.5828925 0.2226358 0.6934825 0.6852119 0 0.6934886 0.7204676 -0.2226406 0.6934667 0.6852265 -0.4234801 0.6934807 0.5828802 -0.5828925 0.6934648 0.423489 -0.6852265 0.6934667 0.2226406 -0.7204976 0.6934576 0 -0.5737918 0.7974976 -0.1864418 -0.4880931 0.7974966 -0.3546328 -0.3546328 0.7974966 -0.4880931 -0.1864418 0.7974976 -0.5737918 0 0.7974917 -0.6033299 0.1864418 0.7974976 -0.5737918 0.3546328 0.7974966 -0.4880931 0.4880931 0.7974966 -0.3546328 0.5737918 0.7974976 -0.1864418 0.6033299 0.7974917 0 0.5737918 0.7974976 0.1864418 0.4880931 0.7974966 0.3546328 0.3546328 0.7974966 0.4880931 0.1864418 0.7974976 0.5737918 0 0.7974917 0.6033299 -0.1864418 0.7974976 0.5737918 -0.3546328 0.7974966 0.4880931 -0.4880931 0.7974966 0.3546328 -0.5737918 0.7974976 0.1864418 -0.6033299 0.7974917 0 -0.3806608 0.8823896 -0.2765612 -0.4474717 0.8824001 -0.1453932 -0.2765612 0.8823896 -0.3806608 -0.1453912 0.8823881 -0.4474961 0 0.8823944 -0.4705107 0.1453912 0.8823881 -0.4474961 0.2765612 0.8823896 -0.3806608 0.3806347 0.8823999 -0.2765644 0.4474961 0.8823881 -0.1453912 0.4705107 0.8823944 0 0.4474961 0.8823881 0.1453912 0.3806608 0.8823896 0.2765612 0.2765612 0.8823896 0.3806608 0.1453912 0.8823881 0.4474961 0 0.8823944 0.4705107 -0.1453932 0.8824001 0.4474717 -0.2765612 0.8823896 0.3806608 -0.3806608 0.8823896 0.2765612 -0.4474717 0.8824001 0.1453932 -0.4705107 0.8823944 0 -0.2656089 0.9445704 -0.1929731 -0.3122423 0.9445706 -0.1014459 -0.1929731 0.9445704 -0.2656089 -0.1014459 0.9445706 -0.3122423 0 0.9445746 -0.3282968 0.1014459 0.9445706 -0.3122423 0.1929731 0.9445704 -0.2656089 0.2656089 0.9445704 -0.1929731 0.3122423 0.9445706 -0.1014459 0.3282968 0.9445746 0 0.3122423 0.9445706 0.1014459 0.2656089 0.9445704 0.1929731 0.1929731 0.9445704 0.2656089 0.1014459 0.9445706 0.3122423 0 0.9445746 0.3282968 -0.1014459 0.9445706 0.3122423 -0.1929731 0.9445704 0.2656089 -0.2656089 0.9445704 0.1929731 -0.3122423 0.9445706 0.1014459 -0.3282968 0.9445746 0 -0.1487197 0.9829601 -0.1080377 -0.1748435 0.9829568 -0.05679589 -0.1080377 0.9829601 -0.1487197 -0.05679589 0.9829568 -0.1748435 0 0.9829605 -0.1838167 0.05679589 0.9829568 -0.1748435 0.1080377 0.9829601 -0.1487197 0.1487197 0.9829601 -0.1080377 0.1748435 0.9829568 -0.05679589 0.1838167 0.9829605 0 0.1748435 0.9829568 0.05679589 0.1487197 0.9829601 0.1080377 0.1080377 0.9829601 0.1487197 0.05679589 0.9829568 0.1748435 0 0.982955 0.1838462 -0.05679589 0.9829568 0.1748435 -0.1080377 0.9829601 0.1487197 -0.1487197 0.9829601 0.1080377 -0.1748435 0.9829568 0.05679589 -0.1838167 0.9829605 0 0 -1 0 0 1 0</float_array>
          <technique_common>
            <accessor source="#Alpha_JointsMesh_328-mesh-normals-array" count="382" stride="3">
              <param name="X" type="float"/>
              <param name="Y" type="float"/>
              <param name="Z" type="float"/>
            </accessor>
          </technique_common>
        </source>
        <source id="Alpha_JointsMesh_328-mesh-map-0">
          <float_array id="Alpha_JointsMesh_328-mesh-map-0-array" count="4560">0 0.1 0.04999995 0.04999995 0 0.04999995 0.04999995 0.04999995 0 0.1 0.04999995 0.1 0.1 0.04999995 0.04999995 0.1 0.1 0.1 0.04999995 0.1 0.1 0.04999995 0.04999995 0.04999995 0.15 0.04999995 0.1 0.1 0.15 0.1 0.1 0.1 0.15 0.04999995 0.1 0.04999995 0.2 0.1 0.2 0.04999995 0.15 0.04999995 0.15 0.04999995 0.15 0.1 0.2 0.1 0.2 0.1 0.25 0.04999995 0.2 0.04999995 0.25 0.04999995 0.2 0.1 0.25 0.1 0.25 0.1 0.3 0.04999995 0.25 0.04999995 0.3 0.04999995 0.25 0.1 0.3 0.1 0.3 0.1 0.35 0.04999995 0.3 0.04999995 0.35 0.04999995 0.3 0.1 0.35 0.1 0.4 0.1 0.35 0.04999995 0.35 0.1 0.35 0.04999995 0.4 0.1 0.4 0.04999995 0.45 0.1 0.45 0.04999995 0.4 0.04999995 0.45 0.1 0.4 0.04999995 0.4 0.1 0.5 0.1 0.5 0.04999995 0.45 0.04999995 0.5 0.1 0.45 0.04999995 0.45 0.1 0.55 0.1 0.55 0.04999995 0.5 0.04999995 0.5 0.04999995 0.5 0.1 0.55 0.1 0.55 0.1 0.6 0.04999995 0.55 0.04999995 0.6 0.04999995 0.55 0.1 0.6 0.1 0.6 0.1 0.65 0.04999995 0.6 0.04999995 0.65 0.04999995 0.6 0.1 0.65 0.1 0.7 0.1 0.65 0.04999995 0.65 0.1 0.65 0.04999995 0.7 0.1 0.7 0.04999995 0.75 0.1 0.7 0.04999995 0.7 0.1 0.7 0.04999995 0.75 0.1 0.75 0.04999995 0.8 0.1 0.8 0.04999995 0.75 0.04999995 0.8 0.1 0.75 0.04999995 0.75 0.1 0.85 0.1 0.85 0.04999995 0.8 0.04999995 0.8 0.04999995 0.8 0.1 0.85 0.1 0.85 0.04999995 0.85 0.1 0.9 0.1 0.85 0.04999995 0.9 0.1 0.9 0.04999995 0.9 0.1 0.95 0.04999995 0.9 0.04999995 0.95 0.04999995 0.9 0.1 0.95 0.1 0.95 0.1 1 0.1 0.95 0.04999995 0.95 0.04999995 1 0.1 1 0.04999995 0 0.15 0.04999995 0.1 0 0.1 0.04999995 0.1 0 0.15 0.04999995 0.15 0.1 0.15 0.04999995 0.1 0.04999995 0.15 0.04999995 0.1 0.1 0.15 0.1 0.1 0.15 0.15 0.15 0.1 0.1 0.1 0.15 0.15 0.1 0.1 0.1 0.15 0.2 0.15 0.2 0.1 0.15 0.1 0.15 0.1 0.15 0.15 0.2 0.15 0.2 0.15 0.25 0.1 0.2 0.1 0.25 0.1 0.2 0.15 0.25 0.15 0.25 0.15 0.3 0.15 0.25 0.1 0.25 0.1 0.3 0.15 0.3 0.1 0.3 0.15 0.35 0.1 0.3 0.1 0.35 0.1 0.3 0.15 0.35 0.15 0.4 0.15 0.35 0.1 0.35 0.15 0.35 0.1 0.4 0.15 0.4 0.1 0.45 0.15 0.45 0.1 0.4 0.1 0.45 0.15 0.4 0.1 0.4 0.15 0.5 0.15 0.5 0.1 0.45 0.1 0.5 0.15 0.45 0.1 0.45 0.15 0.55 0.1 0.5 0.15 0.55 0.15 0.5 0.15 0.55 0.1 0.5 0.1 0.55 0.1 0.55 0.15 0.6 0.15 0.55 0.1 0.6 0.15 0.6 0.1 0.6 0.15 0.65 0.1 0.6 0.1 0.65 0.1 0.6 0.15 0.65 0.15 0.65 0.15 0.7 0.1 0.65 0.1 0.7 0.1 0.65 0.15 0.7 0.15 0.7 0.15 0.75 0.1 0.7 0.1 0.75 0.1 0.7 0.15 0.75 0.15 0.8 0.15 0.8 0.1 0.75 0.1 0.8 0.15 0.75 0.1 0.75 0.15 0.85 0.1 0.8 0.15 0.85 0.15 0.8 0.15 0.85 0.1 0.8 0.1 0.85 0.15 0.9 0.1 0.85 0.1 0.9 0.1 0.85 0.15 0.9 0.15 0.9 0.15 0.95 0.1 0.9 0.1 0.95 0.1 0.9 0.15 0.95 0.15 0.95 0.15 1 0.15 0.95 0.1 0.95 0.1 1 0.15 1 0.1 0.04999995 0.2 0 0.15 0 0.2 0 0.15 0.04999995 0.2 0.04999995 0.15 0.1 0.2 0.04999995 0.15 0.04999995 0.2 0.04999995 0.15 0.1 0.2 0.1 0.15 0.15 0.2 0.15 0.15 0.1 0.15 0.15 0.2 0.1 0.15 0.1 0.2 0.2 0.15 0.15 0.15 0.2 0.2 0.15 0.15 0.15 0.2 0.2 0.2 0.2 0.2 0.25 0.2 0.2 0.15 0.2 0.15 0.25 0.2 0.25 0.15 0.25 0.2 0.3 0.15 0.25 0.15 0.3 0.15 0.25 0.2 0.3 0.2 0.3 0.2 0.35 0.15 0.3 0.15 0.35 0.15 0.3 0.2 0.35 0.2 0.35 0.2 0.4 0.15 0.35 0.15 0.4 0.15 0.35 0.2 0.4 0.2 0.4 0.15 0.45 0.2 0.45 0.15 0.45 0.2 0.4 0.15 0.4 0.2 0.5 0.15 0.45 0.2 0.5 0.2 0.45 0.2 0.5 0.15 0.45 0.15 0.55 0.15 0.5 0.2 0.55 0.2 0.5 0.2 0.55 0.15 0.5 0.15 0.55 0.2 0.6 0.2 0.55 0.15 0.55 0.15 0.6 0.2 0.6 0.15 0.6 0.2 0.65 0.2 0.6 0.15 0.6 0.15 0.65 0.2 0.65 0.15 0.7 0.2 0.65 0.15 0.65 0.2 0.65 0.15 0.7 0.2 0.7 0.15 0.75 0.2 0.7 0.15 0.7 0.2 0.7 0.15 0.75 0.2 0.75 0.15 0.8 0.15 0.75 0.2 0.8 0.2 0.75 0.2 0.8 0.15 0.75 0.15 0.85 0.15 0.8 0.15 0.85 0.2 0.8 0.15 0.8 0.2 0.85 0.2 0.85 0.15 0.85 0.2 0.9 0.2 0.85 0.15 0.9 0.2 0.9 0.15 0.9 0.2 0.95 0.2 0.9 0.15 0.9 0.15 0.95 0.2 0.95 0.15 0.95 0.2 1 0.15 0.95 0.15 1 0.15 0.95 0.2 1 0.2 0.04999995 0.25 0 0.2 0 0.25 0 0.2 0.04999995 0.25 0.04999995 0.2 0.1 0.25 0.04999995 0.2 0.04999995 0.25 0.04999995 0.2 0.1 0.25 0.1 0.2 0.15 0.2 0.1 0.25 0.15 0.25 0.1 0.25 0.15 0.2 0.1 0.2 0.2 0.2 0.15 0.2 0.2 0.25 0.15 0.2 0.15 0.25 0.2 0.25 0.2 0.25 0.25 0.2 0.2 0.2 0.25 0.2 0.2 0.25 0.25 0.25 0.25 0.25 0.3 0.25 0.25 0.2 0.25 0.2 0.3 0.25 0.3 0.2 0.3 0.25 0.35 0.2 0.3 0.2 0.35 0.2 0.3 0.25 0.35 0.25 0.35 0.25 0.4 0.2 0.35 0.2 0.4 0.2 0.35 0.25 0.4 0.25 0.45 0.2 0.4 0.25 0.45 0.25 0.4 0.25 0.45 0.2 0.4 0.2 0.5 0.2 0.45 0.25 0.5 0.25 0.45 0.25 0.5 0.2 0.45 0.2 0.55 0.2 0.5 0.25 0.55 0.25 0.5 0.25 0.55 0.2 0.5 0.2 0.55 0.25 0.6 0.2 0.55 0.2 0.6 0.2 0.55 0.25 0.6 0.25 0.6 0.25 0.65 0.2 0.6 0.2 0.65 0.2 0.6 0.25 0.65 0.25 0.65 0.25 0.7 0.2 0.65 0.2 0.7 0.2 0.65 0.25 0.7 0.25 0.75 0.25 0.7 0.2 0.7 0.25 0.7 0.2 0.75 0.25 0.75 0.2 0.8 0.25 0.8 0.2 0.75 0.2 0.8 0.25 0.75 0.2 0.75 0.25 0.85 0.2 0.8 0.25 0.85 0.25 0.8 0.25 0.85 0.2 0.8 0.2 0.85 0.25 0.9 0.2 0.85 0.2 0.9 0.2 0.85 0.25 0.9 0.25 0.9 0.25 0.95 0.25 0.9 0.2 0.9 0.2 0.95 0.25 0.95 0.2 0.95 0.25 1 0.25 0.95 0.2 0.95 0.2 1 0.25 1 0.2 0 0.3 0.04999995 0.25 0 0.25 0.04999995 0.25 0 0.3 0.04999995 0.3 0.1 0.3 0.04999995 0.25 0.04999995 0.3 0.04999995 0.25 0.1 0.3 0.1 0.25 0.15 0.25 0.1 0.25 0.15 0.3 0.1 0.25 0.1 0.3 0.15 0.3 0.15 0.3 0.2 0.3 0.15 0.25 0.2 0.25 0.15 0.25 0.2 0.3 0.2 0.3 0.25 0.25 0.2 0.25 0.25 0.25 0.2 0.3 0.25 0.3 0.25 0.3 0.3 0.25 0.25 0.25 0.3 0.25 0.25 0.3 0.3 0.3 0.3 0.3 0.35 0.25 0.3 0.25 0.35 0.25 0.3 0.3 0.35 0.3 0.4 0.3 0.35 0.25 0.35 0.3 0.4 0.3 0.4 0.25 0.35 0.25 0.45 0.3 0.45 0.25 0.4 0.25 0.45 0.3 0.4 0.25 0.4 0.3 0.5 0.25 0.45 0.3 0.5 0.3 0.45 0.3 0.5 0.25 0.45 0.25 0.55 0.25 0.5 0.3 0.55 0.3 0.5 0.3 0.55 0.25 0.5 0.25 0.55 0.3 0.6 0.3 0.55 0.25 0.55 0.25 0.6 0.3 0.6 0.25 0.6 0.3 0.65 0.3 0.6 0.25 0.6 0.25 0.65 0.3 0.65 0.25 0.7 0.3 0.65 0.25 0.65 0.3 0.65 0.25 0.7 0.3 0.7 0.25 0.7 0.3 0.75 0.25 0.7 0.25 0.75 0.25 0.7 0.3 0.75 0.3 0.8 0.25 0.75 0.3 0.8 0.3 0.75 0.3 0.8 0.25 0.75 0.25 0.85 0.25 0.8 0.3 0.85 0.3 0.8 0.3 0.85 0.25 0.8 0.25 0.85 0.3 0.9 0.3 0.85 0.25 0.85 0.25 0.9 0.3 0.9 0.25 0.9 0.3 0.95 0.3 0.9 0.25 0.9 0.25 0.95 0.3 0.95 0.25 0.95 0.3 1 0.25 0.95 0.25 1 0.25 0.95 0.3 1 0.3 0 0.35 0.04999995 0.3 0 0.3 0.04999995 0.3 0 0.35 0.04999995 0.35 0.1 0.3 0.04999995 0.3 0.1 0.35 0.04999995 0.3 0.04999995 0.35 0.1 0.35 0.15 0.3 0.1 0.3 0.15 0.35 0.1 0.3 0.1 0.35 0.15 0.35 0.15 0.35 0.2 0.35 0.15 0.3 0.2 0.3 0.15 0.3 0.2 0.35 0.2 0.35 0.25 0.3 0.2 0.3 0.25 0.3 0.2 0.35 0.25 0.35 0.25 0.35 0.3 0.3 0.25 0.3 0.3 0.3 0.25 0.35 0.3 0.35 0.3 0.35 0.35 0.3 0.3 0.3 0.35 0.3 0.3 0.35 0.35 0.35 0.4 0.35 0.4 0.3 0.35 0.3 0.4 0.35 0.35 0.3 0.35 0.35 0.45 0.3 0.4 0.3 0.45 0.35 0.45 0.35 0.4 0.3 0.4 0.35 0.5 0.3 0.45 0.35 0.5 0.35 0.45 0.35 0.5 0.3 0.45 0.3 0.55 0.3 0.5 0.35 0.55 0.35 0.5 0.35 0.55 0.3 0.5 0.3 0.55 0.35 0.6 0.35 0.55 0.3 0.55 0.3 0.6 0.35 0.6 0.3 0.65 0.35 0.6 0.3 0.6 0.35 0.6 0.3 0.65 0.35 0.65 0.3 0.7 0.35 0.65 0.3 0.65 0.35 0.65 0.3 0.7 0.35 0.7 0.3 0.7 0.35 0.75 0.3 0.7 0.3 0.75 0.3 0.7 0.35 0.75 0.35 0.75 0.35 0.8 0.3 0.75 0.3 0.8 0.3 0.75 0.35 0.8 0.35 0.85 0.3 0.8 0.35 0.85 0.35 0.8 0.35 0.85 0.3 0.8 0.3 0.85 0.35 0.9 0.35 0.85 0.3 0.85 0.3 0.9 0.35 0.9 0.3 0.9 0.35 0.95 0.35 0.9 0.3 0.9 0.3 0.95 0.35 0.95 0.3 0.95 0.35 1 0.3 0.95 0.3 1 0.3 0.95 0.35 1 0.35 0 0.4 0.04999995 0.35 0 0.35 0.04999995 0.35 0 0.4 0.04999995 0.4 0.1 0.35 0.04999995 0.35 0.1 0.4 0.04999995 0.35 0.04999995 0.4 0.1 0.4 0.15 0.35 0.1 0.35 0.15 0.4 0.1 0.35 0.1 0.4 0.15 0.4 0.15 0.4 0.2 0.4 0.15 0.35 0.2 0.35 0.15 0.35 0.2 0.4 0.2 0.4 0.25 0.35 0.2 0.35 0.25 0.35 0.2 0.4 0.25 0.4 0.25 0.4 0.3 0.35 0.25 0.35 0.3 0.35 0.25 0.4 0.3 0.4 0.3 0.4 0.35 0.35 0.3 0.35 0.35 0.35 0.3 0.4 0.35 0.4 0.4 0.4 0.4 0.35 0.35 0.35 0.4 0.4 0.35 0.35 0.35 0.4 0.45 0.35 0.4 0.35 0.45 0.4 0.45 0.4 0.4 0.35 0.4 0.4 0.5 0.35 0.45 0.4 0.5 0.4 0.45 0.4 0.5 0.35 0.45 0.35 0.55 0.35 0.5 0.4 0.55 0.4 0.5 0.4 0.55 0.35 0.5 0.35 0.6 0.4 0.55 0.35 0.55 0.4 0.55 0.35 0.6 0.4 0.6 0.35 0.65 0.4 0.6 0.35 0.6 0.4 0.6 0.35 0.65 0.4 0.65 0.35 0.7 0.4 0.65 0.35 0.65 0.4 0.65 0.35 0.7 0.4 0.7 0.35 0.7 0.4 0.75 0.35 0.7 0.35 0.75 0.35 0.7 0.4 0.75 0.4 0.75 0.4 0.8 0.35 0.75 0.35 0.8 0.35 0.75 0.4 0.8 0.4 0.85 0.35 0.8 0.4 0.85 0.4 0.8 0.4 0.85 0.35 0.8 0.35 0.85 0.4 0.9 0.4 0.85 0.35 0.85 0.35 0.9 0.4 0.9 0.35 0.9 0.4 0.95 0.4 0.9 0.35 0.9 0.35 0.95 0.4 0.95 0.35 0.95 0.4 1 0.35 0.95 0.35 1 0.35 0.95 0.4 1 0.4 0 0.45 0.04999995 0.4 0 0.4 0.04999995 0.4 0 0.45 0.04999995 0.45 0.1 0.4 0.04999995 0.4 0.1 0.45 0.04999995 0.4 0.04999995 0.45 0.1 0.45 0.15 0.4 0.1 0.4 0.15 0.45 0.1 0.4 0.1 0.45 0.15 0.45 0.15 0.45 0.2 0.45 0.15 0.4 0.2 0.4 0.15 0.4 0.2 0.45 0.2 0.45 0.25 0.4 0.2 0.4 0.25 0.4 0.2 0.45 0.25 0.45 0.25 0.45 0.3 0.4 0.25 0.4 0.3 0.4 0.25 0.45 0.3 0.45 0.3 0.45 0.35 0.4 0.3 0.4 0.35 0.4 0.3 0.45 0.35 0.45 0.4 0.45 0.4 0.4 0.35 0.4 0.4 0.45 0.35 0.4 0.35 0.45 0.45 0.4 0.4 0.4 0.45 0.45 0.45 0.45 0.4 0.4 0.4 0.45 0.5 0.4 0.45 0.45 0.5 0.45 0.45 0.45 0.5 0.4 0.45 0.4 0.55 0.4 0.5 0.45 0.55 0.45 0.5 0.45 0.55 0.4 0.5 0.4 0.6 0.45 0.55 0.4 0.55 0.45 0.55 0.4 0.6 0.45 0.6 0.4 0.65 0.45 0.6 0.4 0.6 0.45 0.6 0.4 0.65 0.45 0.65 0.4 0.7 0.45 0.65 0.4 0.65 0.45 0.65 0.4 0.7 0.45 0.7 0.4 0.7 0.45 0.75 0.4 0.7 0.4 0.75 0.4 0.7 0.45 0.75 0.45 0.75 0.45 0.8 0.4 0.75 0.4 0.8 0.4 0.75 0.45 0.8 0.45 0.8 0.45 0.85 0.4 0.8 0.4 0.85 0.4 0.8 0.45 0.85 0.45 0.85 0.45 0.9 0.45 0.85 0.4 0.85 0.4 0.9 0.45 0.9 0.4 0.9 0.45 0.95 0.45 0.9 0.4 0.9 0.4 0.95 0.45 0.95 0.4 0.95 0.45 1 0.4 0.95 0.4 1 0.4 0.95 0.45 1 0.45 0 0.5 0.04999995 0.45 0 0.45 0.04999995 0.45 0 0.5 0.04999995 0.5 0.1 0.45 0.04999995 0.45 0.1 0.5 0.04999995 0.45 0.04999995 0.5 0.1 0.5 0.15 0.45 0.1 0.45 0.15 0.5 0.1 0.45 0.1 0.5 0.15 0.5 0.15 0.5 0.2 0.5 0.15 0.45 0.2 0.45 0.15 0.45 0.2 0.5 0.2 0.5 0.25 0.45 0.2 0.45 0.25 0.45 0.2 0.5 0.25 0.5 0.25 0.5 0.3 0.45 0.25 0.45 0.3 0.45 0.25 0.5 0.3 0.5 0.35 0.45 0.3 0.5 0.35 0.5 0.3 0.5 0.35 0.45 0.3 0.45 0.4 0.5 0.4 0.45 0.35 0.45 0.4 0.5 0.35 0.45 0.35 0.5 0.45 0.45 0.4 0.45 0.45 0.5 0.45 0.5 0.4 0.45 0.4 0.5 0.5 0.45 0.45 0.5 0.5 0.5 0.45 0.5 0.5 0.45 0.45 0.45 0.55 0.45 0.5 0.5 0.55 0.5 0.5 0.5 0.55 0.45 0.5 0.45 0.6 0.5 0.55 0.45 0.55 0.5 0.55 0.45 0.6 0.5 0.6 0.45 0.65 0.5 0.6 0.45 0.6 0.5 0.6 0.45 0.65 0.5 0.65 0.45 0.7 0.5 0.65 0.45 0.65 0.5 0.65 0.45 0.7 0.5 0.7 0.45 0.7 0.5 0.75 0.45 0.7 0.45 0.75 0.45 0.7 0.5 0.75 0.5 0.75 0.5 0.8 0.45 0.75 0.45 0.8 0.45 0.75 0.5 0.8 0.5 0.8 0.5 0.85 0.5 0.8 0.45 0.8 0.45 0.85 0.5 0.85 0.45 0.85 0.5 0.9 0.5 0.85 0.45 0.85 0.45 0.9 0.5 0.9 0.45 0.9 0.5 0.95 0.5 0.9 0.45 0.9 0.45 0.95 0.5 0.95 0.45 0.95 0.5 1 0.45 0.95 0.45 1 0.45 0.95 0.5 1 0.5 0 0.55 0.04999995 0.55 0 0.5 0 0.5 0.04999995 0.55 0.04999995 0.5 0.1 0.5 0.04999995 0.55 0.1 0.55 0.04999995 0.55 0.1 0.5 0.04999995 0.5 0.1 0.55 0.15 0.5 0.1 0.5 0.15 0.5 0.1 0.55 0.15 0.55 0.15 0.55 0.2 0.5 0.15 0.5 0.2 0.5 0.15 0.55 0.2 0.55 0.2 0.55 0.25 0.55 0.2 0.5 0.25 0.5 0.2 0.5 0.25 0.55 0.3 0.5 0.25 0.5 0.3 0.55 0.25 0.5 0.25 0.55 0.3 0.55 0.35 0.5 0.3 0.5 0.35 0.55 0.3 0.5 0.3 0.55 0.35 0.55 0.4 0.5 0.35 0.55 0.4 0.55 0.35 0.55 0.4 0.5 0.35 0.5 0.45 0.5 0.4 0.55 0.45 0.55 0.4 0.55 0.45 0.5 0.4 0.5 0.5 0.5 0.45 0.5 0.5 0.55 0.5 0.55 0.45 0.5 0.45 0.55 0.55 0.55 0.55 0.5 0.5 0.5 0.55 0.55 0.5 0.5 0.5 0.55 0.55 0.55 0.6 0.5 0.55 0.5 0.6 0.5 0.55 0.55 0.6 0.55 0.6 0.55 0.65 0.5 0.6 0.5 0.65 0.5 0.6 0.55 0.65 0.55 0.65 0.55 0.7 0.5 0.65 0.5 0.7 0.5 0.65 0.55 0.7 0.55 0.75 0.55 0.7 0.5 0.7 0.55 0.7 0.5 0.75 0.55 0.75 0.5 0.8 0.55 0.75 0.5 0.75 0.55 0.75 0.5 0.8 0.55 0.8 0.5 0.85 0.55 0.8 0.5 0.8 0.55 0.8 0.5 0.85 0.55 0.85 0.5 0.85 0.55 0.9 0.5 0.85 0.5 0.9 0.5 0.85 0.55 0.9 0.55 0.9 0.55 0.95 0.5 0.9 0.5 0.95 0.5 0.9 0.55 0.95 0.55 1 0.55 0.95 0.5 0.95 0.55 0.95 0.5 1 0.55 1 0.5 0 0.6 0.04999995 0.6 0 0.55 0 0.55 0.04999995 0.6 0.04999995 0.55 0.1 0.55 0.04999995 0.6 0.1 0.6 0.04999995 0.6 0.1 0.55 0.04999995 0.55 0.1 0.6 0.15 0.55 0.1 0.55 0.15 0.55 0.1 0.6 0.15 0.6 0.15 0.6 0.2 0.55 0.15 0.55 0.2 0.55 0.15 0.6 0.2 0.6 0.2 0.6 0.25 0.6 0.2 0.55 0.25 0.55 0.2 0.55 0.25 0.6 0.3 0.55 0.25 0.55 0.3 0.6 0.25 0.55 0.25 0.6 0.3 0.6 0.35 0.55 0.3 0.55 0.35 0.6 0.3 0.55 0.3 0.6 0.35 0.6 0.4 0.55 0.35 0.6 0.4 0.6 0.35 0.6 0.4 0.55 0.35 0.55 0.45 0.55 0.4 0.6 0.45 0.6 0.4 0.6 0.45 0.55 0.4 0.55 0.5 0.55 0.45 0.55 0.5 0.6 0.5 0.6 0.45 0.55 0.45 0.6 0.55 0.6 0.55 0.55 0.5 0.55 0.55 0.6 0.5 0.55 0.5 0.6 0.6 0.6 0.6 0.55 0.55 0.55 0.6 0.6 0.55 0.55 0.55 0.6 0.6 0.6 0.65 0.55 0.6 0.55 0.65 0.55 0.6 0.6 0.65 0.6 0.65 0.6 0.7 0.55 0.65 0.55 0.7 0.55 0.65 0.6 0.7 0.6 0.75 0.6 0.7 0.55 0.7 0.6 0.7 0.55 0.75 0.6 0.75 0.55 0.8 0.6 0.75 0.55 0.75 0.6 0.75 0.55 0.8 0.6 0.8 0.55 0.85 0.6 0.8 0.55 0.8 0.6 0.8 0.55 0.85 0.6 0.85 0.55 0.85 0.6 0.9 0.55 0.85 0.55 0.9 0.55 0.85 0.6 0.9 0.6 0.9 0.6 0.95 0.55 0.9 0.55 0.95 0.55 0.9 0.6 0.95 0.6 1 0.6 0.95 0.55 0.95 0.6 0.95 0.55 1 0.6 1 0.55 0 0.65 0.04999995 0.65 0 0.6 0 0.6 0.04999995 0.65 0.04999995 0.6 0.04999995 0.65 0.1 0.6 0.04999995 0.6 0.1 0.6 0.04999995 0.65 0.1 0.65 0.1 0.65 0.15 0.6 0.1 0.6 0.15 0.6 0.1 0.65 0.15 0.65 0.15 0.65 0.2 0.6 0.15 0.6 0.2 0.6 0.15 0.65 0.2 0.65 0.2 0.65 0.25 0.65 0.2 0.6 0.25 0.6 0.2 0.6 0.25 0.65 0.3 0.6 0.25 0.6 0.3 0.65 0.25 0.6 0.25 0.65 0.3 0.65 0.35 0.6 0.3 0.6 0.35 0.65 0.3 0.6 0.3 0.65 0.35 0.65 0.4 0.6 0.35 0.65 0.4 0.65 0.35 0.65 0.4 0.6 0.35 0.6 0.45 0.6 0.4 0.65 0.45 0.65 0.4 0.65 0.45 0.6 0.4 0.6 0.5 0.6 0.45 0.6 0.5 0.65 0.5 0.65 0.45 0.6 0.45 0.65 0.55 0.65 0.55 0.6 0.5 0.6 0.55 0.65 0.5 0.6 0.5 0.65 0.6 0.6 0.55 0.65 0.6 0.65 0.55 0.65 0.6 0.6 0.55 0.6 0.65 0.6 0.6 0.65 0.65 0.65 0.6 0.65 0.65 0.6 0.6 0.6 0.65 0.65 0.7 0.6 0.65 0.6 0.7 0.6 0.65 0.65 0.7 0.65 0.75 0.65 0.7 0.6 0.7 0.65 0.7 0.6 0.75 0.65 0.75 0.6 0.8 0.65 0.75 0.6 0.75 0.65 0.75 0.6 0.8 0.65 0.8 0.6 0.85 0.65 0.8 0.6 0.8 0.65 0.8 0.6 0.85 0.65 0.85 0.6 0.85 0.65 0.9 0.6 0.85 0.6 0.9 0.6 0.85 0.65 0.9 0.65 0.9 0.65 0.95 0.6 0.9 0.6 0.95 0.6 0.9 0.65 0.95 0.65 1 0.65 0.95 0.6 0.95 0.65 0.95 0.6 1 0.65 1 0.6 0 0.7 0.04999995 0.7 0 0.65 0 0.65 0.04999995 0.7 0.04999995 0.65 0.04999995 0.7 0.1 0.65 0.04999995 0.65 0.1 0.65 0.04999995 0.7 0.1 0.7 0.1 0.7 0.15 0.65 0.1 0.65 0.15 0.65 0.1 0.7 0.15 0.7 0.15 0.7 0.2 0.65 0.15 0.65 0.2 0.65 0.15 0.7 0.2 0.7 0.2 0.7 0.25 0.7 0.2 0.65 0.25 0.65 0.2 0.65 0.25 0.7 0.3 0.65 0.25 0.65 0.3 0.7 0.25 0.65 0.25 0.7 0.3 0.7 0.35 0.65 0.3 0.65 0.35 0.7 0.3 0.65 0.3 0.7 0.35 0.7 0.4 0.65 0.35 0.7 0.4 0.7 0.35 0.7 0.4 0.65 0.35 0.65 0.45 0.65 0.4 0.7 0.45 0.7 0.4 0.7 0.45 0.65 0.4 0.65 0.5 0.65 0.45 0.65 0.5 0.7 0.5 0.7 0.45 0.65 0.45 0.7 0.55 0.7 0.55 0.65 0.5 0.65 0.55 0.7 0.5 0.65 0.5 0.7 0.6 0.65 0.55 0.7 0.6 0.7 0.55 0.7 0.6 0.65 0.55 0.65 0.65 0.65 0.6 0.7 0.65 0.7 0.6 0.7 0.65 0.65 0.6 0.65 0.65 0.7 0.7 0.65 0.65 0.65 0.7 0.65 0.65 0.7 0.7 0.7 0.75 0.7 0.7 0.65 0.7 0.7 0.7 0.65 0.75 0.7 0.75 0.65 0.8 0.7 0.75 0.65 0.75 0.7 0.75 0.65 0.8 0.7 0.8 0.65 0.85 0.7 0.8 0.65 0.8 0.7 0.8 0.65 0.85 0.7 0.85 0.65 0.85 0.7 0.9 0.65 0.85 0.65 0.9 0.65 0.85 0.7 0.9 0.7 0.9 0.7 0.95 0.65 0.9 0.65 0.95 0.65 0.9 0.7 0.95 0.7 1 0.7 0.95 0.65 0.95 0.7 0.95 0.65 1 0.7 1 0.65 0 0.75 0.04999995 0.75 0 0.7 0.04999995 0.7 0 0.7 0.04999995 0.75 0.1 0.7 0.04999995 0.75 0.1 0.75 0.04999995 0.75 0.1 0.7 0.04999995 0.7 0.1 0.75 0.15 0.7 0.1 0.7 0.15 0.7 0.1 0.75 0.15 0.75 0.15 0.75 0.2 0.7 0.15 0.7 0.2 0.7 0.15 0.75 0.2 0.75 0.25 0.7 0.2 0.7 0.25 0.75 0.2 0.7 0.2 0.75 0.25 0.75 0.3 0.7 0.25 0.7 0.3 0.75 0.25 0.7 0.25 0.75 0.3 0.75 0.3 0.75 0.35 0.75 0.3 0.7 0.35 0.7 0.3 0.7 0.35 0.75 0.4 0.7 0.35 0.75 0.4 0.75 0.35 0.75 0.4 0.7 0.35 0.7 0.45 0.7 0.4 0.75 0.45 0.75 0.4 0.75 0.45 0.7 0.4 0.7 0.5 0.7 0.45 0.7 0.5 0.75 0.5 0.75 0.45 0.7 0.45 0.75 0.55 0.75 0.55 0.7 0.5 0.7 0.55 0.75 0.5 0.7 0.5 0.75 0.55 0.75 0.6 0.7 0.55 0.7 0.6 0.7 0.55 0.75 0.6 0.75 0.65 0.7 0.6 0.75 0.65 0.75 0.6 0.75 0.65 0.7 0.6 0.7 0.7 0.7 0.65 0.75 0.7 0.75 0.65 0.75 0.7 0.7 0.65 0.7 0.75 0.75 0.7 0.7 0.7 0.75 0.7 0.7 0.75 0.75 0.75 0.7 0.8 0.75 0.75 0.7 0.75 0.75 0.75 0.7 0.8 0.75 0.8 0.7 0.85 0.7 0.8 0.75 0.85 0.75 0.8 0.75 0.85 0.7 0.8 0.7 0.85 0.75 0.9 0.7 0.85 0.7 0.9 0.7 0.85 0.75 0.9 0.75 0.9 0.75 0.95 0.7 0.9 0.7 0.95 0.7 0.9 0.75 0.95 0.75 0.95 0.75 1 0.75 0.95 0.7 0.95 0.7 1 0.75 1 0.7 0 0.8 0.04999995 0.75 0 0.75 0.04999995 0.75 0 0.8 0.04999995 0.8 0.1 0.75 0.04999995 0.8 0.1 0.8 0.04999995 0.8 0.1 0.75 0.04999995 0.75 0.15 0.8 0.15 0.75 0.1 0.75 0.15 0.8 0.1 0.75 0.1 0.8 0.2 0.75 0.15 0.8 0.2 0.8 0.15 0.8 0.2 0.75 0.15 0.75 0.25 0.8 0.2 0.75 0.2 0.8 0.2 0.75 0.25 0.8 0.25 0.75 0.25 0.8 0.3 0.75 0.25 0.75 0.3 0.75 0.25 0.8 0.3 0.8 0.3 0.8 0.35 0.8 0.3 0.75 0.35 0.75 0.3 0.75 0.35 0.8 0.4 0.75 0.35 0.75 0.4 0.8 0.35 0.75 0.35 0.8 0.4 0.8 0.45 0.75 0.4 0.75 0.45 0.8 0.4 0.75 0.4 0.8 0.45 0.8 0.45 0.75 0.5 0.8 0.5 0.75 0.5 0.8 0.45 0.75 0.45 0.8 0.55 0.75 0.5 0.8 0.55 0.8 0.5 0.8 0.55 0.75 0.5 0.75 0.55 0.8 0.6 0.75 0.55 0.75 0.6 0.75 0.55 0.8 0.6 0.8 0.65 0.8 0.6 0.75 0.6 0.8 0.6 0.75 0.65 0.8 0.65 0.75 0.65 0.8 0.7 0.8 0.65 0.75 0.7 0.75 0.65 0.75 0.7 0.8 0.75 0.75 0.7 0.75 0.75 0.8 0.7 0.75 0.7 0.8 0.75 0.8 0.8 0.75 0.75 0.75 0.8 0.8 0.8 0.8 0.75 0.75 0.75 0.8 0.8 0.75 0.85 0.8 0.85 0.75 0.85 0.8 0.8 0.75 0.8 0.8 0.9 0.8 0.85 0.75 0.85 0.8 0.85 0.75 0.9 0.8 0.9 0.75 0.9 0.8 0.95 0.75 0.9 0.75 0.95 0.75 0.9 0.8 0.95 0.8 0.95 0.8 1 0.75 0.95 0.75 1 0.75 0.95 0.8 1 0.8 0.04999995 0.8 0 0.8 0.04999995 0.85 0 0.8 0 0.85 0.04999995 0.85 0.1 0.8 0.04999995 0.85 0.1 0.85 0.04999995 0.85 0.1 0.8 0.04999995 0.8 0.15 0.8 0.1 0.85 0.15 0.85 0.1 0.85 0.15 0.8 0.1 0.8 0.2 0.8 0.15 0.85 0.2 0.85 0.15 0.85 0.2 0.8 0.15 0.8 0.2 0.85 0.25 0.8 0.2 0.8 0.25 0.8 0.2 0.85 0.25 0.85 0.3 0.85 0.25 0.8 0.25 0.85 0.25 0.8 0.3 0.85 0.3 0.8 0.3 0.85 0.35 0.85 0.3 0.8 0.35 0.8 0.3 0.8 0.35 0.85 0.4 0.8 0.35 0.8 0.4 0.85 0.35 0.8 0.35 0.85 0.4 0.85 0.45 0.8 0.4 0.85 0.45 0.85 0.4 0.85 0.45 0.8 0.4 0.8 0.45 0.8 0.5 0.85 0.5 0.8 0.5 0.85 0.45 0.8 0.45 0.85 0.5 0.8 0.55 0.85 0.55 0.8 0.55 0.85 0.5 0.8 0.5 0.85 0.6 0.85 0.55 0.8 0.55 0.85 0.55 0.8 0.6 0.85 0.6 0.8 0.65 0.85 0.6 0.8 0.6 0.85 0.6 0.8 0.65 0.85 0.65 0.8 0.7 0.8 0.65 0.85 0.7 0.85 0.65 0.85 0.7 0.8 0.65 0.8 0.75 0.8 0.7 0.85 0.75 0.85 0.7 0.85 0.75 0.8 0.7 0.8 0.8 0.85 0.8 0.8 0.75 0.8 0.8 0.85 0.75 0.8 0.75 0.85 0.8 0.8 0.85 0.85 0.85 0.8 0.85 0.85 0.8 0.8 0.8 0.85 0.85 0.85 0.9 0.8 0.85 0.8 0.9 0.8 0.85 0.85 0.9 0.85 0.9 0.85 0.95 0.8 0.9 0.8 0.95 0.8 0.9 0.85 0.95 0.85 1 0.85 0.95 0.8 0.95 0.85 0.95 0.8 1 0.85 1 0.8 0.04999995 0.85 0 0.85 0.04999995 0.9 0 0.85 0 0.9 0.04999995 0.9 0.1 0.9 0.1 0.85 0.04999995 0.85 0.04999995 0.85 0.04999995 0.9 0.1 0.9 0.15 0.85 0.1 0.9 0.15 0.9 0.1 0.9 0.15 0.85 0.1 0.85 0.2 0.85 0.15 0.9 0.2 0.9 0.15 0.9 0.2 0.85 0.15 0.85 0.25 0.9 0.2 0.85 0.2 0.9 0.2 0.85 0.25 0.9 0.25 0.85 0.3 0.9 0.25 0.85 0.25 0.9 0.25 0.85 0.3 0.9 0.3 0.85 0.35 0.85 0.3 0.85 0.35 0.9 0.3 0.85 0.3 0.9 0.35 0.9 0.4 0.85 0.35 0.9 0.4 0.9 0.35 0.9 0.4 0.85 0.35 0.85 0.45 0.85 0.4 0.9 0.45 0.9 0.4 0.9 0.45 0.85 0.4 0.85 0.5 0.85 0.45 0.9 0.5 0.9 0.45 0.9 0.5 0.85 0.45 0.85 0.5 0.85 0.55 0.9 0.55 0.85 0.55 0.9 0.5 0.85 0.5 0.9 0.55 0.9 0.6 0.85 0.55 0.85 0.6 0.85 0.55 0.9 0.6 0.9 0.65 0.9 0.6 0.85 0.6 0.9 0.6 0.85 0.65 0.9 0.65 0.85 0.7 0.85 0.65 0.9 0.7 0.9 0.65 0.9 0.7 0.85 0.65 0.85 0.75 0.85 0.7 0.85 0.75 0.9 0.7 0.85 0.7 0.9 0.75 0.9 0.8 0.85 0.75 0.9 0.8 0.9 0.75 0.9 0.8 0.85 0.75 0.85 0.85 0.85 0.8 0.9 0.85 0.9 0.8 0.9 0.85 0.85 0.8 0.85 0.9 0.9 0.85 0.85 0.85 0.9 0.85 0.85 0.9 0.9 0.9 0.85 0.95 0.9 0.9 0.85 0.9 0.9 0.9 0.85 0.95 0.9 0.95 0.85 1 0.9 0.95 0.85 0.95 0.9 0.95 0.85 1 0.9 1 0.85 0.04999995 0.9 0 0.9 0.04999995 0.95 0 0.9 0 0.95 0.04999995 0.95 0.1 0.95 0.1 0.9 0.04999995 0.9 0.04999995 0.9 0.04999995 0.95 0.1 0.95 0.15 0.9 0.1 0.95 0.15 0.95 0.1 0.95 0.15 0.9 0.1 0.9 0.15 0.9 0.2 0.95 0.2 0.9 0.2 0.95 0.15 0.9 0.15 0.95 0.25 0.95 0.2 0.9 0.2 0.95 0.2 0.9 0.25 0.95 0.25 0.9 0.25 0.95 0.3 0.9 0.25 0.9 0.3 0.9 0.25 0.95 0.3 0.95 0.3 0.9 0.3 0.95 0.35 0.95 0.3 0.9 0.35 0.95 0.35 0.9 0.4 0.9 0.35 0.95 0.4 0.95 0.35 0.95 0.4 0.9 0.35 0.9 0.45 0.9 0.4 0.95 0.45 0.95 0.4 0.95 0.45 0.9 0.4 0.9 0.5 0.9 0.45 0.95 0.5 0.95 0.45 0.95 0.5 0.9 0.45 0.9 0.55 0.9 0.5 0.95 0.55 0.95 0.5 0.95 0.55 0.9 0.5 0.9 0.6 0.95 0.55 0.9 0.55 0.95 0.55 0.9 0.6 0.95 0.6 0.9 0.65 0.95 0.6 0.9 0.6 0.95 0.6 0.9 0.65 0.95 0.65 0.9 0.7 0.9 0.65 0.95 0.7 0.95 0.65 0.95 0.7 0.9 0.65 0.9 0.75 0.9 0.7 0.95 0.75 0.95 0.7 0.95 0.75 0.9 0.7 0.9 0.8 0.9 0.75 0.95 0.8 0.95 0.75 0.95 0.8 0.9 0.75 0.9 0.85 0.9 0.8 0.95 0.85 0.95 0.8 0.95 0.85 0.9 0.8 0.9 0.9 0.9 0.85 0.95 0.9 0.95 0.85 0.95 0.9 0.9 0.85 0.9 0.95 0.95 0.9 0.9 0.9 0.95 0.9 0.9 0.95 0.95 0.95 0.9 0.95 0.95 1 0.9 0.95 0.9 1 0.9 0.95 0.95 1 0.95 0.04999995 0.04999995 0.02499997 0 0 0.04999995 0.1 0.04999995 0.07499998 0 0.04999995 0.04999995 0.15 0.04999995 0.125 0 0.1 0.04999995 0.2 0.04999995 0.175 0 0.15 0.04999995 0.25 0.04999995 0.225 0 0.2 0.04999995 0.3 0.04999995 0.275 0 0.25 0.04999995 0.35 0.04999995 0.325 0 0.3 0.04999995 0.4 0.04999995 0.375 0 0.35 0.04999995 0.45 0.04999995 0.425 0 0.4 0.04999995 0.5 0.04999995 0.475 0 0.45 0.04999995 0.55 0.04999995 0.525 0 0.5 0.04999995 0.6 0.04999995 0.575 0 0.55 0.04999995 0.65 0.04999995 0.625 0 0.6 0.04999995 0.7 0.04999995 0.675 0 0.65 0.04999995 0.75 0.04999995 0.725 0 0.7 0.04999995 0.8 0.04999995 0.775 0 0.75 0.04999995 0.85 0.04999995 0.825 0 0.8 0.04999995 0.9 0.04999995 0.875 0 0.85 0.04999995 0.95 0.04999995 0.925 0 0.9 0.04999995 1 0.04999995 0.975 0 0.95 0.04999995 0 0.95 0.02499997 1 0.04999995 0.95 0.04999995 0.95 0.07499998 1 0.1 0.95 0.1 0.95 0.125 1 0.15 0.95 0.15 0.95 0.175 1 0.2 0.95 0.2 0.95 0.225 1 0.25 0.95 0.25 0.95 0.275 1 0.3 0.95 0.3 0.95 0.325 1 0.35 0.95 0.35 0.95 0.375 1 0.4 0.95 0.4 0.95 0.425 1 0.45 0.95 0.45 0.95 0.475 1 0.5 0.95 0.5 0.95 0.525 1 0.55 0.95 0.55 0.95 0.575 1 0.6 0.95 0.6 0.95 0.625 1 0.65 0.95 0.65 0.95 0.675 1 0.7 0.95 0.7 0.95 0.725 1 0.75 0.95 0.75 0.95 0.775 1 0.8 0.95 0.8 0.95 0.825 1 0.85 0.95 0.85 0.95 0.875 1 0.9 0.95 0.9 0.95 0.925 1 0.95 0.95 0.95 0.95 0.975 1 1 0.95</float_array>
          <technique_common>
            <accessor source="#Alpha_JointsMesh_328-mesh-map-0-array" count="2280" stride="2">
              <param name="S" type="float"/>
              <param name="T" type="float"/>
            </accessor>
          </technique_common>
        </source>
        <vertices id="Alpha_JointsMesh_328-mesh-vertices">
          <input semantic="POSITION" source="#Alpha_JointsMesh_328-mesh-positions"/>
        </vertices>
        <triangles material="Alpha_Joints_MAT_007-material" count="760">
          <input semantic="VERTEX" source="#Alpha_JointsMesh_328-mesh-vertices" offset="0"/>
          <input semantic="NORMAL" source="#Alpha_JointsMesh_328-mesh-normals" offset="1"/>
          <input semantic="TEXCOORD" source="#Alpha_JointsMesh_328-mesh-map-0" offset="2" set="0"/>
          <p>20 0 0 1 1 1 0 2 2 1 1 3 20 0 4 21 3 5 2 4 6 21 3 7 22 5 8 21 3 9 2 4 10 1 1 11 3 6 12 22 5 13 23 7 14 22 5 15 3 6 16 2 4 17 24 8 18 4 9 19 3 6 20 3 6 21 23 7 22 24 8 23 24 8 24 5 10 25 4 9 26 5 10 27 24 8 28 25 11 29 25 11 30 6 12 31 5 10 32 6 12 33 25 11 34 26 13 35 26 13 36 7 14 37 6 12 38 7 14 39 26 13 40 27 15 41 28 16 42 7 14 43 27 15 44 7 14 45 28 16 46 8 17 47 29 18 48 9 19 49 8 17 50 29 18 51 8 17 52 28 16 53 30 20 54 10 21 55 9 19 56 30 20 57 9 19 58 29 18 59 31 22 60 11 23 61 10 21 62 10 21 63 30 20 64 31 22 65 31 22 66 12 24 67 11 23 68 12 24 69 31 22 70 32 25 71 32 25 72 13 26 73 12 24 74 13 26 75 32 25 76 33 27 77 34 28 78 13 26 79 33 27 80 13 26 81 34 28 82 14 29 83 35 30 84 14 29 85 34 28 86 14 29 87 35 30 88 15 31 89 36 32 90 16 33 91 15 31 92 36 32 93 15 31 94 35 30 95 37 34 96 17 35 97 16 33 98 16 33 99 36 32 100 37 34 101 17 35 102 37 34 103 38 36 104 17 35 105 38 36 106 18 37 107 38 36 108 19 38 109 18 37 110 19 38 111 38 36 112 39 39 113 39 39 114 20 0 115 19 38 116 19 38 117 20 0 118 0 2 119 40 40 120 21 3 121 20 0 122 21 3 123 40 40 124 41 41 125 42 42 126 21 3 127 41 41 128 21 3 129 42 42 130 22 5 131 43 43 132 23 7 133 22 5 134 43 43 135 22 5 136 42 42 137 44 44 138 24 8 139 23 7 140 23 7 141 43 43 142 44 44 143 44 44 144 25 11 145 24 8 146 25 11 147 44 44 148 45 45 149 45 45 150 46 46 151 25 11 152 25 11 153 46 46 154 26 13 155 46 46 156 27 15 157 26 13 158 27 15 159 46 46 160 47 47 161 48 48 162 27 15 163 47 47 164 27 15 165 48 48 166 28 16 167 49 49 168 29 18 169 28 16 170 49 49 171 28 16 172 48 48 173 50 50 174 30 20 175 29 18 176 50 50 177 29 18 178 49 49 179 31 22 180 50 50 181 51 51 182 50 50 183 31 22 184 30 20 185 31 22 186 51 51 187 52 52 188 31 22 189 52 52 190 32 25 191 52 52 192 33 27 193 32 25 194 33 27 195 52 52 196 53 53 197 53 53 198 34 28 199 33 27 200 34 28 201 53 53 202 54 54 203 54 54 204 35 30 205 34 28 206 35 30 207 54 54 208 55 55 209 56 56 210 36 32 211 35 30 212 56 56 213 35 30 214 55 55 215 37 34 216 56 56 217 57 57 218 56 56 219 37 34 220 36 32 221 57 57 222 38 36 223 37 34 224 38 36 225 57 57 226 58 58 227 58 58 228 39 39 229 38 36 230 39 39 231 58 58 232 59 59 233 59 59 234 40 40 235 39 39 236 39 39 237 40 40 238 20 0 239 61 60 240 40 40 241 60 61 242 40 40 243 61 60 244 41 41 245 62 62 246 41 41 247 61 60 248 41 41 249 62 62 250 42 42 251 63 63 252 43 43 253 42 42 254 63 63 255 42 42 256 62 62 257 44 44 258 43 43 259 64 64 260 43 43 261 63 63 262 64 64 263 64 64 264 65 65 265 44 44 266 44 44 267 65 65 268 45 45 269 65 65 270 46 46 271 45 45 272 46 46 273 65 65 274 66 66 275 66 66 276 47 47 277 46 46 278 47 47 279 66 66 280 67 67 281 67 67 282 48 48 283 47 47 284 48 48 285 67 67 286 68 68 287 48 48 288 69 69 289 49 49 290 69 69 291 48 48 292 68 68 293 50 50 294 69 69 295 70 70 296 69 69 297 50 50 298 49 49 299 51 51 300 70 70 301 71 71 302 70 70 303 51 51 304 50 50 305 71 71 306 72 72 307 51 51 308 51 51 309 72 72 310 52 52 311 72 72 312 73 73 313 52 52 314 52 52 315 73 73 316 53 53 317 74 74 318 53 53 319 73 73 320 53 53 321 74 74 322 54 54 323 75 75 324 54 54 325 74 74 326 54 54 327 75 75 328 55 55 329 56 56 330 75 75 331 76 76 332 75 75 333 56 56 334 55 55 335 57 57 336 56 56 337 77 77 338 56 56 339 76 76 340 77 77 341 57 57 342 77 77 343 78 78 344 57 57 345 78 78 346 58 58 347 78 78 348 79 79 349 58 58 350 58 58 351 79 79 352 59 59 353 79 79 354 40 40 355 59 59 356 40 40 357 79 79 358 60 61 359 81 80 360 60 61 361 80 81 362 60 61 363 81 80 364 61 60 365 82 82 366 61 60 367 81 80 368 61 60 369 82 82 370 62 62 371 63 63 372 82 82 373 83 83 374 82 82 375 63 63 376 62 62 377 64 64 378 63 63 379 84 84 380 63 63 381 83 83 382 84 84 383 84 84 384 65 65 385 64 64 386 65 65 387 84 84 388 85 85 389 85 85 390 86 86 391 65 65 392 65 65 393 86 86 394 66 66 395 86 86 396 67 67 397 66 66 398 67 67 399 86 86 400 87 87 401 87 87 402 68 68 403 67 67 404 68 68 405 87 87 406 88 88 407 69 69 408 88 88 409 89 89 410 88 88 411 69 69 412 68 68 413 70 70 414 89 89 415 90 90 416 89 89 417 70 70 418 69 69 419 71 71 420 90 90 421 91 91 422 90 90 423 71 71 424 70 70 425 91 91 426 72 72 427 71 71 428 72 72 429 91 91 430 92 92 431 92 92 432 73 73 433 72 72 434 73 73 435 92 92 436 93 93 437 93 93 438 74 74 439 73 73 440 74 74 441 93 93 442 94 94 443 95 95 444 74 74 445 94 94 446 74 74 447 95 95 448 75 75 449 96 96 450 76 76 451 75 75 452 96 96 453 75 75 454 95 95 455 77 77 456 96 96 457 97 97 458 96 96 459 77 77 460 76 76 461 97 97 462 78 78 463 77 77 464 78 78 465 97 97 466 98 98 467 98 98 468 99 99 469 78 78 470 78 78 471 99 99 472 79 79 473 99 99 474 80 81 475 79 79 476 79 79 477 80 81 478 60 61 479 100 100 480 81 80 481 80 81 482 81 80 483 100 100 484 101 101 485 102 102 486 81 80 487 101 101 488 81 80 489 102 102 490 82 82 491 83 83 492 82 82 493 103 103 494 82 82 495 102 102 496 103 103 497 103 103 498 104 104 499 83 83 500 84 84 501 83 83 502 104 104 503 104 104 504 85 85 505 84 84 506 85 85 507 104 104 508 105 105 509 105 105 510 86 86 511 85 85 512 86 86 513 105 105 514 106 106 515 106 106 516 87 87 517 86 86 518 87 87 519 106 106 520 107 107 521 108 108 522 87 87 523 107 107 524 108 108 525 88 88 526 87 87 527 109 109 528 89 89 529 88 88 530 109 109 531 88 88 532 108 108 533 90 90 534 109 109 535 110 110 536 109 109 537 90 90 538 89 89 539 91 91 540 110 110 541 111 111 542 110 110 543 91 91 544 90 90 545 111 111 546 112 112 547 91 91 548 91 91 549 112 112 550 92 92 551 112 112 552 113 113 553 92 92 554 92 92 555 113 113 556 93 93 557 114 114 558 93 93 559 113 113 560 93 93 561 114 114 562 94 94 563 114 114 564 95 95 565 94 94 566 95 95 567 114 114 568 115 115 569 96 96 570 115 115 571 116 116 572 115 115 573 96 96 574 95 95 575 97 97 576 116 116 577 117 117 578 116 116 579 97 97 580 96 96 581 117 117 582 118 118 583 97 97 584 97 97 585 118 118 586 98 98 587 118 118 588 119 119 589 98 98 590 98 98 591 119 119 592 99 99 593 119 119 594 80 81 595 99 99 596 80 81 597 119 119 598 100 100 599 120 120 600 101 101 601 100 100 602 101 101 603 120 120 604 121 121 605 102 102 606 101 101 607 122 122 608 101 101 609 121 121 610 122 122 611 103 103 612 102 102 613 123 123 614 102 102 615 122 122 616 123 123 617 123 123 618 124 124 619 103 103 620 104 104 621 103 103 622 124 124 623 124 124 624 105 105 625 104 104 626 105 105 627 124 124 628 125 125 629 125 125 630 106 106 631 105 105 632 106 106 633 125 125 634 126 126 635 126 126 636 107 107 637 106 106 638 107 107 639 126 126 640 127 127 641 128 128 642 108 108 643 107 107 644 128 128 645 107 107 646 127 127 647 109 109 648 108 108 649 129 129 650 129 129 651 108 108 652 128 128 653 110 110 654 129 129 655 130 130 656 129 129 657 110 110 658 109 109 659 111 111 660 130 130 661 131 131 662 130 130 663 111 111 664 110 110 665 131 131 666 132 132 667 111 111 668 111 111 669 132 132 670 112 112 671 133 133 672 112 112 673 132 132 674 112 112 675 133 133 676 113 113 677 134 134 678 113 113 679 133 133 680 113 113 681 134 134 682 114 114 683 134 134 684 115 115 685 114 114 686 115 115 687 134 134 688 135 135 689 135 135 690 116 116 691 115 115 692 116 116 693 135 135 694 136 136 695 117 117 696 136 136 697 137 137 698 136 136 699 117 117 700 116 116 701 137 137 702 138 138 703 117 117 704 117 117 705 138 138 706 118 118 707 138 138 708 139 139 709 118 118 710 118 118 711 139 139 712 119 119 713 139 139 714 100 100 715 119 119 716 100 100 717 139 139 718 120 120 719 140 140 720 121 121 721 120 120 722 121 121 723 140 140 724 141 141 725 122 122 726 121 121 727 142 142 728 121 121 729 141 141 730 142 142 731 123 123 732 122 122 733 143 143 734 122 122 735 142 142 736 143 143 737 143 143 738 144 144 739 123 123 740 124 124 741 123 123 742 144 144 743 144 144 744 125 125 745 124 124 746 125 125 747 144 144 748 145 145 749 145 145 750 126 126 751 125 125 752 126 126 753 145 145 754 146 146 755 146 146 756 127 127 757 126 126 758 127 127 759 146 146 760 147 147 761 148 148 762 128 128 763 127 127 764 148 148 765 127 127 766 147 147 767 129 129 768 128 128 769 149 149 770 149 149 771 128 128 772 148 148 773 130 130 774 149 149 775 150 150 776 149 149 777 130 130 778 129 129 779 131 131 780 150 150 781 151 151 782 150 150 783 131 131 784 130 130 785 152 152 786 131 131 787 151 151 788 131 131 789 152 152 790 132 132 791 153 153 792 132 132 793 152 152 794 132 132 795 153 153 796 133 133 797 154 154 798 133 133 799 153 153 800 133 133 801 154 154 802 134 134 803 154 154 804 135 135 805 134 134 806 135 135 807 154 154 808 155 155 809 155 155 810 136 136 811 135 135 812 136 136 813 155 155 814 156 156 815 137 137 816 156 156 817 157 157 818 156 156 819 137 137 820 136 136 821 157 157 822 158 158 823 137 137 824 137 137 825 158 158 826 138 138 827 158 158 828 159 159 829 138 138 830 138 138 831 159 159 832 139 139 833 159 159 834 120 120 835 139 139 836 120 120 837 159 159 838 140 140 839 160 160 840 141 141 841 140 140 842 141 141 843 160 160 844 161 161 845 142 142 846 141 141 847 162 162 848 141 141 849 161 161 850 162 162 851 143 143 852 142 142 853 163 163 854 142 142 855 162 162 856 163 163 857 163 163 858 164 164 859 143 143 860 144 144 861 143 143 862 164 164 863 164 164 864 145 145 865 144 144 866 145 145 867 164 164 868 165 165 869 165 165 870 146 146 871 145 145 872 146 146 873 165 165 874 166 166 875 166 166 876 147 147 877 146 146 878 147 147 879 166 166 880 167 167 881 168 168 882 148 148 883 147 147 884 168 168 885 147 147 886 167 167 887 149 149 888 148 148 889 169 169 890 169 169 891 148 148 892 168 168 893 150 150 894 169 169 895 170 170 896 169 169 897 150 150 898 149 149 899 151 151 900 170 170 901 171 171 902 170 170 903 151 151 904 150 150 905 172 172 906 151 151 907 171 171 908 151 151 909 172 172 910 152 152 911 173 173 912 152 152 913 172 172 914 152 152 915 173 173 916 153 153 917 174 174 918 153 153 919 173 173 920 153 153 921 174 174 922 154 154 923 174 174 924 155 155 925 154 154 926 155 155 927 174 174 928 175 175 929 175 175 930 156 156 931 155 155 932 156 156 933 175 175 934 176 176 935 176 176 936 157 157 937 156 156 938 157 157 939 176 176 940 177 177 941 177 177 942 178 178 943 157 157 944 157 157 945 178 178 946 158 158 947 178 178 948 179 179 949 158 158 950 158 158 951 179 179 952 159 159 953 179 179 954 140 140 955 159 159 956 140 140 957 179 179 958 160 160 959 180 180 960 161 161 961 160 160 962 161 161 963 180 180 964 181 181 965 162 162 966 161 161 967 182 182 968 161 161 969 181 181 970 182 182 971 163 163 972 162 162 973 183 183 974 162 162 975 182 182 976 183 183 977 183 183 978 184 184 979 163 163 980 164 164 981 163 163 982 184 184 983 184 184 984 165 165 985 164 164 986 165 165 987 184 184 988 185 185 989 185 185 990 166 166 991 165 165 992 166 166 993 185 185 994 186 186 995 167 167 996 186 186 997 187 187 998 186 186 999 167 167 1000 166 166 1001 188 188 1002 168 168 1003 167 167 1004 188 188 1005 167 167 1006 187 187 1007 169 169 1008 168 168 1009 189 189 1010 189 189 1011 168 168 1012 188 188 1013 170 170 1014 189 189 1015 190 190 1016 189 189 1017 170 170 1018 169 169 1019 171 171 1020 190 190 1021 191 191 1022 190 190 1023 171 171 1024 170 170 1025 192 192 1026 171 171 1027 191 191 1028 171 171 1029 192 192 1030 172 172 1031 193 193 1032 172 172 1033 192 192 1034 172 172 1035 193 193 1036 173 173 1037 194 194 1038 173 173 1039 193 193 1040 173 173 1041 194 194 1042 174 174 1043 194 194 1044 175 175 1045 174 174 1046 175 175 1047 194 194 1048 195 195 1049 195 195 1050 176 176 1051 175 175 1052 176 176 1053 195 195 1054 196 196 1055 196 196 1056 197 197 1057 176 176 1058 176 176 1059 197 197 1060 177 177 1061 197 197 1062 198 198 1063 177 177 1064 177 177 1065 198 198 1066 178 178 1067 198 198 1068 199 199 1069 178 178 1070 178 178 1071 199 199 1072 179 179 1073 199 199 1074 160 160 1075 179 179 1076 160 160 1077 199 199 1078 180 180 1079 200 200 1080 201 201 1081 180 180 1082 180 180 1083 201 201 1084 181 181 1085 182 182 1086 201 201 1087 202 202 1088 201 201 1089 182 182 1090 181 181 1091 202 202 1092 183 183 1093 182 182 1094 183 183 1095 202 202 1096 203 203 1097 203 203 1098 184 184 1099 183 183 1100 184 184 1101 203 203 1102 204 204 1103 204 204 1104 205 205 1105 184 184 1106 185 185 1107 184 184 1108 205 205 1109 186 186 1110 185 185 1111 206 206 1112 185 185 1113 205 205 1114 206 206 1115 187 187 1116 186 186 1117 207 207 1118 186 186 1119 206 206 1120 207 207 1121 188 188 1122 207 207 1123 208 208 1124 207 207 1125 188 188 1126 187 187 1127 189 189 1128 208 208 1129 209 209 1130 208 208 1131 189 189 1132 188 188 1133 190 190 1134 189 189 1135 210 210 1136 210 210 1137 189 189 1138 209 209 1139 211 211 1140 191 191 1141 190 190 1142 211 211 1143 190 190 1144 210 210 1145 211 211 1146 192 192 1147 191 191 1148 192 192 1149 211 211 1150 212 212 1151 212 212 1152 193 193 1153 192 192 1154 193 193 1155 212 212 1156 213 213 1157 213 213 1158 194 194 1159 193 193 1160 194 194 1161 213 213 1162 214 214 1163 215 215 1164 194 194 1165 214 214 1166 194 194 1167 215 215 1168 195 195 1169 216 216 1170 195 195 1171 215 215 1172 195 195 1173 216 216 1174 196 196 1175 217 217 1176 196 196 1177 216 216 1178 196 196 1179 217 217 1180 197 197 1181 217 217 1182 198 198 1183 197 197 1184 198 198 1185 217 217 1186 218 218 1187 218 218 1188 199 199 1189 198 198 1190 199 199 1191 218 218 1192 219 219 1193 200 200 1194 199 199 1195 219 219 1196 199 199 1197 200 200 1198 180 180 1199 220 220 1200 221 221 1201 200 200 1202 200 200 1203 221 221 1204 201 201 1205 202 202 1206 221 221 1207 222 222 1208 221 221 1209 202 202 1210 201 201 1211 222 222 1212 203 203 1213 202 202 1214 203 203 1215 222 222 1216 223 223 1217 223 223 1218 204 204 1219 203 203 1220 204 204 1221 223 223 1222 224 224 1223 224 224 1224 225 225 1225 204 204 1226 205 205 1227 204 204 1228 225 225 1229 206 206 1230 205 205 1231 226 226 1232 205 205 1233 225 225 1234 226 226 1235 207 207 1236 206 206 1237 227 227 1238 206 206 1239 226 226 1240 227 227 1241 208 208 1242 227 227 1243 228 228 1244 227 227 1245 208 208 1246 207 207 1247 209 209 1248 228 228 1249 229 229 1250 228 228 1251 209 209 1252 208 208 1253 210 210 1254 209 209 1255 230 230 1256 230 230 1257 209 209 1258 229 229 1259 231 231 1260 211 211 1261 210 210 1262 231 231 1263 210 210 1264 230 230 1265 232 232 1266 212 212 1267 211 211 1268 232 232 1269 211 211 1270 231 231 1271 232 232 1272 213 213 1273 212 212 1274 213 213 1275 232 232 1276 233 233 1277 233 233 1278 214 214 1279 213 213 1280 214 214 1281 233 233 1282 234 234 1283 235 235 1284 214 214 1285 234 234 1286 214 214 1287 235 235 1288 215 215 1289 236 236 1290 215 215 1291 235 235 1292 215 215 1293 236 236 1294 216 216 1295 237 237 1296 216 216 1297 236 236 1298 216 216 1299 237 237 1300 217 217 1301 237 237 1302 218 218 1303 217 217 1304 218 218 1305 237 237 1306 238 238 1307 238 238 1308 219 219 1309 218 218 1310 219 219 1311 238 238 1312 239 239 1313 220 220 1314 219 219 1315 239 239 1316 219 219 1317 220 220 1318 200 200 1319 240 240 1320 241 241 1321 220 220 1322 220 220 1323 241 241 1324 221 221 1325 241 241 1326 222 222 1327 221 221 1328 222 222 1329 241 241 1330 242 242 1331 242 242 1332 223 223 1333 222 222 1334 223 223 1335 242 242 1336 243 243 1337 243 243 1338 224 224 1339 223 223 1340 224 224 1341 243 243 1342 244 244 1343 244 244 1344 245 245 1345 224 224 1346 225 225 1347 224 224 1348 245 245 1349 226 226 1350 225 225 1351 246 246 1352 225 225 1353 245 245 1354 246 246 1355 227 227 1356 226 226 1357 247 247 1358 226 226 1359 246 246 1360 247 247 1361 228 228 1362 247 247 1363 248 248 1364 247 247 1365 228 228 1366 227 227 1367 229 229 1368 248 248 1369 249 249 1370 248 248 1371 229 229 1372 228 228 1373 230 230 1374 229 229 1375 250 250 1376 250 250 1377 229 229 1378 249 249 1379 251 251 1380 231 231 1381 230 230 1382 251 251 1383 230 230 1384 250 250 1385 232 232 1386 251 251 1387 252 252 1388 251 251 1389 232 232 1390 231 231 1391 233 233 1392 252 252 1393 253 253 1394 252 252 1395 233 233 1396 232 232 1397 253 253 1398 234 234 1399 233 233 1400 234 234 1401 253 253 1402 254 254 1403 255 255 1404 234 234 1405 254 254 1406 234 234 1407 255 255 1408 235 235 1409 256 256 1410 235 235 1411 255 255 1412 235 235 1413 256 256 1414 236 236 1415 257 257 1416 236 236 1417 256 256 1418 236 236 1419 257 257 1420 237 237 1421 257 257 1422 238 238 1423 237 237 1424 238 238 1425 257 257 1426 258 258 1427 258 258 1428 239 239 1429 238 238 1430 239 239 1431 258 258 1432 259 259 1433 240 240 1434 239 239 1435 259 259 1436 239 239 1437 240 240 1438 220 220 1439 260 260 1440 261 261 1441 240 240 1442 240 240 1443 261 261 1444 241 241 1445 261 261 1446 242 242 1447 241 241 1448 242 242 1449 261 261 1450 262 262 1451 262 262 1452 243 243 1453 242 242 1454 243 243 1455 262 262 1456 263 263 1457 263 263 1458 244 244 1459 243 243 1460 244 244 1461 263 263 1462 264 264 1463 264 264 1464 265 265 1465 244 244 1466 245 245 1467 244 244 1468 265 265 1469 246 246 1470 245 245 1471 266 266 1472 245 245 1473 265 265 1474 266 266 1475 247 247 1476 246 246 1477 267 267 1478 246 246 1479 266 266 1480 267 267 1481 248 248 1482 267 267 1483 268 268 1484 267 267 1485 248 248 1486 247 247 1487 249 249 1488 268 268 1489 269 269 1490 268 268 1491 249 249 1492 248 248 1493 250 250 1494 249 249 1495 270 270 1496 270 270 1497 249 249 1498 269 269 1499 271 271 1500 251 251 1501 250 250 1502 271 271 1503 250 250 1504 270 270 1505 252 252 1506 271 271 1507 272 272 1508 271 271 1509 252 252 1510 251 251 1511 253 253 1512 272 272 1513 273 273 1514 272 272 1515 253 253 1516 252 252 1517 273 273 1518 254 254 1519 253 253 1520 254 254 1521 273 273 1522 274 274 1523 275 275 1524 254 254 1525 274 274 1526 254 254 1527 275 275 1528 255 255 1529 276 276 1530 255 255 1531 275 275 1532 255 255 1533 276 276 1534 256 256 1535 277 277 1536 256 256 1537 276 276 1538 256 256 1539 277 277 1540 257 257 1541 277 277 1542 258 258 1543 257 257 1544 258 258 1545 277 277 1546 278 278 1547 278 278 1548 259 259 1549 258 258 1550 259 259 1551 278 278 1552 279 279 1553 260 260 1554 259 259 1555 279 279 1556 259 259 1557 260 260 1558 240 240 1559 280 280 1560 281 281 1561 260 260 1562 261 261 1563 260 260 1564 281 281 1565 262 262 1566 281 281 1567 282 282 1568 281 281 1569 262 262 1570 261 261 1571 282 282 1572 263 263 1573 262 262 1574 263 263 1575 282 282 1576 283 283 1577 283 283 1578 264 264 1579 263 263 1580 264 264 1581 283 283 1582 284 284 1583 265 265 1584 264 264 1585 285 285 1586 264 264 1587 284 284 1588 285 285 1589 266 266 1590 265 265 1591 286 286 1592 265 265 1593 285 285 1594 286 286 1595 286 286 1596 287 287 1597 266 266 1598 267 267 1599 266 266 1600 287 287 1601 268 268 1602 287 287 1603 288 288 1604 287 287 1605 268 268 1606 267 267 1607 269 269 1608 288 288 1609 289 289 1610 288 288 1611 269 269 1612 268 268 1613 270 270 1614 269 269 1615 290 290 1616 290 290 1617 269 269 1618 289 289 1619 291 291 1620 271 271 1621 270 270 1622 291 291 1623 270 270 1624 290 290 1625 291 291 1626 272 272 1627 271 271 1628 272 272 1629 291 291 1630 292 292 1631 273 273 1632 292 292 1633 293 293 1634 292 292 1635 273 273 1636 272 272 1637 274 274 1638 293 293 1639 294 294 1640 293 293 1641 274 274 1642 273 273 1643 295 295 1644 274 274 1645 294 294 1646 274 274 1647 295 295 1648 275 275 1649 296 296 1650 275 275 1651 295 295 1652 275 275 1653 296 296 1654 276 276 1655 277 277 1656 296 296 1657 297 297 1658 296 296 1659 277 277 1660 276 276 1661 297 297 1662 278 278 1663 277 277 1664 278 278 1665 297 297 1666 298 298 1667 298 298 1668 279 279 1669 278 278 1670 279 279 1671 298 298 1672 299 299 1673 299 299 1674 280 280 1675 279 279 1676 279 279 1677 280 280 1678 260 260 1679 300 300 1680 281 281 1681 280 280 1682 281 281 1683 300 300 1684 301 301 1685 282 282 1686 301 301 1687 302 302 1688 301 301 1689 282 282 1690 281 281 1691 303 303 1692 283 283 1693 282 282 1694 303 303 1695 282 282 1696 302 302 1697 284 284 1698 303 303 1699 304 304 1700 303 303 1701 284 284 1702 283 283 1703 305 305 1704 284 284 1705 304 304 1706 284 284 1707 305 305 1708 285 285 1709 305 305 1710 286 286 1711 285 285 1712 286 286 1713 305 305 1714 306 306 1715 306 306 1716 307 307 1717 286 286 1718 287 287 1719 286 286 1720 307 307 1721 288 288 1722 287 287 1723 308 308 1724 287 287 1725 307 307 1726 308 308 1727 289 289 1728 288 288 1729 309 309 1730 288 288 1731 308 308 1732 309 309 1733 289 289 1734 310 310 1735 290 290 1736 310 310 1737 289 289 1738 309 309 1739 291 291 1740 310 310 1741 311 311 1742 310 310 1743 291 291 1744 290 290 1745 311 311 1746 292 292 1747 291 291 1748 292 292 1749 311 311 1750 312 312 1751 313 313 1752 292 292 1753 312 312 1754 292 292 1755 313 313 1756 293 293 1757 313 313 1758 314 314 1759 293 293 1760 294 294 1761 293 293 1762 314 314 1763 295 295 1764 294 294 1765 315 315 1766 294 294 1767 314 314 1768 315 315 1769 296 296 1770 295 295 1771 316 316 1772 316 316 1773 295 295 1774 315 315 1775 296 296 1776 317 317 1777 297 297 1778 317 317 1779 296 296 1780 316 316 1781 318 318 1782 297 297 1783 317 317 1784 297 297 1785 318 318 1786 298 298 1787 318 318 1788 299 299 1789 298 298 1790 299 299 1791 318 318 1792 319 319 1793 319 319 1794 280 280 1795 299 299 1796 280 280 1797 319 319 1798 300 300 1799 301 301 1800 300 300 1801 321 320 1802 300 300 1803 320 321 1804 321 320 1805 302 302 1806 321 320 1807 322 322 1808 321 320 1809 302 302 1810 301 301 1811 303 303 1812 322 322 1813 323 323 1814 322 322 1815 303 303 1816 302 302 1817 304 304 1818 323 323 1819 324 324 1820 323 323 1821 304 304 1822 303 303 1823 324 324 1824 305 305 1825 304 304 1826 305 305 1827 324 324 1828 325 325 1829 326 326 1830 305 305 1831 325 325 1832 305 305 1833 326 326 1834 306 306 1835 326 326 1836 327 327 1837 306 306 1838 307 307 1839 306 306 1840 327 327 1841 308 308 1842 307 307 1843 328 328 1844 307 307 1845 327 327 1846 328 328 1847 309 309 1848 328 328 1849 329 329 1850 328 328 1851 309 309 1852 308 308 1853 309 309 1854 330 330 1855 310 310 1856 330 330 1857 309 309 1858 329 329 1859 310 310 1860 331 331 1861 311 311 1862 331 331 1863 310 310 1864 330 330 1865 332 332 1866 311 311 1867 331 331 1868 311 311 1869 332 332 1870 312 312 1871 333 333 1872 312 312 1873 332 332 1874 312 312 1875 333 333 1876 313 313 1877 314 314 1878 333 333 1879 334 334 1880 333 333 1881 314 314 1882 313 313 1883 315 315 1884 334 334 1885 335 335 1886 334 334 1887 315 315 1888 314 314 1889 336 336 1890 316 316 1891 315 315 1892 336 336 1893 315 315 1894 335 335 1895 316 316 1896 337 337 1897 317 317 1898 337 337 1899 316 316 1900 336 336 1901 337 337 1902 318 318 1903 317 317 1904 318 318 1905 337 337 1906 338 338 1907 338 338 1908 319 319 1909 318 318 1910 319 319 1911 338 338 1912 339 339 1913 320 321 1914 319 319 1915 339 339 1916 319 319 1917 320 321 1918 300 300 1919 321 320 1920 320 321 1921 341 340 1922 320 321 1923 340 341 1924 341 340 1925 342 342 1926 322 322 1927 321 320 1928 321 320 1929 341 340 1930 342 342 1931 323 323 1932 342 342 1933 343 343 1934 342 342 1935 323 323 1936 322 322 1937 324 324 1938 343 343 1939 344 344 1940 343 343 1941 324 324 1942 323 323 1943 345 345 1944 324 324 1945 344 344 1946 324 324 1947 345 345 1948 325 325 1949 346 346 1950 325 325 1951 345 345 1952 325 325 1953 346 346 1954 326 326 1955 327 327 1956 326 326 1957 347 347 1958 326 326 1959 346 346 1960 347 347 1961 328 328 1962 347 347 1963 348 348 1964 347 347 1965 328 328 1966 327 327 1967 329 329 1968 348 348 1969 349 349 1970 348 348 1971 329 329 1972 328 328 1973 330 330 1974 349 349 1975 350 350 1976 349 349 1977 330 330 1978 329 329 1979 330 330 1980 351 351 1981 331 331 1982 351 351 1983 330 330 1984 350 350 1985 351 351 1986 332 332 1987 331 331 1988 332 332 1989 351 351 1990 352 352 1991 353 353 1992 332 332 1993 352 352 1994 332 332 1995 353 353 1996 333 333 1997 334 334 1998 353 353 1999 354 354 2000 353 353 2001 334 334 2002 333 333 2003 335 335 2004 334 334 2005 355 355 2006 334 334 2007 354 354 2008 355 355 2009 336 336 2010 355 355 2011 356 356 2012 355 355 2013 336 336 2014 335 335 2015 337 337 2016 356 356 2017 357 357 2018 356 356 2019 337 337 2020 336 336 2021 358 358 2022 337 337 2023 357 357 2024 337 337 2025 358 358 2026 338 338 2027 359 359 2028 338 338 2029 358 358 2030 338 338 2031 359 359 2032 339 339 2033 340 341 2034 339 339 2035 359 359 2036 339 339 2037 340 341 2038 320 321 2039 341 340 2040 340 341 2041 361 360 2042 340 341 2043 360 361 2044 361 360 2045 362 362 2046 342 342 2047 341 340 2048 341 340 2049 361 360 2050 362 362 2051 343 343 2052 362 362 2053 363 363 2054 362 362 2055 343 343 2056 342 342 2057 343 343 2058 364 364 2059 344 344 2060 364 364 2061 343 343 2062 363 363 2063 365 365 2064 344 344 2065 364 364 2066 344 344 2067 365 365 2068 345 345 2069 365 365 2070 346 346 2071 345 345 2072 346 346 2073 365 365 2074 366 366 2075 346 346 2076 366 366 2077 367 367 2078 346 346 2079 367 367 2080 347 347 2081 348 348 2082 367 367 2083 368 368 2084 367 367 2085 348 348 2086 347 347 2087 349 349 2088 368 368 2089 369 369 2090 368 368 2091 349 349 2092 348 348 2093 350 350 2094 369 369 2095 370 370 2096 369 369 2097 350 350 2098 349 349 2099 351 351 2100 370 370 2101 371 371 2102 370 370 2103 351 351 2104 350 350 2105 372 372 2106 351 351 2107 371 371 2108 351 351 2109 372 372 2110 352 352 2111 373 373 2112 352 352 2113 372 372 2114 352 352 2115 373 373 2116 353 353 2117 354 354 2118 373 373 2119 374 374 2120 373 373 2121 354 354 2122 353 353 2123 355 355 2124 374 374 2125 375 375 2126 374 374 2127 355 355 2128 354 354 2129 356 356 2130 375 375 2131 376 376 2132 375 375 2133 356 356 2134 355 355 2135 357 357 2136 376 376 2137 377 377 2138 376 376 2139 357 357 2140 356 356 2141 358 358 2142 377 377 2143 378 378 2144 377 377 2145 358 358 2146 357 357 2147 379 379 2148 358 358 2149 378 378 2150 358 358 2151 379 379 2152 359 359 2153 379 379 2154 340 341 2155 359 359 2156 340 341 2157 379 379 2158 360 361 2159 1 1 2160 380 380 2161 0 2 2162 2 4 2163 380 380 2164 1 1 2165 3 6 2166 380 380 2167 2 4 2168 4 9 2169 380 380 2170 3 6 2171 5 10 2172 380 380 2173 4 9 2174 6 12 2175 380 380 2176 5 10 2177 7 14 2178 380 380 2179 6 12 2180 8 17 2181 380 380 2182 7 14 2183 9 19 2184 380 380 2185 8 17 2186 10 21 2187 380 380 2188 9 19 2189 11 23 2190 380 380 2191 10 21 2192 12 24 2193 380 380 2194 11 23 2195 13 26 2196 380 380 2197 12 24 2198 14 29 2199 380 380 2200 13 26 2201 15 31 2202 380 380 2203 14 29 2204 16 33 2205 380 380 2206 15 31 2207 17 35 2208 380 380 2209 16 33 2210 18 37 2211 380 380 2212 17 35 2213 19 38 2214 380 380 2215 18 37 2216 0 2 2217 380 380 2218 19 38 2219 360 361 2220 381 381 2221 361 360 2222 361 360 2223 381 381 2224 362 362 2225 362 362 2226 381 381 2227 363 363 2228 363 363 2229 381 381 2230 364 364 2231 364 364 2232 381 381 2233 365 365 2234 365 365 2235 381 381 2236 366 366 2237 366 366 2238 381 381 2239 367 367 2240 367 367 2241 381 381 2242 368 368 2243 368 368 2244 381 381 2245 369 369 2246 369 369 2247 381 381 2248 370 370 2249 370 370 2250 381 381 2251 371 371 2252 371 371 2253 381 381 2254 372 372 2255 372 372 2256 381 381 2257 373 373 2258 373 373 2259 381 381 2260 374 374 2261 374 374 2262 381 381 2263 375 375 2264 375 375 2265 381 381 2266 376 376 2267 376 376 2268 381 381 2269 377 377 2270 377 377 2271 381 381 2272 378 378 2273 378 378 2274 381 381 2275 379 379 2276 379 379 2277 381 381 2278 360 361 2279</p>
        </triangles>
      </mesh>
    </geometry>
  </library_geometries>
  <library_controllers/>
  <library_visual_scenes>
    <visual_scene id="Scene" name="Scene">
      <node id="VIS_Alpha_Joints_045" name="VIS_Alpha_Joints_045" type="NODE">
        <instance_geometry url="#Alpha_JointsMesh_328-mesh" name="VIS_Alpha_Joints_045">
          <bind_material>
            <technique_common>
              <instance_material symbol="Alpha_Joints_MAT_007-material" target="#Alpha_Joints_MAT_007-material"/>
            </technique_common>
          </bind_material>
        </instance_geometry>
      </node>
    </visual_scene>
  </library_visual_scenes>
  <scene>
    <instance_visual_scene url="#Scene"/>
  </scene>
</COLLADA>