<?xml version="1.0" encoding="utf-8"?>
<COLLADA xmlns="http://www.collada.org/2005/11/COLLADASchema" version="1.4.1" xmlns:xsi="http://www.w3.org/2001/XMLSchema-instance">
  <asset>
    <contributor>
      <author>Blender User</author>
      <authoring_tool>Blender 2.79.0 commit date:2018-03-22, commit time:14:10, hash:f4dc9f9d68b</authoring_tool>
    </contributor>
    <created>2018-10-09T21:23:56</created>
    <modified>2018-10-09T21:23:56</modified>
    <unit name="meter" meter="1"/>
    <up_axis>Z_UP</up_axis>
  </asset>
  <library_images/>
  <library_effects>
    <effect id="Alpha_Joints_MAT_007-effect">
      <profile_COMMON>
        <technique sid="common">
          <phong>
            <emission>
              <color sid="emission">0 0 0 1</color>
            </emission>
            <ambient>
              <color sid="ambient">0 0 0 1</color>
            </ambient>
            <diffuse>
              <color sid="diffuse">0.122841 0.170315 0.177774 1</color>
            </diffuse>
            <specular>
              <color sid="specular">0.141024 0.141024 0.141024 1</color>
            </specular>
            <shininess>
              <float sid="shininess">2</float>
            </shininess>
            <transparent opaque="A_ONE">
              <color>1 1 1 1</color>
            </transparent>
            <index_of_refraction>
              <float sid="index_of_refraction">1</float>
            </index_of_refraction>
          </phong>
        </technique>
      </profile_COMMON>
    </effect>
  </library_effects>
  <library_materials>
    <material id="Alpha_Joints_MAT_007-material" name="Alpha_Joints_MAT_007">
      <instance_effect url="#Alpha_Joints_MAT_007-effect"/>
    </material>
  </library_materials>
  <library_geometries>
    <geometry id="Alpha_JointsMesh_312-mesh" name="Alpha_JointsMesh.312">
      <mesh>
        <source id="Alpha_JointsMesh_312-mesh-positions">
          <float_array id="Alpha_JointsMesh_312-mesh-positions-array" count="402">-84.85771 136.2373 0.826107 -84.7618 136.2589 0.729542 -84.62924 136.2684 0.692985 -84.49561 136.2632 0.726242 -84.39667 136.2448 0.820391 -84.35892 136.218 0.950221 -84.39251 136.19 1.080926 -84.48847 136.1684 1.177491 -84.621 136.1589 1.214047 -84.75466 136.1641 1.180791 -84.85359 136.1826 1.086642 -84.89133 136.2093 0.956821 -85.06188 136.3584 0.736172 -84.88231 136.3989 0.555417 -84.63421 136.4167 0.486993 -84.38404 136.407 0.54924 -84.19883 136.3725 0.725481 -84.12823 136.3223 0.968491 -84.19112 136.27 1.213148 -84.37068 136.2295 1.39391 -84.61878 136.2118 1.462343 -84.86896 136.2214 1.400096 -85.05416 136.256 1.223855 -85.12479 136.3061 0.980845 -85.24442 136.5385 0.671415 -84.99047 136.5958 0.415778 -84.63961 136.6209 0.319002 -84.28582 136.6072 0.407042 -84.02389 136.5584 0.656276 -83.92403 136.4875 0.999953 -84.01299 136.4135 1.345963 -84.26692 136.3563 1.601592 -84.6178 136.3311 1.69836 -84.97158 136.3448 1.610328 -85.23352 136.3936 1.361094 -85.33337 136.4645 1.017425 -85.38566 136.7634 0.639955 -85.07466 136.8335 0.326865 -84.64493 136.8643 0.208342 -84.21162 136.8475 0.316158 -83.89083 136.7877 0.621415 -83.76852 136.7009 1.042329 -83.87747 136.6103 1.466101 -84.18849 136.5402 1.779183 -84.61822 136.5094 1.897706 -85.05152 136.5261 1.789882 -85.37231 136.586 1.484625 -85.49462 136.6728 1.063727 -85.476 137.0177 0.643927 -85.12911 137.0959 0.294711 -84.64981 137.1302 0.1625249 -84.16652 137.1116 0.282786 -83.80873 137.0448 0.62325 -83.67233 136.9479 1.092719 -83.79383 136.8469 1.565376 -84.14072 136.7687 1.914576 -84.62002 136.7344 2.046762 -85.1033 136.7531 1.926509 -85.46112 136.8198 1.586038 -85.59751 136.9167 1.116585 -85.50926 137.2842 0.683073 -85.15014 137.3651 0.32154 -84.65393 137.4006 0.184691 -84.15358 137.3813 0.309194 -83.78318 137.3122 0.661675 -83.64196 137.2119 1.147695 -83.76776 137.1073 1.637026 -84.12689 137.0264 1.998551 -84.6231 136.9908 2.1354 -85.12343 137.0102 2.010905 -85.49384 137.0793 1.658424 -85.63507 137.1796 1.172404 -85.48319 137.5447 0.754727 -85.1363 137.6228 0.405528 -84.65699 137.6571 0.273333 -84.1737 137.6385 0.393586 -83.81591 137.5717 0.734066 -83.67951 137.4749 1.203527 -83.80103 137.3738 1.676185 -84.1479 137.2957 2.025384 -84.6272 137.2613 2.15757 -85.1105 137.28 2.037317 -85.46829 137.3467 1.696846 -85.6047 137.4436 1.227393 -85.39956 137.7814 0.854026 -85.08854 137.8515 0.540936 -84.6588 137.8822 0.422413 -84.2255 137.8655 0.530237 -83.90471 137.8056 0.835486 -83.78242 137.7188 1.256401 -83.89135 137.6282 1.680173 -84.20237 137.5581 1.993254 -84.63209 137.5273 2.111778 -85.06542 137.5441 2.003954 -85.38621 137.6039 1.698696 -85.50848 137.6908 1.277799 -85.26404 137.9781 0.974153 -85.0101 138.0354 0.718524 -84.65923 138.0605 0.621748 -84.30545 138.0468 0.709788 -84.04351 137.998 0.959022 -83.94364 137.9271 1.302699 -84.03261 137.8531 1.648709 -84.28656 137.7958 1.904347 -84.63742 137.7707 2.001114 -84.99121 137.7844 1.913082 -85.25314 137.8332 1.66384 -85.35299 137.9042 1.320171 -85.08591 138.1216 1.10696 -84.90634 138.1621 0.926206 -84.65824 138.1798 0.857781 -84.40808 138.1702 0.92002 -84.22287 138.1356 1.096269 -84.15225 138.0855 1.339279 -84.21515 138.0332 1.583936 -84.39472 137.9927 1.764699 -84.64282 137.9749 1.833132 -84.89299 137.9846 1.770884 -85.0782 138.0191 1.594636 -85.14881 138.0693 1.351634 -84.88449 138.2015 1.239187 -84.78856 138.2232 1.142622 -84.65602 138.2326 1.106066 -84.52237 138.2275 1.139322 -84.42344 138.209 1.233472 -84.38571 138.1822 1.363301 -84.4193 138.1543 1.494006 -84.51523 138.1327 1.590571 -84.64778 138.1232 1.627128 -84.78144 138.1284 1.593871 -84.88037 138.1468 1.499722 -84.91811 138.1736 1.369901 -84.62456 136.1741 0.9452 -84.65245 138.2175 1.374931</float_array>
          <technique_common>
            <accessor source="#Alpha_JointsMesh_312-mesh-positions-array" count="134" stride="3">
              <param name="X" type="float"/>
              <param name="Y" type="float"/>
              <param name="Z" type="float"/>
            </accessor>
          </technique_common>
        </source>
        <source id="Alpha_JointsMesh_312-mesh-normals">
          <float_array id="Alpha_JointsMesh_312-mesh-normals-array" count="402">-0.2631099 -0.7361035 -0.6236386 -0.2493408 -0.9068437 -0.3397994 -0.4557418 -0.7795189 -0.429709 -0.1412736 -0.8824642 -0.4486635 0.002990841 -0.7170731 -0.6969916 0.008056879 -0.8717331 -0.489915 0.1587009 -0.877555 -0.4524502 0.2713463 -0.7274558 -0.6302217 0.2701861 -0.8983619 -0.3463314 0.4700043 -0.7644895 -0.4411936 0.312729 -0.9285429 -0.200022 0.5457451 -0.818282 -0.1804908 0.2748538 -0.9600353 -0.05279779 0.4782723 -0.874386 0.08188402 0.1666641 -0.9844204 0.05603283 0.2856607 -0.9177766 0.2758335 0.01736533 -0.9951042 0.09729468 0.01956272 -0.9368442 0.3491993 -0.2487912 -0.9264665 0.2824232 -0.1331866 -0.9892861 0.05978745 -0.4474686 -0.8894134 0.09335738 -0.2447019 -0.9684924 -0.04629743 -0.5231976 -0.8356268 -0.1673085 -0.2872462 -0.9383111 -0.1925147 -0.3664472 -0.5427276 -0.7557535 -0.6300383 -0.6021437 -0.4903824 -0.002197325 -0.5166831 -0.856174 0.3650175 -0.530893 -0.7647973 0.6368715 -0.5816015 -0.5060974 0.7405375 -0.655207 -0.1493588 0.6481933 -0.7319985 0.2098182 0.3846302 -0.7913866 0.4751493 0.02038675 -0.8174843 0.57559 -0.3468174 -0.803259 0.4842444 -0.618717 -0.7525439 0.2255373 -0.72239 -0.6789306 -0.1311716 -0.4451221 -0.3162091 -0.8377817 -0.7619802 -0.3875976 -0.5188009 -0.007263541 -0.2848362 -0.9585488 0.4342271 -0.3018959 -0.8487083 0.7610685 -0.3628481 -0.5376952 0.8856918 -0.4513455 -0.1088002 0.7746662 -0.5436671 0.3229836 0.4577912 -0.6150882 0.6419453 0.01992911 -0.6463994 0.762739 -0.4215341 -0.6293712 0.6528406 -0.7483675 -0.5684248 0.3418179 -0.8730079 -0.4798873 -0.08698034 -0.4944999 -0.07416123 -0.8660081 -0.8438839 -0.1529007 -0.5142775 -0.0117191 -0.03955209 -0.9991489 0.4750282 -0.0583828 -0.8780317 0.8354081 -0.1255568 -0.535097 0.9727947 -0.2231553 -0.06222832 0.8504142 -0.3249366 0.4137777 0.5010045 -0.4037091 0.7655152 0.0182504 -0.4382544 0.8986657 -0.4685001 -0.4194558 0.7775375 -0.828877 -0.3522247 0.4346271 -0.966277 -0.2546545 -0.03821033 -0.8735764 0.08868825 -0.4785382 -0.5133116 0.1699034 -0.8412158 -0.015473 0.2055444 -0.9785256 0.4864846 0.1861093 -0.853637 0.8581138 0.1167977 -0.4999992 0.999792 0.01620537 -0.01239055 0.873574 -0.08871853 0.4785369 0.5132734 -0.1699314 0.8412336 0.01544249 -0.2055444 0.9785259 -0.4865024 -0.1861655 0.8536146 -0.8581107 -0.1168278 0.4999974 -0.9997919 -0.01623588 0.01236003 -0.8504095 0.3248738 -0.4138365 -0.5010114 0.403623 -0.7655562 -0.0182504 0.4381931 -0.8986956 0.4685308 0.4193643 -0.7775683 0.8289043 0.3521623 -0.4346255 0.9662865 0.2546184 0.03820949 0.8438958 0.1528113 0.5142847 0.4945021 0.07410055 0.866012 0.01171916 0.03949117 0.9991512 -0.47503 0.05832201 0.8780348 -0.8354113 0.1255268 0.535099 -0.9728079 0.2230973 0.06222915 -0.7747066 0.5436435 -0.3229267 -0.4578149 0.6150487 -0.6419664 -0.01992911 0.6463994 -0.762739 0.4215338 0.6293402 -0.6528707 0.7483991 0.5683646 -0.3418489 0.8730256 0.4798497 0.08700954 0.7620021 0.3875626 0.518795 0.4451193 0.3161461 0.837807 0.007232964 0.2847719 0.9585681 -0.4342558 0.3018641 0.8487048 -0.7610939 0.3628457 0.537661 -0.8857039 0.4513211 0.1088017 -0.3846042 0.7913959 -0.4751549 -0.6481933 0.7319985 -0.2098182 -0.02041721 0.8174839 -0.5755897 0.3468174 0.803259 -0.4842444 0.6187113 0.7525675 -0.2254742 0.7223575 0.6789593 0.1312018 0.6300083 0.6021747 0.4903828 0.3664496 0.5427617 0.7557279 0.002197325 0.5166831 0.856174 -0.365009 0.5308806 0.7648099 -0.6368813 0.5816105 0.5060746 -0.7405557 0.6551926 0.1493319 -0.2856551 0.9177892 -0.2757976 -0.4782596 0.8743931 -0.08188182 -0.01956254 0.936868 -0.3491358 0.2487647 0.9264816 -0.2823973 0.4474347 0.889437 -0.09329563 0.5231648 0.8356536 0.1672772 0.4557176 0.7795298 0.4297149 0.2631081 0.7361595 0.6235732 -0.002990841 0.717043 0.6970226 -0.2713471 0.7274275 0.6302541 -0.4699997 0.7645124 0.4411588 -0.5457421 0.8182775 0.1805203 -0.1666927 0.9844087 -0.05615425 -0.2748547 0.9600384 0.05273693 -0.01733481 0.9951046 -0.09729474 0.1332163 0.9892802 -0.05981761 0.2447603 0.968482 0.04620534 0.2872807 0.9382937 0.1925479 0.2494301 0.9067746 0.3399184 0.1413353 0.8824377 0.448696 -0.008057117 0.8717257 0.489928 -0.1587306 0.8775508 0.4524481 -0.2702144 0.8983545 0.3463286 -0.3127584 0.9285397 0.1999908 0.01333695 -0.9785114 -0.2057614 -0.01333695 0.9785114 0.2057614</float_array>
          <technique_common>
            <accessor source="#Alpha_JointsMesh_312-mesh-normals-array" count="134" stride="3">
              <param name="X" type="float"/>
              <param name="Y" type="float"/>
              <param name="Z" type="float"/>
            </accessor>
          </technique_common>
        </source>
        <source id="Alpha_JointsMesh_312-mesh-map-0">
          <float_array id="Alpha_JointsMesh_312-mesh-map-0-array" count="1584">0.08332997 0.16666 0 0.08332997 0 0.16666 0 0.08332997 0.08332997 0.16666 0.08332997 0.08332997 0.16666 0.16666 0.16666 0.08332997 0.08332997 0.08332997 0.08332997 0.08332997 0.08332997 0.16666 0.16666 0.16666 0.16666 0.16666 0.25 0.08332997 0.16666 0.08332997 0.25 0.08332997 0.16666 0.16666 0.25 0.16666 0.25 0.16666 0.33333 0.08332997 0.25 0.08332997 0.33333 0.08332997 0.25 0.16666 0.33333 0.16666 0.33333 0.16666 0.41666 0.08332997 0.33333 0.08332997 0.41666 0.08332997 0.33333 0.16666 0.41666 0.16666 0.5 0.08332997 0.41666 0.16666 0.5 0.16666 0.41666 0.16666 0.5 0.08332997 0.41666 0.08332997 0.5 0.16666 0.58333 0.08332997 0.5 0.08332997 0.58333 0.08332997 0.5 0.16666 0.58333 0.16666 0.58333 0.16666 0.66666 0.08332997 0.58333 0.08332997 0.66666 0.08332997 0.58333 0.16666 0.66666 0.16666 0.75 0.16666 0.66666 0.08332997 0.66666 0.16666 0.66666 0.08332997 0.75 0.16666 0.75 0.08332997 0.83333 0.16666 0.83333 0.08332997 0.75 0.08332997 0.75 0.08332997 0.75 0.16666 0.83333 0.16666 0.83333 0.08332997 0.83333 0.16666 0.91666 0.16666 0.83333 0.08332997 0.91666 0.16666 0.91666 0.08332997 0.91666 0.16666 1 0.16666 0.91666 0.08332997 0.91666 0.08332997 1 0.16666 1 0.08332997 0.08332997 0.25 0 0.16666 0 0.25 0 0.16666 0.08332997 0.25 0.08332997 0.16666 0.16666 0.16666 0.08332997 0.16666 0.16666 0.25 0.08332997 0.16666 0.08332997 0.25 0.16666 0.25 0.16666 0.25 0.25 0.16666 0.16666 0.16666 0.25 0.16666 0.16666 0.25 0.25 0.25 0.25 0.25 0.33333 0.16666 0.25 0.16666 0.33333 0.16666 0.25 0.25 0.33333 0.25 0.33333 0.25 0.41666 0.16666 0.33333 0.16666 0.41666 0.16666 0.33333 0.25 0.41666 0.25 0.5 0.16666 0.41666 0.25 0.5 0.25 0.41666 0.25 0.5 0.16666 0.41666 0.16666 0.5 0.25 0.58333 0.16666 0.5 0.16666 0.58333 0.16666 0.5 0.25 0.58333 0.25 0.58333 0.25 0.66666 0.16666 0.58333 0.16666 0.66666 0.16666 0.58333 0.25 0.66666 0.25 0.75 0.25 0.66666 0.16666 0.66666 0.25 0.66666 0.16666 0.75 0.25 0.75 0.16666 0.83333 0.16666 0.75 0.16666 0.83333 0.25 0.75 0.16666 0.75 0.25 0.83333 0.25 0.83333 0.25 0.91666 0.25 0.83333 0.16666 0.83333 0.16666 0.91666 0.25 0.91666 0.16666 0.91666 0.25 1 0.25 0.91666 0.16666 0.91666 0.16666 1 0.25 1 0.16666 0.08332997 0.33333 0.08332997 0.25 0 0.25 0 0.25 0 0.33333 0.08332997 0.33333 0.16666 0.25 0.08332997 0.25 0.16666 0.33333 0.08332997 0.25 0.08332997 0.33333 0.16666 0.33333 0.16666 0.33333 0.25 0.25 0.16666 0.25 0.25 0.25 0.16666 0.33333 0.25 0.33333 0.25 0.33333 0.33333 0.25 0.25 0.25 0.33333 0.25 0.25 0.33333 0.33333 0.33333 0.41666 0.25 0.33333 0.25 0.41666 0.33333 0.33333 0.25 0.33333 0.33333 0.41666 0.33333 0.5 0.25 0.41666 0.33333 0.5 0.33333 0.41666 0.33333 0.5 0.25 0.41666 0.25 0.5 0.33333 0.58333 0.25 0.5 0.25 0.58333 0.25 0.5 0.33333 0.58333 0.33333 0.58333 0.33333 0.66666 0.25 0.58333 0.25 0.66666 0.25 0.58333 0.33333 0.66666 0.33333 0.75 0.33333 0.66666 0.25 0.66666 0.33333 0.66666 0.25 0.75 0.33333 0.75 0.25 0.83333 0.25 0.75 0.25 0.83333 0.33333 0.75 0.25 0.75 0.33333 0.83333 0.33333 0.83333 0.33333 0.91666 0.33333 0.83333 0.25 0.83333 0.25 0.91666 0.33333 0.91666 0.25 0.91666 0.33333 1 0.25 0.91666 0.25 1 0.25 0.91666 0.33333 1 0.33333 0.08332997 0.33333 0 0.33333 0.08332997 0.41666 0 0.33333 0 0.41666 0.08332997 0.41666 0.16666 0.33333 0.08332997 0.33333 0.16666 0.41666 0.08332997 0.33333 0.08332997 0.41666 0.16666 0.41666 0.16666 0.41666 0.25 0.33333 0.16666 0.33333 0.25 0.33333 0.16666 0.41666 0.25 0.41666 0.25 0.41666 0.33333 0.33333 0.25 0.33333 0.33333 0.33333 0.25 0.41666 0.33333 0.41666 0.41666 0.33333 0.33333 0.33333 0.41666 0.41666 0.33333 0.33333 0.33333 0.41666 0.41666 0.41666 0.5 0.33333 0.41666 0.41666 0.5 0.41666 0.41666 0.41666 0.5 0.33333 0.41666 0.33333 0.58333 0.33333 0.5 0.41666 0.58333 0.41666 0.5 0.41666 0.58333 0.33333 0.5 0.33333 0.66666 0.41666 0.58333 0.33333 0.58333 0.41666 0.58333 0.33333 0.66666 0.41666 0.66666 0.33333 0.66666 0.41666 0.75 0.33333 0.66666 0.33333 0.75 0.33333 0.66666 0.41666 0.75 0.41666 0.75 0.41666 0.83333 0.41666 0.75 0.33333 0.83333 0.33333 0.75 0.33333 0.83333 0.41666 0.83333 0.41666 0.91666 0.41666 0.83333 0.33333 0.83333 0.33333 0.91666 0.41666 0.91666 0.33333 0.91666 0.41666 1 0.33333 0.91666 0.33333 1 0.33333 0.91666 0.41666 1 0.41666 0 0.5 0.08332997 0.41666 0 0.41666 0.08332997 0.41666 0 0.5 0.08332997 0.5 0.16666 0.41666 0.08332997 0.5 0.16666 0.5 0.08332997 0.5 0.16666 0.41666 0.08332997 0.41666 0.16666 0.5 0.25 0.5 0.16666 0.41666 0.25 0.41666 0.16666 0.41666 0.25 0.5 0.25 0.5 0.33333 0.5 0.25 0.41666 0.33333 0.41666 0.25 0.41666 0.33333 0.5 0.41666 0.41666 0.33333 0.41666 0.41666 0.5 0.33333 0.41666 0.33333 0.5 0.41666 0.5 0.5 0.41666 0.41666 0.5 0.5 0.5 0.41666 0.5 0.5 0.41666 0.41666 0.41666 0.58333 0.41666 0.5 0.5 0.58333 0.5 0.5 0.5 0.58333 0.41666 0.5 0.41666 0.66666 0.5 0.58333 0.41666 0.58333 0.5 0.58333 0.41666 0.66666 0.5 0.66666 0.41666 0.66666 0.5 0.75 0.41666 0.66666 0.41666 0.75 0.41666 0.66666 0.5 0.75 0.5 0.75 0.5 0.83333 0.5 0.75 0.41666 0.75 0.41666 0.83333 0.5 0.83333 0.41666 0.83333 0.5 0.91666 0.5 0.83333 0.41666 0.83333 0.41666 0.91666 0.5 0.91666 0.41666 0.91666 0.5 1 0.41666 0.91666 0.41666 1 0.41666 0.91666 0.5 1 0.5 0 0.58333 0.08332997 0.58333 0 0.5 0 0.5 0.08332997 0.58333 0.08332997 0.5 0.16666 0.5 0.08332997 0.58333 0.16666 0.58333 0.08332997 0.58333 0.16666 0.5 0.08332997 0.5 0.16666 0.58333 0.25 0.58333 0.16666 0.5 0.25 0.5 0.16666 0.5 0.25 0.58333 0.33333 0.5 0.25 0.58333 0.33333 0.58333 0.25 0.58333 0.33333 0.5 0.25 0.5 0.41666 0.5 0.33333 0.58333 0.41666 0.58333 0.33333 0.58333 0.41666 0.5 0.33333 0.5 0.5 0.5 0.41666 0.5 0.5 0.58333 0.41666 0.5 0.41666 0.58333 0.5 0.58333 0.58333 0.5 0.5 0.5 0.58333 0.58333 0.5 0.5 0.5 0.58333 0.58333 0.58333 0.66666 0.58333 0.58333 0.5 0.58333 0.58333 0.58333 0.5 0.66666 0.58333 0.66666 0.5 0.66666 0.58333 0.75 0.5 0.66666 0.5 0.75 0.5 0.66666 0.58333 0.75 0.58333 0.75 0.58333 0.83333 0.5 0.75 0.5 0.83333 0.5 0.75 0.58333 0.83333 0.58333 0.83333 0.58333 0.91666 0.5 0.83333 0.5 0.91666 0.5 0.83333 0.58333 0.91666 0.58333 0.91666 0.58333 1 0.58333 0.91666 0.5 0.91666 0.5 1 0.58333 1 0.5 0 0.66666 0.08332997 0.66666 0 0.58333 0.08332997 0.58333 0 0.58333 0.08332997 0.66666 0.08332997 0.66666 0.16666 0.58333 0.08332997 0.58333 0.16666 0.58333 0.08332997 0.66666 0.16666 0.66666 0.16666 0.66666 0.25 0.66666 0.16666 0.58333 0.25 0.58333 0.16666 0.58333 0.25 0.66666 0.33333 0.58333 0.25 0.66666 0.33333 0.66666 0.25 0.66666 0.33333 0.58333 0.25 0.58333 0.41666 0.58333 0.33333 0.66666 0.41666 0.66666 0.33333 0.66666 0.41666 0.58333 0.33333 0.58333 0.5 0.58333 0.41666 0.58333 0.5 0.66666 0.41666 0.58333 0.41666 0.66666 0.5 0.66666 0.58333 0.58333 0.5 0.66666 0.58333 0.66666 0.5 0.66666 0.58333 0.58333 0.5 0.58333 0.66666 0.58333 0.58333 0.66666 0.66666 0.66666 0.58333 0.66666 0.66666 0.58333 0.58333 0.58333 0.75 0.66666 0.66666 0.58333 0.66666 0.66666 0.66666 0.58333 0.75 0.66666 0.75 0.58333 0.83333 0.66666 0.75 0.58333 0.75 0.66666 0.75 0.58333 0.83333 0.66666 0.83333 0.58333 0.83333 0.66666 0.91666 0.58333 0.83333 0.58333 0.91666 0.58333 0.83333 0.66666 0.91666 0.66666 0.91666 0.66666 1 0.66666 0.91666 0.58333 1 0.58333 0.91666 0.58333 1 0.66666 0.08332997 0.66666 0 0.66666 0.08332997 0.75 0 0.66666 0 0.75 0.08332997 0.75 0.08332997 0.66666 0.16666 0.75 0.16666 0.66666 0.16666 0.75 0.08332997 0.66666 0.08332997 0.75 0.16666 0.75 0.25 0.66666 0.16666 0.66666 0.25 0.66666 0.16666 0.75 0.25 0.75 0.25 0.75 0.33333 0.66666 0.25 0.66666 0.33333 0.66666 0.25 0.75 0.33333 0.75 0.41666 0.66666 0.33333 0.75 0.41666 0.75 0.33333 0.75 0.41666 0.66666 0.33333 0.66666 0.5 0.66666 0.41666 0.66666 0.5 0.75 0.41666 0.66666 0.41666 0.75 0.5 0.75 0.58333 0.66666 0.5 0.75 0.58333 0.75 0.5 0.75 0.58333 0.66666 0.5 0.66666 0.66666 0.66666 0.58333 0.75 0.66666 0.75 0.58333 0.75 0.66666 0.66666 0.58333 0.66666 0.75 0.75 0.66666 0.66666 0.66666 0.75 0.66666 0.66666 0.75 0.75 0.75 0.66666 0.83333 0.75 0.75 0.66666 0.75 0.75 0.75 0.66666 0.83333 0.75 0.83333 0.66666 0.83333 0.75 0.91666 0.66666 0.83333 0.66666 0.91666 0.66666 0.83333 0.75 0.91666 0.75 0.91666 0.75 1 0.75 0.91666 0.66666 1 0.66666 0.91666 0.66666 1 0.75 0.08332997 0.75 0 0.75 0.08332997 0.83333 0 0.75 0 0.83333 0.08332997 0.83333 0.08332997 0.75 0.16666 0.83333 0.16666 0.75 0.16666 0.83333 0.08332997 0.75 0.08332997 0.83333 0.16666 0.83333 0.25 0.75 0.16666 0.75 0.25 0.75 0.16666 0.83333 0.25 0.83333 0.25 0.83333 0.33333 0.75 0.25 0.75 0.33333 0.75 0.25 0.83333 0.33333 0.83333 0.41666 0.75 0.33333 0.83333 0.41666 0.83333 0.33333 0.83333 0.41666 0.75 0.33333 0.75 0.5 0.75 0.41666 0.83333 0.5 0.83333 0.41666 0.83333 0.5 0.75 0.41666 0.75 0.58333 0.75 0.5 0.83333 0.58333 0.83333 0.5 0.83333 0.58333 0.75 0.5 0.75 0.66666 0.75 0.58333 0.83333 0.66666 0.83333 0.58333 0.83333 0.66666 0.75 0.58333 0.75 0.75 0.83333 0.66666 0.75 0.66666 0.83333 0.66666 0.75 0.75 0.83333 0.75 0.75 0.75 0.75 0.83333 0.83333 0.83333 0.75 0.83333 0.83333 0.75 0.75 0.75 0.83333 0.91666 0.83333 0.83333 0.75 0.83333 0.83333 0.83333 0.75 0.91666 0.83333 0.91666 0.75 0.91666 0.83333 1 0.83333 0.91666 0.75 1 0.75 0.91666 0.75 1 0.83333 0.08332997 0.91666 0.08332997 0.83333 0 0.83333 0 0.83333 0 0.91666 0.08332997 0.91666 0.08332997 0.83333 0.16666 0.91666 0.16666 0.83333 0.16666 0.91666 0.08332997 0.83333 0.08332997 0.91666 0.16666 0.91666 0.25 0.83333 0.16666 0.83333 0.25 0.83333 0.16666 0.91666 0.25 0.91666 0.25 0.91666 0.33333 0.83333 0.25 0.83333 0.33333 0.83333 0.25 0.91666 0.33333 0.91666 0.41666 0.83333 0.33333 0.91666 0.41666 0.91666 0.33333 0.91666 0.41666 0.83333 0.33333 0.83333 0.5 0.83333 0.41666 0.91666 0.5 0.91666 0.41666 0.91666 0.5 0.83333 0.41666 0.83333 0.5 0.91666 0.58333 0.83333 0.5 0.83333 0.58333 0.83333 0.5 0.91666 0.58333 0.91666 0.58333 0.91666 0.66666 0.83333 0.58333 0.83333 0.66666 0.83333 0.58333 0.91666 0.66666 0.91666 0.75 0.83333 0.66666 0.83333 0.75 0.91666 0.66666 0.83333 0.66666 0.91666 0.75 0.91666 0.75 0.83333 0.83333 0.91666 0.83333 0.83333 0.83333 0.91666 0.75 0.83333 0.75 0.91666 0.91666 0.91666 0.83333 0.83333 0.83333 0.91666 0.83333 0.83333 0.91666 0.91666 0.91666 0.83333 1 0.83333 0.91666 0.83333 1 0.91666 0.91666 0.83333 0.91666 0.91666 1 0.91666 0.08332997 0.08332997 0.04165995 0 0 0.08332997 0.16666 0.08332997 0.125 0 0.08332997 0.08332997 0.25 0.08332997 0.20833 0 0.16666 0.08332997 0.33333 0.08332997 0.29166 0 0.25 0.08332997 0.41666 0.08332997 0.375 0 0.33333 0.08332997 0.5 0.08332997 0.45833 0 0.41666 0.08332997 0.58333 0.08332997 0.54166 0 0.5 0.08332997 0.66666 0.08332997 0.625 0 0.58333 0.08332997 0.75 0.08332997 0.70833 0 0.66666 0.08332997 0.83333 0.08332997 0.79166 0 0.75 0.08332997 0.91666 0.08332997 0.875 0 0.83333 0.08332997 1 0.08332997 0.95833 0 0.91666 0.08332997 0 0.91666 0.04165995 1 0.08332997 0.91666 0.08332997 0.91666 0.125 1 0.16666 0.91666 0.16666 0.91666 0.20833 1 0.25 0.91666 0.25 0.91666 0.29166 1 0.33333 0.91666 0.33333 0.91666 0.375 1 0.41666 0.91666 0.41666 0.91666 0.45833 1 0.5 0.91666 0.5 0.91666 0.54166 1 0.58333 0.91666 0.58333 0.91666 0.625 1 0.66666 0.91666 0.66666 0.91666 0.70833 1 0.75 0.91666 0.75 0.91666 0.79166 1 0.83333 0.91666 0.83333 0.91666 0.875 1 0.91666 0.91666 0.91666 0.91666 0.95833 1 1 0.91666</float_array>
          <technique_common>
            <accessor source="#Alpha_JointsMesh_312-mesh-map-0-array" count="792" stride="2">
              <param name="S" type="float"/>
              <param name="T" type="float"/>
            </accessor>
          </technique_common>
        </source>
        <vertices id="Alpha_JointsMesh_312-mesh-vertices">
          <input semantic="POSITION" source="#Alpha_JointsMesh_312-mesh-positions"/>
        </vertices>
        <triangles material="Alpha_Joints_MAT_007-material" count="264">
          <input semantic="VERTEX" source="#Alpha_JointsMesh_312-mesh-vertices" offset="0"/>
          <input semantic="NORMAL" source="#Alpha_JointsMesh_312-mesh-normals" offset="1"/>
          <input semantic="TEXCOORD" source="#Alpha_JointsMesh_312-mesh-map-0" offset="2" set="0"/>
          <p>13 0 0 0 1 1 12 2 2 0 1 3 13 0 4 1 3 5 14 4 6 2 5 7 1 3 8 1 3 9 13 0 10 14 4 11 14 4 12 3 6 13 2 5 14 3 6 15 14 4 16 15 7 17 15 7 18 4 8 19 3 6 20 4 8 21 15 7 22 16 9 23 16 9 24 5 10 25 4 8 26 5 10 27 16 9 28 17 11 29 6 12 30 17 11 31 18 13 32 17 11 33 6 12 34 5 10 35 18 13 36 7 14 37 6 12 38 7 14 39 18 13 40 19 15 41 19 15 42 8 16 43 7 14 44 8 16 45 19 15 46 20 17 47 21 18 48 8 16 49 20 17 50 8 16 51 21 18 52 9 19 53 22 20 54 10 21 55 9 19 56 9 19 57 21 18 58 22 20 59 10 21 60 22 20 61 23 22 62 10 21 63 23 22 64 11 23 65 23 22 66 12 2 67 11 23 68 11 23 69 12 2 70 0 1 71 25 24 72 12 2 73 24 25 74 12 2 75 25 24 76 13 0 77 14 4 78 13 0 79 26 26 80 13 0 81 25 24 82 26 26 83 26 26 84 15 7 85 14 4 86 15 7 87 26 26 88 27 27 89 27 27 90 16 9 91 15 7 92 16 9 93 27 27 94 28 28 95 28 28 96 17 11 97 16 9 98 17 11 99 28 28 100 29 29 101 18 13 102 29 29 103 30 30 104 29 29 105 18 13 106 17 11 107 30 30 108 19 15 109 18 13 110 19 15 111 30 30 112 31 31 113 31 31 114 20 17 115 19 15 116 20 17 117 31 31 118 32 32 119 33 33 120 20 17 121 32 32 122 20 17 123 33 33 124 21 18 125 22 20 126 21 18 127 34 34 128 21 18 129 33 33 130 34 34 131 34 34 132 35 35 133 22 20 134 22 20 135 35 35 136 23 22 137 35 35 138 24 25 139 23 22 140 23 22 141 24 25 142 12 2 143 37 36 144 25 24 145 24 25 146 24 25 147 36 37 148 37 36 149 26 26 150 25 24 151 38 38 152 25 24 153 37 36 154 38 38 155 38 38 156 27 27 157 26 26 158 27 27 159 38 38 160 39 39 161 39 39 162 28 28 163 27 27 164 28 28 165 39 39 166 40 40 167 29 29 168 28 28 169 41 41 170 28 28 171 40 40 172 41 41 173 30 30 174 41 41 175 42 42 176 41 41 177 30 30 178 29 29 179 42 42 180 31 31 181 30 30 182 31 31 183 42 42 184 43 43 185 43 43 186 32 32 187 31 31 188 32 32 189 43 43 190 44 44 191 45 45 192 32 32 193 44 44 194 32 32 195 45 45 196 33 33 197 34 34 198 33 33 199 46 46 200 33 33 201 45 45 202 46 46 203 46 46 204 47 47 205 34 34 206 34 34 207 47 47 208 35 35 209 47 47 210 24 25 211 35 35 212 24 25 213 47 47 214 36 37 215 37 36 216 36 37 217 49 48 218 36 37 219 48 49 220 49 48 221 38 38 222 37 36 223 50 50 224 37 36 225 49 48 226 50 50 227 50 50 228 39 39 229 38 38 230 39 39 231 50 50 232 51 51 233 51 51 234 40 40 235 39 39 236 40 40 237 51 51 238 52 52 239 41 41 240 40 40 241 53 53 242 40 40 243 52 52 244 53 53 245 42 42 246 53 53 247 54 54 248 53 53 249 42 42 250 41 41 251 43 43 252 54 54 253 55 55 254 54 54 255 43 43 256 42 42 257 56 56 258 43 43 259 55 55 260 43 43 261 56 56 262 44 44 263 56 56 264 45 45 265 44 44 266 45 45 267 56 56 268 57 57 269 57 57 270 58 58 271 45 45 272 46 46 273 45 45 274 58 58 275 58 58 276 59 59 277 46 46 278 46 46 279 59 59 280 47 47 281 59 59 282 36 37 283 47 47 284 36 37 285 59 59 286 48 49 287 60 60 288 49 48 289 48 49 290 49 48 291 60 60 292 61 61 293 50 50 294 61 61 295 62 62 296 61 61 297 50 50 298 49 48 299 62 62 300 63 63 301 50 50 302 51 51 303 50 50 304 63 63 305 63 63 306 64 64 307 51 51 308 52 52 309 51 51 310 64 64 311 53 53 312 52 52 313 65 65 314 52 52 315 64 64 316 65 65 317 54 54 318 65 65 319 66 66 320 65 65 321 54 54 322 53 53 323 55 55 324 66 66 325 67 67 326 66 66 327 55 55 328 54 54 329 68 68 330 55 55 331 67 67 332 55 55 333 68 68 334 56 56 335 68 68 336 57 57 337 56 56 338 57 57 339 68 68 340 69 69 341 69 69 342 70 70 343 57 57 344 57 57 345 70 70 346 58 58 347 70 70 348 71 71 349 58 58 350 58 58 351 71 71 352 59 59 353 71 71 354 48 49 355 59 59 356 48 49 357 71 71 358 60 60 359 72 72 360 73 73 361 60 60 362 60 60 363 73 73 364 61 61 365 62 62 366 73 73 367 74 74 368 73 73 369 62 62 370 61 61 371 74 74 372 75 75 373 62 62 374 63 63 375 62 62 376 75 75 377 64 64 378 75 75 379 76 76 380 75 75 381 64 64 382 63 63 383 65 65 384 76 76 385 77 77 386 76 76 387 65 65 388 64 64 389 66 66 390 65 65 391 78 78 392 65 65 393 77 77 394 78 78 395 67 67 396 66 66 397 79 79 398 66 66 399 78 78 400 79 79 401 80 80 402 67 67 403 79 79 404 67 67 405 80 80 406 68 68 407 80 80 408 69 69 409 68 68 410 69 69 411 80 80 412 81 81 413 81 81 414 70 70 415 69 69 416 70 70 417 81 81 418 82 82 419 82 82 420 71 71 421 70 70 422 71 71 423 82 82 424 83 83 425 83 83 426 72 72 427 71 71 428 71 71 429 72 72 430 60 60 431 84 84 432 85 85 433 72 72 434 73 73 435 72 72 436 85 85 437 85 85 438 74 74 439 73 73 440 74 74 441 85 85 442 86 86 443 86 86 444 87 87 445 74 74 446 75 75 447 74 74 448 87 87 449 76 76 450 87 87 451 88 88 452 87 87 453 76 76 454 75 75 455 77 77 456 88 88 457 89 89 458 88 88 459 77 77 460 76 76 461 78 78 462 77 77 463 90 90 464 77 77 465 89 89 466 90 90 467 79 79 468 90 90 469 91 91 470 90 90 471 79 79 472 78 78 473 80 80 474 91 91 475 92 92 476 91 91 477 80 80 478 79 79 479 93 93 480 80 80 481 92 92 482 80 80 483 93 93 484 81 81 485 94 94 486 81 81 487 93 93 488 81 81 489 94 94 490 82 82 491 94 94 492 83 83 493 82 82 494 83 83 495 94 94 496 95 95 497 95 95 498 84 84 499 83 83 500 72 72 501 83 83 502 84 84 503 85 85 504 84 84 505 97 96 506 84 84 507 96 97 508 97 96 509 85 85 510 98 98 511 86 86 512 98 98 513 85 85 514 97 96 515 98 98 516 87 87 517 86 86 518 87 87 519 98 98 520 99 99 521 99 99 522 88 88 523 87 87 524 88 88 525 99 99 526 100 100 527 89 89 528 100 100 529 101 101 530 100 100 531 89 89 532 88 88 533 90 90 534 89 89 535 102 102 536 89 89 537 101 101 538 102 102 539 91 91 540 102 102 541 103 103 542 102 102 543 91 91 544 90 90 545 92 92 546 103 103 547 104 104 548 103 103 549 92 92 550 91 91 551 105 105 552 92 92 553 104 104 554 92 92 555 105 105 556 93 93 557 106 106 558 93 93 559 105 105 560 93 93 561 106 106 562 94 94 563 106 106 564 95 95 565 94 94 566 95 95 567 106 106 568 107 107 569 107 107 570 96 97 571 95 95 572 84 84 573 95 95 574 96 97 575 97 96 576 96 97 577 109 108 578 96 97 579 108 109 580 109 108 581 97 96 582 110 110 583 98 98 584 110 110 585 97 96 586 109 108 587 110 110 588 99 99 589 98 98 590 99 99 591 110 110 592 111 111 593 111 111 594 100 100 595 99 99 596 100 100 597 111 111 598 112 112 599 101 101 600 112 112 601 113 113 602 112 112 603 101 101 604 100 100 605 102 102 606 113 113 607 114 114 608 113 113 609 102 102 610 101 101 611 103 103 612 114 114 613 115 115 614 114 114 615 103 103 616 102 102 617 104 104 618 115 115 619 116 116 620 115 115 621 104 104 622 103 103 623 117 117 624 104 104 625 116 116 626 104 104 627 117 117 628 105 105 629 105 105 630 118 118 631 106 106 632 118 118 633 105 105 634 117 117 635 119 119 636 106 106 637 118 118 638 106 106 639 119 119 640 107 107 641 119 119 642 108 109 643 107 107 644 96 97 645 107 107 646 108 109 647 121 120 648 109 108 649 108 109 650 108 109 651 120 121 652 121 120 653 109 108 654 122 122 655 110 110 656 122 122 657 109 108 658 121 120 659 122 122 660 111 111 661 110 110 662 111 111 663 122 122 664 123 123 665 123 123 666 112 112 667 111 111 668 112 112 669 123 123 670 124 124 671 113 113 672 124 124 673 125 125 674 124 124 675 113 113 676 112 112 677 114 114 678 125 125 679 126 126 680 125 125 681 114 114 682 113 113 683 126 126 684 115 115 685 114 114 686 115 115 687 126 126 688 127 127 689 127 127 690 116 116 691 115 115 692 116 116 693 127 127 694 128 128 695 117 117 696 116 116 697 129 129 698 116 116 699 128 128 700 129 129 701 117 117 702 130 130 703 118 118 704 130 130 705 117 117 706 129 129 707 131 131 708 118 118 709 130 130 710 118 118 711 131 131 712 119 119 713 108 109 714 119 119 715 120 121 716 119 119 717 131 131 718 120 121 719 1 3 720 132 132 721 0 1 722 2 5 723 132 132 724 1 3 725 3 6 726 132 132 727 2 5 728 4 8 729 132 132 730 3 6 731 5 10 732 132 132 733 4 8 734 6 12 735 132 132 736 5 10 737 7 14 738 132 132 739 6 12 740 8 16 741 132 132 742 7 14 743 9 19 744 132 132 745 8 16 746 10 21 747 132 132 748 9 19 749 11 23 750 132 132 751 10 21 752 0 1 753 132 132 754 11 23 755 120 121 756 133 133 757 121 120 758 121 120 759 133 133 760 122 122 761 122 122 762 133 133 763 123 123 764 123 123 765 133 133 766 124 124 767 124 124 768 133 133 769 125 125 770 125 125 771 133 133 772 126 126 773 126 126 774 133 133 775 127 127 776 127 127 777 133 133 778 128 128 779 128 128 780 133 133 781 129 129 782 129 129 783 133 133 784 130 130 785 130 130 786 133 133 787 131 131 788 131 131 789 133 133 790 120 121 791</p>
        </triangles>
      </mesh>
    </geometry>
  </library_geometries>
  <library_controllers/>
  <library_visual_scenes>
    <visual_scene id="Scene" name="Scene">
      <node id="VIS_Alpha_Joints_029" name="VIS_Alpha_Joints_029" type="NODE">
        <instance_geometry url="#Alpha_JointsMesh_312-mesh" name="VIS_Alpha_Joints_029">
          <bind_material>
            <technique_common>
              <instance_material symbol="Alpha_Joints_MAT_007-material" target="#Alpha_Joints_MAT_007-material"/>
            </technique_common>
          </bind_material>
        </instance_geometry>
      </node>
    </visual_scene>
  </library_visual_scenes>
  <scene>
    <instance_visual_scene url="#Scene"/>
  </scene>
</COLLADA>