<?xml version="1.0" encoding="utf-8"?>
<COLLADA xmlns="http://www.collada.org/2005/11/COLLADASchema" version="1.4.1" xmlns:xsi="http://www.w3.org/2001/XMLSchema-instance">
  <asset>
    <contributor>
      <author>Blender User</author>
      <authoring_tool>Blender 2.79.0 commit date:2018-03-22, commit time:14:10, hash:f4dc9f9d68b</authoring_tool>
    </contributor>
    <created>2018-10-09T21:23:55</created>
    <modified>2018-10-09T21:23:55</modified>
    <unit name="meter" meter="1"/>
    <up_axis>Z_UP</up_axis>
  </asset>
  <library_images/>
  <library_effects>
    <effect id="Alpha_Body_MAT_007-effect">
      <profile_COMMON>
        <technique sid="common">
          <phong>
            <emission>
              <color sid="emission">0 0 0 1</color>
            </emission>
            <ambient>
              <color sid="ambient">0 0 0 1</color>
            </ambient>
            <diffuse>
              <color sid="diffuse">0.077256 0.337296 0.4176 1</color>
            </diffuse>
            <specular>
              <color sid="specular">0.239315 0.239315 0.239315 1</color>
            </specular>
            <shininess>
              <float sid="shininess">3</float>
            </shininess>
            <transparent opaque="A_ONE">
              <color>1 1 1 1</color>
            </transparent>
            <index_of_refraction>
              <float sid="index_of_refraction">1</float>
            </index_of_refraction>
          </phong>
        </technique>
      </profile_COMMON>
    </effect>
  </library_effects>
  <library_materials>
    <material id="Alpha_Body_MAT_007-material" name="Alpha_Body_MAT_007">
      <instance_effect url="#Alpha_Body_MAT_007-effect"/>
    </material>
  </library_materials>
  <library_geometries>
    <geometry id="Alpha_SurfaceMesh_318-mesh" name="Alpha_SurfaceMesh.318">
      <mesh>
        <source id="Alpha_SurfaceMesh_318-mesh-positions">
          <float_array id="Alpha_SurfaceMesh_318-mesh-positions-array" count="456">94.7834 142.3688 -5.44152 96.9075 142.6823 -5.733185 94.52883 144.0101 -5.016559 96.89514 143.8164 -5.342561 94.62538 144.4011 -6.774527 96.79561 143.9862 -6.688181 94.76846 142.6118 -7.019225 96.85277 142.8347 -6.814342 94.40663 143.8007 -4.945453 94.89811 143.9598 -4.99249 94.84916 143.695 -4.876262 94.34375 143.3544 -4.96412 94.81537 143.3021 -4.886367 95.61422 143.2539 -4.967065 95.58132 143.8552 -5.063173 95.59557 143.5987 -4.93005 95.10725 142.3474 -5.451001 94.64615 142.518 -5.302988 95.04663 142.5339 -5.250872 95.72542 142.374 -5.517789 95.71443 142.5722 -5.305711 95.66744 142.8907 -5.105068 94.43772 142.9065 -5.086764 94.90459 142.8908 -5.024948 96.96867 142.8288 -5.625203 96.67264 142.5981 -5.69683 96.68695 142.7606 -5.521693 97.01303 143.0776 -5.481322 96.70751 143.0134 -5.356681 96.28793 142.9321 -5.231831 96.29087 142.4777 -5.615673 96.29238 142.6575 -5.413192 96.64395 143.8134 -5.264517 96.95749 143.6584 -5.323984 96.67699 143.5999 -5.188082 96.2003 143.8049 -5.175743 96.24917 143.5654 -5.065422 96.27552 143.2605 -5.094024 97.00518 143.392 -5.358496 96.71923 143.3205 -5.221888 94.42523 144.1765 -5.25708 94.89029 144.1567 -5.269666 95.55424 144.0408 -5.32081 95.53189 144.168 -5.692944 94.37737 144.3619 -5.742595 94.89889 144.3037 -5.689637 96.97544 143.9113 -5.513188 96.65784 143.9726 -5.472531 97.04103 144.0075 -5.805045 96.66054 144.0856 -5.789074 96.1155 144.106 -5.743824 96.152 143.9841 -5.409374 96.53823 144.018 -6.721623 96.92101 144.0405 -6.480859 96.5576 144.1075 -6.472139 96.08118 144.0571 -6.71376 96.08937 144.1481 -6.443694 96.10771 144.1578 -6.101503 97.04164 144.0714 -6.150849 96.63088 144.1423 -6.145602 94.5195 144.4537 -6.571303 95.00569 144.3046 -6.727603 94.9841 144.3805 -6.459257 94.41918 144.452 -6.193926 94.93254 144.3809 -6.095879 95.54342 144.2367 -6.075124 95.55189 144.1542 -6.70552 95.55571 144.2384 -6.427861 94.51812 144.2131 -6.903579 94.9777 144.1067 -6.918238 95.55593 143.9573 -6.901277 95.58535 143.6398 -7.027211 94.47715 143.7814 -7.041915 94.99204 143.7319 -7.050388 96.86653 143.8359 -6.757979 96.58382 143.837 -6.865135 96.97123 143.5584 -6.814107 96.65449 143.5561 -6.94916 96.15114 143.5761 -7.009504 96.1012 143.8671 -6.897188 96.62921 142.7776 -6.875146 96.91146 142.9912 -6.82786 96.63211 142.9742 -6.945855 96.25384 142.7006 -6.940796 96.23594 142.9344 -7.035985 96.20323 143.2401 -7.054752 96.96301 143.2447 -6.824329 96.64662 143.242 -6.965863 94.6274 142.8435 -7.089732 95.14127 142.5909 -7.02086 95.09357 142.8775 -7.127677 94.51384 143.2733 -7.115278 95.03289 143.2862 -7.11698 95.64496 143.2601 -7.090446 95.75685 142.604 -7.012432 95.72206 142.8858 -7.105251 94.68244 142.4846 -6.807724 95.1421 142.3934 -6.804205 95.77582 142.4044 -6.810996 95.77204 142.2708 -6.51337 94.65116 142.3702 -6.462134 95.14629 142.2623 -6.483108 96.9226 142.7806 -6.669808 96.66141 142.6519 -6.715382 96.97187 142.7287 -6.427368 96.69134 142.5681 -6.474666 96.30602 142.4189 -6.505159 96.2796 142.5329 -6.761877 96.96685 142.6727 -5.894191 96.69046 142.5295 -5.91623 96.29414 142.3867 -5.868846 96.31314 142.3637 -6.190379 96.99025 142.6891 -6.14784 96.70294 142.524 -6.190425 94.69555 142.329 -5.627271 95.09312 142.2451 -5.698539 94.66414 142.3118 -6.048683 95.14218 142.199 -6.099945 95.74767 142.2249 -6.14169 95.72066 142.2658 -5.777913 97.07632 142.9689 -6.635347 97.18584 143.2321 -6.598481 97.29953 143.2104 -6.263348 97.16265 142.9345 -6.358949 97.10213 143.8716 -6.515094 97.27191 143.8914 -6.147114 97.34237 143.5757 -6.177347 97.20622 143.5699 -6.555548 97.13005 143.7404 -5.522518 97.19757 143.4633 -5.549384 97.32567 143.5364 -5.818987 97.24499 143.8247 -5.806498 97.11641 142.8635 -5.797162 97.18391 142.8933 -6.054453 97.29413 143.1738 -5.918813 97.20426 143.1263 -5.654581 94.41325 142.5152 -5.510041 94.12615 142.9446 -5.312583 93.98928 143.0479 -5.888897 94.28776 142.5666 -5.980345 94.14617 143.965 -5.200539 94.02434 144.1721 -5.773249 93.85409 143.5805 -5.82096 94.01428 143.4321 -5.190163 94.24462 144.263 -6.705233 94.10293 143.7691 -6.872161 93.91168 143.6783 -6.37263 94.06804 144.2656 -6.276678 94.36576 142.7303 -6.855509 94.2909 142.6355 -6.451251 94.04145 143.1205 -6.42584 94.19421 143.2002 -6.879281</float_array>
          <technique_common>
            <accessor source="#Alpha_SurfaceMesh_318-mesh-positions-array" count="152" stride="3">
              <param name="X" type="float"/>
              <param name="Y" type="float"/>
              <param name="Z" type="float"/>
            </accessor>
          </technique_common>
        </source>
        <source id="Alpha_SurfaceMesh_318-mesh-normals">
          <float_array id="Alpha_SurfaceMesh_318-mesh-normals-array" count="456">0.106757 0.6171644 0.7795584 -0.1412745 0.6281207 0.7651835 7.32454e-4 0.1797259 0.9837165 -0.3514925 0.2352439 0.906153 -0.4024507 -0.1555235 0.9021341 -0.05441492 -0.174964 0.9830701 0.1728609 0.6417583 0.7471717 0.1550697 0.1848263 0.9704601 -0.369192 -0.4626421 0.8060147 -0.02108854 -0.4308044 0.9021989 0.1401136 -0.2148551 0.9665431 0.1509794 -0.4295299 0.8903423 0.2222698 0.1729817 0.9595174 0.2502866 -0.2247422 0.9417259 0.1646502 0.6352845 0.7545224 0.01944094 -0.6281843 0.7778217 -0.2914611 -0.6876041 0.6650196 -0.2117111 -0.8437315 0.49325 0.03140419 -0.8388505 0.5434553 0.1678262 -0.616828 0.7689978 0.1641635 -0.8302786 0.5326235 0.2907298 -0.6214709 0.727496 0.298939 -0.8196331 0.4887096 0.2725093 -0.4510488 0.8498786 0.5514545 -0.566348 0.6124933 0.3674839 -0.6090144 0.702892 0.4997286 -0.7517597 0.4302659 0.3598274 -0.8064529 0.46921 0.3694719 -0.4528518 0.8114282 0.5687775 -0.3851463 0.7267425 0.3756973 -0.2187956 0.9005444 0.5971074 -0.1409375 0.7896832 0.1931529 0.5968241 0.7787767 0.323535 0.1382829 0.9360572 0.4048433 0.5450507 0.734181 0.5602084 0.1521987 0.8142494 0.1202456 0.8838973 0.4519589 -0.229629 0.8496643 0.4747011 0.1726467 0.8772726 0.4478683 0.1354129 0.9542689 0.2665227 -0.2221189 0.9367572 0.2704614 0.1163092 0.8779805 0.4643518 0.1690757 0.9532942 0.250287 0.095281 0.9656893 0.2415902 0.1651068 0.9796238 0.114354 0.1820173 0.9786025 0.09595274 -0.1946825 0.9789367 0.06149631 0.4486314 0.7544943 0.4790285 0.1448439 0.8721154 0.4673704 0.1283335 0.961052 0.2447645 0.4485145 0.854668 0.261491 0.4331269 0.9004048 -0.04089558 0.1050154 0.9944574 0.005127131 0.101444 0.9934732 0.05215632 0.1075507 0.967621 -0.228347 0.398764 0.8483424 -0.3482852 0.3604641 0.7308471 -0.5795931 0.1186873 0.8126219 -0.5705779 0.1227167 0.9763622 -0.1779254 0.1063899 0.8393693 -0.5330482 0.1894966 0.8397184 -0.5088852 0.1991049 0.9699191 -0.1400509 -0.1634008 0.9630697 -0.2140019 0.2183054 0.971067 -0.09680759 -0.09173953 0.8315157 -0.5478737 0.2602649 0.8302963 -0.4928187 0.1359619 0.4940407 -0.8587422 -0.2365554 0.4951458 -0.8359858 0.1232997 0.5396804 -0.8327919 0.04574871 0.2475131 -0.9678039 0.06671494 0.2707053 -0.9603477 -0.221567 0.2385965 -0.9455051 0.08316403 0.5326162 -0.8422611 0.08798718 0.2545922 -0.9630374 0.05182141 0.1064201 -0.99297 0.1362665 0.04855543 -0.9894816 0.01196354 0.08026593 -0.9967017 -0.2932549 -0.02868759 -0.9556039 0.486473 0.4521086 -0.7476242 0.190504 0.4749782 -0.8591297 0.2732992 0.190287 -0.9429202 0.5723035 0.1880922 -0.7981792 0.5724514 -0.04370367 -0.8187731 0.3017731 -0.01983743 -0.9531734 0.3036365 -0.5324702 -0.7901142 0.2972919 -0.1923348 -0.9352138 0.507232 -0.4880353 -0.7103079 0.5699498 -0.1979793 -0.797472 0.191022 -0.1993844 -0.9611226 0.227335 -0.5282512 -0.818089 0.08340835 -0.1472235 -0.9855802 0.1184447 -0.5219075 -0.8447387 -0.00137335 -0.5603705 -0.8282411 -0.2739074 -0.5852922 -0.7631565 -0.009125113 -0.1560125 -0.987713 -0.3126049 -0.2960637 -0.9025655 -0.06427282 -0.8512337 -0.5208359 -0.3689772 -0.8035402 -0.4670965 0.134558 -0.8165345 -0.5613961 -0.09763157 -0.9605376 -0.2604527 -0.4128019 -0.8848719 -0.2158619 0.2724126 -0.7901369 -0.5490673 0.1308035 -0.9549633 -0.2663375 0.3062266 -0.9068996 -0.2894107 0.1312912 -0.991337 -0.003692746 -0.08752816 -0.9958008 -0.02682608 -0.4025128 -0.9150764 -0.02487283 0.6238421 -0.6680644 -0.4055996 0.3772183 -0.7900527 -0.4832423 0.4348339 -0.8663412 -0.245708 0.6446852 -0.7316341 -0.2215685 0.4430148 -0.8943308 -0.06253355 0.6274127 -0.7754612 -0.07080441 0.3094063 -0.9499489 -0.04318499 0.4026029 -0.9019502 0.1561948 0.5979019 -0.7908748 0.1305001 0.2947526 -0.9328136 0.2073156 0.1440809 -0.9580572 0.2477239 -0.05270665 -0.9726166 0.2263609 -0.3526831 -0.9146384 0.1976137 0.7917916 -0.3910432 -0.469203 0.8515132 -0.1298892 -0.5079903 0.8387508 -0.4951385 -0.2265722 0.8448311 0.180185 -0.5037795 0.9842683 0.1015672 -0.1445685 0.9603962 -0.2124108 -0.1803355 0.9559584 -0.2628939 0.1305008 0.844118 -0.5360923 0.008362114 0.6987292 0.5176913 -0.4937341 0.8397237 0.5340478 -0.09827035 0.8286656 0.4862978 0.2771782 0.9678887 0.06653201 0.2424147 0.7538492 0.3449255 0.5592297 0.8195005 -0.02264517 0.572631 0.8231006 -0.3129735 0.4738703 0.7746658 -0.5561187 0.3010402 -0.604797 -0.732733 0.3119662 -0.7715923 -0.4645974 0.4345052 -0.7256543 -0.6880241 0.006988883 -0.8367126 -0.06759989 0.5434542 -0.922927 -0.3845707 0.01763999 -0.9970048 0.01336741 0.07617616 -0.7451277 -0.6374253 -0.1961473 -0.9213823 -0.3091925 -0.2354881 -0.6920244 0.472896 0.5454098 -0.781355 0.5925321 0.1959338 -0.7719888 0.6243053 -0.1194835 -0.9733246 0.05804789 -0.2219675 -0.6064869 0.6098135 -0.5101973 -0.7457606 0.1727371 -0.6434306 -0.7721483 -0.2075339 -0.6005971 -0.6586288 -0.5270313 -0.537072</float_array>
          <technique_common>
            <accessor source="#Alpha_SurfaceMesh_318-mesh-normals-array" count="152" stride="3">
              <param name="X" type="float"/>
              <param name="Y" type="float"/>
              <param name="Z" type="float"/>
            </accessor>
          </technique_common>
        </source>
        <source id="Alpha_SurfaceMesh_318-mesh-map-0">
          <float_array id="Alpha_SurfaceMesh_318-mesh-map-0-array" count="1800">0.66504 0.01302897 0.663998 0.01232898 0.665886 0.01188498 0.663998 0.01232898 0.664234 0.01134794 0.665886 0.01188498 0.664234 0.01134794 0.664862 0.009089946 0.665886 0.01188498 0.665886 0.01188498 0.664862 0.009089946 0.667117 0.009970963 0.665886 0.01188498 0.666926 0.01502698 0.66504 0.01302897 0.666926 0.01502698 0.665886 0.01188498 0.668303 0.01412296 0.664862 0.009089946 0.666246 0.005686998 0.667117 0.009970963 0.667117 0.009970963 0.666246 0.005686998 0.669506 0.00732696 0.67038 0.01290595 0.667117 0.009970963 0.669506 0.00732696 0.67038 0.01290595 0.669506 0.00732696 0.673365 0.01158797 0.667117 0.009970963 0.668303 0.01412296 0.665886 0.01188498 0.668303 0.01412296 0.667117 0.009970963 0.67038 0.01290595 0.669796 0.017039 0.668303 0.01412296 0.67038 0.01290595 0.669796 0.017039 0.67038 0.01290595 0.671905 0.01662194 0.668303 0.01412296 0.668259 0.01750296 0.666926 0.01502698 0.668259 0.01750296 0.668303 0.01412296 0.669796 0.017039 0.01281398 0.06997597 0.01408499 0.06843 0.014741 0.06958198 0.014741 0.06958198 0.01420599 0.070899 0.01281398 0.06997597 0.01420599 0.070899 0.01170498 0.07311999 0.01281398 0.06997597 0.01170498 0.07311999 0.01420599 0.070899 0.01341396 0.073587 0.009165942 0.07230299 0.01060497 0.06784296 0.01281398 0.06997597 0.009165942 0.07230299 0.01281398 0.06997597 0.01170498 0.07311999 0.01060497 0.06784296 0.01255398 0.06557101 0.01408499 0.06843 0.01408499 0.06843 0.01281398 0.06997597 0.01060497 0.06784296 0.01341396 0.073587 0.01130199 0.076168 0.01170498 0.07311999 0.01130199 0.076168 0.01341396 0.073587 0.01297897 0.07629197 0.009165942 0.07230299 0.01130199 0.076168 0.008928 0.076168 0.01130199 0.076168 0.009165942 0.07230299 0.01170498 0.07311999 0.673365 0.01158797 0.671905 0.01662194 0.67038 0.01290595 0.671905 0.01662194 0.673365 0.01158797 0.675191 0.01619696 0.01164096 0.08007699 0.01127696 0.07844001 0.01268196 0.079544 0.01268196 0.079544 0.01127696 0.07844001 0.01279896 0.07829797 0.009204983 0.07893395 0.01164096 0.08007699 0.009770989 0.08096897 0.01164096 0.08007699 0.009204983 0.07893395 0.01127696 0.07844001 0.01127696 0.07844001 0.01297897 0.07629197 0.01279896 0.07829797 0.01297897 0.07629197 0.01127696 0.07844001 0.01130199 0.076168 0.671899 0.01942396 0.673846 0.02242499 0.671295 0.021254 0.673846 0.02242499 0.671899 0.01942396 0.674795 0.01985895 0.671905 0.01662194 0.674795 0.01985895 0.671899 0.01942396 0.674795 0.01985895 0.671905 0.01662194 0.675191 0.01619696 0.008928 0.076168 0.01127696 0.07844001 0.009204983 0.07893395 0.01127696 0.07844001 0.008928 0.076168 0.01130199 0.076168 0.66875 0.01943796 0.670033 0.01923894 0.668866 0.02051895 0.668866 0.02051895 0.670033 0.01923894 0.66971 0.02072495 0.66875 0.01943796 0.669796 0.017039 0.670033 0.01923894 0.669796 0.017039 0.66875 0.01943796 0.668259 0.01750296 0.671905 0.01662194 0.670033 0.01923894 0.669796 0.017039 0.670033 0.01923894 0.671905 0.01662194 0.671899 0.01942396 0.670033 0.01923894 0.671295 0.021254 0.66971 0.02072495 0.671295 0.021254 0.670033 0.01923894 0.671899 0.01942396 0.66504 0.01302897 0.663911 0.01401597 0.663998 0.01232898 0.663998 0.01232898 0.663911 0.01401597 0.662924 0.01286995 0.666926 0.01502698 0.663911 0.01401597 0.66504 0.01302897 0.663911 0.01401597 0.666926 0.01502698 0.665535 0.01593697 0.662422 0.01517599 0.662924 0.01286995 0.663911 0.01401597 0.662924 0.01286995 0.662422 0.01517599 0.661218 0.01396 0.668259 0.01750296 0.665535 0.01593697 0.666926 0.01502698 0.665535 0.01593697 0.668259 0.01750296 0.666745 0.01815497 0.666745 0.01815497 0.663929 0.01703399 0.665535 0.01593697 0.663929 0.01703399 0.666745 0.01815497 0.665109 0.01903498 0.665535 0.01593697 0.662422 0.01517599 0.663911 0.01401597 0.662422 0.01517599 0.665535 0.01593697 0.663929 0.01703399 0.663929 0.01703399 0.661021 0.01621794 0.662422 0.01517599 0.661021 0.01621794 0.663929 0.01703399 0.66237 0.01809996 0.662422 0.01517599 0.661021 0.01621794 0.661218 0.01396 0.661218 0.01396 0.661021 0.01621794 0.659817 0.01502597 0.668146 0.02121394 0.667564 0.020069 0.668866 0.02051895 0.66875 0.01943796 0.668866 0.02051895 0.667564 0.020069 0.668146 0.02121394 0.666153 0.02094197 0.667564 0.020069 0.666153 0.02094197 0.668146 0.02121394 0.667007 0.02218699 0.666153 0.02094197 0.665109 0.01903498 0.667564 0.020069 0.666745 0.01815497 0.667564 0.020069 0.665109 0.01903498 0.66875 0.01943796 0.666745 0.01815497 0.668259 0.01750296 0.666745 0.01815497 0.66875 0.01943796 0.667564 0.020069 0.665615 0.02311295 0.666153 0.02094197 0.667007 0.02218699 0.666153 0.02094197 0.665615 0.02311295 0.664636 0.02185696 0.666153 0.02094197 0.663559 0.02005195 0.665109 0.01903498 0.663559 0.02005195 0.666153 0.02094197 0.664636 0.02185696 0.665109 0.01903498 0.66237 0.01809996 0.663929 0.01703399 0.66237 0.01809996 0.665109 0.01903498 0.663559 0.02005195 0.663156 0.02266496 0.664099 0.02383595 0.662952 0.02425599 0.663156 0.02266496 0.662952 0.02425599 0.662075 0.02356499 0.662075 0.02356499 0.662041 0.02102696 0.663156 0.02266496 0.662041 0.02102696 0.662075 0.02356499 0.660724 0.02197796 0.664636 0.02185696 0.665615 0.02311295 0.664099 0.02383595 0.664099 0.02383595 0.663156 0.02266496 0.664636 0.02185696 0.660724 0.02197796 0.659522 0.01981699 0.662041 0.02102696 0.660875 0.01904797 0.662041 0.02102696 0.659522 0.01981699 0.66237 0.01809996 0.663559 0.02005195 0.660875 0.01904797 0.663559 0.02005195 0.662041 0.02102696 0.660875 0.01904797 0.663559 0.02005195 0.664636 0.02185696 0.663156 0.02266496 0.663559 0.02005195 0.663156 0.02266496 0.662041 0.02102696 0.65876 0.01594597 0.659757 0.01710695 0.658205 0.01651698 0.658205 0.01651698 0.659757 0.01710695 0.658667 0.01767498 0.659817 0.01502597 0.661021 0.01621794 0.659757 0.01710695 0.659817 0.01502597 0.659757 0.01710695 0.65876 0.01594597 0.66237 0.01809996 0.659757 0.01710695 0.661021 0.01621794 0.659757 0.01710695 0.66237 0.01809996 0.660875 0.01904797 0.659757 0.01710695 0.659522 0.01981699 0.658667 0.01767498 0.659522 0.01981699 0.659757 0.01710695 0.660875 0.01904797 0.657424 0.01813596 0.657291 0.01644998 0.658205 0.01651698 0.657424 0.01813596 0.658205 0.01651698 0.658667 0.01767498 0.658667 0.01767498 0.659522 0.01981699 0.657424 0.01813596 0.658156 0.02071696 0.657424 0.01813596 0.659522 0.01981699 0.655308 0.01897197 0.658156 0.02071696 0.656323 0.02213299 0.658156 0.02071696 0.655308 0.01897197 0.657424 0.01813596 0.655127 0.01645499 0.657424 0.01813596 0.655308 0.01897197 0.657424 0.01813596 0.655127 0.01645499 0.657291 0.01644998 0.659522 0.01981699 0.660724 0.02197796 0.658156 0.02071696 0.659593 0.02313297 0.658156 0.02071696 0.660724 0.02197796 0.656323 0.02213299 0.659593 0.02313297 0.658208 0.02491796 0.659593 0.02313297 0.656323 0.02213299 0.658156 0.02071696 0.653857 0.02422899 0.658208 0.02491796 0.656538 0.027345 0.658208 0.02491796 0.653857 0.02422899 0.656323 0.02213299 0.651949 0.02019798 0.656323 0.02213299 0.653857 0.02422899 0.656323 0.02213299 0.651949 0.02019798 0.655308 0.01897197 0.651294 0.01645898 0.655308 0.01897197 0.651949 0.02019798 0.655308 0.01897197 0.651294 0.01645898 0.655127 0.01645499 0.662806 0.02520096 0.661356 0.02475595 0.662952 0.02425599 0.662952 0.02425599 0.661356 0.02475595 0.662075 0.02356499 0.660715 0.02664798 0.662806 0.02520096 0.662739 0.02712899 0.662806 0.02520096 0.660715 0.02664798 0.661356 0.02475595 0.659593 0.02313297 0.662075 0.02356499 0.661356 0.02475595 0.662075 0.02356499 0.659593 0.02313297 0.660724 0.02197796 0.662359 0.02982997 0.65956 0.029145 0.660715 0.02664798 0.662359 0.02982997 0.660715 0.02664798 0.662739 0.02712899 0.656538 0.027345 0.660715 0.02664798 0.65956 0.029145 0.660715 0.02664798 0.656538 0.027345 0.658208 0.02491796 0.658208 0.02491796 0.661356 0.02475595 0.660715 0.02664798 0.661356 0.02475595 0.658208 0.02491796 0.659593 0.02313297 0.019611 0.08041399 0.02054297 0.08131998 0.01895898 0.08134198 0.01895898 0.08134198 0.02054297 0.08131998 0.01924395 0.08229196 0.019611 0.08041399 0.02186995 0.079647 0.02054297 0.08131998 0.02186995 0.079647 0.019611 0.08041399 0.02054697 0.07881295 0.02186995 0.079647 0.02364695 0.08091497 0.02054297 0.08131998 0.02054297 0.08131998 0.02364695 0.08091497 0.02165395 0.08285999 0.02054297 0.08131998 0.02165395 0.08285999 0.01924395 0.08229196 0.01924395 0.08229196 0.02165395 0.08285999 0.01974797 0.08401399 0.02054697 0.07881295 0.02309399 0.07727098 0.02186995 0.079647 0.02309399 0.07727098 0.02054697 0.07881295 0.02146899 0.076635 0.02309399 0.07727098 0.02364695 0.08091497 0.02186995 0.079647 0.02364695 0.08091497 0.02309399 0.07727098 0.02567297 0.07816797 0.02237796 0.07414895 0.02282696 0.07267898 0.02414798 0.07440495 0.02282696 0.07267898 0.02415496 0.07222598 0.02414798 0.07440495 0.02415496 0.07222598 0.02690994 0.07459795 0.02414798 0.07440495 0.02690994 0.07459795 0.02415496 0.07222598 0.02704399 0.07148998 0.02414798 0.07440495 0.02309399 0.07727098 0.02237796 0.07414895 0.02146899 0.076635 0.02237796 0.07414895 0.02309399 0.07727098 0.02309399 0.07727098 0.02414798 0.07440495 0.02567297 0.07816797 0.02414798 0.07440495 0.02690994 0.07459795 0.02567297 0.07816797 0.02091598 0.07368898 0.02173197 0.07198399 0.02282696 0.07267898 0.02091598 0.07368898 0.02282696 0.07267898 0.02237796 0.07414895 0.02237796 0.07414895 0.02146899 0.076635 0.02091598 0.07368898 0.02004694 0.07610595 0.02091598 0.07368898 0.02146899 0.076635 0.01926195 0.07309299 0.02004694 0.07116097 0.02173197 0.07198399 0.01926195 0.07309299 0.02173197 0.07198399 0.02091598 0.07368898 0.01925694 0.07823395 0.02146899 0.076635 0.02054697 0.07881295 0.02146899 0.076635 0.01925694 0.07823395 0.02004694 0.07610595 0.02004694 0.07610595 0.01925694 0.07823395 0.01849895 0.075486 0.01780796 0.07773298 0.01849895 0.075486 0.01925694 0.07823395 0.01849895 0.075486 0.01926195 0.07309299 0.02091598 0.07368898 0.01849895 0.075486 0.02091598 0.07368898 0.02004694 0.07610595 0.01673895 0.07474297 0.01926195 0.07309299 0.01849895 0.075486 0.01926195 0.07309299 0.01673895 0.07474297 0.01744198 0.07238 0.01744198 0.07238 0.01799297 0.07040297 0.02004694 0.07116097 0.01744198 0.07238 0.02004694 0.07116097 0.01926195 0.07309299 0.01801794 0.08125299 0.01854097 0.07993996 0.01895898 0.08134198 0.01895898 0.08134198 0.01854097 0.07993996 0.019611 0.08041399 0.01716899 0.07950997 0.01801794 0.08125299 0.01657396 0.08100599 0.01801794 0.08125299 0.01716899 0.07950997 0.01854097 0.07993996 0.01780796 0.07773298 0.01854097 0.07993996 0.01716899 0.07950997 0.01854097 0.07993996 0.01780796 0.07773298 0.01925694 0.07823395 0.01925694 0.07823395 0.019611 0.08041399 0.01854097 0.07993996 0.019611 0.08041399 0.01925694 0.07823395 0.02054697 0.07881295 0.015625 0.07903999 0.01657396 0.08100599 0.01496297 0.08057397 0.01657396 0.08100599 0.015625 0.07903999 0.01716899 0.07950997 0.015625 0.07903999 0.01616597 0.07719099 0.01716899 0.07950997 0.01616597 0.07719099 0.01780796 0.07773298 0.01716899 0.07950997 0.01616597 0.07719099 0.01673895 0.07474297 0.01849895 0.075486 0.01616597 0.07719099 0.01849895 0.075486 0.01780796 0.07773298 0.01279896 0.07829797 0.014126 0.07857596 0.01268196 0.079544 0.01268196 0.079544 0.014126 0.07857596 0.01355999 0.080006 0.01279896 0.07829797 0.01449894 0.07661998 0.014126 0.07857596 0.01449894 0.07661998 0.01279896 0.07829797 0.01297897 0.07629197 0.014126 0.07857596 0.01496297 0.08057397 0.01355999 0.080006 0.01496297 0.08057397 0.014126 0.07857596 0.015625 0.07903999 0.01297897 0.07629197 0.01494795 0.07402396 0.01449894 0.07661998 0.01494795 0.07402396 0.01297897 0.07629197 0.01341396 0.073587 0.01449894 0.07661998 0.01673895 0.07474297 0.01616597 0.07719099 0.01673895 0.07474297 0.01449894 0.07661998 0.01494795 0.07402396 0.01449894 0.07661998 0.01616597 0.07719099 0.014126 0.07857596 0.014126 0.07857596 0.01616597 0.07719099 0.015625 0.07903999 0.01420599 0.070899 0.014741 0.06958198 0.01556295 0.07141697 0.014741 0.06958198 0.01584994 0.06967896 0.01556295 0.07141697 0.01584994 0.06967896 0.01799297 0.07040297 0.01556295 0.07141697 0.01556295 0.07141697 0.01799297 0.07040297 0.01744198 0.07238 0.01494795 0.07402396 0.01744198 0.07238 0.01673895 0.07474297 0.01744198 0.07238 0.01494795 0.07402396 0.01556295 0.07141697 0.01341396 0.073587 0.01420599 0.070899 0.01556295 0.07141697 0.01341396 0.073587 0.01556295 0.07141697 0.01494795 0.07402396 0.01778399 0.08264398 0.01801794 0.08125299 0.01895898 0.08134198 0.01778399 0.08264398 0.01895898 0.08134198 0.01924395 0.08229196 0.01763397 0.08456397 0.01924395 0.08229196 0.01974797 0.08401399 0.01924395 0.08229196 0.01763397 0.08456397 0.01778399 0.08264398 0.01591598 0.08250695 0.01657396 0.08100599 0.01778399 0.08264398 0.01657396 0.08100599 0.01801794 0.08125299 0.01778399 0.08264398 0.664993 0.026838 0.665281 0.02982997 0.662739 0.02712899 0.665281 0.02982997 0.662359 0.02982997 0.662739 0.02712899 0.667351 0.02565896 0.668683 0.028665 0.664993 0.026838 0.668683 0.028665 0.665281 0.02982997 0.664993 0.026838 0.01591598 0.08250695 0.01763397 0.08456397 0.01502698 0.08456397 0.01763397 0.08456397 0.01591598 0.08250695 0.01778399 0.08264398 0.01247894 0.08370298 0.01400297 0.081968 0.01502698 0.08456397 0.01400297 0.081968 0.01591598 0.08250695 0.01502698 0.08456397 0.01496297 0.08057397 0.01657396 0.08100599 0.01591598 0.08250695 0.01496297 0.08057397 0.01591598 0.08250695 0.01400297 0.081968 0.662806 0.02520096 0.664099 0.02383595 0.66454 0.02495795 0.664099 0.02383595 0.662806 0.02520096 0.662952 0.02425599 0.666419 0.02406197 0.66454 0.02495795 0.665615 0.02311295 0.66454 0.02495795 0.664099 0.02383595 0.665615 0.02311295 0.667351 0.02565896 0.66454 0.02495795 0.666419 0.02406197 0.66454 0.02495795 0.667351 0.02565896 0.664993 0.026838 0.664993 0.026838 0.662806 0.02520096 0.66454 0.02495795 0.662806 0.02520096 0.664993 0.026838 0.662739 0.02712899 0.667853 0.02304196 0.665615 0.02311295 0.667007 0.02218699 0.665615 0.02311295 0.667853 0.02304196 0.666419 0.02406197 0.667351 0.02565896 0.667853 0.02304196 0.669195 0.02420496 0.667853 0.02304196 0.667351 0.02565896 0.666419 0.02406197 0.671116 0.02642798 0.667351 0.02565896 0.669195 0.02420496 0.667351 0.02565896 0.671116 0.02642798 0.668683 0.028665 0.66971 0.02072495 0.668985 0.02190297 0.668866 0.02051895 0.668866 0.02051895 0.668985 0.02190297 0.668146 0.02121394 0.670447 0.02271598 0.66971 0.02072495 0.671295 0.021254 0.66971 0.02072495 0.670447 0.02271598 0.668985 0.02190297 0.667853 0.02304196 0.668146 0.02121394 0.668985 0.02190297 0.668146 0.02121394 0.667853 0.02304196 0.667007 0.02218699 0.670447 0.02271598 0.673846 0.02242499 0.672774 0.02438795 0.673846 0.02242499 0.670447 0.02271598 0.671295 0.021254 0.669195 0.02420496 0.672774 0.02438795 0.671116 0.02642798 0.672774 0.02438795 0.669195 0.02420496 0.670447 0.02271598 0.669195 0.02420496 0.668985 0.02190297 0.670447 0.02271598 0.668985 0.02190297 0.669195 0.02420496 0.667853 0.02304196 0.01355999 0.080006 0.01251494 0.08114397 0.01268196 0.079544 0.01268196 0.079544 0.01251494 0.08114397 0.01164096 0.08007699 0.01355999 0.080006 0.01400297 0.081968 0.01251494 0.08114397 0.01400297 0.081968 0.01355999 0.080006 0.01496297 0.08057397 0.01400297 0.081968 0.01247894 0.08370298 0.01251494 0.08114397 0.01251494 0.08114397 0.01247894 0.08370298 0.01078099 0.08243197 0.01164096 0.08007699 0.01078099 0.08243197 0.009770989 0.08096897 0.01078099 0.08243197 0.01164096 0.08007699 0.01251494 0.08114397 0.01408499 0.06843 0.01584994 0.06967896 0.014741 0.06958198 0.01584994 0.06967896 0.01408499 0.06843 0.01571595 0.06789296 0.01491695 0.064471 0.01571595 0.06789296 0.01255398 0.06557101 0.01571595 0.06789296 0.01408499 0.06843 0.01255398 0.06557101 0.01584994 0.06967896 0.01856499 0.06828999 0.01799297 0.07040297 0.01856499 0.06828999 0.01584994 0.06967896 0.01571595 0.06789296 0.66282 0.008999943 0.663074 0.005023956 0.664862 0.009089946 0.663074 0.005023956 0.666246 0.005686998 0.664862 0.009089946 0.66282 0.008999943 0.657357 0.005940973 0.663074 0.005023956 0.657357 0.005940973 0.66282 0.008999943 0.65928 0.01009696 0.01491695 0.064471 0.01954799 0.06463497 0.01571595 0.06789296 0.01571595 0.06789296 0.01954799 0.06463497 0.01856499 0.06828999 0.01954799 0.06463497 0.02114397 0.06936097 0.01856499 0.06828999 0.02114397 0.06936097 0.01954799 0.06463497 0.02327799 0.06657099 0.01799297 0.07040297 0.02114397 0.06936097 0.02004694 0.07116097 0.02114397 0.06936097 0.01799297 0.07040297 0.01856499 0.06828999 0.664234 0.01134794 0.663998 0.01232898 0.662672 0.01160097 0.663998 0.01232898 0.662924 0.01286995 0.662672 0.01160097 0.661218 0.01396 0.662672 0.01160097 0.662924 0.01286995 0.662672 0.01160097 0.661218 0.01396 0.660468 0.01280498 0.66282 0.008999943 0.662672 0.01160097 0.65928 0.01009696 0.662672 0.01160097 0.660468 0.01280498 0.65928 0.01009696 0.664234 0.01134794 0.66282 0.008999943 0.664862 0.009089946 0.66282 0.008999943 0.664234 0.01134794 0.662672 0.01160097 0.661218 0.01396 0.659817 0.01502597 0.660468 0.01280498 0.660468 0.01280498 0.659817 0.01502597 0.658889 0.01409095 0.660468 0.01280498 0.656728 0.01206099 0.65928 0.01009696 0.656728 0.01206099 0.660468 0.01280498 0.658889 0.01409095 0.65928 0.01009696 0.653548 0.00941199 0.657357 0.005940973 0.653548 0.00941199 0.65928 0.01009696 0.656728 0.01206099 0.657291 0.01644998 0.65876 0.01594597 0.658205 0.01651698 0.65876 0.01594597 0.657291 0.01644998 0.657715 0.01533395 0.655438 0.01463395 0.657715 0.01533395 0.655127 0.01645499 0.655127 0.01645499 0.657715 0.01533395 0.657291 0.01644998 0.658889 0.01409095 0.65876 0.01594597 0.657715 0.01533395 0.65876 0.01594597 0.658889 0.01409095 0.659817 0.01502597 0.655438 0.01463395 0.651294 0.01645898 0.651527 0.01322394 0.651294 0.01645898 0.655438 0.01463395 0.655127 0.01645499 0.653548 0.00941199 0.656728 0.01206099 0.651527 0.01322394 0.656728 0.01206099 0.655438 0.01463395 0.651527 0.01322394 0.656728 0.01206099 0.658889 0.01409095 0.657715 0.01533395 0.656728 0.01206099 0.657715 0.01533395 0.655438 0.01463395 0.02415496 0.07222598 0.02173197 0.07198399 0.02309995 0.070674 0.02173197 0.07198399 0.02415496 0.07222598 0.02282696 0.07267898 0.02004694 0.07116097 0.02114397 0.06936097 0.02309995 0.070674 0.02004694 0.07116097 0.02309995 0.070674 0.02173197 0.07198399 0.02327799 0.06657099 0.02309995 0.070674 0.02114397 0.06936097 0.02309995 0.070674 0.02327799 0.06657099 0.02582895 0.06913399 0.02415496 0.07222598 0.02582895 0.06913399 0.02704399 0.07148998 0.02582895 0.06913399 0.02415496 0.07222598 0.02309995 0.070674</float_array>
          <technique_common>
            <accessor source="#Alpha_SurfaceMesh_318-mesh-map-0-array" count="900" stride="2">
              <param name="S" type="float"/>
              <param name="T" type="float"/>
            </accessor>
          </technique_common>
        </source>
        <vertices id="Alpha_SurfaceMesh_318-mesh-vertices">
          <input semantic="POSITION" source="#Alpha_SurfaceMesh_318-mesh-positions"/>
        </vertices>
        <triangles material="Alpha_Body_MAT_007-material" count="300">
          <input semantic="VERTEX" source="#Alpha_SurfaceMesh_318-mesh-vertices" offset="0"/>
          <input semantic="NORMAL" source="#Alpha_SurfaceMesh_318-mesh-normals" offset="1"/>
          <input semantic="TEXCOORD" source="#Alpha_SurfaceMesh_318-mesh-map-0" offset="2" set="0"/>
          <p>9 0 0 2 1 1 10 2 2 2 1 3 8 3 4 10 2 5 8 3 6 11 4 7 10 2 8 10 2 9 11 4 10 12 5 11 10 2 12 14 6 13 9 0 14 14 6 15 10 2 16 15 7 17 11 4 18 22 8 19 12 5 20 12 5 21 22 8 22 23 9 23 13 10 24 12 5 25 23 9 26 13 10 27 23 9 28 21 11 29 12 5 30 15 7 31 10 2 32 15 7 33 12 5 34 13 10 35 36 12 36 15 7 37 13 10 38 36 12 39 13 10 40 37 13 41 15 7 42 35 14 43 14 6 44 35 14 45 15 7 46 36 12 47 18 15 48 17 16 49 0 17 50 0 17 51 16 18 52 18 15 53 16 18 54 20 19 55 18 15 56 20 19 57 16 18 58 19 20 59 21 11 60 23 9 61 18 15 62 21 11 63 18 15 64 20 19 65 23 9 66 22 8 67 17 16 68 17 16 69 18 15 70 23 9 71 19 20 72 31 21 73 20 19 74 31 21 75 19 20 76 30 22 77 21 11 78 31 21 79 29 23 80 31 21 81 21 11 82 20 19 83 21 11 84 37 13 85 13 10 86 37 13 87 21 11 88 29 23 89 24 24 90 26 25 91 1 26 92 1 26 93 26 25 94 25 27 95 28 28 96 24 24 97 27 29 98 24 24 99 28 28 100 26 25 101 26 25 102 30 22 103 25 27 104 30 22 105 26 25 106 31 21 107 39 30 108 27 29 109 38 31 110 27 29 111 39 30 112 28 28 113 37 13 114 28 28 115 39 30 116 28 28 117 37 13 118 29 23 119 29 23 120 26 25 121 28 28 122 26 25 123 29 23 124 31 21 125 32 32 126 34 33 127 3 34 128 3 34 129 34 33 130 33 35 131 32 32 132 36 12 133 34 33 134 36 12 135 32 32 136 35 14 137 37 13 138 34 33 139 36 12 140 34 33 141 37 13 142 39 30 143 34 33 144 38 31 145 33 35 146 38 31 147 34 33 148 39 30 149 9 0 150 41 36 151 2 1 152 2 1 153 41 36 154 40 37 155 14 6 156 41 36 157 9 0 158 41 36 159 14 6 160 42 38 161 45 39 162 40 37 163 41 36 164 40 37 165 45 39 166 44 40 167 35 14 168 42 38 169 14 6 170 42 38 171 35 14 172 51 41 173 51 41 174 43 42 175 42 38 176 43 42 177 51 41 178 50 43 179 42 38 180 45 39 181 41 36 182 45 39 183 42 38 184 43 42 185 43 42 186 64 44 187 45 39 188 64 44 189 43 42 190 65 45 191 45 39 192 64 44 193 44 40 194 44 40 195 64 44 196 63 46 197 46 47 198 47 48 199 3 34 200 32 32 201 3 34 202 47 48 203 46 47 204 49 49 205 47 48 206 49 49 207 46 47 208 48 50 209 49 49 210 50 43 211 47 48 212 51 41 213 47 48 214 50 43 215 32 32 216 51 41 217 35 14 218 51 41 219 32 32 220 47 48 221 58 51 222 49 49 223 48 50 224 49 49 225 58 51 226 59 52 227 49 49 228 57 53 229 50 43 230 57 53 231 49 49 232 59 52 233 50 43 234 65 45 235 43 42 236 65 45 237 50 43 238 57 53 239 54 54 240 53 55 241 5 56 242 54 54 243 5 56 244 52 57 245 52 57 246 56 58 247 54 54 248 56 58 249 52 57 250 55 59 251 59 52 252 58 51 253 53 55 254 53 55 255 54 54 256 59 52 257 55 59 258 66 60 259 56 58 260 67 61 261 56 58 262 66 60 263 65 45 264 57 53 265 67 61 266 57 53 267 56 58 268 67 61 269 57 53 270 59 52 271 54 54 272 57 53 273 54 54 274 56 58 275 60 62 276 62 63 277 4 64 278 4 64 279 62 63 280 61 65 281 63 46 282 64 44 283 62 63 284 63 46 285 62 63 286 60 62 287 65 45 288 62 63 289 64 44 290 62 63 291 65 45 292 67 61 293 62 63 294 66 60 295 61 65 296 66 60 297 62 63 298 67 61 299 69 66 300 68 67 301 4 64 302 69 66 303 4 64 304 61 65 305 61 65 306 66 60 307 69 66 308 70 68 309 69 66 310 66 60 311 73 69 312 70 68 313 71 70 314 70 68 315 73 69 316 69 66 317 72 71 318 69 66 319 73 69 320 69 66 321 72 71 322 68 67 323 66 60 324 55 59 325 70 68 326 79 72 327 70 68 328 55 59 329 71 70 330 79 72 331 78 73 332 79 72 333 71 70 334 70 68 335 93 74 336 78 73 337 85 75 338 78 73 339 93 74 340 71 70 341 92 76 342 71 70 343 93 74 344 71 70 345 92 76 346 73 69 347 91 77 348 73 69 349 92 76 350 73 69 351 91 77 352 72 71 353 74 78 354 75 79 355 5 56 356 5 56 357 75 79 358 52 57 359 77 80 360 74 78 361 76 81 362 74 78 363 77 80 364 75 79 365 79 72 366 52 57 367 75 79 368 52 57 369 79 72 370 55 59 371 86 82 372 87 83 373 77 80 374 86 82 375 77 80 376 76 81 377 85 75 378 77 80 379 87 83 380 77 80 381 85 75 382 78 73 383 78 73 384 75 79 385 77 80 386 75 79 387 78 73 388 79 72 389 80 84 390 82 85 391 7 86 392 7 86 393 82 85 394 81 87 395 80 84 396 84 88 397 82 85 398 84 88 399 80 84 400 83 89 401 84 88 402 85 75 403 82 85 404 82 85 405 85 75 406 87 83 407 82 85 408 87 83 409 81 87 410 81 87 411 87 83 412 86 82 413 83 89 414 95 90 415 84 88 416 95 90 417 83 89 418 94 91 419 95 90 420 85 75 421 84 88 422 85 75 423 95 90 424 93 74 425 89 92 426 6 93 427 90 94 428 6 93 429 88 95 430 90 94 431 88 95 432 92 76 433 90 94 434 92 76 435 88 95 436 91 77 437 90 94 438 95 90 439 89 92 440 94 91 441 89 92 442 95 90 443 95 90 444 90 94 445 93 74 446 90 94 447 92 76 448 93 74 449 97 96 450 96 97 451 6 93 452 97 96 453 6 93 454 89 92 455 89 92 456 94 91 457 97 96 458 98 98 459 97 96 460 94 91 461 101 99 462 100 100 463 96 97 464 101 99 465 96 97 466 97 96 467 107 101 468 94 91 469 83 89 470 94 91 471 107 101 472 98 98 473 98 98 474 107 101 475 99 102 476 106 103 477 99 102 478 107 101 479 99 102 480 101 99 481 97 96 482 99 102 483 97 96 484 98 98 485 118 104 486 101 99 487 99 102 488 101 99 489 118 104 490 117 105 491 117 105 492 116 106 493 100 100 494 117 105 495 100 100 496 101 99 497 102 107 498 103 108 499 7 86 500 7 86 501 103 108 502 80 84 503 105 109 504 102 107 505 104 110 506 102 107 507 105 109 508 103 108 509 106 103 510 103 108 511 105 109 512 103 108 513 106 103 514 107 101 515 107 101 516 80 84 517 103 108 518 80 84 519 107 101 520 83 89 521 113 111 522 104 110 523 112 112 524 104 110 525 113 111 526 105 109 527 113 111 528 111 113 529 105 109 530 111 113 531 106 103 532 105 109 533 111 113 534 118 104 535 99 102 536 111 113 537 99 102 538 106 103 539 25 27 540 109 114 541 1 26 542 1 26 543 109 114 544 108 115 545 25 27 546 110 116 547 109 114 548 110 116 549 25 27 550 30 22 551 109 114 552 112 112 553 108 115 554 112 112 555 109 114 556 113 111 557 30 22 558 119 117 559 110 116 560 119 117 561 30 22 562 19 20 563 110 116 564 118 104 565 111 113 566 118 104 567 110 116 568 119 117 569 110 116 570 111 113 571 109 114 572 109 114 573 111 113 574 113 111 575 16 18 576 0 17 577 115 118 578 0 17 579 114 119 580 115 118 581 114 119 582 116 106 583 115 118 584 115 118 585 116 106 586 117 105 587 119 117 588 117 105 589 118 104 590 117 105 591 119 117 592 115 118 593 19 20 594 16 18 595 115 118 596 19 20 597 115 118 598 119 117 599 120 120 600 102 107 601 7 86 602 120 120 603 7 86 604 81 87 605 121 121 606 81 87 607 86 82 608 81 87 609 121 121 610 120 120 611 123 122 612 104 110 613 120 120 614 104 110 615 102 107 616 120 120 617 127 123 618 121 121 619 76 81 620 121 121 621 86 82 622 76 81 623 126 124 624 122 125 625 127 123 626 122 125 627 121 121 628 127 123 629 123 122 630 121 121 631 122 125 632 121 121 633 123 122 634 120 120 635 134 126 636 133 127 637 122 125 638 133 127 639 123 122 640 122 125 641 112 112 642 104 110 643 123 122 644 112 112 645 123 122 646 133 127 647 74 78 648 53 55 649 124 128 650 53 55 651 74 78 652 5 56 653 125 129 654 124 128 655 58 51 656 124 128 657 53 55 658 58 51 659 126 124 660 124 128 661 125 129 662 124 128 663 126 124 664 127 123 665 127 123 666 74 78 667 124 128 668 74 78 669 127 123 670 76 81 671 131 130 672 58 51 673 48 50 674 58 51 675 131 130 676 125 129 677 126 124 678 131 130 679 130 131 680 131 130 681 126 124 682 125 129 683 134 126 684 126 124 685 130 131 686 126 124 687 134 126 688 122 125 689 33 35 690 128 132 691 3 34 692 3 34 693 128 132 694 46 47 695 129 133 696 33 35 697 38 31 698 33 35 699 129 133 700 128 132 701 131 130 702 46 47 703 128 132 704 46 47 705 131 130 706 48 50 707 129 133 708 27 29 709 135 134 710 27 29 711 129 133 712 38 31 713 130 131 714 135 134 715 134 126 716 135 134 717 130 131 718 129 133 719 130 131 720 128 132 721 129 133 722 128 132 723 130 131 724 131 130 725 108 115 726 132 135 727 1 26 728 1 26 729 132 135 730 24 24 731 108 115 732 133 127 733 132 135 734 133 127 735 108 115 736 112 112 737 133 127 738 134 126 739 132 135 740 132 135 741 134 126 742 135 134 743 24 24 744 135 134 745 27 29 746 135 134 747 24 24 748 132 135 749 17 16 750 114 119 751 0 17 752 114 119 753 17 16 754 136 136 755 137 137 756 136 136 757 22 8 758 136 136 759 17 16 760 22 8 761 114 119 762 139 138 763 116 106 764 139 138 765 114 119 766 136 136 767 143 139 768 137 137 769 11 4 770 137 137 771 22 8 772 11 4 773 143 139 774 138 140 775 137 137 776 138 140 777 143 139 778 142 141 779 137 137 780 138 140 781 136 136 782 136 136 783 138 140 784 139 138 785 138 140 786 149 142 787 139 138 788 149 142 789 138 140 790 150 143 791 116 106 792 149 142 793 100 100 794 149 142 795 116 106 796 139 138 797 8 3 798 2 1 799 140 144 800 2 1 801 40 37 802 140 144 803 44 40 804 140 144 805 40 37 806 140 144 807 44 40 808 141 145 809 143 139 810 140 144 811 142 141 812 140 144 813 141 145 814 142 141 815 8 3 816 143 139 817 11 4 818 143 139 819 8 3 820 140 144 821 44 40 822 63 46 823 141 145 824 141 145 825 63 46 826 147 146 827 141 145 828 146 147 829 142 141 830 146 147 831 141 145 832 147 146 833 142 141 834 150 143 835 138 140 836 150 143 837 142 141 838 146 147 839 68 67 840 60 62 841 4 64 842 60 62 843 68 67 844 144 148 845 145 149 846 144 148 847 72 71 848 72 71 849 144 148 850 68 67 851 147 146 852 60 62 853 144 148 854 60 62 855 147 146 856 63 46 857 145 149 858 91 77 859 151 150 860 91 77 861 145 149 862 72 71 863 150 143 864 146 147 865 151 150 866 146 147 867 145 149 868 151 150 869 146 147 870 147 146 871 144 148 872 146 147 873 144 148 874 145 149 875 88 95 876 96 97 877 148 151 878 96 97 879 88 95 880 6 93 881 100 100 882 149 142 883 148 151 884 100 100 885 148 151 886 96 97 887 150 143 888 148 151 889 149 142 890 148 151 891 150 143 892 151 150 893 88 95 894 151 150 895 91 77 896 151 150 897 88 95 898 148 151 899</p>
        </triangles>
      </mesh>
    </geometry>
  </library_geometries>
  <library_controllers/>
  <library_visual_scenes>
    <visual_scene id="Scene" name="Scene">
      <node id="VIS_Alpha_Surface_028" name="VIS_Alpha_Surface_028" type="NODE">
        <instance_geometry url="#Alpha_SurfaceMesh_318-mesh" name="VIS_Alpha_Surface_028">
          <bind_material>
            <technique_common>
              <instance_material symbol="Alpha_Body_MAT_007-material" target="#Alpha_Body_MAT_007-material"/>
            </technique_common>
          </bind_material>
        </instance_geometry>
      </node>
    </visual_scene>
  </library_visual_scenes>
  <scene>
    <instance_visual_scene url="#Scene"/>
  </scene>
</COLLADA>