<?xml version="1.0" encoding="utf-8"?>
<COLLADA xmlns="http://www.collada.org/2005/11/COLLADASchema" version="1.4.1" xmlns:xsi="http://www.w3.org/2001/XMLSchema-instance">
  <asset>
    <contributor>
      <author>Blender User</author>
      <authoring_tool>Blender 2.79.0 commit date:2018-03-22, commit time:14:10, hash:f4dc9f9d68b</authoring_tool>
    </contributor>
    <created>2018-10-09T21:23:55</created>
    <modified>2018-10-09T21:23:55</modified>
    <unit name="meter" meter="1"/>
    <up_axis>Z_UP</up_axis>
  </asset>
  <library_images/>
  <library_effects>
    <effect id="Alpha_Body_MAT_007-effect">
      <profile_COMMON>
        <technique sid="common">
          <phong>
            <emission>
              <color sid="emission">0 0 0 1</color>
            </emission>
            <ambient>
              <color sid="ambient">0 0 0 1</color>
            </ambient>
            <diffuse>
              <color sid="diffuse">0.077256 0.337296 0.4176 1</color>
            </diffuse>
            <specular>
              <color sid="specular">0.239315 0.239315 0.239315 1</color>
            </specular>
            <shininess>
              <float sid="shininess">3</float>
            </shininess>
            <transparent opaque="A_ONE">
              <color>1 1 1 1</color>
            </transparent>
            <index_of_refraction>
              <float sid="index_of_refraction">1</float>
            </index_of_refraction>
          </phong>
        </technique>
      </profile_COMMON>
    </effect>
  </library_effects>
  <library_materials>
    <material id="Alpha_Body_MAT_007-material" name="Alpha_Body_MAT_007">
      <instance_effect url="#Alpha_Body_MAT_007-effect"/>
    </material>
  </library_materials>
  <library_geometries>
    <geometry id="Alpha_SurfaceMesh_305-mesh" name="Alpha_SurfaceMesh.305">
      <mesh>
        <source id="Alpha_SurfaceMesh_305-mesh-positions">
          <float_array id="Alpha_SurfaceMesh_305-mesh-positions-array" count="966">78.19599 140.161 -2.920625 84.53726 141.2478 -3.028625 77.61923 144.2769 -2.165778 84.83315 144.7253 -2.342324 74.26641 144.7418 -8.308741 83.65637 145.3101 -9.992742 83.57557 142.0406 -9.928541 81.37268 144.7687 -2.280457 78.58254 142.3559 -2.389582 81.41394 140.786 -2.969145 85.51039 142.7556 -2.147688 81.9635 142.5908 -1.507126 75.80338 145.309 -4.264754 84.875 145.4194 -5.600671 78.10662 145.6886 -9.85028 79.45262 146.1041 -4.826602 74.53118 141.9239 -8.978699 83.44709 143.5177 -11.00037 78.80934 141.5544 -9.373472 78.50335 143.1419 -10.75765 75.82971 139.5687 -5.300987 84.44898 141.3325 -6.2283 79.48877 140.2595 -6.069122 85.65456 143.3462 -6.043605 76.21192 142.3917 -5.039625 80.15953 142.3964 -1.576247 79.0867 144.5186 -2.043508 79.6133 140.126 -2.694581 83.72695 142.6707 -1.481051 83.12038 141.1335 -2.976517 83.34384 144.6292 -2.141775 80.69628 145.1818 -3.022045 76.79376 145.771 -4.213044 76.8908 144.4832 -2.570967 78.10659 144.8359 -2.605432 84.92316 144.9128 -3.171576 82.50178 145.937 -5.376216 83.069 145.0505 -3.147093 81.52987 145.4865 -10.17013 78.77693 146.4171 -7.011948 84.35652 145.6102 -8.088198 81.90615 146.1669 -7.653721 75.42385 145.5055 -6.088039 75.48096 145.1675 -8.961281 76.57836 146.0531 -6.262869 75.90928 142.3785 -9.929407 81.44727 143.3685 -11.16605 81.52194 142.0448 -9.872161 76.57128 140.9592 -8.549119 78.95433 140.5165 -8.018877 76.86129 139.1531 -5.777568 75.24781 139.9355 -6.749139 76.52388 139.8541 -7.243778 83.91253 141.4594 -8.48388 82.19853 141.2635 -6.216276 81.77195 141.2371 -8.440145 80.79988 140.5438 -3.967766 84.59204 141.2152 -3.851321 82.78361 141.111 -3.996117 77.43159 139.8706 -3.685998 78.70543 139.6732 -3.705687 85.19808 143.4339 -8.674044 85.71024 142.9452 -3.358789 77.69747 142.3831 -3.326535 75.1231 142.2903 -6.700626 77.98188 143.8773 -2.134335 79.76427 144.0595 -1.596757 78.1688 144.3646 -2.05627 78.86972 143.9391 -1.786125 78.43222 143.0969 -2.271837 79.37387 142.3847 -1.77924 80.06189 143.1755 -1.511257 79.2507 143.104 -1.746969 81.05195 142.4849 -1.525379 81.91799 143.3992 -1.384582 80.97566 143.3096 -1.431283 81.73508 144.2596 -1.585107 80.25148 144.7026 -2.198089 80.76261 144.2089 -1.618095 78.76856 140.0644 -2.722683 80.07176 140.8508 -1.982637 78.33995 140.6892 -2.658805 79.18413 140.7585 -2.140648 80.52536 140.4121 -2.816496 81.73976 141.2224 -2.200123 80.92344 141.0243 -2.078948 81.90113 141.8396 -1.727656 80.21329 141.6784 -1.681129 81.04262 141.7204 -1.702424 78.4978 141.5232 -2.456213 79.35886 141.6099 -1.866873 84.92282 141.5175 -2.63015 83.42404 141.3973 -2.116637 83.94527 141.1764 -2.952702 84.27628 141.4293 -2.159423 85.30118 142.075 -2.329722 84.71212 142.6748 -1.540367 83.63893 141.983 -1.666577 84.57257 141.9848 -1.731496 82.84471 142.6564 -1.486912 82.76467 141.9544 -1.702221 82.27207 141.0566 -3.013891 82.57371 141.3693 -2.201089 84.21659 144.6582 -2.224917 83.58214 144.1687 -1.3816 85.24934 144.3496 -2.166466 84.50263 144.249 -1.570284 82.38937 144.7181 -2.230847 82.65961 144.216 -1.453362 83.71063 143.4508 -1.321116 82.82187 143.4296 -1.332527 85.52178 143.5855 -2.059114 84.7022 143.5155 -1.406079 77.27873 144.663 -2.562377 79.35121 145.0588 -2.794559 80.03935 145.6218 -3.848526 77.90135 145.9738 -4.464724 77.30727 145.2382 -3.345897 78.56311 145.47 -3.533469 76.0893 145.6459 -4.191699 76.19093 144.9019 -3.331967 76.53157 145.1169 -3.329189 84.06642 144.9582 -3.140791 84.93228 145.1779 -4.309227 83.79858 145.6686 -5.524652 82.77354 145.4932 -4.210989 83.94728 145.3205 -4.264933 80.99275 146.1114 -5.157061 81.95201 145.1693 -3.147328 81.43849 145.6228 -4.072161 82.83258 145.3579 -10.08652 81.74524 145.9128 -8.64151 83.24031 145.9062 -7.879849 84.02022 145.5616 -8.891606 83.0684 145.7155 -8.773882 79.87594 145.6503 -10.08264 78.60112 146.1645 -8.028015 80.40735 146.3649 -7.351075 80.17659 146.1044 -8.37761 78.93995 146.6651 -6.000322 82.24093 146.3403 -6.750594 80.57649 146.6026 -6.382377 84.65773 145.5804 -7.065434 83.52125 145.9776 -6.926842 74.98692 145.1915 -6.944435 75.90302 145.8174 -6.121541 76.24314 145.7481 -7.330421 74.62718 144.8726 -8.589412 75.48061 145.5055 -7.106984 75.63313 145.6781 -5.02243 76.61103 146.218 -5.167239 76.02074 145.9962 -5.079829 77.5407 146.2903 -6.58322 77.60662 146.5222 -5.525929 76.72161 145.5198 -9.431692 77.26927 146.0098 -7.666932 75.4817 144.4215 -9.370411 74.13665 144.1124 -8.534374 74.52522 144.1991 -8.909353 78.25932 144.9097 -10.24237 76.73425 144.694 -9.797679 78.39829 144.0397 -10.48739 77.1314 142.7529 -10.38509 75.71816 143.3115 -9.679259 76.98333 143.6966 -10.09682 74.94918 142.112 -9.382853 74.22789 142.8627 -8.754469 74.70069 142.9994 -9.21835 83.53195 144.9801 -10.44003 81.41641 145.0587 -10.66875 82.76125 145.0394 -10.57997 83.47236 144.2312 -10.82054 82.72355 143.4586 -11.14073 81.42519 144.2372 -10.90254 82.71933 144.2353 -10.94176 79.96757 143.3025 -11.06468 79.90571 144.2087 -10.77706 79.89252 145.038 -10.5669 82.65335 142.0536 -9.903494 81.49715 142.4402 -10.44902 83.51358 142.3811 -10.39812 82.65839 142.4258 -10.46188 80.19174 141.8853 -9.718643 78.72893 142.0037 -9.945765 80.12561 142.2986 -10.27605 78.60354 142.517 -10.57632 81.47612 142.8706 -11.00996 80.0384 142.7466 -10.85832 83.44504 142.9296 -10.90165 82.69493 142.9118 -11.01903 75.16521 141.0977 -8.33964 76.458 141.3757 -9.026396 75.81056 140.8067 -8.175044 75.66415 141.2078 -8.622754 74.89023 141.4667 -8.665561 76.1706 141.8972 -9.584671 75.32333 141.6748 -9.085972 77.28586 142.183 -10.12512 77.55793 141.1799 -8.94315 77.47639 141.6396 -9.489968 76.51532 140.4322 -7.911071 75.72401 139.7509 -6.84482 75.2277 140.3838 -7.428388 75.76493 140.3397 -7.609951 78.86811 141.0516 -8.747289 77.56466 140.0822 -7.684895 77.56668 140.6658 -8.350772 79.10727 140.2408 -7.137022 78.06696 139.6103 -5.918459 76.58044 139.3539 -6.548949 77.65483 139.6346 -6.910215 76.16015 139.1721 -5.450357 75.42603 139.6186 -5.97482 75.77457 139.3036 -6.124593 83.65092 141.7346 -9.323827 82.93531 141.3218 -8.440217 81.61574 141.6042 -9.220333 82.75523 141.6709 -9.247426 84.17569 141.4227 -7.413987 83.32446 141.2462 -6.206205 81.96115 141.2696 -7.351162 83.10799 141.2928 -7.371995 80.92635 140.9164 -6.194683 80.4273 140.9689 -8.347047 80.61159 140.8698 -7.356656 80.28559 141.4213 -9.088453 83.72885 141.1321 -3.930211 81.81635 140.9648 -4.033392 80.07828 140.3744 -5.035973 82.4671 141.1877 -5.086454 81.33143 140.9232 -5.124796 84.59555 141.2232 -4.988657 83.54138 141.1676 -5.023877 77.88895 139.5728 -3.676584 76.46228 139.6237 -4.60022 77.66374 139.326 -4.757684 76.8479 139.2669 -4.663212 79.72428 140.0722 -3.825006 78.80425 139.7902 -4.891601 84.66273 141.8663 -8.603688 84.36385 141.8966 -9.252911 84.88439 143.4055 -9.58065 85.05094 142.6624 -8.666668 84.74363 142.6388 -9.498428 85.48845 143.4571 -7.400289 85.60324 142.5806 -6.148855 85.39901 142.6763 -7.459714 85.30236 141.7841 -6.227683 85.02914 141.879 -7.46755 84.86548 145.003 -8.439309 84.61218 144.9347 -9.207896 85.41658 144.8575 -5.801958 85.1892 144.9948 -7.176273 85.64121 144.1101 -5.937312 85.1699 144.2036 -8.608167 85.46302 144.2314 -7.311077 84.8577 144.1238 -9.53308 85.50952 144.4517 -3.183148 85.73348 143.6772 -3.247941 85.71084 143.1522 -4.672792 85.71572 143.8866 -4.557605 85.51906 144.6269 -4.430246 85.21044 141.6116 -3.684997 85.35115 141.6639 -4.917796 85.54901 142.2739 -3.502263 85.63517 142.4241 -4.797668 77.4233 140.5072 -3.580054 77.6222 141.4574 -3.425945 76.81243 142.4394 -4.209943 76.11598 141.4288 -5.127486 76.74036 141.4093 -4.378369 75.87489 140.3107 -5.182409 76.47721 140.3132 -4.518191 77.02044 143.9954 -2.688671 75.86887 144.4523 -4.570147 76.23688 144.297 -3.483382 76.04574 143.4288 -4.834649 77.43695 143.1856 -3.044907 76.56623 143.3485 -3.865091 75.32479 144.5248 -6.293207 74.73627 144.3473 -7.233804 74.55018 142.1141 -7.693542 75.21772 143.2885 -6.593453 74.57796 143.0673 -7.549181 75.64807 142.3977 -5.89952 75.68375 143.4259 -5.727695 75.64173 144.5643 -5.484503 75.03907 140.4632 -6.645404 74.86448 140.7331 -7.247145 75.34864 140.2678 -5.949965 75.09104 141.4563 -6.640052 75.50788 141.3225 -5.925015 74.55954 141.4183 -8.281457 74.32593 142.0115 -8.499799 74.18943 142.8785 -8.352518 74.28536 144.1547 -7.892509 74.56071 144.9619 -7.633453 75.00012 145.22 -7.822372 75.83425 145.4589 -8.13353 76.89174 145.7289 -8.633218 78.30281 145.9158 -9.009448 79.98713 145.8794 -9.256202 81.63761 145.7215 -9.351285 82.92678 145.5542 -9.440289 83.78118 145.4576 -9.502467 84.36489 144.9934 -9.595204 84.55529 144.1212 -10.06972 84.52785 143.4259 -10.21587 84.44486 142.7901 -10.13292 84.15719 142.1364 -9.837049 75.20717 140.7121 -7.861214 74.78077 141.0788 -8.062973 74.81465 140.8877 -7.741383 74.63922 141.3937 -7.659074 74.85058 141.3842 -7.133422 83.98229 142.4975 -10.36908 83.99578 142.889 -10.63546 84.07645 144.113 -10.55733 84.06757 144.6638 -10.28369 84.01849 143.502 -10.72137 84.11559 144.9982 -9.942746 84.46782 144.4819 -9.967201</float_array>
          <technique_common>
            <accessor source="#Alpha_SurfaceMesh_305-mesh-positions-array" count="322" stride="3">
              <param name="X" type="float"/>
              <param name="Y" type="float"/>
              <param name="Z" type="float"/>
            </accessor>
          </technique_common>
        </source>
        <source id="Alpha_SurfaceMesh_305-mesh-normals">
          <float_array id="Alpha_SurfaceMesh_305-mesh-normals-array" count="966">-0.4080134 -0.3021417 0.861531 -0.2147014 0.4143264 0.8844416 -0.3874126 0.09543395 0.9169536 -0.2888027 0.09070289 0.9530825 -0.5459519 -0.3150157 0.7763387 -0.3973842 -0.1165509 0.9102208 -0.1209802 0.3510683 0.9285014 -0.1546698 -0.01403868 0.9878665 -0.1010478 0.6744052 0.7314144 -0.6465235 -0.1168588 0.7538909 -0.4201595 -0.113776 0.9002895 -0.1334617 -0.1365747 0.9815983 -0.05142533 0.4994214 0.8648317 -0.06363296 0.03543305 0.9973443 -0.0139473 -0.1755475 0.9843721 -0.05975574 0.01773136 0.9980556 -0.004089534 -0.2134211 0.9769518 -0.06192338 0.5567308 0.8283819 -0.02597147 0.7965402 0.6040276 0.004669427 0.8456283 0.5337517 -0.5898081 -0.1739882 0.7885776 -0.15867 -0.7195848 0.6760337 -0.2805001 -0.4078254 0.8689064 -0.4995703 -0.4189078 0.7582518 0.1882138 -0.8708438 0.4540998 0.0712918 -0.5637733 0.8228471 -0.3709026 -0.1597997 0.9148199 -0.05395823 -0.2580413 0.964626 -0.6409948 -0.04464954 0.7662456 0.3582609 -0.8911204 0.2784847 0.2445189 -0.6717556 0.6992533 0.3512479 -0.9174134 0.1870229 0.2062212 -0.7783728 0.5929661 0.07690882 -0.3765177 0.9232116 0.06207489 -0.4621745 0.8846138 0.5903911 -0.7546446 0.2862687 0.2167179 -0.8182544 0.5324407 0.3147156 -0.9395078 0.1352007 0.08514708 -0.9838305 0.1575679 0.3381797 -0.4910183 0.8028298 0.7737059 -0.4918561 0.3993203 0.02703988 -0.4488437 0.8932012 0.01794505 -0.8216596 0.5696958 0.04931825 -0.9859075 0.159857 0.3695627 -0.2395489 0.8977973 0.8491678 -0.221173 0.4795796 0.03103816 -0.2332593 0.9719191 -0.003479182 -0.4686279 0.8833889 0.05954325 -0.8271969 0.5587486 -0.01446604 -0.2349053 0.9719107 0.1826586 -0.9697233 0.1620885 0.2874028 0.8741416 0.3915051 -0.00125128 0.9053872 0.4245852 0.2515071 0.5601153 0.789313 0.687268 0.5416901 0.4839778 0.04709059 0.5085968 0.8597162 0.03064167 0.8949574 0.4450982 0.05218821 -0.0325337 0.9981072 0.3672346 0.07568699 0.9270439 0.8441085 0.139291 0.5177634 -0.04904389 0.5454037 0.8367374 0.02972549 0.8764453 0.480583 -0.04150623 -0.03570753 0.9985 -0.2157074 0.6892688 0.6916493 -0.5770852 0.1476207 0.8032316 -0.1014751 0.7973659 0.5949038 -0.02881014 0.8508455 0.5246255 0.02670425 0.886796 0.461389 -0.03167867 0.8661895 0.4987106 -0.09400057 0.824733 0.5576554 0.03589063 0.899616 0.4352045 0.05420297 0.9098532 0.4113749 -0.02047818 0.8808992 0.4728607 -0.09491574 0.860346 0.5007952 -0.2725667 0.7264174 0.6308924 -0.7545235 0.2393917 0.6110533 -0.4801037 0.7387878 0.4729622 -0.9108121 0.2150681 0.3523736 0.06326681 0.9544044 0.2917355 0.3566799 0.9059982 0.2279187 0.09476238 0.9289156 0.3579607 0.4277612 0.8864082 0.1769214 0.1532693 0.9519973 0.264971 0.4911184 0.8666903 0.08746862 0.2323758 0.9533087 0.1928835 0.1459445 0.9335632 0.3273529 0.1923592 0.9432405 0.2707311 0.07641965 0.9106883 0.4059643 0.09732413 0.9187048 0.3827657 0.1210688 0.9314095 0.3432472 0.0987606 0.9547677 -0.2804729 0.3238998 0.8909456 -0.3182842 0.3134334 0.822343 -0.4748806 0.1169505 0.8908323 -0.4390223 0.09064149 0.9558864 -0.2794017 0.07571762 0.874278 -0.4794841 0.1095334 0.9630025 -0.2462288 0.1903762 0.9634175 -0.1886367 0.1217389 0.9624366 -0.2426844 0.09271812 0.9595016 -0.2660077 0.4851312 0.8541677 -0.187204 0.3926005 0.882222 -0.2599025 0.02920699 0.964441 -0.2626798 -0.04220759 0.8270922 -0.5604793 -0.09793442 0.9682966 -0.2298056 -0.1807056 0.7569434 -0.6279987 0.02966481 0.9685319 -0.2471153 -0.08917599 0.9706817 -0.2232146 -0.09418141 0.9701665 -0.2233986 0.02868813 0.9669436 -0.2533714 0.09454894 0.9942902 0.04947185 0.1958734 0.9805577 0.01184147 -0.01516777 0.9959793 0.08829069 0.2829757 0.9588885 0.02139407 0.5373249 0.8419392 -0.04919725 -0.4335522 0.8953343 -0.1020248 -0.5351021 0.6793078 -0.5022019 -0.8397446 0.5197169 -0.1572365 -0.7913699 0.5526772 0.2613077 -0.4357173 0.8958802 -0.08688706 -0.8468825 0.506103 0.1632482 -0.4502493 0.8881079 -0.09241205 -0.8058959 0.519288 0.28438 -0.3209671 0.9330539 -0.162452 -0.3253008 0.9327487 -0.1554327 -0.4260817 0.7274916 -0.5377829 -0.3278694 0.9284598 -0.1745402 -0.8573057 0.4547312 0.2413432 -0.4787854 0.8640905 0.1552817 -0.2518159 0.9514434 0.1770432 -0.1412097 0.9786713 0.1492055 -0.2295641 0.953842 -0.1936128 -0.2540096 0.9481945 -0.1908047 -0.3430022 0.7391378 -0.5796765 -0.2315798 0.9548245 -0.1862283 -0.9454627 0.1549473 -0.2865168 -0.5946383 0.2649686 -0.7590764 -0.4224126 0.3023206 -0.8544998 -0.4086194 0.1665424 -0.8973817 -0.5903977 0.06109982 -0.8047965 -0.8980664 -0.05926883 -0.4358487 -0.3453201 0.2942927 -0.8911486 -0.2374414 0.3316856 -0.9130204 -0.3338188 0.2111316 -0.9186884 -0.2617952 0.2380817 -0.935297 -0.2298697 -0.01324522 -0.9731313 -0.294054 -0.1271741 -0.9472903 -0.328108 -0.2783929 -0.9026862 -0.4713104 -0.3597011 -0.8052837 -0.6900399 -0.4670054 -0.5529475 0.3173446 0.5946167 -0.7387311 0.1285466 0.6328145 -0.7635585 0.298479 0.3196899 -0.8992824 0.07700055 0.3121834 -0.9468963 -0.04864805 0.2757741 -0.9599907 -9.15574e-5 0.5318877 -0.8468149 0.3065675 0.03982782 -0.9510154 0.09149497 0.02386558 -0.9955195 -0.03567665 -0.006195306 -0.9993442 -0.1387106 0.4386247 -0.8879008 -0.1483824 0.2646591 -0.952858 -0.1271134 -0.02719277 -0.9915154 -0.006988942 -0.8422154 -0.539096 0.1082209 -0.7425009 -0.6610451 0.1043441 -0.8379573 -0.5356677 0.01571756 -0.7884423 -0.614908 0.01178044 -0.8222516 -0.5690023 -0.002716183 -0.8091315 -0.5876214 -0.01919651 -0.5614599 -0.8272814 0.08402013 -0.5096753 -0.8562545 0.244459 -0.4209517 -0.8735214 0.03125166 -0.8004581 -0.5985734 0.01571726 -0.7969434 -0.6038495 0.02606284 -0.7819772 -0.6227619 0.00766021 -0.7802471 -0.6254245 -0.09067213 -0.5661287 -0.8193149 -0.04562658 -0.5874086 -0.8080034 -0.2318527 -0.7151819 -0.6593627 -0.271164 -0.757245 -0.5941803 -0.4283674 -0.6965091 -0.5756531 -0.1733818 -0.7593583 -0.6271474 -0.1702956 -0.6901856 -0.7033088 -0.1241214 -0.7604765 -0.6373927 -0.1231157 -0.7598141 -0.6383769 -0.1772874 -0.7576755 -0.62809 -0.04867887 -0.7677232 -0.63893 -0.1536628 -0.6238372 -0.7662996 -0.03494423 -0.7633414 -0.6450496 -0.1354446 -0.7531856 -0.6437129 -0.2114962 -0.7584565 -0.616452 -0.113317 -0.793982 -0.5972872 -0.2903029 -0.7960441 -0.5310725 -0.7698247 -0.6045309 -0.204725 -0.5331668 -0.7341648 -0.4203991 -0.02295064 -0.7603929 -0.6490578 0.0581997 -0.7905334 -0.6096473 0.1747231 -0.8699837 -0.4610859 0.04843318 -0.81781 -0.5734466 0.208263 -0.90404 -0.3732804 -0.03470021 -0.9051964 -0.4235746 0.3279602 -0.9112752 -0.2490373 0.3629358 -0.9219582 -0.1351701 0.3966537 -0.9101032 -0.1199086 0.1159435 -0.9874887 -0.1068792 -0.426597 -0.8935708 -0.1398083 -0.8440881 -0.4853705 0.2278836 -0.3630329 -0.9066513 0.2149203 -0.7444841 -0.4059352 0.5300566 0.03051877 -0.89121 -0.4525633 0.1377018 -0.8994261 -0.4148145 0.08044785 -0.9748048 -0.2080475 0.26265 -0.9424697 -0.2067995 0.1340386 -0.9609159 -0.2422279 0.05640006 -0.8602845 -0.5066852 0.06641012 -0.996885 -0.042544 0.2884343 -0.9505729 -0.1149647 0.03546339 -0.9972186 -0.06555545 0.278123 -0.9524484 -0.124458 0.1253734 -0.9900472 -0.06393796 0.1585788 -0.9870887 -0.0225538 0.299087 -0.9480448 -0.1084343 0.1603158 -0.9224343 -0.3513032 0.337603 -0.9371213 -0.08847504 0.05856657 -0.8225874 -0.5656147 0.3236874 -0.9457924 0.0265212 0.056369 -0.9984062 -0.002777218 0.07483321 -0.9966673 -0.03247249 0.2681092 -0.9615918 -0.05881005 0.3873526 -0.9194589 -0.06747841 0.09943145 -0.991568 -0.08310371 0.3147475 -0.9425944 -0.1115792 0.3965094 -0.9097255 -0.1232072 0.2948124 -0.9535625 -0.06167864 0.02771097 -0.9976563 -0.0625633 -0.1462801 -0.8678229 0.4748534 -0.5747712 -0.3965687 0.7158012 0.2464398 -0.9574989 0.1498782 -0.2263896 -0.8857823 0.4051392 -0.63539 -0.3798789 0.6722883 0.2262714 -0.9730222 0.04504674 0.383223 -0.9185206 -0.09726297 0.3755127 -0.9265435 -0.0225234 0.8985031 -0.3210269 -0.2993891 0.5449835 -0.740185 -0.3938518 0.8400756 -0.3750523 -0.3919295 0.6794587 -0.6817172 -0.2712891 0.9569169 -0.0562461 -0.2848625 0.9106767 -0.07086431 -0.4069968 0.9418243 -0.2624961 -0.2099114 0.721207 -0.6603816 -0.2091808 0.9839195 -0.01629739 -0.1778678 0.9719324 -0.207772 -0.110356 0.9963819 -0.01583927 -0.08349978 0.7576742 -0.6336129 -0.1564118 0.7867064 0.5607385 -0.2581967 0.7538208 0.5627105 -0.3392804 0.9336156 0.2299628 -0.2747346 0.8879264 0.2257507 -0.4007785 0.8371874 0.5278697 -0.1430765 0.8624556 0.5052227 -0.03033655 0.9823113 0.1718518 -0.07437449 0.9628067 0.2131432 -0.1660527 0.8352129 0.5200129 0.1789022 0.9868288 0.1216483 0.106633 0.9866055 -0.1494801 0.06530982 0.9909148 0.1340996 -0.01025426 0.8668937 0.4956599 0.05307263 0.9977551 -0.06390661 -0.02002036 0.7403632 -0.6672089 0.08182173 0.9298305 -0.3599137 0.07666438 0.7711334 -0.6364208 -0.01794534 0.9720027 -0.2349665 0.001281797 -0.7035335 -0.04193365 0.7094238 -0.7282949 4.57778e-4 0.6852638 -0.6970832 -0.205362 0.6869509 -0.7526028 0.02517831 0.6579934 -0.7219523 0.008453667 0.6918912 -0.7622719 -0.2119541 0.6115693 -0.8265681 -0.08759182 0.5559794 -0.7847901 0.08246171 0.6142512 -0.7813214 0.03772169 0.6229879 -0.6145997 -0.4571196 0.6428912 -0.6058038 -0.4730458 0.6397106 -0.8384269 -0.3267399 0.4362127 -0.9417322 -0.2107048 0.2621908 -0.7642587 -0.4078875 0.4995363 -0.8839267 -0.2373476 0.4029141 -0.9153785 0.04815852 0.3997037 -0.9809506 -0.09735649 0.1681001 -0.8411614 0.0248118 0.5402147 -0.8497623 -0.02307212 0.526661 -0.8923293 -0.02166885 0.4508647 -0.8612978 -0.04596269 0.5060174 -0.9375801 -0.3401974 -0.07217788 -0.8513525 0.02896231 0.5237942 -0.9193562 -0.09845447 0.3809084 -0.8938517 -0.0954951 0.4380753 -0.9506623 -0.1020855 0.2929505 -0.8407832 0.01678574 0.5411118 -0.9533074 -0.2097606 0.2172684 -0.9098416 -0.4035568 0.09659355 -0.9008143 -0.03640979 0.4326753 -0.8351079 0.09995168 0.5409294 -0.8844267 0.04590141 0.4644163 -0.8351911 -0.4980139 -0.23332 0.6804228 0.6155393 -0.3976635 0.783759 0.2150675 -0.5826386 0.7928859 -0.03799623 -0.6081843 0.7488807 -0.3478276 -0.5640868 0.4672521 -0.7125671 -0.5233772 -0.3352242 -0.7559025 -0.562349 -0.6755105 -0.6593658 -0.3300339 -0.7812343 -0.5801423 -0.2304516 -0.9602553 -0.2060654 0.1882728 -0.9026554 -0.04651069 0.4278435 0.4184808 -0.6212816 -0.6624826 0.5274343 -0.3271057 -0.7841014 0.5725029 0.4460939 -0.6879251 0.5707644 0.2620657 -0.7781708 0.5670234 0.01629745 -0.8235406 0.5943318 0.6232945 -0.5082064 0.749918 0.4091405 -0.5198337</float_array>
          <technique_common>
            <accessor source="#Alpha_SurfaceMesh_305-mesh-normals-array" count="322" stride="3">
              <param name="X" type="float"/>
              <param name="Y" type="float"/>
              <param name="Z" type="float"/>
            </accessor>
          </technique_common>
        </source>
        <source id="Alpha_SurfaceMesh_305-mesh-map-0">
          <float_array id="Alpha_SurfaceMesh_305-mesh-map-0-array" count="3840">0.558954 0.156019 0.557526 0.1607829 0.554792 0.1571069 0.557526 0.1607829 0.558954 0.156019 0.56529 0.161884 0.558954 0.156019 0.565522 0.151329 0.56529 0.161884 0.56529 0.161884 0.565522 0.151329 0.573142 0.156549 0.571692 0.166114 0.564686 0.172747 0.563266 0.165322 0.564686 0.172747 0.571692 0.166114 0.572843 0.173373 0.563266 0.165322 0.558336 0.168558 0.557526 0.1607829 0.558336 0.168558 0.563266 0.165322 0.564686 0.172747 0.569701 0.145319 0.573142 0.156549 0.565522 0.151329 0.573142 0.156549 0.569701 0.145319 0.577831 0.150691 0.572843 0.173373 0.578537 0.1654289 0.58013 0.172425 0.578537 0.1654289 0.572843 0.173373 0.571692 0.166114 0.572843 0.173373 0.564972 0.180672 0.564686 0.172747 0.564972 0.180672 0.572843 0.173373 0.57324 0.1811529 0.57324 0.1811529 0.572843 0.173373 0.581078 0.180432 0.572843 0.173373 0.58013 0.172425 0.581078 0.180432 0.57337 0.189152 0.57324 0.1811529 0.581309 0.188983 0.57324 0.1811529 0.581078 0.180432 0.581309 0.188983 0.565632 0.188249 0.564972 0.180672 0.57324 0.1811529 0.57324 0.1811529 0.57337 0.189152 0.565632 0.188249 0.564686 0.172747 0.558217 0.177548 0.558336 0.168558 0.558217 0.177548 0.564686 0.172747 0.564972 0.180672 0.558281 0.186031 0.564972 0.180672 0.565632 0.188249 0.564972 0.180672 0.558281 0.186031 0.558217 0.177548 0.574655 0.129776 0.580145 0.124927 0.582699 0.134394 0.580145 0.124927 0.574655 0.129776 0.574697 0.124075 0.59657 0.136096 0.604095 0.137087 0.597502 0.142868 0.604095 0.137087 0.59657 0.136096 0.602764 0.130666 0.58995 0.139703 0.597502 0.142868 0.591201 0.146318 0.597502 0.142868 0.58995 0.139703 0.59657 0.136096 0.572971 0.137894 0.582699 0.134394 0.581285 0.143442 0.582699 0.134394 0.572971 0.137894 0.574655 0.129776 0.597502 0.142868 0.605776 0.144088 0.599129 0.149292 0.605776 0.144088 0.597502 0.142868 0.604095 0.137087 0.599129 0.149292 0.607467 0.151439 0.600759 0.1558 0.607467 0.151439 0.599129 0.149292 0.605776 0.144088 0.593233 0.152507 0.600759 0.1558 0.594863 0.1592479 0.600759 0.1558 0.593233 0.152507 0.599129 0.149292 0.591201 0.146318 0.599129 0.149292 0.593233 0.152507 0.599129 0.149292 0.591201 0.146318 0.597502 0.142868 0.586977 0.154947 0.594863 0.1592479 0.588731 0.162127 0.594863 0.1592479 0.586977 0.154947 0.593233 0.152507 0.585329 0.147907 0.593233 0.152507 0.586977 0.154947 0.593233 0.152507 0.585329 0.147907 0.591201 0.146318 0.583739 0.141736 0.591201 0.146318 0.585329 0.147907 0.591201 0.146318 0.583739 0.141736 0.58995 0.139703 0.569701 0.145319 0.581285 0.143442 0.577831 0.150691 0.581285 0.143442 0.569701 0.145319 0.572971 0.137894 0.608817 0.177672 0.6051 0.174148 0.611324 0.17439 0.611324 0.17439 0.6051 0.174148 0.61017 0.170578 0.608817 0.177672 0.60135 0.177865 0.6051 0.174148 0.60135 0.177865 0.608817 0.177672 0.606247 0.182182 0.598409 0.172228 0.6051 0.174148 0.60135 0.177865 0.6051 0.174148 0.598409 0.172228 0.603058 0.168722 0.603058 0.168722 0.61017 0.170578 0.6051 0.174148 0.61017 0.170578 0.603058 0.168722 0.609318 0.164848 0.597486 0.182027 0.606247 0.182182 0.603607 0.1871539 0.606247 0.182182 0.597486 0.182027 0.60135 0.177865 0.593437 0.175407 0.60135 0.177865 0.597486 0.182027 0.60135 0.177865 0.593437 0.175407 0.598409 0.172228 0.596267 0.16598 0.603058 0.168722 0.598409 0.172228 0.603058 0.168722 0.596267 0.16598 0.601904 0.162455 0.590729 0.168906 0.598409 0.172228 0.593437 0.175407 0.598409 0.172228 0.590729 0.168906 0.596267 0.16598 0.588731 0.162127 0.596267 0.16598 0.590729 0.168906 0.596267 0.16598 0.588731 0.162127 0.594863 0.1592479 0.594863 0.1592479 0.601904 0.162455 0.596267 0.16598 0.601904 0.162455 0.594863 0.1592479 0.600759 0.1558 0.601904 0.162455 0.609318 0.164848 0.603058 0.168722 0.609318 0.164848 0.601904 0.162455 0.60851 0.158433 0.600759 0.1558 0.60851 0.158433 0.601904 0.162455 0.60851 0.158433 0.600759 0.1558 0.607467 0.151439 0.55969 0.209887 0.560106 0.2058179 0.565297 0.207649 0.55969 0.209887 0.565297 0.207649 0.561816 0.212499 0.566877 0.201797 0.565297 0.207649 0.560106 0.2058179 0.560106 0.2058179 0.560493 0.199989 0.566877 0.201797 0.572226 0.203655 0.565297 0.207649 0.566877 0.201797 0.565297 0.207649 0.572226 0.203655 0.569728 0.210447 0.569728 0.210447 0.561816 0.212499 0.565297 0.207649 0.561816 0.212499 0.569728 0.210447 0.565529 0.216435 0.566645 0.195278 0.566877 0.201797 0.560493 0.199989 0.560493 0.199989 0.559435 0.193302 0.566645 0.195278 0.565632 0.188249 0.566645 0.195278 0.559435 0.193302 0.559435 0.193302 0.558281 0.186031 0.565632 0.188249 0.565632 0.188249 0.57337 0.189152 0.566645 0.195278 0.566645 0.195278 0.57337 0.189152 0.573249 0.196685 0.566645 0.195278 0.573249 0.196685 0.566877 0.201797 0.566877 0.201797 0.573249 0.196685 0.572226 0.203655 0.57337 0.189152 0.580724 0.197322 0.573249 0.196685 0.580724 0.197322 0.57337 0.189152 0.581309 0.188983 0.580724 0.197322 0.572226 0.203655 0.573249 0.196685 0.572226 0.203655 0.580724 0.197322 0.579353 0.205552 0.572226 0.203655 0.57603 0.214123 0.569728 0.210447 0.57603 0.214123 0.572226 0.203655 0.579353 0.205552 0.569728 0.210447 0.570255 0.221168 0.565529 0.216435 0.570255 0.221168 0.569728 0.210447 0.57603 0.214123 0.557526 0.1607829 0.550104 0.157266 0.554792 0.1571069 0.549583 0.154578 0.554792 0.1571069 0.550104 0.157266 0.558336 0.168558 0.5516 0.162645 0.557526 0.1607829 0.5516 0.162645 0.550104 0.157266 0.557526 0.1607829 0.551497 0.172024 0.558336 0.168558 0.558217 0.177548 0.558336 0.168558 0.551497 0.172024 0.5516 0.162645 0.558281 0.186031 0.551173 0.181768 0.558217 0.177548 0.551173 0.181768 0.551497 0.172024 0.558217 0.177548 0.544349 0.167985 0.5516 0.162645 0.551497 0.172024 0.5516 0.162645 0.544349 0.167985 0.54409 0.159794 0.543629 0.178117 0.551497 0.172024 0.551173 0.181768 0.551497 0.172024 0.543629 0.178117 0.544349 0.167985 0.535441 0.175325 0.544349 0.167985 0.543629 0.178117 0.544349 0.167985 0.535441 0.175325 0.536406 0.165369 0.536406 0.165369 0.54409 0.159794 0.544349 0.167985 0.54409 0.159794 0.536406 0.165369 0.53699 0.158587 0.550104 0.157266 0.543041 0.155273 0.549583 0.154578 0.543041 0.152907 0.549583 0.154578 0.543041 0.155273 0.5516 0.162645 0.54409 0.159794 0.550104 0.157266 0.550104 0.157266 0.54409 0.159794 0.543041 0.155273 0.54409 0.159794 0.53699 0.158587 0.543041 0.155273 0.543041 0.155273 0.53699 0.158587 0.536574 0.154621 0.543041 0.155273 0.536574 0.154621 0.543041 0.152907 0.543041 0.152907 0.536574 0.154621 0.536718 0.15204 0.55969 0.209887 0.553195 0.205366 0.560106 0.2058179 0.553195 0.205366 0.55969 0.209887 0.553866 0.211361 0.553195 0.205366 0.560493 0.199989 0.560106 0.2058179 0.560493 0.199989 0.553195 0.205366 0.552329 0.198475 0.553195 0.205366 0.545204 0.2126269 0.544357 0.205339 0.545204 0.2126269 0.553195 0.205366 0.553866 0.211361 0.544357 0.205339 0.53505 0.213303 0.534458 0.205103 0.53505 0.213303 0.544357 0.205339 0.545204 0.2126269 0.534458 0.205103 0.543557 0.197073 0.544357 0.205339 0.543557 0.197073 0.534458 0.205103 0.534233 0.195886 0.544357 0.205339 0.552329 0.198475 0.553195 0.205366 0.552329 0.198475 0.544357 0.205339 0.543557 0.197073 0.543557 0.197073 0.551322 0.19072 0.552329 0.198475 0.551322 0.19072 0.543557 0.197073 0.543292 0.187813 0.534233 0.195886 0.543292 0.187813 0.543557 0.197073 0.543292 0.187813 0.534233 0.195886 0.534416 0.185593 0.534416 0.185593 0.543629 0.178117 0.543292 0.187813 0.543629 0.178117 0.534416 0.185593 0.535441 0.175325 0.543292 0.187813 0.551173 0.181768 0.551322 0.19072 0.551173 0.181768 0.543292 0.187813 0.543629 0.178117 0.560493 0.199989 0.552329 0.198475 0.559435 0.193302 0.559435 0.193302 0.552329 0.198475 0.551322 0.19072 0.551322 0.19072 0.558281 0.186031 0.559435 0.193302 0.558281 0.186031 0.551322 0.19072 0.551173 0.181768 0.504352 0.2027159 0.504421 0.2089419 0.500553 0.208702 0.504352 0.2027159 0.500553 0.208702 0.499219 0.2029179 0.50395 0.1935729 0.504352 0.2027159 0.499219 0.2029179 0.50395 0.1935729 0.499219 0.2029179 0.497416 0.1937209 0.516986 0.19356 0.516468 0.202958 0.509575 0.202881 0.516986 0.19356 0.509575 0.202881 0.509469 0.193552 0.516468 0.202958 0.515585 0.21156 0.509256 0.209967 0.509256 0.209967 0.509575 0.202881 0.516468 0.202958 0.503469 0.182039 0.50395 0.1935729 0.497416 0.1937209 0.503469 0.182039 0.497416 0.1937209 0.496951 0.181854 0.504317 0.170374 0.503469 0.182039 0.496951 0.181854 0.496951 0.181854 0.49784 0.16948 0.504317 0.170374 0.517948 0.183345 0.511775 0.171916 0.519181 0.172578 0.511775 0.171916 0.517948 0.183345 0.510237 0.182657 0.517948 0.183345 0.516986 0.19356 0.509469 0.193552 0.509469 0.193552 0.510237 0.182657 0.517948 0.183345 0.524993 0.183585 0.523853 0.194771 0.516986 0.19356 0.524993 0.183585 0.516986 0.19356 0.517948 0.183345 0.524993 0.183585 0.519181 0.172578 0.526253 0.173076 0.519181 0.172578 0.524993 0.183585 0.517948 0.183345 0.535441 0.175325 0.534416 0.185593 0.524993 0.183585 0.524993 0.183585 0.526253 0.173076 0.535441 0.175325 0.534416 0.185593 0.534233 0.195886 0.523853 0.194771 0.523853 0.194771 0.524993 0.183585 0.534416 0.185593 0.523716 0.203857 0.52358 0.212871 0.515585 0.21156 0.515585 0.21156 0.516468 0.202958 0.523716 0.203857 0.523853 0.194771 0.523716 0.203857 0.516468 0.202958 0.516468 0.202958 0.516986 0.19356 0.523853 0.194771 0.534233 0.195886 0.534458 0.205103 0.523716 0.203857 0.523716 0.203857 0.523853 0.194771 0.534233 0.195886 0.53505 0.213303 0.52358 0.212871 0.534458 0.205103 0.52358 0.212871 0.523716 0.203857 0.534458 0.205103 0.511252 0.1456519 0.504388 0.141221 0.507649 0.138844 0.511252 0.1456519 0.507649 0.138844 0.512842 0.141788 0.517033 0.149699 0.52471 0.14957 0.524314 0.1534579 0.52471 0.14957 0.517033 0.149699 0.518291 0.145373 0.515471 0.155363 0.524314 0.1534579 0.523287 0.158068 0.524314 0.1534579 0.515471 0.155363 0.517033 0.149699 0.50191 0.1493729 0.511252 0.1456519 0.509 0.152167 0.511252 0.1456519 0.50191 0.1493729 0.504388 0.141221 0.524314 0.1534579 0.531626 0.152189 0.530987 0.155068 0.531626 0.152189 0.524314 0.1534579 0.52471 0.14957 0.530987 0.155068 0.536718 0.15204 0.536574 0.154621 0.536718 0.15204 0.530987 0.155068 0.531626 0.152189 0.536574 0.154621 0.530425 0.158671 0.530987 0.155068 0.530425 0.158671 0.536574 0.154621 0.53699 0.158587 0.524314 0.1534579 0.530425 0.158671 0.523287 0.158068 0.530425 0.158671 0.524314 0.1534579 0.530987 0.155068 0.528513 0.164806 0.523287 0.158068 0.530425 0.158671 0.523287 0.158068 0.528513 0.164806 0.521405 0.164465 0.530425 0.158671 0.536406 0.165369 0.528513 0.164806 0.536406 0.165369 0.530425 0.158671 0.53699 0.158587 0.526253 0.173076 0.536406 0.165369 0.535441 0.175325 0.536406 0.165369 0.526253 0.173076 0.528513 0.164806 0.526253 0.173076 0.521405 0.164465 0.528513 0.164806 0.521405 0.164465 0.526253 0.173076 0.519181 0.172578 0.50191 0.1493729 0.505983 0.160302 0.499653 0.1594769 0.505983 0.160302 0.50191 0.1493729 0.509 0.152167 0.515471 0.155363 0.521405 0.164465 0.513515 0.16275 0.521405 0.164465 0.515471 0.155363 0.523287 0.158068 0.513515 0.16275 0.519181 0.172578 0.511775 0.171916 0.519181 0.172578 0.513515 0.16275 0.521405 0.164465 0.499653 0.1594769 0.504317 0.170374 0.49784 0.16948 0.504317 0.170374 0.499653 0.1594769 0.505983 0.160302 0.506682 0.13354 0.504388 0.141221 0.501809 0.134133 0.504388 0.141221 0.506682 0.13354 0.507649 0.138844 0.49489 0.147204 0.49767 0.138086 0.504388 0.141221 0.49489 0.147204 0.504388 0.141221 0.50191 0.1493729 0.49767 0.138086 0.484405 0.145508 0.486004 0.135327 0.484405 0.145508 0.49767 0.138086 0.49489 0.147204 0.507641 0.122625 0.506682 0.13354 0.501402 0.121638 0.506682 0.13354 0.501809 0.134133 0.501402 0.121638 0.492649 0.157835 0.49489 0.147204 0.50191 0.1493729 0.492649 0.157835 0.50191 0.1493729 0.499653 0.1594769 0.490921 0.169952 0.492649 0.157835 0.499653 0.1594769 0.490921 0.169952 0.499653 0.1594769 0.49784 0.16948 0.483398 0.157423 0.490921 0.169952 0.483133 0.1701239 0.490921 0.169952 0.483398 0.157423 0.492649 0.157835 0.49489 0.147204 0.483398 0.157423 0.484405 0.145508 0.483398 0.157423 0.49489 0.147204 0.492649 0.157835 0.474103 0.170087 0.474054 0.156475 0.483398 0.157423 0.474103 0.170087 0.483398 0.157423 0.483133 0.1701239 0.484405 0.145508 0.474054 0.156475 0.47521 0.144206 0.474054 0.156475 0.484405 0.145508 0.483398 0.157423 0.486004 0.135327 0.47521 0.144206 0.477182 0.134115 0.47521 0.144206 0.486004 0.135327 0.484405 0.145508 0.507641 0.122625 0.502983 0.112185 0.508527 0.113966 0.502983 0.112185 0.507641 0.122625 0.501402 0.121638 0.499219 0.2029179 0.496278 0.209116 0.49469 0.203517 0.496278 0.209116 0.499219 0.2029179 0.500553 0.208702 0.490605 0.211188 0.48795 0.205657 0.49469 0.203517 0.490605 0.211188 0.49469 0.203517 0.496278 0.209116 0.48795 0.205657 0.485212 0.19551 0.492161 0.193931 0.48795 0.205657 0.492161 0.193931 0.49469 0.203517 0.49469 0.203517 0.497416 0.1937209 0.499219 0.2029179 0.497416 0.1937209 0.49469 0.203517 0.492161 0.193931 0.484986 0.214108 0.48795 0.205657 0.490605 0.211188 0.48795 0.205657 0.484986 0.214108 0.481274 0.208447 0.481274 0.208447 0.485212 0.19551 0.48795 0.205657 0.485212 0.19551 0.481274 0.208447 0.476889 0.1975989 0.485212 0.19551 0.490845 0.182599 0.492161 0.193931 0.490845 0.182599 0.485212 0.19551 0.483452 0.183039 0.474503 0.184113 0.485212 0.19551 0.476889 0.1975989 0.485212 0.19551 0.474503 0.184113 0.483452 0.183039 0.474503 0.184113 0.483133 0.1701239 0.483452 0.183039 0.483133 0.1701239 0.474503 0.184113 0.474103 0.170087 0.483452 0.183039 0.483133 0.1701239 0.490921 0.169952 0.483452 0.183039 0.490921 0.169952 0.490845 0.182599 0.496951 0.181854 0.492161 0.193931 0.490845 0.182599 0.492161 0.193931 0.496951 0.181854 0.497416 0.1937209 0.490921 0.169952 0.496951 0.181854 0.490845 0.182599 0.496951 0.181854 0.490921 0.169952 0.49784 0.16948 0.664476 0.159788 0.667922 0.166495 0.663621 0.16618 0.667922 0.166495 0.664476 0.159788 0.669649 0.160643 0.664476 0.159788 0.66542 0.151477 0.671107 0.152081 0.664476 0.159788 0.671107 0.152081 0.669649 0.160643 0.669649 0.160643 0.671107 0.152081 0.676932 0.152862 0.669649 0.160643 0.676932 0.152862 0.675355 0.162074 0.669649 0.160643 0.673515 0.167366 0.667922 0.166495 0.673515 0.167366 0.669649 0.160643 0.675355 0.162074 0.66542 0.151477 0.664968 0.141143 0.670797 0.141336 0.66542 0.151477 0.670797 0.141336 0.671107 0.152081 0.664968 0.141143 0.662314 0.130007 0.668478 0.130055 0.664968 0.141143 0.668478 0.130055 0.670797 0.141336 0.670797 0.141336 0.668478 0.130055 0.675418 0.129871 0.670797 0.141336 0.675418 0.129871 0.67706 0.141463 0.671107 0.152081 0.670797 0.141336 0.67706 0.141463 0.671107 0.152081 0.67706 0.141463 0.676932 0.152862 0.675418 0.129871 0.682203 0.141472 0.67706 0.141463 0.682203 0.141472 0.675418 0.129871 0.681065 0.129357 0.67706 0.141463 0.681381 0.153407 0.676932 0.152862 0.681381 0.153407 0.67706 0.141463 0.682203 0.141472 0.675355 0.162074 0.676932 0.152862 0.681381 0.153407 0.675355 0.162074 0.681381 0.153407 0.679838 0.163639 0.675355 0.162074 0.679838 0.163639 0.673515 0.167366 0.673515 0.167366 0.679838 0.163639 0.677911 0.169389 0.506625 0.106765 0.516124 0.105816 0.512113 0.109306 0.516124 0.105816 0.506625 0.106765 0.512396 0.101691 0.668011 0.109655 0.658401 0.104492 0.664332 0.102331 0.658401 0.104492 0.668011 0.109655 0.66125 0.111244 0.655776 0.111599 0.658401 0.104492 0.66125 0.111244 0.658401 0.104492 0.655776 0.111599 0.653116 0.105148 0.512113 0.109306 0.502983 0.112185 0.506625 0.106765 0.502983 0.112185 0.512113 0.109306 0.508527 0.113966 0.668011 0.109655 0.664332 0.102331 0.673223 0.107921 0.664332 0.102331 0.669085 0.09965795 0.673223 0.107921 0.664755 0.119759 0.668011 0.109655 0.671963 0.119044 0.668011 0.109655 0.664755 0.119759 0.66125 0.111244 0.671963 0.119044 0.668011 0.109655 0.677358 0.118041 0.668011 0.109655 0.673223 0.107921 0.677358 0.118041 0.675418 0.129871 0.677358 0.118041 0.681065 0.129357 0.677358 0.118041 0.675418 0.129871 0.671963 0.119044 0.671963 0.119044 0.668478 0.130055 0.664755 0.119759 0.668478 0.130055 0.671963 0.119044 0.675418 0.129871 0.658673 0.119754 0.66125 0.111244 0.664755 0.119759 0.66125 0.111244 0.658673 0.119754 0.655776 0.111599 0.662314 0.130007 0.664755 0.119759 0.668478 0.130055 0.664755 0.119759 0.662314 0.130007 0.658673 0.119754 0.648795 0.110534 0.653116 0.105148 0.655776 0.111599 0.648795 0.110534 0.646781 0.104276 0.653116 0.105148 0.641327 0.110144 0.638386 0.103499 0.646781 0.104276 0.641327 0.110144 0.646781 0.104276 0.648795 0.110534 0.535406 0.09882795 0.534921 0.103438 0.527219 0.103816 0.535406 0.09882795 0.527219 0.103816 0.525716 0.09876799 0.652096 0.119164 0.648795 0.110534 0.655776 0.111599 0.652096 0.119164 0.655776 0.111599 0.658673 0.119754 0.655576 0.129729 0.652096 0.119164 0.658673 0.119754 0.655576 0.129729 0.658673 0.119754 0.662314 0.130007 0.647996 0.129624 0.644762 0.118484 0.652096 0.119164 0.647996 0.129624 0.652096 0.119164 0.655576 0.129729 0.644762 0.118484 0.641327 0.110144 0.648795 0.110534 0.644762 0.118484 0.648795 0.110534 0.652096 0.119164 0.637426 0.118567 0.634193 0.110279 0.641327 0.110144 0.637426 0.118567 0.641327 0.110144 0.644762 0.118484 0.640273 0.13046 0.637426 0.118567 0.644762 0.118484 0.640273 0.13046 0.644762 0.118484 0.647996 0.129624 0.629419 0.121963 0.640273 0.13046 0.631604 0.13391 0.640273 0.13046 0.629419 0.121963 0.637426 0.118567 0.627617 0.112196 0.637426 0.118567 0.629419 0.121963 0.637426 0.118567 0.627617 0.112196 0.634193 0.110279 0.534921 0.103438 0.543753 0.09959995 0.542557 0.103955 0.543753 0.09959995 0.534921 0.103438 0.535406 0.09882795 0.634193 0.110279 0.638386 0.103499 0.641327 0.110144 0.634193 0.110279 0.630957 0.10376 0.638386 0.103499 0.627617 0.112196 0.630957 0.10376 0.634193 0.110279 0.630957 0.10376 0.627617 0.112196 0.624934 0.106779 0.543753 0.09959995 0.54919 0.1059859 0.542557 0.103955 0.54919 0.1059859 0.543753 0.09959995 0.551471 0.101284 0.658527 0.159829 0.663621 0.16618 0.658572 0.1661559 0.663621 0.16618 0.658527 0.159829 0.664476 0.159788 0.651682 0.160636 0.658572 0.1661559 0.65196 0.167559 0.658572 0.1661559 0.651682 0.160636 0.658527 0.159829 0.651906 0.152049 0.658527 0.159829 0.651682 0.160636 0.658527 0.159829 0.651906 0.152049 0.658983 0.1514379 0.658983 0.1514379 0.664476 0.159788 0.658527 0.159829 0.664476 0.159788 0.658983 0.1514379 0.66542 0.151477 0.643443 0.162017 0.65196 0.167559 0.644006 0.1697469 0.65196 0.167559 0.643443 0.162017 0.651682 0.160636 0.634451 0.1639299 0.644006 0.1697469 0.634925 0.172 0.644006 0.1697469 0.634451 0.1639299 0.643443 0.162017 0.634237 0.155736 0.643443 0.162017 0.634451 0.1639299 0.643443 0.162017 0.634237 0.155736 0.643152 0.1536239 0.643152 0.1536239 0.651682 0.160636 0.643443 0.162017 0.651682 0.160636 0.643152 0.1536239 0.651906 0.152049 0.642869 0.142969 0.651906 0.152049 0.643152 0.1536239 0.651906 0.152049 0.642869 0.142969 0.6511 0.141524 0.633525 0.145921 0.643152 0.1536239 0.634237 0.155736 0.643152 0.1536239 0.633525 0.145921 0.642869 0.142969 0.631604 0.13391 0.642869 0.142969 0.633525 0.145921 0.642869 0.142969 0.631604 0.13391 0.640273 0.13046 0.642869 0.142969 0.647996 0.129624 0.6511 0.141524 0.647996 0.129624 0.642869 0.142969 0.640273 0.13046 0.658408 0.1411319 0.66542 0.151477 0.658983 0.1514379 0.66542 0.151477 0.658408 0.1411319 0.664968 0.141143 0.6511 0.141524 0.658983 0.1514379 0.651906 0.152049 0.658983 0.1514379 0.6511 0.141524 0.658408 0.1411319 0.6511 0.141524 0.655576 0.129729 0.658408 0.1411319 0.655576 0.129729 0.6511 0.141524 0.647996 0.129624 0.658408 0.1411319 0.662314 0.130007 0.664968 0.141143 0.662314 0.130007 0.658408 0.1411319 0.655576 0.129729 0.61017 0.170578 0.61721 0.17414 0.611324 0.17439 0.61721 0.17414 0.61017 0.170578 0.617185 0.168074 0.609318 0.164848 0.617185 0.168074 0.61017 0.170578 0.617185 0.168074 0.609318 0.164848 0.616947 0.161207 0.60851 0.158433 0.616947 0.161207 0.609318 0.164848 0.616947 0.161207 0.60851 0.158433 0.616568 0.153905 0.607467 0.151439 0.616568 0.153905 0.60851 0.158433 0.616568 0.153905 0.607467 0.151439 0.615243 0.145526 0.616568 0.153905 0.625414 0.15817 0.616947 0.161207 0.625414 0.15817 0.616568 0.153905 0.625079 0.149485 0.615243 0.145526 0.625079 0.149485 0.616568 0.153905 0.625079 0.149485 0.615243 0.145526 0.623472 0.139123 0.623472 0.139123 0.633525 0.145921 0.625079 0.149485 0.633525 0.145921 0.623472 0.139123 0.631604 0.13391 0.625079 0.149485 0.634237 0.155736 0.625414 0.15817 0.634237 0.155736 0.625079 0.149485 0.633525 0.145921 0.617185 0.168074 0.625597 0.173435 0.61721 0.17414 0.625597 0.173435 0.617185 0.168074 0.625394 0.165997 0.616947 0.161207 0.625394 0.165997 0.617185 0.168074 0.625394 0.165997 0.616947 0.161207 0.625414 0.15817 0.625414 0.15817 0.634451 0.1639299 0.625394 0.165997 0.634451 0.1639299 0.625414 0.15817 0.634237 0.155736 0.625394 0.165997 0.634925 0.172 0.625597 0.173435 0.634925 0.172 0.625394 0.165997 0.634451 0.1639299 0.571828 0.114849 0.574697 0.124075 0.567259 0.116855 0.574697 0.124075 0.571828 0.114849 0.580145 0.124927 0.611488 0.128322 0.604095 0.137087 0.602764 0.130666 0.602764 0.130666 0.610465 0.121913 0.611488 0.128322 0.560692 0.106215 0.567259 0.116855 0.556991 0.109583 0.560692 0.106215 0.571828 0.114849 0.567259 0.116855 0.551471 0.101284 0.560692 0.106215 0.556991 0.109583 0.551471 0.101284 0.556991 0.109583 0.54919 0.1059859 0.627617 0.112196 0.619536 0.118948 0.618278 0.112566 0.627617 0.112196 0.618278 0.112566 0.624934 0.106779 0.619536 0.118948 0.611488 0.128322 0.610465 0.121913 0.610465 0.121913 0.618278 0.112566 0.619536 0.118948 0.621376 0.128443 0.613272 0.136638 0.611488 0.128322 0.611488 0.128322 0.619536 0.118948 0.621376 0.128443 0.629419 0.121963 0.621376 0.128443 0.619536 0.118948 0.619536 0.118948 0.627617 0.112196 0.629419 0.121963 0.631604 0.13391 0.623472 0.139123 0.621376 0.128443 0.621376 0.128443 0.629419 0.121963 0.631604 0.13391 0.623472 0.139123 0.615243 0.145526 0.613272 0.136638 0.613272 0.136638 0.621376 0.128443 0.623472 0.139123 0.604095 0.137087 0.613272 0.136638 0.605776 0.144088 0.613272 0.136638 0.604095 0.137087 0.611488 0.128322 0.615243 0.145526 0.607467 0.151439 0.605776 0.144088 0.605776 0.144088 0.613272 0.136638 0.615243 0.145526 0.655976 0.179648 0.658222 0.171173 0.661973 0.176237 0.658222 0.171173 0.655976 0.179648 0.653516 0.173414 0.65196 0.167559 0.658222 0.171173 0.653516 0.173414 0.658222 0.171173 0.65196 0.167559 0.658572 0.1661559 0.658554 0.185623 0.655976 0.179648 0.661973 0.176237 0.658554 0.185623 0.661973 0.176237 0.665622 0.1814759 0.646642 0.18352 0.645067 0.1767449 0.653516 0.173414 0.646642 0.18352 0.653516 0.173414 0.655976 0.179648 0.646642 0.18352 0.658554 0.185623 0.64819 0.189965 0.658554 0.185623 0.646642 0.18352 0.655976 0.179648 0.636042 0.185624 0.64819 0.189965 0.636485 0.1922 0.64819 0.189965 0.636042 0.185624 0.646642 0.18352 0.636042 0.185624 0.645067 0.1767449 0.646642 0.18352 0.645067 0.1767449 0.636042 0.185624 0.635508 0.178945 0.644006 0.1697469 0.653516 0.173414 0.645067 0.1767449 0.653516 0.173414 0.644006 0.1697469 0.65196 0.167559 0.634925 0.172 0.645067 0.1767449 0.635508 0.178945 0.645067 0.1767449 0.634925 0.172 0.644006 0.1697469 0.513008 0.216855 0.50678 0.215615 0.509256 0.209967 0.513008 0.216855 0.509256 0.209967 0.515585 0.21156 0.510789 0.2233189 0.50678 0.215615 0.513008 0.216855 0.50678 0.215615 0.510789 0.2233189 0.502624 0.2213259 0.523295 0.2183099 0.515585 0.21156 0.52358 0.212871 0.523295 0.2183099 0.513008 0.216855 0.515585 0.21156 0.52358 0.212871 0.534626 0.218872 0.523295 0.2183099 0.534626 0.218872 0.52358 0.212871 0.53505 0.213303 0.534573 0.225231 0.523295 0.2183099 0.534626 0.218872 0.523295 0.2183099 0.534573 0.225231 0.522297 0.224775 0.522297 0.224775 0.513008 0.216855 0.523295 0.2183099 0.513008 0.216855 0.522297 0.224775 0.510789 0.2233189 0.534626 0.232532 0.522297 0.224775 0.534573 0.225231 0.522297 0.224775 0.534626 0.232532 0.52112 0.231911 0.52112 0.231911 0.510789 0.2233189 0.522297 0.224775 0.510789 0.2233189 0.52112 0.231911 0.508468 0.230053 0.508468 0.230053 0.502624 0.2213259 0.510789 0.2233189 0.502624 0.2213259 0.508468 0.230053 0.499645 0.2270269 0.55969 0.209887 0.55541 0.215943 0.553866 0.211361 0.55541 0.215943 0.55969 0.209887 0.561816 0.212499 0.561816 0.212499 0.557813 0.2213439 0.55541 0.215943 0.557813 0.2213439 0.561816 0.212499 0.565529 0.216435 0.570255 0.221168 0.557813 0.2213439 0.565529 0.216435 0.557813 0.2213439 0.570255 0.221168 0.560504 0.227309 0.546901 0.224324 0.55541 0.215943 0.557813 0.2213439 0.55541 0.215943 0.546901 0.224324 0.545914 0.218123 0.548182 0.2310529 0.557813 0.2213439 0.560504 0.227309 0.557813 0.2213439 0.548182 0.2310529 0.546901 0.224324 0.534626 0.232532 0.546901 0.224324 0.548182 0.2310529 0.546901 0.224324 0.534626 0.232532 0.534573 0.225231 0.546901 0.224324 0.534573 0.225231 0.534626 0.218872 0.546901 0.224324 0.534626 0.218872 0.545914 0.218123 0.55541 0.215943 0.545204 0.2126269 0.553866 0.211361 0.545204 0.2126269 0.55541 0.215943 0.545914 0.218123 0.545914 0.218123 0.53505 0.213303 0.545204 0.2126269 0.53505 0.213303 0.545914 0.218123 0.534626 0.218872 0.616303 0.179403 0.611324 0.17439 0.61721 0.17414 0.611324 0.17439 0.616303 0.179403 0.608817 0.177672 0.608817 0.177672 0.614825 0.18492 0.606247 0.182182 0.614825 0.18492 0.608817 0.177672 0.616303 0.179403 0.61721 0.17414 0.625597 0.173435 0.625537 0.179679 0.61721 0.17414 0.625537 0.179679 0.616303 0.179403 0.635508 0.178945 0.625537 0.179679 0.625597 0.173435 0.625597 0.173435 0.634925 0.172 0.635508 0.178945 0.625537 0.179679 0.635508 0.178945 0.636042 0.185624 0.625537 0.179679 0.636042 0.185624 0.625093 0.185981 0.616303 0.179403 0.625537 0.179679 0.625093 0.185981 0.616303 0.179403 0.625093 0.185981 0.614825 0.18492 0.625093 0.185981 0.636042 0.185624 0.636485 0.1922 0.625093 0.185981 0.636485 0.1922 0.624489 0.192125 0.614825 0.18492 0.625093 0.185981 0.624489 0.192125 0.614825 0.18492 0.624489 0.192125 0.613307 0.190445 0.606247 0.182182 0.614825 0.18492 0.613307 0.190445 0.606247 0.182182 0.613307 0.190445 0.603607 0.1871539 0.565077 0.122636 0.574697 0.124075 0.574655 0.129776 0.574697 0.124075 0.565077 0.122636 0.567259 0.116855 0.562883 0.131497 0.574655 0.129776 0.572971 0.137894 0.574655 0.129776 0.562883 0.131497 0.565077 0.122636 0.569701 0.145319 0.559763 0.139293 0.572971 0.137894 0.572971 0.137894 0.559763 0.139293 0.562883 0.131497 0.562883 0.131497 0.55298 0.12586 0.565077 0.122636 0.565077 0.122636 0.55298 0.12586 0.554975 0.1157979 0.559763 0.139293 0.550287 0.1346369 0.562883 0.131497 0.562883 0.131497 0.550287 0.1346369 0.55298 0.12586 0.550287 0.1346369 0.542831 0.130505 0.55298 0.12586 0.55298 0.12586 0.542831 0.130505 0.545182 0.122497 0.554975 0.1157979 0.545182 0.122497 0.547696 0.11263 0.545182 0.122497 0.554975 0.1157979 0.55298 0.12586 0.554975 0.1157979 0.567259 0.116855 0.565077 0.122636 0.567259 0.116855 0.554975 0.1157979 0.556991 0.109583 0.554975 0.1157979 0.547696 0.11263 0.556991 0.109583 0.556991 0.109583 0.547696 0.11263 0.54919 0.1059859 0.551776 0.1517879 0.554792 0.1571069 0.549583 0.154578 0.554792 0.1571069 0.551776 0.1517879 0.558954 0.156019 0.55609 0.145868 0.558954 0.156019 0.551776 0.1517879 0.558954 0.156019 0.55609 0.145868 0.565522 0.151329 0.544613 0.149301 0.551776 0.1517879 0.549583 0.154578 0.549583 0.154578 0.543041 0.152907 0.544613 0.149301 0.544613 0.149301 0.536718 0.15204 0.537572 0.146218 0.536718 0.15204 0.544613 0.149301 0.543041 0.152907 0.547488 0.142305 0.537572 0.146218 0.539829 0.138742 0.537572 0.146218 0.547488 0.142305 0.544613 0.149301 0.55609 0.145868 0.544613 0.149301 0.547488 0.142305 0.544613 0.149301 0.55609 0.145868 0.551776 0.1517879 0.550287 0.1346369 0.539829 0.138742 0.542831 0.130505 0.539829 0.138742 0.550287 0.1346369 0.547488 0.142305 0.559763 0.139293 0.547488 0.142305 0.550287 0.1346369 0.547488 0.142305 0.559763 0.139293 0.55609 0.145868 0.55609 0.145868 0.559763 0.139293 0.565522 0.151329 0.565522 0.151329 0.559763 0.139293 0.569701 0.145319 0.511784 0.134995 0.512842 0.141788 0.507649 0.138844 0.511784 0.134995 0.507649 0.138844 0.506682 0.13354 0.510977 0.12378 0.506682 0.13354 0.507641 0.122625 0.506682 0.13354 0.510977 0.12378 0.511784 0.134995 0.517425 0.138088 0.525994 0.13185 0.525222 0.141942 0.525994 0.13185 0.517425 0.138088 0.517659 0.127296 0.525222 0.141942 0.52471 0.14957 0.518291 0.145373 0.518291 0.145373 0.517425 0.138088 0.525222 0.141942 0.512258 0.11629 0.510977 0.12378 0.507641 0.122625 0.512258 0.11629 0.507641 0.122625 0.508527 0.113966 0.527674 0.123583 0.525994 0.13185 0.517659 0.127296 0.517659 0.127296 0.518838 0.119192 0.527674 0.123583 0.533003 0.135573 0.531206 0.144299 0.525222 0.141942 0.533003 0.135573 0.525222 0.141942 0.525994 0.13185 0.534867 0.127225 0.533003 0.135573 0.525994 0.13185 0.534867 0.127225 0.525994 0.13185 0.527674 0.123583 0.542831 0.130505 0.539829 0.138742 0.533003 0.135573 0.542831 0.130505 0.533003 0.135573 0.534867 0.127225 0.539829 0.138742 0.531206 0.144299 0.533003 0.135573 0.531206 0.144299 0.539829 0.138742 0.537572 0.146218 0.531206 0.144299 0.531626 0.152189 0.52471 0.14957 0.531206 0.144299 0.52471 0.14957 0.525222 0.141942 0.531626 0.152189 0.537572 0.146218 0.536718 0.15204 0.537572 0.146218 0.531626 0.152189 0.531206 0.144299 0.534921 0.103438 0.533285 0.1083739 0.527219 0.103816 0.527219 0.103816 0.533285 0.1083739 0.527105 0.1087509 0.540229 0.109228 0.534921 0.103438 0.542557 0.103955 0.534921 0.103438 0.540229 0.109228 0.533285 0.1083739 0.54919 0.1059859 0.540229 0.109228 0.542557 0.103955 0.540229 0.109228 0.54919 0.1059859 0.547696 0.11263 0.547696 0.11263 0.537555 0.118273 0.540229 0.109228 0.537555 0.118273 0.547696 0.11263 0.545182 0.122497 0.537555 0.118273 0.533285 0.1083739 0.540229 0.109228 0.533285 0.1083739 0.537555 0.118273 0.530393 0.116816 0.545182 0.122497 0.534867 0.127225 0.537555 0.118273 0.534867 0.127225 0.545182 0.122497 0.542831 0.130505 0.534867 0.127225 0.530393 0.116816 0.537555 0.118273 0.530393 0.116816 0.534867 0.127225 0.527674 0.123583 0.512258 0.11629 0.512113 0.109306 0.515876 0.111766 0.512258 0.11629 0.508527 0.113966 0.512113 0.109306 0.518838 0.119192 0.517659 0.127296 0.510977 0.12378 0.518838 0.119192 0.510977 0.12378 0.512258 0.11629 0.511784 0.134995 0.517659 0.127296 0.517425 0.138088 0.517659 0.127296 0.511784 0.134995 0.510977 0.12378 0.517425 0.138088 0.518291 0.145373 0.512842 0.141788 0.512842 0.141788 0.511784 0.134995 0.517425 0.138088 0.517033 0.149699 0.511252 0.1456519 0.518291 0.145373 0.511252 0.1456519 0.512842 0.141788 0.518291 0.145373 0.515471 0.155363 0.509 0.152167 0.517033 0.149699 0.509 0.152167 0.511252 0.1456519 0.517033 0.149699 0.513515 0.16275 0.505983 0.160302 0.515471 0.155363 0.505983 0.160302 0.509 0.152167 0.515471 0.155363 0.513515 0.16275 0.511775 0.171916 0.504317 0.170374 0.504317 0.170374 0.505983 0.160302 0.513515 0.16275 0.511775 0.171916 0.510237 0.182657 0.503469 0.182039 0.503469 0.182039 0.504317 0.170374 0.511775 0.171916 0.510237 0.182657 0.509469 0.193552 0.50395 0.1935729 0.50395 0.1935729 0.503469 0.182039 0.510237 0.182657 0.509469 0.193552 0.509575 0.202881 0.504352 0.2027159 0.509469 0.193552 0.504352 0.2027159 0.50395 0.1935729 0.509575 0.202881 0.509256 0.209967 0.504421 0.2089419 0.504421 0.2089419 0.504352 0.2027159 0.509575 0.202881 0.50678 0.215615 0.503743 0.213811 0.509256 0.209967 0.503743 0.213811 0.504421 0.2089419 0.509256 0.209967 0.499645 0.2270269 0.49799 0.218979 0.502624 0.2213259 0.49799 0.218979 0.499645 0.2270269 0.49368 0.223558 0.665622 0.1814759 0.661973 0.176237 0.666942 0.174091 0.665622 0.1814759 0.666942 0.174091 0.670635 0.177812 0.662845 0.17014 0.661973 0.176237 0.658222 0.171173 0.661973 0.176237 0.662845 0.17014 0.666942 0.174091 0.518216 0.09929096 0.525716 0.09876799 0.521977 0.10449 0.525716 0.09876799 0.527219 0.103816 0.521977 0.10449 0.518216 0.09929096 0.516124 0.105816 0.512396 0.101691 0.516124 0.105816 0.518216 0.09929096 0.521977 0.10449 0.512113 0.109306 0.518895 0.109048 0.515876 0.111766 0.518895 0.109048 0.512113 0.109306 0.516124 0.105816 0.527105 0.1087509 0.522338 0.108489 0.527219 0.103816 0.527219 0.103816 0.522338 0.108489 0.521977 0.10449 0.516124 0.105816 0.521977 0.10449 0.518895 0.109048 0.521977 0.10449 0.522338 0.108489 0.518895 0.109048 0.522338 0.108489 0.5212 0.113239 0.518895 0.109048 0.5212 0.113239 0.515876 0.111766 0.518895 0.109048 0.518838 0.119192 0.515876 0.111766 0.5212 0.113239 0.515876 0.111766 0.518838 0.119192 0.512258 0.11629 0.527105 0.1087509 0.5212 0.113239 0.522338 0.108489 0.5212 0.113239 0.527105 0.1087509 0.526001 0.114628 0.533285 0.1083739 0.530393 0.116816 0.527105 0.1087509 0.530393 0.116816 0.526001 0.114628 0.527105 0.1087509 0.526001 0.114628 0.518838 0.119192 0.5212 0.113239 0.518838 0.119192 0.526001 0.114628 0.527674 0.123583 0.658222 0.171173 0.658572 0.1661559 0.662845 0.17014 0.658572 0.1661559 0.663621 0.16618 0.662845 0.17014 0.663621 0.16618 0.667626 0.169835 0.662845 0.17014 0.667626 0.169835 0.663621 0.16618 0.667922 0.166495 0.667626 0.169835 0.667922 0.166495 0.673515 0.167366 0.667626 0.169835 0.673515 0.167366 0.670963 0.17101 0.490605 0.211188 0.497564 0.213275 0.493403 0.215762 0.497564 0.213275 0.490605 0.211188 0.496278 0.209116 0.484986 0.214108 0.493403 0.215762 0.488665 0.218915 0.493403 0.215762 0.484986 0.214108 0.490605 0.211188 0.673515 0.167366 0.675046 0.1736879 0.670963 0.17101 0.675046 0.1736879 0.673515 0.167366 0.677911 0.169389 0.500983 0.21219 0.504421 0.2089419 0.503743 0.213811 0.504421 0.2089419 0.500983 0.21219 0.500553 0.208702 0.496278 0.209116 0.500983 0.21219 0.497564 0.213275 0.496278 0.209116 0.500553 0.208702 0.500983 0.21219 0.662845 0.17014 0.667626 0.169835 0.666942 0.174091 0.670963 0.17101 0.666942 0.174091 0.667626 0.169835 0.666942 0.174091 0.670963 0.17101 0.670635 0.177812 0.670635 0.177812 0.670963 0.17101 0.675046 0.1736879 0.49368 0.223558 0.493403 0.215762 0.49799 0.218979 0.493403 0.215762 0.49368 0.223558 0.488665 0.218915 0.500983 0.21219 0.499855 0.216592 0.497564 0.213275 0.499855 0.216592 0.500983 0.21219 0.503743 0.213811 0.49799 0.218979 0.497564 0.213275 0.499855 0.216592 0.497564 0.213275 0.49799 0.218979 0.493403 0.215762 0.502624 0.2213259 0.503743 0.213811 0.50678 0.215615 0.502624 0.2213259 0.499855 0.216592 0.503743 0.213811 0.502624 0.2213259 0.49799 0.218979 0.499855 0.216592 0.530393 0.116816 0.527674 0.123583 0.526001 0.114628</float_array>
          <technique_common>
            <accessor source="#Alpha_SurfaceMesh_305-mesh-map-0-array" count="1920" stride="2">
              <param name="S" type="float"/>
              <param name="T" type="float"/>
            </accessor>
          </technique_common>
        </source>
        <vertices id="Alpha_SurfaceMesh_305-mesh-vertices">
          <input semantic="POSITION" source="#Alpha_SurfaceMesh_305-mesh-positions"/>
        </vertices>
        <triangles material="Alpha_Body_MAT_007-material" count="640">
          <input semantic="VERTEX" source="#Alpha_SurfaceMesh_305-mesh-vertices" offset="0"/>
          <input semantic="NORMAL" source="#Alpha_SurfaceMesh_305-mesh-normals" offset="1"/>
          <input semantic="TEXCOORD" source="#Alpha_SurfaceMesh_305-mesh-map-0" offset="2" set="0"/>
          <p>65 0 0 67 1 1 2 2 2 67 1 3 65 0 4 68 3 5 65 0 6 69 4 7 68 3 8 68 3 9 69 4 10 72 5 11 72 5 12 66 6 13 68 3 14 66 6 15 72 5 16 71 7 17 68 3 18 26 8 19 67 1 20 26 8 21 68 3 22 66 6 23 8 9 24 72 5 25 69 4 26 72 5 27 8 9 28 70 10 29 71 7 30 70 10 31 25 11 32 70 10 33 71 7 34 72 5 35 71 7 36 78 12 37 66 6 38 78 12 39 71 7 40 75 13 41 75 13 42 71 7 43 73 14 44 71 7 45 25 11 46 73 14 47 74 15 48 75 13 49 11 16 50 75 13 51 73 14 52 11 16 53 76 17 54 78 12 55 75 13 56 75 13 57 74 15 58 76 17 59 66 6 60 77 18 61 26 8 62 77 18 63 66 6 64 78 12 65 7 19 66 78 12 67 76 17 68 78 12 69 7 19 70 77 18 71 81 20 72 79 21 73 82 22 74 79 21 75 81 20 76 0 23 77 82 22 78 27 24 79 80 25 80 27 24 81 82 22 82 79 21 83 90 26 84 80 25 85 87 27 86 80 25 87 90 26 88 82 22 89 89 28 90 82 22 91 90 26 92 82 22 93 89 28 94 81 20 95 80 25 96 83 29 97 85 30 98 83 29 99 80 25 100 27 24 101 85 30 102 9 31 103 84 32 104 9 31 105 85 30 106 83 29 107 88 33 108 84 32 109 86 34 110 84 32 111 88 33 112 85 30 113 87 27 114 85 30 115 88 33 116 85 30 117 87 27 118 80 25 119 73 14 120 86 34 121 11 16 122 86 34 123 73 14 124 88 33 125 25 11 126 88 33 127 73 14 128 88 33 129 25 11 130 87 27 131 70 10 132 87 27 133 25 11 134 87 27 135 70 10 136 90 26 137 8 9 138 90 26 139 70 10 140 90 26 141 8 9 142 89 28 143 91 35 144 94 36 145 1 37 146 1 37 147 94 36 148 93 38 149 91 35 150 98 39 151 94 36 152 98 39 153 91 35 154 95 40 155 97 41 156 94 36 157 98 39 158 94 36 159 97 41 160 92 42 161 92 42 162 93 38 163 94 36 164 93 38 165 92 42 166 29 43 167 96 44 168 95 40 169 10 45 170 95 40 171 96 44 172 98 39 173 28 46 174 98 39 175 96 44 176 98 39 177 28 46 178 97 41 179 100 47 180 92 42 181 97 41 182 92 42 183 100 47 184 102 48 185 99 49 186 97 41 187 28 46 188 97 41 189 99 49 190 100 47 191 11 16 192 100 47 193 99 49 194 100 47 195 11 16 196 86 34 197 86 34 198 102 48 199 100 47 200 102 48 201 86 34 202 84 32 203 102 48 204 29 43 205 92 42 206 29 43 207 102 48 208 101 50 209 84 32 210 101 50 211 102 48 212 101 50 213 84 32 214 9 31 215 3 51 216 103 52 217 106 53 218 3 51 219 106 53 220 105 54 221 104 55 222 106 53 223 103 52 224 103 52 225 30 56 226 104 55 227 109 57 228 106 53 229 104 55 230 106 53 231 109 57 232 112 58 233 112 58 234 105 54 235 106 53 236 105 54 237 112 58 238 111 59 239 108 60 240 104 55 241 30 56 242 30 56 243 107 61 244 108 60 245 76 17 246 108 60 247 107 61 248 107 61 249 7 19 250 76 17 251 76 17 252 74 15 253 108 60 254 108 60 255 74 15 256 110 62 257 108 60 258 110 62 259 104 55 260 104 55 261 110 62 262 109 57 263 74 15 264 99 49 265 110 62 266 99 49 267 74 15 268 11 16 269 99 49 270 109 57 271 110 62 272 109 57 273 99 49 274 28 46 275 109 57 276 96 44 277 112 58 278 96 44 279 109 57 280 28 46 281 112 58 282 10 45 283 111 59 284 10 45 285 112 58 286 96 44 287 67 1 288 113 63 289 2 2 290 33 64 291 2 2 292 113 63 293 26 8 294 34 65 295 67 1 296 34 65 297 113 63 298 67 1 299 114 66 300 26 8 301 77 18 302 26 8 303 114 66 304 34 65 305 7 19 306 31 67 307 77 18 308 31 67 309 114 66 310 77 18 311 118 68 312 34 65 313 114 66 314 34 65 315 118 68 316 117 69 317 115 70 318 114 66 319 31 67 320 114 66 321 115 70 322 118 68 323 15 71 324 118 68 325 115 70 326 118 68 327 15 71 328 116 72 329 116 72 330 117 69 331 118 68 332 117 69 333 116 72 334 32 73 335 113 63 336 121 74 337 33 64 338 120 75 339 33 64 340 121 74 341 34 65 342 117 69 343 113 63 344 113 63 345 117 69 346 121 74 347 117 69 348 32 73 349 121 74 350 121 74 351 32 73 352 119 76 353 121 74 354 119 76 355 120 75 356 120 75 357 119 76 358 12 77 359 3 51 360 122 78 361 103 52 362 122 78 363 3 51 364 35 79 365 122 78 366 30 56 367 103 52 368 30 56 369 122 78 370 37 80 371 122 78 372 123 81 373 126 82 374 123 81 375 122 78 376 35 79 377 126 82 378 13 83 379 124 84 380 13 83 381 126 82 382 123 81 383 124 84 384 125 85 385 126 82 386 125 85 387 124 84 388 36 86 389 126 82 390 37 80 391 122 78 392 37 80 393 126 82 394 125 85 395 125 85 396 128 87 397 37 80 398 128 87 399 125 85 400 129 88 401 36 86 402 129 88 403 125 85 404 129 88 405 36 86 406 127 89 407 127 89 408 115 70 409 129 88 410 115 70 411 127 89 412 15 71 413 129 88 414 31 67 415 128 87 416 31 67 417 129 88 418 115 70 419 30 56 420 37 80 421 107 61 422 107 61 423 37 80 424 128 87 425 128 87 426 7 19 427 107 61 428 7 19 429 128 87 430 31 67 431 303 90 432 304 91 433 5 92 434 303 90 435 5 92 436 130 93 437 302 94 438 303 90 439 130 93 440 302 94 441 130 93 442 38 95 443 41 96 444 132 97 445 134 98 446 41 96 447 134 98 448 131 99 449 132 97 450 40 100 451 133 101 452 133 101 453 134 98 454 132 97 455 301 102 456 302 94 457 38 95 458 301 102 459 38 95 460 135 103 461 300 104 462 301 102 463 135 103 464 135 103 465 14 105 466 300 104 467 137 106 468 136 107 469 39 108 470 136 107 471 137 106 472 138 109 473 137 106 474 41 96 475 131 99 476 131 99 477 138 109 478 137 106 479 141 110 480 140 111 481 41 96 482 141 110 483 41 96 484 137 106 485 141 110 486 39 108 487 139 112 488 39 108 489 141 110 490 137 106 491 15 71 492 127 89 493 141 110 494 141 110 495 139 112 496 15 71 497 127 89 498 36 86 499 140 111 500 140 111 501 141 110 502 127 89 503 143 113 504 142 114 505 40 100 506 40 100 507 132 97 508 143 113 509 140 111 510 143 113 511 132 97 512 132 97 513 41 96 514 140 111 515 36 86 516 124 84 517 143 113 518 143 113 519 140 111 520 36 86 521 13 83 522 142 114 523 124 84 524 142 114 525 143 113 526 124 84 527 297 115 528 147 116 529 4 117 530 297 115 531 4 117 532 296 118 533 148 119 534 42 120 535 145 121 536 42 120 537 148 119 538 144 122 539 146 123 540 145 121 541 44 124 542 145 121 543 146 123 544 148 119 545 43 125 546 297 115 547 298 126 548 297 115 549 43 125 550 147 116 551 145 121 552 149 127 553 151 128 554 149 127 555 145 121 556 42 120 557 151 128 558 12 77 559 119 76 560 12 77 561 151 128 562 149 127 563 119 76 564 150 129 565 151 128 566 150 129 567 119 76 568 32 73 569 145 121 570 150 129 571 44 124 572 150 129 573 145 121 574 151 128 575 153 130 576 44 124 577 150 129 578 44 124 579 153 130 580 152 131 581 150 129 582 116 72 583 153 130 584 116 72 585 150 129 586 32 73 587 139 112 588 116 72 589 15 71 590 116 72 591 139 112 592 153 130 593 139 112 594 152 131 595 153 130 596 152 131 597 139 112 598 39 108 599 43 125 600 299 132 601 154 133 602 299 132 603 43 125 604 298 126 605 146 123 606 152 131 607 155 134 608 152 131 609 146 123 610 44 124 611 155 134 612 39 108 613 136 107 614 39 108 615 155 134 616 152 131 617 154 133 618 300 104 619 14 105 620 300 104 621 154 133 622 299 132 623 157 135 624 147 116 625 158 136 626 147 116 627 157 135 628 4 117 629 156 137 630 158 136 631 147 116 632 156 137 633 147 116 634 43 125 635 158 136 636 163 138 637 167 139 638 163 138 639 158 136 640 156 137 641 166 140 642 157 135 643 167 139 644 157 135 645 158 136 646 167 139 647 160 141 648 156 137 649 43 125 650 160 141 651 43 125 652 154 133 653 159 142 654 160 141 655 154 133 656 159 142 657 154 133 658 14 105 659 164 143 660 159 142 661 161 144 662 159 142 663 164 143 664 160 141 665 156 137 666 164 143 667 163 138 668 164 143 669 156 137 670 160 141 671 19 145 672 162 146 673 164 143 674 19 145 675 164 143 676 161 144 677 163 138 678 162 146 679 45 147 680 162 146 681 163 138 682 164 143 683 167 139 684 45 147 685 165 148 686 45 147 687 167 139 688 163 138 689 166 140 690 165 148 691 16 149 692 165 148 693 166 140 694 167 139 695 130 93 696 168 150 697 170 151 698 168 150 699 130 93 700 5 92 701 171 152 702 174 153 703 170 151 704 171 152 705 170 151 706 168 150 707 174 153 708 173 154 709 169 155 710 174 153 711 169 155 712 170 151 713 170 151 714 38 95 715 130 93 716 38 95 717 170 151 718 169 155 719 17 156 720 174 153 721 171 152 722 174 153 723 17 156 724 172 157 725 172 157 726 173 154 727 174 153 728 173 154 729 172 157 730 46 158 731 173 154 732 177 159 733 169 155 734 177 159 735 173 154 736 176 160 737 175 161 738 173 154 739 46 158 740 173 154 741 175 161 742 176 160 743 175 161 744 161 144 745 176 160 746 161 144 747 175 161 748 19 145 749 176 160 750 161 144 751 159 142 752 176 160 753 159 142 754 177 159 755 135 103 756 169 155 757 177 159 758 169 155 759 135 103 760 38 95 761 159 142 762 135 103 763 177 159 764 135 103 765 159 142 766 14 105 767 178 162 768 180 163 769 6 164 770 180 163 771 178 162 772 181 165 773 178 162 774 47 166 775 179 167 776 178 162 777 179 167 778 181 165 779 181 165 780 179 167 781 186 168 782 181 165 783 186 168 784 189 169 785 181 165 786 188 170 787 180 163 788 188 170 789 181 165 790 189 169 791 47 166 792 182 171 793 184 172 794 47 166 795 184 172 796 179 167 797 182 171 798 18 173 799 183 174 800 182 171 801 183 174 802 184 172 803 184 172 804 183 174 805 185 175 806 184 172 807 185 175 808 187 176 809 179 167 810 184 172 811 187 176 812 179 167 813 187 176 814 186 168 815 185 175 816 175 161 817 187 176 818 175 161 819 185 175 820 19 145 821 187 176 822 46 158 823 186 168 824 46 158 825 187 176 826 175 161 827 189 169 828 186 168 829 46 158 830 189 169 831 46 158 832 172 157 833 189 169 834 172 157 835 188 170 836 188 170 837 172 157 838 17 156 839 196 177 840 190 178 841 194 179 842 190 178 843 196 177 844 193 180 845 195 181 846 193 180 847 196 177 848 193 180 849 195 181 850 191 182 851 48 183 852 193 180 853 191 182 854 193 180 855 48 183 856 192 184 857 194 179 858 165 148 859 196 177 860 165 148 861 194 179 862 16 149 863 195 181 864 196 177 865 45 147 866 196 177 867 165 148 868 45 147 869 199 185 870 195 181 871 197 186 872 195 181 873 199 185 874 191 182 875 197 186 876 195 181 877 162 146 878 195 181 879 45 147 880 162 146 881 185 175 882 162 146 883 19 145 884 162 146 885 185 175 886 197 186 887 197 186 888 183 174 889 199 185 890 183 174 891 197 186 892 185 175 893 198 187 894 191 182 895 199 185 896 191 182 897 198 187 898 48 183 899 18 173 900 199 185 901 183 174 902 199 185 903 18 173 904 198 187 905 200 188 906 192 184 907 48 183 908 200 188 909 203 189 910 192 184 911 52 190 912 201 191 913 203 189 914 52 190 915 203 189 916 200 188 917 201 191 918 51 192 919 202 193 920 201 191 921 202 193 922 203 189 923 206 194 924 200 188 925 48 183 926 206 194 927 48 183 928 198 187 929 204 195 930 206 194 931 198 187 932 204 195 933 198 187 934 18 173 935 49 196 936 205 197 937 206 194 938 49 196 939 206 194 940 204 195 941 205 197 942 52 190 943 200 188 944 205 197 945 200 188 946 206 194 947 210 198 948 209 199 949 52 190 950 210 198 951 52 190 952 205 197 953 207 200 954 210 198 955 205 197 956 207 200 957 205 197 958 49 196 959 208 201 960 207 200 961 22 202 962 207 200 963 208 201 964 210 198 965 50 203 966 210 198 967 208 201 968 210 198 969 50 203 970 209 199 971 51 192 972 213 204 973 212 205 974 213 204 975 51 192 976 201 191 977 209 199 978 201 191 979 52 190 980 209 199 981 213 204 982 201 191 983 50 203 984 213 204 985 209 199 986 213 204 987 50 203 988 211 206 989 213 204 990 20 207 991 212 205 992 20 207 993 213 204 994 211 206 995 217 208 996 6 164 997 214 209 998 6 164 999 217 208 1000 178 162 1001 215 210 1002 214 209 1003 53 211 1004 214 209 1005 215 210 1006 217 208 1007 55 212 1008 217 208 1009 215 210 1010 217 208 1011 55 212 1012 216 213 1013 216 213 1014 178 162 1015 217 208 1016 178 162 1017 216 213 1018 47 166 1019 221 214 1020 53 211 1021 218 215 1022 53 211 1023 221 214 1024 215 210 1025 219 216 1026 218 215 1027 21 217 1028 218 215 1029 219 216 1030 221 214 1031 54 218 1032 221 214 1033 219 216 1034 221 214 1035 54 218 1036 220 219 1037 220 219 1038 215 210 1039 221 214 1040 215 210 1041 220 219 1042 55 212 1043 224 220 1044 55 212 1045 220 219 1046 55 212 1047 224 220 1048 223 221 1049 222 222 1050 220 219 1051 54 218 1052 220 219 1053 222 222 1054 224 220 1055 22 202 1056 224 220 1057 222 222 1058 224 220 1059 22 202 1060 207 200 1061 224 220 1062 49 196 1063 223 221 1064 49 196 1065 224 220 1066 207 200 1067 225 223 1068 47 166 1069 216 213 1070 47 166 1071 225 223 1072 182 171 1073 223 221 1074 216 213 1075 55 212 1076 216 213 1077 223 221 1078 225 223 1079 223 221 1080 204 195 1081 225 223 1082 204 195 1083 223 221 1084 49 196 1085 225 223 1086 18 173 1087 182 171 1088 18 173 1089 225 223 1090 204 195 1091 93 38 1092 57 224 1093 1 37 1094 57 224 1095 93 38 1096 226 225 1097 29 43 1098 226 225 1099 93 38 1100 226 225 1101 29 43 1102 58 226 1103 101 50 1104 58 226 1105 29 43 1106 58 226 1107 101 50 1108 227 227 1109 9 31 1110 227 227 1111 101 50 1112 227 227 1113 9 31 1114 56 228 1115 227 227 1116 229 229 1117 58 226 1118 229 229 1119 227 227 1120 230 230 1121 56 228 1122 230 230 1123 227 227 1124 230 230 1125 56 228 1126 228 231 1127 228 231 1128 222 222 1129 230 230 1130 222 222 1131 228 231 1132 22 202 1133 230 230 1134 54 218 1135 229 229 1136 54 218 1137 230 230 1138 222 222 1139 226 225 1140 231 232 1141 57 224 1142 231 232 1143 226 225 1144 232 233 1145 58 226 1146 232 233 1147 226 225 1148 232 233 1149 58 226 1150 229 229 1151 229 229 1152 219 216 1153 232 233 1154 219 216 1155 229 229 1156 54 218 1157 232 233 1158 21 217 1159 231 232 1160 21 217 1161 232 233 1162 219 216 1163 233 234 1164 0 23 1165 59 235 1166 0 23 1167 233 234 1168 79 21 1169 60 236 1170 27 24 1171 79 21 1172 79 21 1173 233 234 1174 60 236 1175 236 237 1176 59 235 1177 234 238 1178 236 237 1179 233 234 1180 59 235 1181 211 206 1182 236 237 1183 234 238 1184 211 206 1185 234 238 1186 20 207 1187 50 203 1188 235 239 1189 236 237 1190 50 203 1191 236 237 1192 211 206 1193 235 239 1194 60 236 1195 233 234 1196 233 234 1197 236 237 1198 235 239 1199 238 240 1200 237 241 1201 60 236 1202 60 236 1203 235 239 1204 238 240 1205 208 201 1206 238 240 1207 235 239 1208 235 239 1209 50 203 1210 208 201 1211 22 202 1212 228 231 1213 238 240 1214 238 240 1215 208 201 1216 22 202 1217 228 231 1218 56 228 1219 237 241 1220 237 241 1221 238 240 1222 228 231 1223 27 24 1224 237 241 1225 83 29 1226 237 241 1227 27 24 1228 60 236 1229 56 228 1230 9 31 1231 83 29 1232 83 29 1233 237 241 1234 56 228 1235 242 242 1236 240 243 1237 243 244 1238 240 243 1239 242 242 1240 239 245 1241 53 211 1242 240 243 1243 239 245 1244 240 243 1245 53 211 1246 214 209 1247 61 246 1248 242 242 1249 243 244 1250 61 246 1251 243 244 1252 241 247 1253 246 248 1254 248 249 1255 239 245 1256 246 248 1257 239 245 1258 242 242 1259 246 248 1260 61 246 1261 244 250 1262 61 246 1263 246 248 1264 242 242 1265 245 251 1266 244 250 1267 23 252 1268 244 250 1269 245 251 1270 246 248 1271 245 251 1272 248 249 1273 246 248 1274 248 249 1275 245 251 1276 247 253 1277 218 215 1278 239 245 1279 248 249 1280 239 245 1281 218 215 1282 53 211 1283 21 217 1284 248 249 1285 247 253 1286 248 249 1287 21 217 1288 218 215 1289 249 254 1290 250 255 1291 133 101 1292 249 254 1293 133 101 1294 40 100 1295 254 256 1296 250 255 1297 249 254 1298 250 255 1299 254 256 1300 256 257 1301 252 258 1302 40 100 1303 142 114 1304 252 258 1305 249 254 1306 40 100 1307 142 114 1308 251 259 1309 252 258 1310 251 259 1311 142 114 1312 13 83 1313 253 260 1314 252 258 1315 251 259 1316 252 258 1317 253 260 1318 255 261 1319 255 261 1320 249 254 1321 252 258 1322 249 254 1323 255 261 1324 254 256 1325 23 252 1326 255 261 1327 253 260 1328 255 261 1329 23 252 1330 244 250 1331 244 250 1332 254 256 1333 255 261 1334 254 256 1335 244 250 1336 61 246 1337 61 246 1338 256 257 1339 254 256 1340 256 257 1341 61 246 1342 241 247 1343 3 51 1344 257 262 1345 35 79 1346 257 262 1347 3 51 1348 105 54 1349 105 54 1350 258 263 1351 257 262 1352 258 263 1353 105 54 1354 111 59 1355 10 45 1356 258 263 1357 111 59 1358 258 263 1359 10 45 1360 62 264 1361 260 265 1362 257 262 1363 258 263 1364 257 262 1365 260 265 1366 261 266 1367 259 267 1368 258 263 1369 62 264 1370 258 263 1371 259 267 1372 260 265 1373 23 252 1374 260 265 1375 259 267 1376 260 265 1377 23 252 1378 253 260 1379 260 265 1380 253 260 1381 251 259 1382 260 265 1383 251 259 1384 261 266 1385 257 262 1386 123 81 1387 35 79 1388 123 81 1389 257 262 1390 261 266 1391 261 266 1392 13 83 1393 123 81 1394 13 83 1395 261 266 1396 251 259 1397 262 268 1398 1 37 1399 57 224 1400 1 37 1401 262 268 1402 91 35 1403 91 35 1404 264 269 1405 95 40 1406 264 269 1407 91 35 1408 262 268 1409 57 224 1410 231 232 1411 263 270 1412 57 224 1413 263 270 1414 262 268 1415 247 253 1416 263 270 1417 231 232 1418 231 232 1419 21 217 1420 247 253 1421 263 270 1422 247 253 1423 245 251 1424 263 270 1425 245 251 1426 265 271 1427 262 268 1428 263 270 1429 265 271 1430 262 268 1431 265 271 1432 264 269 1433 265 271 1434 245 251 1435 23 252 1436 265 271 1437 23 252 1438 259 267 1439 264 269 1440 265 271 1441 259 267 1442 264 269 1443 259 267 1444 62 264 1445 95 40 1446 264 269 1447 62 264 1448 95 40 1449 62 264 1450 10 45 1451 266 272 1452 0 23 1453 81 20 1454 0 23 1455 266 272 1456 59 235 1457 267 273 1458 81 20 1459 89 28 1460 81 20 1461 267 273 1462 266 272 1463 8 9 1464 63 274 1465 89 28 1466 89 28 1467 63 274 1468 267 273 1469 267 273 1470 270 275 1471 266 272 1472 266 272 1473 270 275 1474 272 276 1475 63 274 1476 268 277 1477 267 273 1478 267 273 1479 268 277 1480 270 275 1481 268 277 1482 24 278 1483 270 275 1484 270 275 1485 24 278 1486 269 279 1487 272 276 1488 269 279 1489 271 280 1490 269 279 1491 272 276 1492 270 275 1493 272 276 1494 59 235 1495 266 272 1496 59 235 1497 272 276 1498 234 238 1499 272 276 1500 271 280 1501 234 238 1502 234 238 1503 271 280 1504 20 207 1505 273 281 1506 2 2 1507 33 64 1508 2 2 1509 273 281 1510 65 0 1511 277 282 1512 65 0 1513 273 281 1514 65 0 1515 277 282 1516 69 4 1517 275 283 1518 273 281 1519 33 64 1520 33 64 1521 120 75 1522 275 283 1523 275 283 1524 12 77 1525 274 284 1526 12 77 1527 275 283 1528 120 75 1529 278 285 1530 274 284 1531 276 286 1532 274 284 1533 278 285 1534 275 283 1535 277 282 1536 275 283 1537 278 285 1538 275 283 1539 277 282 1540 273 281 1541 268 277 1542 276 286 1543 24 278 1544 276 286 1545 268 277 1546 278 285 1547 63 274 1548 278 285 1549 268 277 1550 278 285 1551 63 274 1552 277 282 1553 277 282 1554 63 274 1555 69 4 1556 69 4 1557 63 274 1558 8 9 1559 295 287 1560 296 118 1561 4 117 1562 295 287 1563 4 117 1564 157 135 1565 294 288 1566 157 135 1567 166 140 1568 157 135 1569 294 288 1570 295 287 1571 280 289 1572 282 290 1573 279 291 1574 282 290 1575 280 289 1576 283 292 1577 279 291 1578 42 120 1579 144 122 1580 144 122 1581 280 289 1582 279 291 1583 293 293 1584 294 288 1585 166 140 1586 293 293 1587 166 140 1588 16 149 1589 64 294 1590 282 290 1591 283 292 1592 283 292 1593 281 295 1594 64 294 1595 285 296 1596 286 297 1597 279 291 1598 285 296 1599 279 291 1600 282 290 1601 284 298 1602 285 296 1603 282 290 1604 284 298 1605 282 290 1606 64 294 1607 24 278 1608 276 286 1609 285 296 1610 24 278 1611 285 296 1612 284 298 1613 276 286 1614 286 297 1615 285 296 1616 286 297 1617 276 286 1618 274 284 1619 286 297 1620 149 127 1621 42 120 1622 286 297 1623 42 120 1624 279 291 1625 149 127 1626 274 284 1627 12 77 1628 274 284 1629 149 127 1630 286 297 1631 51 192 1632 287 299 1633 202 193 1634 202 193 1635 287 299 1636 288 300 1637 289 301 1638 51 192 1639 212 205 1640 51 192 1641 289 301 1642 287 299 1643 20 207 1644 289 301 1645 212 205 1646 289 301 1647 20 207 1648 271 280 1649 271 280 1650 291 302 1651 289 301 1652 291 302 1653 271 280 1654 269 279 1655 291 302 1656 287 299 1657 289 301 1658 287 299 1659 291 302 1660 290 303 1661 269 279 1662 284 298 1663 291 302 1664 284 298 1665 269 279 1666 24 278 1667 284 298 1668 290 303 1669 291 302 1670 290 303 1671 284 298 1672 64 294 1673 293 293 1674 194 179 1675 292 304 1676 293 293 1677 16 149 1678 194 179 1679 281 295 1680 283 292 1681 294 288 1682 281 295 1683 294 288 1684 293 293 1685 295 287 1686 283 292 1687 280 289 1688 283 292 1689 295 287 1690 294 288 1691 280 289 1692 144 122 1693 296 118 1694 296 118 1695 295 287 1696 280 289 1697 148 119 1698 297 115 1699 144 122 1700 297 115 1701 296 118 1702 144 122 1703 146 123 1704 298 126 1705 148 119 1706 298 126 1707 297 115 1708 148 119 1709 155 134 1710 299 132 1711 146 123 1712 299 132 1713 298 126 1714 146 123 1715 155 134 1716 136 107 1717 300 104 1718 300 104 1719 299 132 1720 155 134 1721 136 107 1722 138 109 1723 301 102 1724 301 102 1725 300 104 1726 136 107 1727 138 109 1728 131 99 1729 302 94 1730 302 94 1731 301 102 1732 138 109 1733 131 99 1734 134 98 1735 303 90 1736 131 99 1737 303 90 1738 302 94 1739 134 98 1740 133 101 1741 304 91 1742 304 91 1743 303 90 1744 134 98 1745 250 255 1746 305 305 1747 133 101 1748 305 305 1749 304 91 1750 133 101 1751 241 247 1752 306 306 1753 256 257 1754 306 306 1755 241 247 1756 307 307 1757 241 247 1758 243 244 1759 308 308 1760 241 247 1761 308 308 1762 307 307 1763 309 309 1764 243 244 1765 240 243 1766 243 244 1767 309 309 1768 308 308 1769 192 184 1770 203 189 1771 310 310 1772 203 189 1773 202 193 1774 310 310 1775 192 184 1776 190 178 1777 193 180 1778 190 178 1779 192 184 1780 310 310 1781 194 179 1782 311 311 1783 292 304 1784 311 311 1785 194 179 1786 190 178 1787 288 300 1788 312 312 1789 202 193 1790 202 193 1791 312 312 1792 310 310 1793 190 178 1794 310 310 1795 311 311 1796 310 310 1797 312 312 1798 311 311 1799 312 312 1800 313 313 1801 311 311 1802 313 313 1803 292 304 1804 311 311 1805 281 295 1806 292 304 1807 313 313 1808 292 304 1809 281 295 1810 293 293 1811 288 300 1812 313 313 1813 312 312 1814 313 313 1815 288 300 1816 314 314 1817 287 299 1818 290 303 1819 288 300 1820 290 303 1821 314 314 1822 288 300 1823 314 314 1824 281 295 1825 313 313 1826 281 295 1827 314 314 1828 64 294 1829 240 243 1830 214 209 1831 309 309 1832 214 209 1833 6 164 1834 309 309 1835 6 164 1836 315 315 1837 309 309 1838 315 315 1839 6 164 1840 180 163 1841 315 315 1842 180 163 1843 188 170 1844 315 315 1845 188 170 1846 316 316 1847 171 152 1848 318 317 1849 317 318 1850 318 317 1851 171 152 1852 168 150 1853 17 156 1854 317 318 1855 319 319 1856 317 318 1857 17 156 1858 171 152 1859 188 170 1860 319 319 1861 316 316 1862 319 319 1863 188 170 1864 17 156 1865 320 320 1866 304 91 1867 305 305 1868 304 91 1869 320 320 1870 5 92 1871 168 150 1872 320 320 1873 318 317 1874 168 150 1875 5 92 1876 320 320 1877 309 309 1878 315 315 1879 308 308 1880 316 316 1881 308 308 1882 315 315 1883 308 308 1884 316 316 1885 307 307 1886 307 307 1887 316 316 1888 319 319 1889 307 307 1890 317 318 1891 306 306 1892 317 318 1893 307 307 1894 319 319 1895 320 320 1896 321 321 1897 318 317 1898 321 321 1899 320 320 1900 305 305 1901 306 306 1902 318 317 1903 321 321 1904 318 317 1905 306 306 1906 317 318 1907 256 257 1908 305 305 1909 250 255 1910 256 257 1911 321 321 1912 305 305 1913 256 257 1914 306 306 1915 321 321 1916 290 303 1917 64 294 1918 314 314 1919</p>
        </triangles>
      </mesh>
    </geometry>
  </library_geometries>
  <library_controllers/>
  <library_visual_scenes>
    <visual_scene id="Scene" name="Scene">
      <node id="VIS_Alpha_Surface_015" name="VIS_Alpha_Surface_015" type="NODE">
        <instance_geometry url="#Alpha_SurfaceMesh_305-mesh" name="VIS_Alpha_Surface_015">
          <bind_material>
            <technique_common>
              <instance_material symbol="Alpha_Body_MAT_007-material" target="#Alpha_Body_MAT_007-material"/>
            </technique_common>
          </bind_material>
        </instance_geometry>
      </node>
    </visual_scene>
  </library_visual_scenes>
  <scene>
    <instance_visual_scene url="#Scene"/>
  </scene>
</COLLADA>