<?xml version="1.0" encoding="utf-8"?>
<COLLADA xmlns="http://www.collada.org/2005/11/COLLADASchema" version="1.4.1" xmlns:xsi="http://www.w3.org/2001/XMLSchema-instance">
  <asset>
    <contributor>
      <author>Blender User</author>
      <authoring_tool>Blender 2.79.0 commit date:2018-03-22, commit time:14:10, hash:f4dc9f9d68b</authoring_tool>
    </contributor>
    <created>2018-10-09T21:23:56</created>
    <modified>2018-10-09T21:23:56</modified>
    <unit name="meter" meter="1"/>
    <up_axis>Z_UP</up_axis>
  </asset>
  <library_images/>
  <library_effects>
    <effect id="Alpha_Joints_MAT_007-effect">
      <profile_COMMON>
        <technique sid="common">
          <phong>
            <emission>
              <color sid="emission">0 0 0 1</color>
            </emission>
            <ambient>
              <color sid="ambient">0 0 0 1</color>
            </ambient>
            <diffuse>
              <color sid="diffuse">0.122841 0.170315 0.177774 1</color>
            </diffuse>
            <specular>
              <color sid="specular">0.141024 0.141024 0.141024 1</color>
            </specular>
            <shininess>
              <float sid="shininess">2</float>
            </shininess>
            <transparent opaque="A_ONE">
              <color>1 1 1 1</color>
            </transparent>
            <index_of_refraction>
              <float sid="index_of_refraction">1</float>
            </index_of_refraction>
          </phong>
        </technique>
      </profile_COMMON>
    </effect>
  </library_effects>
  <library_materials>
    <material id="Alpha_Joints_MAT_007-material" name="Alpha_Joints_MAT_007">
      <instance_effect url="#Alpha_Joints_MAT_007-effect"/>
    </material>
  </library_materials>
  <library_geometries>
    <geometry id="Alpha_JointsMesh_318-mesh" name="Alpha_JointsMesh.318">
      <mesh>
        <source id="Alpha_JointsMesh_318-mesh-positions">
          <float_array id="Alpha_JointsMesh_318-mesh-positions-array" count="402">-86.93061 142.1332 -6.329609 -86.79438 142.1479 -6.459539 -86.61117 142.1468 -6.505244 -86.43005 142.13 -6.454477 -86.29956 142.1022 -6.320842 -86.25469 142.0707 -6.140146 -86.30741 142.044 -5.960785 -86.44366 142.0293 -5.830855 -86.62688 142.0305 -5.78515 -86.80799 142.0472 -5.835916 -86.93846 142.075 -5.969552 -86.98335 142.1065 -6.150269 -87.19578 142.3109 -6.467815 -86.94077 142.3385 -6.711043 -86.59781 142.3363 -6.796594 -86.25875 142.305 -6.701568 -86.01453 142.2529 -6.451404 -85.93051 142.194 -6.113162 -86.02923 142.144 -5.777425 -86.28427 142.1165 -5.534209 -86.62723 142.1186 -5.448647 -86.96624 142.1499 -5.543684 -87.21048 142.202 -5.793836 -87.29448 142.261 -6.132111 -87.4269 142.5688 -6.574487 -87.06626 142.6078 -6.918457 -86.58126 142.6048 -7.039458 -86.10179 142.5605 -6.905047 -85.7564 142.4868 -6.551279 -85.63758 142.4035 -6.072931 -85.77719 142.3328 -5.598142 -86.13783 142.2938 -5.254172 -86.62286 142.2968 -5.133172 -87.10231 142.3412 -5.267572 -87.4477 142.4148 -5.62135 -87.56652 142.4982 -6.09973 -87.59863 142.8863 -6.636907 -87.15698 142.9341 -7.058173 -86.42864 142.8973 -7.156853 -85.83526 142.836 -7.019012 -85.5527 142.7859 -6.608472 -85.40718 142.6838 -6.022616 -85.5782 142.5973 -5.441124 -86.01988 142.5495 -5.019848 -86.61391 142.5532 -4.871667 -87.20111 142.6075 -5.036259 -87.62413 142.6977 -5.469549 -87.76961 142.7998 -6.055437 -87.6993 143.242 -6.65077 -87.20668 143.2953 -7.120634 -86.54414 143.2911 -7.285919 -85.8892 143.2306 -7.10233 -85.41737 143.13 -6.619067 -85.25506 143.0162 -5.965614 -85.44578 142.9197 -5.317045 -85.93842 142.8663 -4.847182 -86.60097 142.8705 -4.681886 -87.2559 142.931 -4.865486 -87.72771 143.0317 -5.348748 -87.89003 143.1455 -6.002223 -87.72201 143.6115 -6.615161 -87.21199 143.6667 -7.101595 -86.5261 143.6624 -7.272718 -85.84803 143.5997 -7.082645 -85.35955 143.4955 -6.582328 -85.19155 143.3777 -5.905833 -85.38898 143.2778 -5.234382 -85.89899 143.2226 -4.747948 -86.58493 143.2269 -4.576835 -87.26296 143.2895 -4.766898 -87.75143 143.3937 -5.267204 -87.91947 143.5116 -5.943732 -87.66525 143.9696 -6.532503 -87.17261 144.0229 -7.002366 -86.51007 144.0187 -7.167652 -85.69871 143.9165 -6.969205 -85.3833 143.8575 -6.500799 -85.22097 143.7437 -5.847347 -85.41171 143.6472 -5.198778 -85.90435 143.5939 -4.728914 -86.5669 143.5981 -4.563629 -87.22182 143.6586 -4.747218 -87.69367 143.7592 -5.230481 -87.85595 143.8731 -5.883955 -87.53282 144.2918 -6.408436 -87.09115 144.3396 -6.829702 -86.49714 144.3359 -6.977893 -85.90993 144.2816 -6.813291 -85.4869 144.1914 -6.380001 -85.34137 144.0893 -5.794144 -85.51237 144.0028 -5.212653 -85.95405 143.955 -4.791376 -86.54808 143.9588 -4.643196 -87.13528 144.013 -4.807787 -87.55829 144.1032 -5.241077 -87.70381 144.2053 -5.826966 -87.33382 144.5564 -6.251391 -86.97319 144.5954 -6.59536 -86.48818 144.5924 -6.716361 -86.00872 144.5481 -6.581961 -85.66332 144.4744 -6.228182 -85.54449 144.3911 -5.749834 -85.68412 144.3204 -5.275045 -86.04475 144.2814 -4.931076 -86.52978 144.2845 -4.810076 -87.00922 144.3287 -4.944475 -87.35462 144.4024 -5.298254 -87.47342 144.4858 -5.776633 -87.08177 144.7452 -6.072106 -86.82677 144.7728 -6.315335 -86.48381 144.7706 -6.400885 -86.14478 144.7393 -6.305859 -85.90053 144.6872 -6.055695 -85.81653 144.6283 -5.717453 -85.91523 144.5783 -5.381717 -86.17026 144.5507 -5.138501 -86.51322 144.5529 -5.052939 -86.85224 144.5842 -5.147975 -87.09648 144.6363 -5.398128 -87.18048 144.6952 -5.736403 -86.80358 144.8452 -5.888761 -86.66737 144.8599 -6.018691 -86.48416 144.8587 -6.064396 -86.30304 144.842 -6.013629 -86.17255 144.8142 -5.879994 -86.12768 144.7827 -5.699298 -86.1804 144.756 -5.519936 -86.31665 144.7413 -5.390007 -86.49987 144.7424 -5.344302 -86.68098 144.7592 -5.395068 -86.81144 144.787 -5.528703 -86.85634 144.8185 -5.709421 -86.62157 142.034 -6.15409 -86.48945 144.8552 -5.695479</float_array>
          <technique_common>
            <accessor source="#Alpha_JointsMesh_318-mesh-positions-array" count="134" stride="3">
              <param name="X" type="float"/>
              <param name="Y" type="float"/>
              <param name="Z" type="float"/>
            </accessor>
          </technique_common>
        </source>
        <source id="Alpha_JointsMesh_318-mesh-normals">
          <float_array id="Alpha_JointsMesh_318-mesh-normals-array" count="402">-0.2960072 -0.7463509 -0.5961041 -0.3003666 -0.9039077 -0.3045172 -0.4956571 -0.7679465 -0.4056874 -0.1882728 -0.8917704 -0.4114596 -0.03756946 -0.8926944 -0.4490939 -0.02749788 -0.7480588 -0.6630625 0.1113639 -0.9064762 -0.407307 0.2378987 -0.7725374 -0.5887191 0.218728 -0.9293883 -0.2973139 0.4291066 -0.8133493 -0.3928492 0.2556306 -0.9552576 -0.1487821 0.4948701 -0.8594839 -0.1280283 0.2122584 -0.9772128 -0.00125122 0.4175696 -0.8985896 0.1348052 0.1001946 -0.989342 0.1056576 0.2179377 -0.9201847 0.3252127 -0.05053961 -0.9185031 0.3921706 -0.05047887 -0.9883973 0.1432574 -0.3159396 -0.8939821 0.3177707 -0.1995036 -0.9746286 0.1014761 -0.5071406 -0.8532 0.1218944 -0.3068072 -0.9517343 -0.008453726 -0.5729154 -0.8070623 -0.1428931 -0.3437343 -0.9258516 -0.1569892 -0.3831367 -0.5533112 -0.7396303 -0.656343 -0.582853 -0.4790577 -0.02368277 -0.5226081 -0.8522441 0.288434 -0.6314358 -0.719788 0.6082506 -0.6681905 -0.4284306 0.6991237 -0.7080963 -0.0991249 0.5933601 -0.7616141 0.2605144 0.3201482 -0.7911843 0.5210878 -0.04721385 -0.7888711 0.6127424 -0.4104485 -0.755312 0.5109167 -0.6720992 -0.6994752 0.2429348 -0.7621229 -0.6363232 -0.1194212 -0.4306573 -0.3278379 -0.8408666 -0.7732002 -0.3617423 -0.5208687 0.07300114 -0.3404685 -0.9374177 0.4931321 -0.3698948 -0.7873999 0.7865142 -0.4497637 -0.4232118 0.8564122 -0.5123031 -0.06406074 0.729256 -0.5766601 0.3683056 0.4007795 -0.6121867 0.6816182 -0.04089534 -0.6094323 0.7917827 -0.4775646 -0.5690917 0.6693779 -0.7921514 -0.5019767 0.3471537 -0.9003374 -0.4261046 -0.08847421 -0.4774153 -0.08301281 -0.8747477 -0.8395637 -0.122231 -0.529332 0.003479123 -0.1191156 -0.9928743 0.4705098 -0.07657188 -0.8790662 0.8546517 -0.1857076 -0.4848539 0.9572289 -0.288191 -0.02566647 0.8170233 -0.3591777 0.4510703 0.4548662 -0.3983437 0.7965043 -0.03213608 -0.395277 0.9179998 -0.5136121 -0.3507907 0.783038 -0.8604523 -0.2768072 0.4277846 -0.979758 -0.193156 -0.05258458 -0.8541304 0.1221363 -0.5055139 -0.480684 0.162578 -0.8616909 0.02151566 0.1594297 -0.9869748 0.47894 0.0535919 -0.8762103 0.8871685 0.008789539 -0.4613618 0.9987021 -0.04901343 0.01385557 0.8541404 -0.1221683 0.5054892 0.4807075 -0.1625756 0.8616783 -0.02151578 -0.1593999 0.9869797 -0.5179972 -0.1135302 0.8478148 -0.8756737 -0.03726333 0.4814634 -0.9987021 0.04901343 -0.01385557 -0.8170345 0.3591827 -0.451046 -0.454885 0.3983638 -0.7964836 0.02917629 0.3954674 -0.9180166 0.5961021 0.3213678 -0.7357888 0.8812738 0.2903296 -0.3729147 0.9797596 0.1931563 0.05255413 0.8395502 0.122229 0.529354 0.4774141 0.08304309 0.8747455 -0.009613513 0.08609485 0.9962406 -0.491057 0.130562 0.8612878 -0.8379089 0.2046017 0.5060109 -0.9572011 0.2882834 0.02566653 -0.729256 0.5766601 -0.3683056 -0.4008134 0.6121919 -0.6815934 0.04089605 0.6094131 -0.7917975 0.456689 0.6000375 -0.6568031 0.7921552 0.5019485 -0.3471859 0.9003515 0.4260807 0.08844506 0.7732087 0.3617157 0.5208744 0.4447574 0.3261595 0.8341528 0.003021359 0.3289334 0.9443483 -0.4336204 0.3692854 0.82195 -0.7481958 0.4364171 0.4997433 -0.856414 0.5123041 0.06403034 -0.3202134 0.7911334 -0.5211251 -0.5934226 0.7615549 -0.2605456 0.04721343 0.7888038 -0.6128291 0.4104546 0.7552622 -0.5109854 0.6721347 0.6994193 -0.2429976 0.7621533 0.6362926 0.1193907 0.6563858 0.5827724 0.4790972 0.3831713 0.5531951 0.7396993 0.0157172 0.5555046 0.8313649 -0.3474946 0.5890866 0.7295372 -0.6091916 0.6448989 0.4615097 -0.6991873 0.7080377 0.09909474 -0.2179689 0.9201877 -0.3251832 -0.4175966 0.8985819 -0.1347735 0.05050855 0.9184936 -0.392197 0.315931 0.8939882 -0.3177621 0.5071388 0.8531968 -0.1219245 0.5729038 0.8070765 0.1428597 0.4956286 0.7679801 0.4056586 0.2959727 0.7463712 0.5960959 0.02749723 0.7480723 0.6630474 -0.237896 0.7725898 0.5886514 -0.4291011 0.8133694 0.3928137 -0.4948701 0.8594839 0.1280283 -0.1001647 0.9893483 -0.1056277 -0.2122293 0.9772192 0.001220703 0.05050927 0.9883958 -0.1432572 0.1994103 0.974651 -0.1014447 0.3067796 0.9517433 0.008423268 0.3437041 0.9258525 0.1570503 0.3003056 0.9039076 0.3045782 0.1882433 0.8917756 0.4114619 0.03756892 0.8927435 0.4489964 -0.1113636 0.9065043 0.4072448 -0.2186679 0.9293923 0.2973457 -0.2555981 0.9552807 0.1486894 -0.04617577 -0.9859897 -0.1602877 0.04614531 0.9859911 0.160288</float_array>
          <technique_common>
            <accessor source="#Alpha_JointsMesh_318-mesh-normals-array" count="134" stride="3">
              <param name="X" type="float"/>
              <param name="Y" type="float"/>
              <param name="Z" type="float"/>
            </accessor>
          </technique_common>
        </source>
        <source id="Alpha_JointsMesh_318-mesh-map-0">
          <float_array id="Alpha_JointsMesh_318-mesh-map-0-array" count="1584">0.08332997 0.16666 0 0.08332997 0 0.16666 0 0.08332997 0.08332997 0.16666 0.08332997 0.08332997 0.16666 0.08332997 0.08332997 0.16666 0.16666 0.16666 0.08332997 0.16666 0.16666 0.08332997 0.08332997 0.08332997 0.16666 0.16666 0.25 0.08332997 0.16666 0.08332997 0.25 0.08332997 0.16666 0.16666 0.25 0.16666 0.25 0.16666 0.33333 0.08332997 0.25 0.08332997 0.33333 0.08332997 0.25 0.16666 0.33333 0.16666 0.33333 0.16666 0.41666 0.08332997 0.33333 0.08332997 0.41666 0.08332997 0.33333 0.16666 0.41666 0.16666 0.5 0.08332997 0.41666 0.16666 0.5 0.16666 0.41666 0.16666 0.5 0.08332997 0.41666 0.08332997 0.5 0.16666 0.58333 0.08332997 0.5 0.08332997 0.58333 0.08332997 0.5 0.16666 0.58333 0.16666 0.66666 0.16666 0.58333 0.08332997 0.58333 0.16666 0.58333 0.08332997 0.66666 0.16666 0.66666 0.08332997 0.75 0.16666 0.66666 0.08332997 0.66666 0.16666 0.66666 0.08332997 0.75 0.16666 0.75 0.08332997 0.83333 0.16666 0.83333 0.08332997 0.75 0.08332997 0.75 0.08332997 0.75 0.16666 0.83333 0.16666 0.83333 0.08332997 0.83333 0.16666 0.91666 0.16666 0.83333 0.08332997 0.91666 0.16666 0.91666 0.08332997 0.91666 0.16666 1 0.16666 0.91666 0.08332997 0.91666 0.08332997 1 0.16666 1 0.08332997 0.08332997 0.25 0 0.16666 0 0.25 0 0.16666 0.08332997 0.25 0.08332997 0.16666 0.16666 0.16666 0.08332997 0.16666 0.16666 0.25 0.08332997 0.16666 0.08332997 0.25 0.16666 0.25 0.16666 0.25 0.25 0.16666 0.16666 0.16666 0.25 0.16666 0.16666 0.25 0.25 0.25 0.25 0.25 0.33333 0.16666 0.25 0.16666 0.33333 0.16666 0.25 0.25 0.33333 0.25 0.33333 0.25 0.41666 0.16666 0.33333 0.16666 0.41666 0.16666 0.33333 0.25 0.41666 0.25 0.5 0.16666 0.41666 0.25 0.5 0.25 0.41666 0.25 0.5 0.16666 0.41666 0.16666 0.5 0.25 0.58333 0.16666 0.5 0.16666 0.58333 0.16666 0.5 0.25 0.58333 0.25 0.66666 0.25 0.58333 0.16666 0.58333 0.25 0.58333 0.16666 0.66666 0.25 0.66666 0.16666 0.75 0.25 0.66666 0.16666 0.66666 0.25 0.66666 0.16666 0.75 0.25 0.75 0.16666 0.83333 0.16666 0.75 0.16666 0.83333 0.25 0.75 0.16666 0.75 0.25 0.83333 0.25 0.83333 0.25 0.91666 0.25 0.83333 0.16666 0.83333 0.16666 0.91666 0.25 0.91666 0.16666 0.91666 0.25 1 0.25 0.91666 0.16666 0.91666 0.16666 1 0.25 1 0.16666 0.08332997 0.25 0 0.25 0.08332997 0.33333 0 0.25 0 0.33333 0.08332997 0.33333 0.08332997 0.33333 0.16666 0.25 0.08332997 0.25 0.16666 0.25 0.08332997 0.33333 0.16666 0.33333 0.16666 0.33333 0.25 0.25 0.16666 0.25 0.25 0.25 0.16666 0.33333 0.25 0.33333 0.25 0.33333 0.33333 0.25 0.25 0.25 0.33333 0.25 0.25 0.33333 0.33333 0.33333 0.41666 0.25 0.33333 0.25 0.41666 0.33333 0.33333 0.25 0.33333 0.33333 0.41666 0.33333 0.5 0.25 0.41666 0.33333 0.5 0.33333 0.41666 0.33333 0.5 0.25 0.41666 0.25 0.5 0.33333 0.58333 0.25 0.5 0.25 0.58333 0.25 0.5 0.33333 0.58333 0.33333 0.66666 0.33333 0.58333 0.25 0.58333 0.33333 0.58333 0.25 0.66666 0.33333 0.66666 0.25 0.75 0.33333 0.66666 0.25 0.66666 0.33333 0.66666 0.25 0.75 0.33333 0.75 0.25 0.83333 0.25 0.75 0.25 0.83333 0.33333 0.75 0.25 0.75 0.33333 0.83333 0.33333 0.83333 0.33333 0.91666 0.33333 0.83333 0.25 0.83333 0.25 0.91666 0.33333 0.91666 0.25 0.91666 0.33333 1 0.25 0.91666 0.25 1 0.25 0.91666 0.33333 1 0.33333 0.08332997 0.33333 0 0.33333 0.08332997 0.41666 0 0.33333 0 0.41666 0.08332997 0.41666 0.16666 0.33333 0.08332997 0.33333 0.16666 0.41666 0.08332997 0.33333 0.08332997 0.41666 0.16666 0.41666 0.25 0.33333 0.16666 0.33333 0.25 0.41666 0.16666 0.33333 0.16666 0.41666 0.25 0.41666 0.33333 0.41666 0.33333 0.33333 0.25 0.33333 0.25 0.33333 0.25 0.41666 0.33333 0.41666 0.41666 0.33333 0.33333 0.33333 0.41666 0.41666 0.33333 0.33333 0.33333 0.41666 0.41666 0.41666 0.5 0.33333 0.41666 0.41666 0.5 0.41666 0.41666 0.41666 0.5 0.33333 0.41666 0.33333 0.58333 0.33333 0.5 0.41666 0.58333 0.41666 0.5 0.41666 0.58333 0.33333 0.5 0.33333 0.66666 0.41666 0.58333 0.33333 0.58333 0.41666 0.58333 0.33333 0.66666 0.41666 0.66666 0.33333 0.66666 0.41666 0.75 0.33333 0.66666 0.33333 0.75 0.33333 0.66666 0.41666 0.75 0.41666 0.75 0.41666 0.83333 0.41666 0.75 0.33333 0.75 0.33333 0.83333 0.41666 0.83333 0.33333 0.83333 0.41666 0.91666 0.41666 0.83333 0.33333 0.83333 0.33333 0.91666 0.41666 0.91666 0.33333 0.91666 0.41666 1 0.33333 0.91666 0.33333 1 0.33333 0.91666 0.41666 1 0.41666 0.08332997 0.41666 0 0.5 0.08332997 0.5 0 0.5 0.08332997 0.41666 0 0.41666 0.08332997 0.5 0.16666 0.41666 0.08332997 0.41666 0.16666 0.41666 0.08332997 0.5 0.16666 0.5 0.16666 0.5 0.25 0.5 0.16666 0.41666 0.25 0.41666 0.16666 0.41666 0.25 0.5 0.33333 0.41666 0.25 0.41666 0.33333 0.5 0.25 0.41666 0.25 0.5 0.33333 0.5 0.41666 0.41666 0.33333 0.41666 0.41666 0.5 0.33333 0.41666 0.33333 0.5 0.41666 0.5 0.5 0.41666 0.41666 0.5 0.5 0.5 0.41666 0.5 0.5 0.41666 0.41666 0.41666 0.58333 0.5 0.5 0.41666 0.5 0.5 0.5 0.41666 0.58333 0.5 0.58333 0.41666 0.66666 0.5 0.58333 0.41666 0.58333 0.5 0.58333 0.41666 0.66666 0.5 0.66666 0.41666 0.66666 0.5 0.75 0.41666 0.66666 0.41666 0.75 0.41666 0.66666 0.5 0.75 0.5 0.75 0.5 0.83333 0.5 0.75 0.41666 0.75 0.41666 0.83333 0.5 0.83333 0.41666 0.83333 0.5 0.91666 0.5 0.83333 0.41666 0.83333 0.41666 0.91666 0.5 0.91666 0.41666 0.91666 0.5 1 0.41666 0.91666 0.41666 1 0.41666 0.91666 0.5 1 0.5 0.08332997 0.5 0 0.58333 0.08332997 0.58333 0 0.58333 0.08332997 0.5 0 0.5 0.08332997 0.58333 0.16666 0.5 0.08332997 0.5 0.16666 0.5 0.08332997 0.58333 0.16666 0.58333 0.16666 0.58333 0.25 0.5 0.16666 0.5 0.25 0.5 0.16666 0.58333 0.25 0.58333 0.33333 0.5 0.25 0.58333 0.33333 0.58333 0.25 0.58333 0.33333 0.5 0.25 0.5 0.41666 0.5 0.33333 0.58333 0.41666 0.58333 0.33333 0.58333 0.41666 0.5 0.33333 0.5 0.5 0.5 0.41666 0.5 0.5 0.58333 0.41666 0.5 0.41666 0.58333 0.5 0.58333 0.58333 0.58333 0.5 0.5 0.5 0.58333 0.5 0.5 0.58333 0.58333 0.58333 0.5 0.66666 0.58333 0.58333 0.5 0.58333 0.58333 0.58333 0.5 0.66666 0.58333 0.66666 0.5 0.66666 0.58333 0.75 0.5 0.66666 0.5 0.75 0.5 0.66666 0.58333 0.75 0.58333 0.75 0.58333 0.83333 0.5 0.75 0.5 0.83333 0.5 0.75 0.58333 0.83333 0.58333 0.83333 0.58333 0.91666 0.5 0.83333 0.5 0.91666 0.5 0.83333 0.58333 0.91666 0.58333 0.91666 0.58333 1 0.58333 0.91666 0.5 0.91666 0.5 1 0.58333 1 0.5 0 0.66666 0.08332997 0.66666 0 0.58333 0.08332997 0.58333 0 0.58333 0.08332997 0.66666 0.08332997 0.66666 0.16666 0.58333 0.08332997 0.58333 0.16666 0.58333 0.08332997 0.66666 0.16666 0.66666 0.16666 0.66666 0.25 0.66666 0.16666 0.58333 0.25 0.58333 0.16666 0.58333 0.25 0.66666 0.33333 0.58333 0.25 0.66666 0.33333 0.66666 0.25 0.66666 0.33333 0.58333 0.25 0.58333 0.41666 0.58333 0.33333 0.66666 0.41666 0.66666 0.33333 0.66666 0.41666 0.58333 0.33333 0.58333 0.5 0.58333 0.41666 0.58333 0.5 0.66666 0.41666 0.58333 0.41666 0.66666 0.5 0.66666 0.58333 0.58333 0.5 0.66666 0.58333 0.66666 0.5 0.66666 0.58333 0.58333 0.5 0.58333 0.58333 0.66666 0.66666 0.58333 0.58333 0.58333 0.66666 0.58333 0.58333 0.66666 0.66666 0.66666 0.75 0.66666 0.66666 0.58333 0.66666 0.66666 0.66666 0.58333 0.75 0.66666 0.75 0.58333 0.83333 0.66666 0.75 0.58333 0.75 0.66666 0.75 0.58333 0.83333 0.66666 0.83333 0.58333 0.83333 0.66666 0.91666 0.58333 0.83333 0.58333 0.91666 0.58333 0.83333 0.66666 0.91666 0.66666 0.91666 0.66666 1 0.66666 0.91666 0.58333 1 0.58333 0.91666 0.58333 1 0.66666 0.08332997 0.66666 0 0.66666 0.08332997 0.75 0 0.66666 0 0.75 0.08332997 0.75 0.16666 0.66666 0.08332997 0.75 0.16666 0.75 0.08332997 0.75 0.16666 0.66666 0.08332997 0.66666 0.16666 0.75 0.25 0.66666 0.16666 0.66666 0.25 0.66666 0.16666 0.75 0.25 0.75 0.25 0.75 0.33333 0.66666 0.25 0.66666 0.33333 0.66666 0.25 0.75 0.33333 0.75 0.41666 0.66666 0.33333 0.75 0.41666 0.75 0.33333 0.75 0.41666 0.66666 0.33333 0.66666 0.5 0.66666 0.41666 0.66666 0.5 0.75 0.41666 0.66666 0.41666 0.75 0.5 0.75 0.58333 0.66666 0.5 0.75 0.58333 0.75 0.5 0.75 0.58333 0.66666 0.5 0.66666 0.66666 0.66666 0.58333 0.75 0.66666 0.75 0.58333 0.75 0.66666 0.66666 0.58333 0.66666 0.75 0.75 0.66666 0.66666 0.66666 0.75 0.66666 0.66666 0.75 0.75 0.75 0.66666 0.83333 0.75 0.75 0.66666 0.75 0.75 0.75 0.66666 0.83333 0.75 0.83333 0.66666 0.83333 0.75 0.91666 0.66666 0.83333 0.66666 0.91666 0.66666 0.83333 0.75 0.91666 0.75 0.91666 0.75 1 0.75 0.91666 0.66666 1 0.66666 0.91666 0.66666 1 0.75 0.08332997 0.75 0 0.75 0.08332997 0.83333 0 0.75 0 0.83333 0.08332997 0.83333 0.16666 0.75 0.08332997 0.83333 0.16666 0.83333 0.08332997 0.83333 0.16666 0.75 0.08332997 0.75 0.16666 0.83333 0.25 0.75 0.16666 0.75 0.25 0.75 0.16666 0.83333 0.25 0.83333 0.25 0.83333 0.33333 0.75 0.25 0.75 0.33333 0.75 0.25 0.83333 0.33333 0.83333 0.41666 0.75 0.33333 0.83333 0.41666 0.83333 0.33333 0.83333 0.41666 0.75 0.33333 0.75 0.5 0.75 0.41666 0.83333 0.5 0.83333 0.41666 0.83333 0.5 0.75 0.41666 0.75 0.5 0.83333 0.58333 0.75 0.5 0.75 0.58333 0.75 0.5 0.83333 0.58333 0.83333 0.66666 0.75 0.58333 0.83333 0.66666 0.83333 0.58333 0.83333 0.66666 0.75 0.58333 0.75 0.75 0.83333 0.66666 0.75 0.66666 0.83333 0.66666 0.75 0.75 0.83333 0.75 0.75 0.75 0.75 0.83333 0.83333 0.83333 0.75 0.83333 0.83333 0.75 0.75 0.75 0.83333 0.91666 0.83333 0.83333 0.75 0.83333 0.83333 0.83333 0.75 0.91666 0.83333 0.91666 0.75 0.91666 0.83333 1 0.83333 0.91666 0.75 1 0.75 0.91666 0.75 1 0.83333 0.08332997 0.91666 0.08332997 0.83333 0 0.83333 0 0.83333 0 0.91666 0.08332997 0.91666 0.16666 0.83333 0.08332997 0.91666 0.16666 0.91666 0.08332997 0.91666 0.16666 0.83333 0.08332997 0.83333 0.16666 0.91666 0.25 0.83333 0.16666 0.83333 0.25 0.83333 0.16666 0.91666 0.25 0.91666 0.25 0.91666 0.33333 0.83333 0.25 0.83333 0.33333 0.83333 0.25 0.91666 0.33333 0.91666 0.41666 0.83333 0.33333 0.91666 0.41666 0.91666 0.33333 0.91666 0.41666 0.83333 0.33333 0.83333 0.5 0.83333 0.41666 0.91666 0.5 0.91666 0.41666 0.91666 0.5 0.83333 0.41666 0.83333 0.5 0.91666 0.58333 0.83333 0.5 0.83333 0.58333 0.83333 0.5 0.91666 0.58333 0.91666 0.66666 0.91666 0.58333 0.83333 0.58333 0.91666 0.66666 0.83333 0.58333 0.83333 0.66666 0.91666 0.75 0.91666 0.75 0.83333 0.66666 0.83333 0.66666 0.83333 0.66666 0.91666 0.75 0.91666 0.75 0.83333 0.83333 0.91666 0.83333 0.83333 0.83333 0.91666 0.75 0.83333 0.75 0.91666 0.91666 0.91666 0.83333 0.83333 0.83333 0.91666 0.83333 0.83333 0.91666 0.91666 0.91666 0.83333 1 0.83333 0.91666 0.83333 1 0.91666 0.91666 0.83333 0.91666 0.91666 1 0.91666 0.08332997 0.08332997 0.04165995 0 0 0.08332997 0.16666 0.08332997 0.125 0 0.08332997 0.08332997 0.25 0.08332997 0.20833 0 0.16666 0.08332997 0.33333 0.08332997 0.29166 0 0.25 0.08332997 0.41666 0.08332997 0.375 0 0.33333 0.08332997 0.5 0.08332997 0.45833 0 0.41666 0.08332997 0.58333 0.08332997 0.54166 0 0.5 0.08332997 0.66666 0.08332997 0.625 0 0.58333 0.08332997 0.75 0.08332997 0.70833 0 0.66666 0.08332997 0.83333 0.08332997 0.79166 0 0.75 0.08332997 0.91666 0.08332997 0.875 0 0.83333 0.08332997 1 0.08332997 0.95833 0 0.91666 0.08332997 0 0.91666 0.04165995 1 0.08332997 0.91666 0.08332997 0.91666 0.125 1 0.16666 0.91666 0.16666 0.91666 0.20833 1 0.25 0.91666 0.25 0.91666 0.29166 1 0.33333 0.91666 0.33333 0.91666 0.375 1 0.41666 0.91666 0.41666 0.91666 0.45833 1 0.5 0.91666 0.5 0.91666 0.54166 1 0.58333 0.91666 0.58333 0.91666 0.625 1 0.66666 0.91666 0.66666 0.91666 0.70833 1 0.75 0.91666 0.75 0.91666 0.79166 1 0.83333 0.91666 0.83333 0.91666 0.875 1 0.91666 0.91666 0.91666 0.91666 0.95833 1 1 0.91666</float_array>
          <technique_common>
            <accessor source="#Alpha_JointsMesh_318-mesh-map-0-array" count="792" stride="2">
              <param name="S" type="float"/>
              <param name="T" type="float"/>
            </accessor>
          </technique_common>
        </source>
        <vertices id="Alpha_JointsMesh_318-mesh-vertices">
          <input semantic="POSITION" source="#Alpha_JointsMesh_318-mesh-positions"/>
        </vertices>
        <triangles material="Alpha_Joints_MAT_007-material" count="264">
          <input semantic="VERTEX" source="#Alpha_JointsMesh_318-mesh-vertices" offset="0"/>
          <input semantic="NORMAL" source="#Alpha_JointsMesh_318-mesh-normals" offset="1"/>
          <input semantic="TEXCOORD" source="#Alpha_JointsMesh_318-mesh-map-0" offset="2" set="0"/>
          <p>13 0 0 0 1 1 12 2 2 0 1 3 13 0 4 1 3 5 2 4 6 13 0 7 14 5 8 13 0 9 2 4 10 1 3 11 14 5 12 3 6 13 2 4 14 3 6 15 14 5 16 15 7 17 15 7 18 4 8 19 3 6 20 4 8 21 15 7 22 16 9 23 16 9 24 5 10 25 4 8 26 5 10 27 16 9 28 17 11 29 6 12 30 17 11 31 18 13 32 17 11 33 6 12 34 5 10 35 18 13 36 7 14 37 6 12 38 7 14 39 18 13 40 19 15 41 20 16 42 7 14 43 19 15 44 7 14 45 20 16 46 8 17 47 21 18 48 8 17 49 20 16 50 8 17 51 21 18 52 9 19 53 22 20 54 10 21 55 9 19 56 9 19 57 21 18 58 22 20 59 10 21 60 22 20 61 23 22 62 10 21 63 23 22 64 11 23 65 23 22 66 12 2 67 11 23 68 11 23 69 12 2 70 0 1 71 25 24 72 12 2 73 24 25 74 12 2 75 25 24 76 13 0 77 14 5 78 13 0 79 26 26 80 13 0 81 25 24 82 26 26 83 26 26 84 15 7 85 14 5 86 15 7 87 26 26 88 27 27 89 27 27 90 16 9 91 15 7 92 16 9 93 27 27 94 28 28 95 28 28 96 17 11 97 16 9 98 17 11 99 28 28 100 29 29 101 18 13 102 29 29 103 30 30 104 29 29 105 18 13 106 17 11 107 30 30 108 19 15 109 18 13 110 19 15 111 30 30 112 31 31 113 32 32 114 19 15 115 31 31 116 19 15 117 32 32 118 20 16 119 33 33 120 20 16 121 32 32 122 20 16 123 33 33 124 21 18 125 22 20 126 21 18 127 34 34 128 21 18 129 33 33 130 34 34 131 34 34 132 35 35 133 22 20 134 22 20 135 35 35 136 23 22 137 35 35 138 24 25 139 23 22 140 23 22 141 24 25 142 12 2 143 25 24 144 24 25 145 37 36 146 24 25 147 36 37 148 37 36 149 37 36 150 26 26 151 25 24 152 26 26 153 37 36 154 38 38 155 38 38 156 27 27 157 26 26 158 27 27 159 38 38 160 39 39 161 39 39 162 28 28 163 27 27 164 28 28 165 39 39 166 40 40 167 29 29 168 28 28 169 41 41 170 28 28 171 40 40 172 41 41 173 30 30 174 41 41 175 42 42 176 41 41 177 30 30 178 29 29 179 42 42 180 31 31 181 30 30 182 31 31 183 42 42 184 43 43 185 44 44 186 31 31 187 43 43 188 31 31 189 44 44 190 32 32 191 45 45 192 32 32 193 44 44 194 32 32 195 45 45 196 33 33 197 34 34 198 33 33 199 46 46 200 33 33 201 45 45 202 46 46 203 46 46 204 47 47 205 34 34 206 34 34 207 47 47 208 35 35 209 47 47 210 24 25 211 35 35 212 24 25 213 47 47 214 36 37 215 37 36 216 36 37 217 49 48 218 36 37 219 48 49 220 49 48 221 38 38 222 37 36 223 50 50 224 37 36 225 49 48 226 50 50 227 39 39 228 38 38 229 51 51 230 38 38 231 50 50 232 51 51 233 52 52 234 40 40 235 39 39 236 39 39 237 51 51 238 52 52 239 41 41 240 40 40 241 53 53 242 40 40 243 52 52 244 53 53 245 42 42 246 53 53 247 54 54 248 53 53 249 42 42 250 41 41 251 43 43 252 54 54 253 55 55 254 54 54 255 43 43 256 42 42 257 56 56 258 43 43 259 55 55 260 43 43 261 56 56 262 44 44 263 56 56 264 45 45 265 44 44 266 45 45 267 56 56 268 57 57 269 57 57 270 58 58 271 45 45 272 45 45 273 58 58 274 46 46 275 58 58 276 59 59 277 46 46 278 46 46 279 59 59 280 47 47 281 59 59 282 36 37 283 47 47 284 36 37 285 59 59 286 48 49 287 49 48 288 60 60 289 61 61 290 60 60 291 49 48 292 48 49 293 61 61 294 50 50 295 49 48 296 50 50 297 61 61 298 62 62 299 62 62 300 63 63 301 50 50 302 51 51 303 50 50 304 63 63 305 52 52 306 51 51 307 64 64 308 51 51 309 63 63 310 64 64 311 53 53 312 52 52 313 65 65 314 52 52 315 64 64 316 65 65 317 54 54 318 65 65 319 66 66 320 65 65 321 54 54 322 53 53 323 67 67 324 54 54 325 66 66 326 54 54 327 67 67 328 55 55 329 68 68 330 55 55 331 67 67 332 55 55 333 68 68 334 56 56 335 68 68 336 57 57 337 56 56 338 57 57 339 68 68 340 69 69 341 69 69 342 70 70 343 57 57 344 57 57 345 70 70 346 58 58 347 70 70 348 71 71 349 58 58 350 58 58 351 71 71 352 59 59 353 71 71 354 48 49 355 59 59 356 48 49 357 71 71 358 60 60 359 61 61 360 72 72 361 73 73 362 72 72 363 61 61 364 60 60 365 73 73 366 62 62 367 61 61 368 62 62 369 73 73 370 74 74 371 74 74 372 63 63 373 62 62 374 63 63 375 74 74 376 75 75 377 64 64 378 75 75 379 76 76 380 75 75 381 64 64 382 63 63 383 65 65 384 76 76 385 77 77 386 76 76 387 65 65 388 64 64 389 66 66 390 65 65 391 78 78 392 65 65 393 77 77 394 78 78 395 79 79 396 66 66 397 78 78 398 66 66 399 79 79 400 67 67 401 80 80 402 67 67 403 79 79 404 67 67 405 80 80 406 68 68 407 80 80 408 69 69 409 68 68 410 69 69 411 80 80 412 81 81 413 81 81 414 70 70 415 69 69 416 70 70 417 81 81 418 82 82 419 82 82 420 71 71 421 70 70 422 71 71 423 82 82 424 83 83 425 83 83 426 72 72 427 71 71 428 71 71 429 72 72 430 60 60 431 84 84 432 85 85 433 72 72 434 73 73 435 72 72 436 85 85 437 85 85 438 74 74 439 73 73 440 74 74 441 85 85 442 86 86 443 86 86 444 87 87 445 74 74 446 75 75 447 74 74 448 87 87 449 76 76 450 87 87 451 88 88 452 87 87 453 76 76 454 75 75 455 77 77 456 88 88 457 89 89 458 88 88 459 77 77 460 76 76 461 78 78 462 77 77 463 90 90 464 77 77 465 89 89 466 90 90 467 79 79 468 90 90 469 91 91 470 90 90 471 79 79 472 78 78 473 91 91 474 80 80 475 79 79 476 80 80 477 91 91 478 92 92 479 93 93 480 80 80 481 92 92 482 80 80 483 93 93 484 81 81 485 94 94 486 81 81 487 93 93 488 81 81 489 94 94 490 82 82 491 94 94 492 83 83 493 82 82 494 83 83 495 94 94 496 95 95 497 95 95 498 84 84 499 83 83 500 72 72 501 83 83 502 84 84 503 85 85 504 84 84 505 97 96 506 84 84 507 96 97 508 97 96 509 86 86 510 97 96 511 98 98 512 97 96 513 86 86 514 85 85 515 98 98 516 87 87 517 86 86 518 87 87 519 98 98 520 99 99 521 99 99 522 88 88 523 87 87 524 88 88 525 99 99 526 100 100 527 89 89 528 100 100 529 101 101 530 100 100 531 89 89 532 88 88 533 90 90 534 89 89 535 102 102 536 89 89 537 101 101 538 102 102 539 91 91 540 102 102 541 103 103 542 102 102 543 91 91 544 90 90 545 92 92 546 103 103 547 104 104 548 103 103 549 92 92 550 91 91 551 105 105 552 92 92 553 104 104 554 92 92 555 105 105 556 93 93 557 106 106 558 93 93 559 105 105 560 93 93 561 106 106 562 94 94 563 106 106 564 95 95 565 94 94 566 95 95 567 106 106 568 107 107 569 107 107 570 96 97 571 95 95 572 84 84 573 95 95 574 96 97 575 97 96 576 96 97 577 109 108 578 96 97 579 108 109 580 109 108 581 98 98 582 109 108 583 110 110 584 109 108 585 98 98 586 97 96 587 110 110 588 99 99 589 98 98 590 99 99 591 110 110 592 111 111 593 111 111 594 100 100 595 99 99 596 100 100 597 111 111 598 112 112 599 101 101 600 112 112 601 113 113 602 112 112 603 101 101 604 100 100 605 102 102 606 113 113 607 114 114 608 113 113 609 102 102 610 101 101 611 114 114 612 103 103 613 102 102 614 103 103 615 114 114 616 115 115 617 104 104 618 115 115 619 116 116 620 115 115 621 104 104 622 103 103 623 117 117 624 104 104 625 116 116 626 104 104 627 117 117 628 105 105 629 105 105 630 118 118 631 106 106 632 118 118 633 105 105 634 117 117 635 119 119 636 106 106 637 118 118 638 106 106 639 119 119 640 107 107 641 119 119 642 108 109 643 107 107 644 96 97 645 107 107 646 108 109 647 121 120 648 109 108 649 108 109 650 108 109 651 120 121 652 121 120 653 110 110 654 121 120 655 122 122 656 121 120 657 110 110 658 109 108 659 122 122 660 111 111 661 110 110 662 111 111 663 122 122 664 123 123 665 123 123 666 112 112 667 111 111 668 112 112 669 123 123 670 124 124 671 113 113 672 124 124 673 125 125 674 124 124 675 113 113 676 112 112 677 114 114 678 125 125 679 126 126 680 125 125 681 114 114 682 113 113 683 126 126 684 115 115 685 114 114 686 115 115 687 126 126 688 127 127 689 128 128 690 115 115 691 127 127 692 116 116 693 115 115 694 128 128 695 129 129 696 117 117 697 116 116 698 116 116 699 128 128 700 129 129 701 117 117 702 130 130 703 118 118 704 130 130 705 117 117 706 129 129 707 131 131 708 118 118 709 130 130 710 118 118 711 131 131 712 119 119 713 108 109 714 119 119 715 120 121 716 119 119 717 131 131 718 120 121 719 1 3 720 132 132 721 0 1 722 2 4 723 132 132 724 1 3 725 3 6 726 132 132 727 2 4 728 4 8 729 132 132 730 3 6 731 5 10 732 132 132 733 4 8 734 6 12 735 132 132 736 5 10 737 7 14 738 132 132 739 6 12 740 8 17 741 132 132 742 7 14 743 9 19 744 132 132 745 8 17 746 10 21 747 132 132 748 9 19 749 11 23 750 132 132 751 10 21 752 0 1 753 132 132 754 11 23 755 120 121 756 133 133 757 121 120 758 121 120 759 133 133 760 122 122 761 122 122 762 133 133 763 123 123 764 123 123 765 133 133 766 124 124 767 124 124 768 133 133 769 125 125 770 125 125 771 133 133 772 126 126 773 126 126 774 133 133 775 127 127 776 127 127 777 133 133 778 128 128 779 128 128 780 133 133 781 129 129 782 129 129 783 133 133 784 130 130 785 130 130 786 133 133 787 131 131 788 131 131 789 133 133 790 120 121 791</p>
        </triangles>
      </mesh>
    </geometry>
  </library_geometries>
  <library_controllers/>
  <library_visual_scenes>
    <visual_scene id="Scene" name="Scene">
      <node id="VIS_Alpha_Joints_035" name="VIS_Alpha_Joints_035" type="NODE">
        <instance_geometry url="#Alpha_JointsMesh_318-mesh" name="VIS_Alpha_Joints_035">
          <bind_material>
            <technique_common>
              <instance_material symbol="Alpha_Joints_MAT_007-material" target="#Alpha_Joints_MAT_007-material"/>
            </technique_common>
          </bind_material>
        </instance_geometry>
      </node>
    </visual_scene>
  </library_visual_scenes>
  <scene>
    <instance_visual_scene url="#Scene"/>
  </scene>
</COLLADA>