<?xml version="1.0" encoding="utf-8"?>
<COLLADA xmlns="http://www.collada.org/2005/11/COLLADASchema" version="1.4.1" xmlns:xsi="http://www.w3.org/2001/XMLSchema-instance">
  <asset>
    <contributor>
      <author>Blender User</author>
      <authoring_tool>Blender 2.79.0 commit date:2018-03-22, commit time:14:10, hash:f4dc9f9d68b</authoring_tool>
    </contributor>
    <created>2018-10-09T21:23:55</created>
    <modified>2018-10-09T21:23:55</modified>
    <unit name="meter" meter="1"/>
    <up_axis>Z_UP</up_axis>
  </asset>
  <library_images/>
  <library_effects>
    <effect id="Alpha_Body_MAT_007-effect">
      <profile_COMMON>
        <technique sid="common">
          <phong>
            <emission>
              <color sid="emission">0 0 0 1</color>
            </emission>
            <ambient>
              <color sid="ambient">0 0 0 1</color>
            </ambient>
            <diffuse>
              <color sid="diffuse">0.077256 0.337296 0.4176 1</color>
            </diffuse>
            <specular>
              <color sid="specular">0.239315 0.239315 0.239315 1</color>
            </specular>
            <shininess>
              <float sid="shininess">3</float>
            </shininess>
            <transparent opaque="A_ONE">
              <color>1 1 1 1</color>
            </transparent>
            <index_of_refraction>
              <float sid="index_of_refraction">1</float>
            </index_of_refraction>
          </phong>
        </technique>
      </profile_COMMON>
    </effect>
  </library_effects>
  <library_materials>
    <material id="Alpha_Body_MAT_007-material" name="Alpha_Body_MAT_007">
      <instance_effect url="#Alpha_Body_MAT_007-effect"/>
    </material>
  </library_materials>
  <library_geometries>
    <geometry id="Alpha_SurfaceMesh_313-mesh" name="Alpha_SurfaceMesh.313">
      <mesh>
        <source id="Alpha_SurfaceMesh_313-mesh-positions">
          <float_array id="Alpha_SurfaceMesh_313-mesh-positions-array" count="516">89.23373 142.3307 -10.0439 91.05783 142.3478 -10.18154 89.34764 143.8796 -9.803954 90.94229 143.8718 -9.880719 89.26272 143.9571 -11.36456 90.84106 144.0581 -11.41478 89.18925 142.4086 -11.52565 91.08412 142.4145 -11.56906 89.74601 143.8556 -9.833111 89.64566 142.2687 -10.08289 89.72802 143.9358 -11.38247 89.63919 142.358 -11.6018 89.27131 143.6652 -9.72927 89.68839 143.5719 -9.696004 89.50358 143.8897 -9.800933 89.44528 143.6244 -9.668314 89.19013 143.2762 -9.704541 89.61785 143.2046 -9.660143 89.36496 143.2462 -9.637391 89.9786 143.1579 -9.715373 90.05848 143.8162 -9.891913 90.03268 143.5294 -9.753049 89.38613 142.2841 -10.04693 89.63949 142.5032 -9.891014 89.1988 142.5342 -9.940764 89.38108 142.5168 -9.877763 89.99924 142.2863 -10.13563 89.98751 142.5089 -9.933299 89.62488 142.8253 -9.754363 89.97561 142.8027 -9.788098 89.18062 142.8749 -9.821928 89.36841 142.8528 -9.743028 91.13953 142.5186 -10.05218 90.82199 142.3285 -10.17543 90.86796 142.5317 -9.982301 91.19616 142.8458 -9.880195 90.92889 142.8451 -9.819849 90.46737 142.8143 -9.814522 90.42787 142.3168 -10.17109 90.43603 142.5288 -9.966402 90.75669 143.868 -9.88554 91.06961 143.6109 -9.783386 90.82724 143.5679 -9.748379 90.436 143.831 -9.904516 90.47787 143.531 -9.761237 90.50771 143.169 -9.732085 91.15711 143.2286 -9.760298 90.89952 143.2069 -9.709955 89.7774 144.0696 -10.08781 89.31999 144.0104 -10.00182 89.52148 144.0946 -10.03773 90.06724 144.034 -10.13064 89.79492 144.223 -10.43663 90.06282 144.1594 -10.4684 89.32368 144.1736 -10.36828 89.54456 144.2559 -10.39851 90.95696 144.0631 -10.10791 90.70123 144.1157 -10.1441 90.95411 144.2845 -10.47313 90.66706 144.3025 -10.48286 90.3664 144.2019 -10.48252 90.39353 144.068 -10.14898 90.65095 144.0304 -11.38547 90.89044 144.1904 -11.21441 90.64308 144.2091 -11.16046 90.37614 143.9713 -11.36124 90.35559 144.1424 -11.14922 90.3559 144.225 -10.83939 90.93153 144.316 -10.86971 90.65425 144.3138 -10.84008 89.25537 144.0853 -11.13251 89.76033 144.1136 -11.12921 89.44533 143.9633 -11.38807 89.49123 144.1451 -11.11078 89.29454 144.1958 -10.77085 89.78785 144.2285 -10.80592 89.52725 144.2839 -10.77626 90.05482 144.171 -10.8425 90.06443 143.9424 -11.36798 90.05158 144.0913 -11.15218 89.69018 143.7178 -11.56963 89.15759 143.7382 -11.48093 89.37685 143.7359 -11.58608 90.07472 143.7066 -11.52107 89.63302 143.4084 -11.68602 90.07321 143.3813 -11.64136 89.07518 143.4131 -11.57607 89.30249 143.4167 -11.69423 90.96829 143.8284 -11.57299 90.72757 143.7682 -11.57144 91.09865 143.359 -11.68303 90.81264 143.3492 -11.69963 90.46586 143.3527 -11.64999 90.42082 143.7077 -11.51515 90.86397 142.3847 -11.5886 91.13378 142.563 -11.63707 90.87831 142.5959 -11.71227 90.48818 142.3538 -11.57679 90.48554 142.6165 -11.68809 90.4786 142.9688 -11.70713 91.15571 142.9184 -11.69967 90.85823 142.9447 -11.75217 89.1311 142.5974 -11.58175 89.63069 142.6357 -11.71591 89.34652 142.377 -11.57425 89.31771 142.6207 -11.68379 89.06324 143.0169 -11.61654 89.6153 143.0299 -11.7387 89.26239 143.04 -11.71484 90.06352 142.9971 -11.70187 90.06226 142.3452 -11.57782 90.0637 142.6286 -11.68991 89.62454 142.1598 -11.37977 89.13213 142.3092 -11.34753 89.32451 142.2046 -11.36167 90.05268 142.1533 -11.3768 89.6051 142.0607 -11.03223 90.03474 142.0584 -11.07853 89.09887 142.251 -10.9377 89.30221 142.1125 -10.98021 91.15256 142.3446 -11.42054 90.88169 142.2409 -11.38702 91.20703 142.2491 -11.09084 90.9036 142.1479 -11.08804 90.48792 142.0733 -11.0869 90.49147 142.1752 -11.37166 91.13178 142.2723 -10.37439 90.84254 142.2008 -10.42421 90.44269 142.1683 -10.44278 90.46733 142.0782 -10.76207 91.19573 142.2278 -10.71155 90.88105 142.1329 -10.74656 89.17071 142.2779 -10.22846 89.63088 142.1159 -10.34259 89.35276 142.1566 -10.28341 89.11441 142.2482 -10.54368 89.60704 142.042 -10.66903 89.30889 142.0941 -10.60083 90.02087 142.0545 -10.74244 90.00888 142.1342 -10.41397 91.27821 142.5112 -11.46732 91.35472 142.8929 -11.51652 91.51763 142.853 -11.0707 91.38568 142.4379 -11.08798 91.1256 143.9679 -11.36333 91.20372 144.1025 -10.93153 91.46949 143.4409 -11.01875 91.32731 143.3705 -11.5114 91.2113 143.7572 -10.01426 91.37402 143.2924 -9.982197 91.48992 143.3761 -10.44361 91.24484 144.0031 -10.45253 91.3029 142.4461 -10.26445 91.39842 142.4093 -10.64129 91.54309 142.8184 -10.54787 91.39963 142.8217 -10.10434 89.07994 142.5251 -10.14507 89.05042 142.8876 -10.04931 88.96732 142.9015 -10.43629 89.00405 142.5184 -10.4878 89.17804 143.7431 -9.95037 89.1522 143.8687 -10.3599 89.00884 143.3623 -10.39577 89.07044 143.3105 -9.946319 89.07299 143.8072 -11.20746 88.96223 143.3988 -11.33115 88.97533 143.3932 -10.88005 89.1098 143.8873 -10.79313 89.02029 142.5316 -11.37084 88.97844 142.5113 -10.9165 88.93974 142.9241 -10.91134 88.95864 142.9703 -11.39406</float_array>
          <technique_common>
            <accessor source="#Alpha_SurfaceMesh_313-mesh-positions-array" count="172" stride="3">
              <param name="X" type="float"/>
              <param name="Y" type="float"/>
              <param name="Z" type="float"/>
            </accessor>
          </technique_common>
        </source>
        <source id="Alpha_SurfaceMesh_313-mesh-normals">
          <float_array id="Alpha_SurfaceMesh_313-mesh-normals-array" count="516">-0.03936952 0.2596866 0.9648903 0.05435478 0.6216776 0.7813851 -0.3896414 0.6126163 0.6876634 -0.5860065 0.3059588 0.7503238 -0.160073 -0.07901406 0.9839377 -0.6666828 -0.004181027 0.7453298 0.1033676 -0.09308272 0.9902782 0.1705402 0.2331041 0.9573811 0.2021264 0.578607 0.7901638 -0.6690784 -0.2231278 0.7089062 -0.191752 -0.3028419 0.9335513 0.04809743 -0.30772 0.9502605 0.1064491 0.2505888 0.9622234 0.08902412 -0.07526004 0.9931822 0.07657277 -0.3220391 0.9436246 0.001068115 -0.08465921 0.9964094 0.04214709 -0.3528942 0.9347135 -0.02621579 0.2492179 0.9680926 0.1054741 0.5879209 0.8020127 -0.05472064 0.5773292 0.8146759 -0.1439881 -0.4664509 0.8727491 -0.6159708 -0.3591815 0.7011196 -0.5011007 -0.621836 0.6018457 -0.08545374 -0.7536414 0.6517073 0.06494587 -0.5145311 0.8550087 0.07678747 -0.7667456 0.6373422 0.107548 -0.5562347 0.8240367 0.1211932 -0.7780964 0.6163427 0.06521952 -0.79179 0.6073015 0.05523961 -0.5857537 0.8086045 0.3990152 -0.5551542 0.7297882 0.09683752 -0.5782784 0.810072 0.2523024 -0.7740895 0.5806281 0.05710101 -0.7995363 0.5978974 0.1186284 -0.3703514 0.9212856 0.4823639 -0.3324817 0.8104203 0.4719445 -0.03662264 0.8808674 0.07379424 -0.08935874 0.9932621 -0.05960458 0.5839604 0.8095911 0.005768001 0.2484226 0.9686346 0.2286186 0.6052246 0.76252 0.4086232 0.3137691 0.8570741 -0.5627474 0.7056393 0.4305679 -0.03778266 0.8487378 0.5274626 0.1871133 0.8256669 0.5322245 -0.07141399 0.9683617 0.2391148 0.2021582 0.9573826 0.2062782 -0.5999166 0.7710379 0.2135431 0.07058995 0.8443328 0.531149 -0.1126757 0.8232466 0.5563896 0.06024414 0.9784033 0.1977315 -0.214913 0.9508115 0.223092 0.1889747 0.9680071 -0.1650782 -0.005951166 0.9907631 -0.135473 -0.09323698 0.9856878 -0.1404507 -0.6121227 0.7884624 -0.06027531 0.3478611 0.7553573 0.5553631 -0.03347969 0.8044903 0.5930216 0.3806633 0.8885297 0.2561458 -0.1214674 0.9600501 0.2520906 0.3169147 0.9386889 -0.1357508 -0.150947 0.9814609 -0.1181086 -0.2259317 0.9693425 -0.09659242 0.2140629 0.8600666 -0.463101 -0.1971824 0.6634497 -0.7217712 -0.1338576 0.8771855 -0.461116 0.02114999 0.7212669 -0.6923344 -0.1800626 0.8762641 -0.4469215 -0.1140508 0.6435616 -0.7568494 -0.05456823 0.9036718 -0.4247349 -0.02301126 0.687196 -0.7261077 -0.538518 0.788046 -0.2982984 -0.01614439 0.760008 -0.6497133 -0.4200025 0.7204621 -0.5518446 -0.07181203 0.8954077 -0.4394178 0.07053011 0.8860061 -0.458278 0.06287038 0.7246882 -0.686203 -0.6398058 0.4620006 -0.6141695 -0.1360868 0.4950885 -0.8581188 0.09726446 0.4931586 -0.864485 0.07413095 0.2332271 -0.9695926 -0.2287439 0.2248069 -0.9471738 -0.7113766 0.221937 -0.6668488 0.04944151 0.4552282 -0.8890011 -0.1096841 0.4202421 -0.9007586 -0.08218759 0.2328293 -0.9690386 0.05554395 0.2501309 -0.9666175 0.01663273 0.02826046 -0.9994623 0.03518837 0.05746722 -0.997727 -0.2749165 -0.01019334 -0.9614141 -0.7096428 -0.03500598 -0.7036915 0.2348179 0.4505916 -0.8612942 -0.1671208 0.3997045 -0.9012808 -0.04678606 0.1938585 -0.9799133 0.3453918 0.2034445 -0.9161413 0.02566605 0.003051817 -0.999666 0.4459513 -0.04455846 -0.8939474 -0.06390708 0.04367291 -0.9969998 0.0824629 -0.6503952 -0.7551066 0.06579935 -0.3127303 -0.9475601 0.345447 -0.636112 -0.6899478 0.460594 -0.3362593 -0.8214517 -0.03045839 -0.2414392 -0.9699379 0.018678 -0.5909218 -0.8065126 0.02389651 -0.5680536 -0.8226445 0.02292007 -0.2066469 -0.9781472 -0.2535814 -0.2511093 -0.9341524 -0.2207159 -0.5862767 -0.7794641 -0.5327417 -0.5281332 -0.6612577 -0.6527177 -0.2621613 -0.7107961 -0.01800644 -0.21916 -0.9755228 -0.04202514 -0.5695527 -0.8208798 -0.3054096 -0.8493603 -0.4304789 -0.6858053 -0.6467097 -0.3338231 -0.08139503 -0.8721508 -0.482419 -0.09796559 -0.9828608 -0.1561651 -0.3823469 -0.9153985 -0.125923 -0.7701243 -0.6343439 -0.06720352 0.01934903 -0.861308 -0.5077146 0.07504665 -0.8652496 -0.4956927 0.09650152 -0.9825947 -0.1587301 0.01031541 -0.9876867 -0.1561047 0.05090546 -0.9928096 0.108342 -0.05188304 -0.9948421 0.0871635 -0.3772189 -0.9201577 0.1049559 -0.7700136 -0.6257161 0.1247342 0.1991088 -0.8767015 -0.4378929 0.4914221 -0.7621285 -0.4215024 0.2453131 -0.9550366 -0.1665126 0.5302748 -0.8306775 -0.1696574 0.2064602 -0.9741936 0.09122097 0.4868104 -0.870802 0.06869852 0.08105868 -0.987384 0.1360235 0.1173141 -0.9337523 0.3381479 0.38866 -0.8641772 0.3195954 0.07028537 -0.9258877 0.3712035 0.1002844 -0.9296607 0.3545053 -0.2572191 -0.9056996 0.3369669 -0.6959146 -0.6547738 0.2949137 0.02011191 -0.9334515 0.3581395 0.7639046 -0.4193083 -0.4905409 0.8308495 -0.07916629 -0.5508376 0.8481633 -0.4982589 -0.179881 0.7949616 0.2223317 -0.5644508 0.9558773 0.2486666 -0.1564085 0.9766358 -0.1011397 -0.1896139 0.9815932 -0.145333 0.1239085 0.8191459 -0.5660469 0.09268796 0.6362366 0.5791959 -0.5096423 0.7624608 0.632205 -0.1377331 0.8044658 0.5606143 0.1963325 0.9674598 0.2080801 0.1439592 0.7388926 0.4668168 0.4859216 0.8578926 0.1070305 0.5025584 0.8421162 -0.2335329 0.4861097 0.6967073 -0.5784733 0.424226 -0.8961954 -0.281875 0.3426082 -0.934828 -0.09314399 0.3426675 -0.957538 -0.254316 0.1358101 -0.9443292 0.09158849 0.3159972 -0.9795934 0.1589421 0.1230214 -0.990308 -0.02151578 0.137213 -0.9996238 -0.02600228 0.008728444 -0.9652702 -0.2599039 -0.02652138 -0.8773304 0.3581713 0.3193816 -0.9107919 0.3871697 0.1433804 -0.9151179 0.4010221 0.04171973 -0.9848086 0.1654419 0.05273634 -0.8854627 0.4317901 -0.1717943 -0.9631919 0.1780806 -0.2013669 -0.9638582 -0.06158775 -0.2591997 -0.9065122 -0.2972877 -0.2997597</float_array>
          <technique_common>
            <accessor source="#Alpha_SurfaceMesh_313-mesh-normals-array" count="172" stride="3">
              <param name="X" type="float"/>
              <param name="Y" type="float"/>
              <param name="Z" type="float"/>
            </accessor>
          </technique_common>
        </source>
        <source id="Alpha_SurfaceMesh_313-mesh-map-0">
          <float_array id="Alpha_SurfaceMesh_313-mesh-map-0-array" count="2040">0.44107 0.01603394 0.43955 0.01647597 0.439566 0.01563096 0.439566 0.01563096 0.44059 0.01505398 0.44107 0.01603394 0.44059 0.01505398 0.443199 0.01502197 0.44107 0.01603394 0.443199 0.01502197 0.44059 0.01505398 0.442544 0.01383894 0.44107 0.01603394 0.443882 0.01686197 0.441445 0.01761394 0.443882 0.01686197 0.44107 0.01603394 0.443199 0.01502197 0.439521 0.01790797 0.43955 0.01647597 0.441445 0.01761394 0.43955 0.01647597 0.44107 0.01603394 0.441445 0.01761394 0.442544 0.01383894 0.445277 0.01191395 0.443199 0.01502197 0.443199 0.01502197 0.445277 0.01191395 0.446255 0.01378196 0.443199 0.01502197 0.446255 0.01378196 0.443882 0.01686197 0.443882 0.01686197 0.446255 0.01378196 0.447233 0.01637399 0.441384 0.02016395 0.441445 0.01761394 0.444332 0.02004498 0.441445 0.01761394 0.443882 0.01686197 0.444332 0.02004498 0.443882 0.01686197 0.447233 0.01637399 0.444332 0.02004498 0.444332 0.02004498 0.447233 0.01637399 0.447623 0.02023595 0.443082 0.0248 0.444332 0.02004498 0.44652 0.02571398 0.444332 0.02004498 0.447623 0.02023595 0.44652 0.02571398 0.440452 0.02350097 0.441384 0.02016395 0.443082 0.0248 0.441384 0.02016395 0.444332 0.02004498 0.443082 0.0248 0.439217 0.01997298 0.439521 0.01790797 0.441384 0.02016395 0.439521 0.01790797 0.441445 0.01761394 0.441384 0.02016395 0.438474 0.02250897 0.441384 0.02016395 0.440452 0.02350097 0.441384 0.02016395 0.438474 0.02250897 0.439217 0.01997298 0.679185 0.01057595 0.679971 0.009315967 0.681096 0.01026499 0.679185 0.01057595 0.681096 0.01026499 0.680938 0.01130795 0.678622 0.01258397 0.679185 0.01057595 0.680938 0.01130795 0.678622 0.01258397 0.680938 0.01130795 0.680709 0.01312899 0.675828 0.01159 0.676633 0.009071946 0.679185 0.01057595 0.675828 0.01159 0.679185 0.01057595 0.678622 0.01258397 0.677806 0.007437944 0.679971 0.009315967 0.676633 0.009071946 0.676633 0.009071946 0.679971 0.009315967 0.679185 0.01057595 0.678261 0.01554799 0.678622 0.01258397 0.680709 0.01312899 0.678261 0.01554799 0.680709 0.01312899 0.680543 0.01582795 0.680543 0.01582795 0.68052 0.01928895 0.678261 0.01554799 0.678251 0.01947695 0.678261 0.01554799 0.68052 0.01928895 0.675546 0.02002298 0.67543 0.01518297 0.678251 0.01947695 0.67543 0.01518297 0.678261 0.01554799 0.678251 0.01947695 0.67543 0.01518297 0.675828 0.01159 0.678622 0.01258397 0.67543 0.01518297 0.678622 0.01258397 0.678261 0.01554799 0.679794 0.02520596 0.678798 0.02314698 0.681044 0.02417796 0.681044 0.02417796 0.678798 0.02314698 0.680776 0.02240699 0.676187 0.02446395 0.679794 0.02520596 0.677244 0.02686595 0.679794 0.02520596 0.676187 0.02446395 0.678798 0.02314698 0.675546 0.02002298 0.678798 0.02314698 0.676187 0.02446395 0.678798 0.02314698 0.675546 0.02002298 0.678251 0.01947695 0.678251 0.01947695 0.680776 0.02240699 0.678798 0.02314698 0.680776 0.02240699 0.678251 0.01947695 0.68052 0.01928895 0.439279 0.02916795 0.440942 0.02767497 0.443506 0.03042 0.439279 0.02916795 0.443506 0.03042 0.440851 0.03265196 0.440942 0.02767497 0.443082 0.0248 0.443506 0.03042 0.443082 0.0248 0.44652 0.02571398 0.443506 0.03042 0.437581 0.02445399 0.439177 0.02573096 0.437111 0.02545398 0.437111 0.02545398 0.439177 0.02573096 0.437995 0.02691596 0.440452 0.02350097 0.437581 0.02445399 0.438474 0.02250897 0.437581 0.02445399 0.440452 0.02350097 0.439177 0.02573096 0.440942 0.02767497 0.437995 0.02691596 0.439177 0.02573096 0.437995 0.02691596 0.440942 0.02767497 0.439279 0.02916795 0.443082 0.0248 0.439177 0.02573096 0.440452 0.02350097 0.439177 0.02573096 0.443082 0.0248 0.440942 0.02767497 0.43955 0.01647597 0.438457 0.01541399 0.439566 0.01563096 0.438457 0.01541399 0.43955 0.01647597 0.437996 0.01647299 0.439521 0.01790797 0.437996 0.01647299 0.43955 0.01647597 0.437996 0.01647299 0.439521 0.01790797 0.437667 0.017901 0.437667 0.017901 0.436084 0.01627898 0.437996 0.01647299 0.436084 0.01627898 0.437667 0.017901 0.435655 0.01762497 0.437996 0.01647299 0.436556 0.015118 0.438457 0.01541399 0.436556 0.015118 0.437996 0.01647299 0.436084 0.01627898 0.439217 0.01997298 0.437667 0.017901 0.439521 0.01790797 0.437667 0.017901 0.439217 0.01997298 0.437252 0.01968795 0.439217 0.01997298 0.436567 0.02170395 0.437252 0.01968795 0.436567 0.02170395 0.439217 0.01997298 0.438474 0.02250897 0.436567 0.02170395 0.435196 0.01923096 0.437252 0.01968795 0.435196 0.01923096 0.436567 0.02170395 0.43464 0.02105998 0.437252 0.01968795 0.435655 0.01762497 0.437667 0.017901 0.435655 0.01762497 0.437252 0.01968795 0.435196 0.01923096 0.435196 0.01923096 0.433753 0.01712697 0.435655 0.01762497 0.433753 0.01712697 0.435196 0.01923096 0.433079 0.01871395 0.435655 0.01762497 0.434351 0.01572996 0.436084 0.01627898 0.434351 0.01572996 0.435655 0.01762497 0.433753 0.01712697 0.436084 0.01627898 0.434729 0.01444995 0.436556 0.015118 0.434729 0.01444995 0.436084 0.01627898 0.434351 0.01572996 0.435678 0.02492296 0.437581 0.02445399 0.437111 0.02545398 0.437581 0.02445399 0.435678 0.02492296 0.435925 0.02344697 0.435678 0.02492296 0.433799 0.024221 0.435925 0.02344697 0.435925 0.02344697 0.433799 0.024221 0.43409 0.02276396 0.436567 0.02170395 0.43409 0.02276396 0.43464 0.02105998 0.43409 0.02276396 0.436567 0.02170395 0.435925 0.02344697 0.437581 0.02445399 0.435925 0.02344697 0.438474 0.02250897 0.438474 0.02250897 0.435925 0.02344697 0.436567 0.02170395 0.433799 0.024221 0.432073 0.02374196 0.43409 0.02276396 0.43409 0.02276396 0.432073 0.02374196 0.432416 0.02234995 0.43464 0.02105998 0.432416 0.02234995 0.43271 0.02057397 0.432416 0.02234995 0.43464 0.02105998 0.43409 0.02276396 0.43271 0.02057397 0.435196 0.01923096 0.43464 0.02105998 0.435196 0.01923096 0.43271 0.02057397 0.433079 0.01871395 0.430381 0.023395 0.4292 0.021963 0.430753 0.02204197 0.4292 0.021963 0.430381 0.023395 0.429172 0.02311497 0.430904 0.02024799 0.430753 0.02204197 0.429219 0.02006196 0.430753 0.02204197 0.4292 0.021963 0.429219 0.02006196 0.432073 0.02374196 0.430753 0.02204197 0.432416 0.02234995 0.430753 0.02204197 0.432073 0.02374196 0.430381 0.023395 0.431206 0.01821094 0.430904 0.02024799 0.429569 0.01783996 0.430904 0.02024799 0.429219 0.02006196 0.429569 0.01783996 0.433079 0.01871395 0.430904 0.02024799 0.431206 0.01821094 0.430904 0.02024799 0.433079 0.01871395 0.43271 0.02057397 0.432416 0.02234995 0.430904 0.02024799 0.43271 0.02057397 0.430904 0.02024799 0.432416 0.02234995 0.430753 0.02204197 0.433049 0.01355397 0.431149 0.01387798 0.431783 0.01293897 0.431149 0.01387798 0.433049 0.01355397 0.432694 0.01491099 0.434729 0.01444995 0.434351 0.01572996 0.432694 0.01491099 0.434729 0.01444995 0.432694 0.01491099 0.433049 0.01355397 0.434351 0.01572996 0.433753 0.01712697 0.431933 0.01641899 0.434351 0.01572996 0.431933 0.01641899 0.432694 0.01491099 0.430261 0.01553297 0.432694 0.01491099 0.431933 0.01641899 0.432694 0.01491099 0.430261 0.01553297 0.431149 0.01387798 0.433079 0.01871395 0.431933 0.01641899 0.433753 0.01712697 0.431933 0.01641899 0.433079 0.01871395 0.431206 0.01821094 0.431933 0.01641899 0.429569 0.01783996 0.430261 0.01553297 0.429569 0.01783996 0.431933 0.01641899 0.431206 0.01821094 0.431127 0.01152294 0.431783 0.01293897 0.429859 0.01252895 0.431783 0.01293897 0.431149 0.01387798 0.429859 0.01252895 0.428636 0.01446598 0.429859 0.01252895 0.431149 0.01387798 0.428636 0.01446598 0.431149 0.01387798 0.430261 0.01553297 0.426634 0.01278799 0.428487 0.01050198 0.429859 0.01252895 0.429859 0.01252895 0.428636 0.01446598 0.426634 0.01278799 0.430252 0.009352982 0.431127 0.01152294 0.428487 0.01050198 0.431127 0.01152294 0.429859 0.01252895 0.428487 0.01050198 0.427643 0.01736295 0.428636 0.01446598 0.430261 0.01553297 0.427643 0.01736295 0.430261 0.01553297 0.429569 0.01783996 0.427132 0.02010899 0.427643 0.01736295 0.429219 0.02006196 0.427643 0.01736295 0.429569 0.01783996 0.429219 0.02006196 0.424126 0.02029299 0.4249 0.01657998 0.427132 0.02010899 0.4249 0.01657998 0.427643 0.01736295 0.427132 0.02010899 0.4249 0.01657998 0.426634 0.01278799 0.428636 0.01446598 0.4249 0.01657998 0.428636 0.01446598 0.427643 0.01736295 0.423594 0.01057296 0.4249 0.01657998 0.421191 0.01545798 0.4249 0.01657998 0.423594 0.01057296 0.426634 0.01278799 0.423594 0.01057296 0.426615 0.007420957 0.428487 0.01050198 0.423594 0.01057296 0.428487 0.01050198 0.426634 0.01278799 0.428844 0.005983948 0.430252 0.009352982 0.426615 0.007420957 0.430252 0.009352982 0.428487 0.01050198 0.426615 0.007420957 0.427769 0.02399694 0.427209 0.02241098 0.429172 0.02311497 0.429172 0.02311497 0.427209 0.02241098 0.4292 0.021963 0.424219 0.02350896 0.427769 0.02399694 0.425005 0.02580499 0.427769 0.02399694 0.424219 0.02350896 0.427209 0.02241098 0.424126 0.02029299 0.427209 0.02241098 0.424219 0.02350896 0.427209 0.02241098 0.424126 0.02029299 0.427132 0.02010899 0.427132 0.02010899 0.4292 0.021963 0.427209 0.02241098 0.4292 0.021963 0.427132 0.02010899 0.429219 0.02006196 0.42077 0.024872 0.425005 0.02580499 0.421709 0.02801197 0.425005 0.02580499 0.42077 0.024872 0.424219 0.02350896 0.42077 0.024872 0.420246 0.020361 0.424219 0.02350896 0.420246 0.020361 0.424126 0.02029299 0.424219 0.02350896 0.421191 0.01545798 0.424126 0.02029299 0.420246 0.020361 0.424126 0.02029299 0.421191 0.01545798 0.4249 0.01657998 0.690643 0.02279096 0.692275 0.02330797 0.690356 0.02433997 0.690356 0.02433997 0.692275 0.02330797 0.691241 0.02506196 0.690643 0.02279096 0.692985 0.02017796 0.692275 0.02330797 0.692985 0.02017796 0.690643 0.02279096 0.69089 0.01995396 0.692275 0.02330797 0.693503 0.02666795 0.691241 0.02506196 0.693503 0.02666795 0.692275 0.02330797 0.69499 0.02413797 0.690946 0.01665896 0.692985 0.02017796 0.69089 0.01995396 0.692985 0.02017796 0.690946 0.01665896 0.693188 0.01659899 0.693188 0.01659899 0.696008 0.02049899 0.692985 0.02017796 0.696008 0.02049899 0.693188 0.01659899 0.696244 0.01639199 0.692985 0.02017796 0.69499 0.02413797 0.692275 0.02330797 0.69499 0.02413797 0.692985 0.02017796 0.696008 0.02049899 0.691908 0.01088994 0.690395 0.01163095 0.690067 0.01060396 0.690067 0.01060396 0.690955 0.009734988 0.691908 0.01088994 0.690955 0.009734988 0.69453 0.009018957 0.691908 0.01088994 0.69453 0.009018957 0.690955 0.009734988 0.693204 0.007399976 0.691908 0.01088994 0.695691 0.01210498 0.692819 0.01309698 0.695691 0.01210498 0.691908 0.01088994 0.69453 0.009018957 0.690819 0.01356995 0.690395 0.01163095 0.692819 0.01309698 0.690395 0.01163095 0.691908 0.01088994 0.692819 0.01309698 0.693188 0.01659899 0.692819 0.01309698 0.696244 0.01639199 0.692819 0.01309698 0.695691 0.01210498 0.696244 0.01639199 0.690946 0.01665896 0.690819 0.01356995 0.693188 0.01659899 0.690819 0.01356995 0.692819 0.01309698 0.693188 0.01659899 0.688813 0.01175498 0.68886 0.01044094 0.690067 0.01060396 0.688813 0.01175498 0.690067 0.01060396 0.690395 0.01163095 0.68897 0.01367396 0.688813 0.01175498 0.690395 0.01163095 0.68897 0.01367396 0.690395 0.01163095 0.690819 0.01356995 0.68682 0.01357799 0.686605 0.011608 0.688813 0.01175498 0.68682 0.01357799 0.688813 0.01175498 0.68897 0.01367396 0.686525 0.01004499 0.68886 0.01044094 0.686605 0.011608 0.686605 0.011608 0.68886 0.01044094 0.688813 0.01175498 0.68908 0.01662194 0.68897 0.01367396 0.690819 0.01356995 0.68908 0.01662194 0.690819 0.01356995 0.690946 0.01665896 0.690946 0.01665896 0.68902 0.01981198 0.68908 0.01662194 0.68902 0.01981198 0.690946 0.01665896 0.69089 0.01995396 0.687053 0.01968497 0.68908 0.01662194 0.68902 0.01981198 0.68908 0.01662194 0.687053 0.01968497 0.687063 0.01648896 0.687063 0.01648896 0.68682 0.01357799 0.68897 0.01367396 0.687063 0.01648896 0.68897 0.01367396 0.68908 0.01662194 0.684917 0.016321 0.684679 0.013457 0.68682 0.01357799 0.684917 0.016321 0.68682 0.01357799 0.687063 0.01648896 0.684679 0.013457 0.684446 0.01150399 0.686605 0.011608 0.684679 0.013457 0.686605 0.011608 0.68682 0.01357799 0.684446 0.01150399 0.684186 0.009951949 0.686525 0.01004499 0.684446 0.01150399 0.686525 0.01004499 0.686605 0.011608 0.689039 0.02264398 0.690356 0.02433997 0.689261 0.02464097 0.690356 0.02433997 0.689039 0.02264398 0.690643 0.02279096 0.687034 0.02264398 0.689261 0.02464097 0.687107 0.02483195 0.689261 0.02464097 0.687034 0.02264398 0.689039 0.02264398 0.687053 0.01968497 0.689039 0.02264398 0.687034 0.02264398 0.689039 0.02264398 0.687053 0.01968497 0.68902 0.01981198 0.68902 0.01981198 0.690643 0.02279096 0.689039 0.02264398 0.690643 0.02279096 0.68902 0.01981198 0.69089 0.01995396 0.684862 0.02248996 0.687107 0.02483195 0.684708 0.02480298 0.687107 0.02483195 0.684862 0.02248996 0.687034 0.02264398 0.684862 0.02248996 0.687053 0.01968497 0.687034 0.02264398 0.687053 0.01968497 0.684862 0.02248996 0.684937 0.019517 0.684937 0.019517 0.684917 0.016321 0.687063 0.01648896 0.684937 0.019517 0.687063 0.01648896 0.687053 0.01968497 0.680776 0.02240699 0.682693 0.02233999 0.681044 0.02417796 0.681044 0.02417796 0.682693 0.02233999 0.682486 0.02449697 0.680776 0.02240699 0.682725 0.01935499 0.682693 0.02233999 0.682725 0.01935499 0.680776 0.02240699 0.68052 0.01928895 0.684862 0.02248996 0.682486 0.02449697 0.682693 0.02233999 0.682486 0.02449697 0.684862 0.02248996 0.684708 0.02480298 0.68052 0.01928895 0.682718 0.01608896 0.682725 0.01935499 0.682718 0.01608896 0.68052 0.01928895 0.680543 0.01582795 0.682725 0.01935499 0.684917 0.016321 0.684937 0.019517 0.684917 0.016321 0.682725 0.01935499 0.682718 0.01608896 0.684937 0.019517 0.682693 0.02233999 0.682725 0.01935499 0.682693 0.02233999 0.684937 0.019517 0.684862 0.02248996 0.682561 0.01147896 0.680938 0.01130795 0.681096 0.01026499 0.681096 0.01026499 0.682289 0.01010799 0.682561 0.01147896 0.682289 0.01010799 0.684186 0.009951949 0.682561 0.01147896 0.682561 0.01147896 0.684186 0.009951949 0.684446 0.01150399 0.682561 0.01147896 0.684446 0.01150399 0.682632 0.01337498 0.682632 0.01337498 0.684446 0.01150399 0.684679 0.013457 0.680709 0.01312899 0.682561 0.01147896 0.682632 0.01337498 0.682561 0.01147896 0.680709 0.01312899 0.680938 0.01130795 0.682718 0.01608896 0.684679 0.013457 0.684917 0.016321 0.684679 0.013457 0.682718 0.01608896 0.682632 0.01337498 0.680543 0.01582795 0.682632 0.01337498 0.682718 0.01608896 0.682632 0.01337498 0.680543 0.01582795 0.680709 0.01312899 0.691241 0.02506196 0.689884 0.02597898 0.690356 0.02433997 0.690356 0.02433997 0.689884 0.02597898 0.689261 0.02464097 0.691241 0.02506196 0.691708 0.02831798 0.689884 0.02597898 0.691708 0.02831798 0.691241 0.02506196 0.693503 0.02666795 0.689261 0.02464097 0.687253 0.02658796 0.687107 0.02483195 0.687253 0.02658796 0.689261 0.02464097 0.689884 0.02597898 0.421709 0.02801197 0.426338 0.02758997 0.423143 0.03059798 0.426338 0.02758997 0.421709 0.02801197 0.425005 0.02580499 0.429693 0.02915698 0.427134 0.03424894 0.426338 0.02758997 0.427134 0.03424894 0.423143 0.03059798 0.426338 0.02758997 0.687853 0.030043 0.687253 0.02658796 0.689884 0.02597898 0.687853 0.030043 0.689884 0.02597898 0.691708 0.02831798 0.683225 0.030043 0.684248 0.02670598 0.687853 0.030043 0.684248 0.02670598 0.687253 0.02658796 0.687853 0.030043 0.687253 0.02658796 0.684248 0.02670598 0.684708 0.02480298 0.684708 0.02480298 0.687107 0.02483195 0.687253 0.02658796 0.4292 0.02484297 0.427769 0.02399694 0.429172 0.02311497 0.4292 0.02484297 0.429172 0.02311497 0.430381 0.023395 0.43144 0.02537697 0.430381 0.023395 0.432073 0.02374196 0.430381 0.023395 0.43144 0.02537697 0.4292 0.02484297 0.429693 0.02915698 0.4292 0.02484297 0.43144 0.02537697 0.4292 0.02484297 0.429693 0.02915698 0.426338 0.02758997 0.426338 0.02758997 0.427769 0.02399694 0.4292 0.02484297 0.427769 0.02399694 0.426338 0.02758997 0.425005 0.02580499 0.43371 0.02620899 0.432073 0.02374196 0.433799 0.024221 0.432073 0.02374196 0.43371 0.02620899 0.43144 0.02537697 0.429693 0.02915698 0.43371 0.02620899 0.433558 0.03038597 0.43371 0.02620899 0.429693 0.02915698 0.43144 0.02537697 0.432684 0.03536599 0.429693 0.02915698 0.433558 0.03038597 0.429693 0.02915698 0.432684 0.03536599 0.427134 0.03424894 0.437995 0.02691596 0.436173 0.02709597 0.437111 0.02545398 0.436173 0.02709597 0.435678 0.02492296 0.437111 0.02545398 0.437073 0.03008699 0.437995 0.02691596 0.439279 0.02916795 0.437995 0.02691596 0.437073 0.03008699 0.436173 0.02709597 0.435678 0.02492296 0.43371 0.02620899 0.433799 0.024221 0.43371 0.02620899 0.435678 0.02492296 0.436173 0.02709597 0.437073 0.03008699 0.440851 0.03265196 0.437793 0.03453296 0.440851 0.03265196 0.437073 0.03008699 0.439279 0.02916795 0.433558 0.03038597 0.437793 0.03453296 0.432684 0.03536599 0.437793 0.03453296 0.433558 0.03038597 0.437073 0.03008699 0.437073 0.03008699 0.433558 0.03038597 0.436173 0.02709597 0.436173 0.02709597 0.433558 0.03038597 0.43371 0.02620899 0.682486 0.02449697 0.681613 0.02617895 0.681044 0.02417796 0.681044 0.02417796 0.681613 0.02617895 0.679794 0.02520596 0.682486 0.02449697 0.684248 0.02670598 0.681613 0.02617895 0.684248 0.02670598 0.682486 0.02449697 0.684708 0.02480298 0.679397 0.02854698 0.681613 0.02617895 0.683225 0.030043 0.681613 0.02617895 0.684248 0.02670598 0.683225 0.030043 0.679794 0.02520596 0.679397 0.02854698 0.677244 0.02686595 0.679397 0.02854698 0.679794 0.02520596 0.681613 0.02617895 0.681096 0.01026499 0.679971 0.009315967 0.681476 0.008496999 0.681096 0.01026499 0.681476 0.008496999 0.682289 0.01010799 0.679971 0.009315967 0.679764 0.006163954 0.681476 0.008496999 0.679764 0.006163954 0.679971 0.009315967 0.677806 0.007437944 0.682289 0.01010799 0.683812 0.008089959 0.684186 0.009951949 0.683812 0.008089959 0.682289 0.01010799 0.681476 0.008496999 0.445277 0.01191395 0.441444 0.01241099 0.443981 0.009645998 0.441444 0.01241099 0.445277 0.01191395 0.442544 0.01383894 0.443981 0.009645998 0.43888 0.01046895 0.441113 0.006665945 0.43888 0.01046895 0.443981 0.009645998 0.441444 0.01241099 0.679764 0.006163954 0.683165 0.005023956 0.681476 0.008496999 0.681476 0.008496999 0.683165 0.005023956 0.683812 0.008089959 0.683812 0.008089959 0.687326 0.005116999 0.686687 0.008245944 0.687326 0.005116999 0.683812 0.008089959 0.683165 0.005023956 0.684186 0.009951949 0.686687 0.008245944 0.686525 0.01004499 0.686687 0.008245944 0.684186 0.009951949 0.683812 0.008089959 0.44059 0.01505398 0.439566 0.01563096 0.439519 0.01420497 0.439566 0.01563096 0.438457 0.01541399 0.439519 0.01420497 0.438457 0.01541399 0.437383 0.01348298 0.439519 0.01420497 0.437383 0.01348298 0.438457 0.01541399 0.436556 0.015118 0.441444 0.01241099 0.439519 0.01420497 0.43888 0.01046895 0.439519 0.01420497 0.437383 0.01348298 0.43888 0.01046895 0.44059 0.01505398 0.441444 0.01241099 0.442544 0.01383894 0.441444 0.01241099 0.44059 0.01505398 0.439519 0.01420497 0.436556 0.015118 0.435119 0.01258695 0.437383 0.01348298 0.435119 0.01258695 0.436556 0.015118 0.434729 0.01444995 0.43888 0.01046895 0.435119 0.01258695 0.435586 0.009086966 0.435119 0.01258695 0.43888 0.01046895 0.437383 0.01348298 0.43888 0.01046895 0.435586 0.009086966 0.441113 0.006665945 0.441113 0.006665945 0.435586 0.009086966 0.436337 0.005023956 0.432938 0.011608 0.433049 0.01355397 0.431783 0.01293897 0.431783 0.01293897 0.431127 0.01152294 0.432938 0.011608 0.432179 0.008821964 0.431127 0.01152294 0.430252 0.009352982 0.431127 0.01152294 0.432179 0.008821964 0.432938 0.011608 0.433049 0.01355397 0.435119 0.01258695 0.434729 0.01444995 0.435119 0.01258695 0.433049 0.01355397 0.432938 0.011608 0.431352 0.005023956 0.432179 0.008821964 0.428844 0.005983948 0.432179 0.008821964 0.430252 0.009352982 0.428844 0.005983948 0.436337 0.005023956 0.432179 0.008821964 0.431352 0.005023956 0.432179 0.008821964 0.436337 0.005023956 0.435586 0.009086966 0.435586 0.009086966 0.435119 0.01258695 0.432938 0.011608 0.435586 0.009086966 0.432938 0.011608 0.432179 0.008821964 0.68886 0.01044094 0.689485 0.009030997 0.690067 0.01060396 0.690067 0.01060396 0.689485 0.009030997 0.690955 0.009734988 0.686687 0.008245944 0.68886 0.01044094 0.686525 0.01004499 0.68886 0.01044094 0.686687 0.008245944 0.689485 0.009030997 0.687326 0.005116999 0.689485 0.009030997 0.686687 0.008245944 0.689485 0.009030997 0.687326 0.005116999 0.691314 0.006371974 0.691314 0.006371974 0.690955 0.009734988 0.689485 0.009030997 0.690955 0.009734988 0.691314 0.006371974 0.693204 0.007399976</float_array>
          <technique_common>
            <accessor source="#Alpha_SurfaceMesh_313-mesh-map-0-array" count="1020" stride="2">
              <param name="S" type="float"/>
              <param name="T" type="float"/>
            </accessor>
          </technique_common>
        </source>
        <vertices id="Alpha_SurfaceMesh_313-mesh-vertices">
          <input semantic="POSITION" source="#Alpha_SurfaceMesh_313-mesh-positions"/>
        </vertices>
        <triangles material="Alpha_Body_MAT_007-material" count="340">
          <input semantic="VERTEX" source="#Alpha_SurfaceMesh_313-mesh-vertices" offset="0"/>
          <input semantic="NORMAL" source="#Alpha_SurfaceMesh_313-mesh-normals" offset="1"/>
          <input semantic="TEXCOORD" source="#Alpha_SurfaceMesh_313-mesh-map-0" offset="2" set="0"/>
          <p>15 0 0 14 1 1 2 2 2 2 2 3 12 3 4 15 0 5 12 3 6 18 4 7 15 0 8 18 4 9 12 3 10 16 5 11 15 0 12 17 6 13 13 7 14 17 6 15 15 0 16 18 4 17 8 8 18 14 1 19 13 7 20 14 1 21 15 0 22 13 7 23 16 5 24 30 9 25 18 4 26 18 4 27 30 9 28 31 10 29 18 4 30 31 10 31 17 6 32 17 6 33 31 10 34 28 11 35 21 12 36 13 7 37 19 13 38 13 7 39 17 6 40 19 13 41 17 6 42 28 11 43 19 13 44 19 13 45 28 11 46 29 14 47 45 15 48 19 13 49 37 16 50 19 13 51 29 14 52 37 16 53 44 17 54 21 12 55 45 15 56 21 12 57 19 13 58 45 15 59 20 18 60 8 8 61 21 12 62 8 8 63 13 7 64 21 12 65 43 19 66 21 12 67 44 17 68 21 12 69 43 19 70 20 18 71 25 20 72 24 21 73 0 22 74 25 20 75 0 22 76 22 23 77 23 24 78 25 20 79 22 23 80 23 24 81 22 23 82 9 25 83 28 11 84 31 10 85 25 20 86 28 11 87 25 20 88 23 24 89 30 9 90 24 21 91 31 10 92 31 10 93 24 21 94 25 20 95 27 26 96 23 24 97 9 25 98 27 26 99 9 25 100 26 27 101 26 27 102 38 28 103 27 26 104 39 29 105 27 26 106 38 28 107 37 16 108 29 14 109 39 29 110 29 14 111 27 26 112 39 29 113 29 14 114 28 11 115 23 24 116 29 14 117 23 24 118 27 26 119 32 30 120 34 31 121 1 32 122 1 32 123 34 31 124 33 33 125 36 34 126 32 30 127 35 35 128 32 30 129 36 34 130 34 31 131 37 16 132 34 31 133 36 34 134 34 31 135 37 16 136 39 29 137 39 29 138 33 33 139 34 31 140 33 33 141 39 29 142 38 28 143 46 36 144 47 37 145 36 34 146 46 36 147 36 34 148 35 35 149 47 37 150 45 15 151 36 34 152 45 15 153 37 16 154 36 34 155 40 38 156 42 39 157 3 40 158 3 40 159 42 39 160 41 41 161 44 17 162 40 38 163 43 19 164 40 38 165 44 17 166 42 39 167 47 37 168 41 41 169 42 39 170 41 41 171 47 37 172 46 36 173 45 15 174 42 39 175 44 17 176 42 39 177 45 15 178 47 37 179 14 1 180 49 42 181 2 2 182 49 42 183 14 1 184 50 43 185 8 8 186 50 43 187 14 1 188 50 43 189 8 8 190 48 44 191 48 44 192 55 45 193 50 43 194 55 45 195 48 44 196 52 46 197 50 43 198 54 47 199 49 42 200 54 47 201 50 43 202 55 45 203 20 18 204 48 44 205 8 8 206 48 44 207 20 18 208 51 48 209 20 18 210 61 49 211 51 48 212 61 49 213 20 18 214 43 19 215 61 49 216 53 50 217 51 48 218 53 50 219 61 49 220 60 51 221 51 48 222 52 46 223 48 44 224 52 46 225 51 48 226 53 50 227 53 50 228 75 52 229 52 46 230 75 52 231 53 50 232 77 53 233 52 46 234 76 54 235 55 45 236 76 54 237 52 46 238 75 52 239 55 45 240 74 55 241 54 47 242 74 55 243 55 45 244 76 54 245 56 56 246 40 38 247 3 40 248 40 38 249 56 56 250 57 57 251 56 56 252 58 58 253 57 57 254 57 57 255 58 58 256 59 59 257 61 49 258 59 59 259 60 51 260 59 59 261 61 49 262 57 57 263 40 38 264 57 57 265 43 19 266 43 19 267 57 57 268 61 49 269 58 58 270 68 60 271 59 59 272 59 59 273 68 60 274 69 61 275 60 51 276 69 61 277 67 62 278 69 61 279 60 51 280 59 59 281 67 62 282 53 50 283 60 51 284 53 50 285 67 62 286 77 53 287 63 63 288 62 64 289 64 65 290 62 64 291 63 63 292 5 66 293 66 67 294 64 65 295 65 68 296 64 65 297 62 64 298 65 68 299 68 60 300 64 65 301 69 61 302 64 65 303 68 60 304 63 63 305 79 69 306 66 67 307 78 70 308 66 67 309 65 68 310 78 70 311 77 53 312 66 67 313 79 69 314 66 67 315 77 53 316 67 62 317 69 61 318 66 67 319 67 62 320 66 67 321 69 61 322 64 65 323 70 71 324 72 72 325 4 73 326 72 72 327 70 71 328 73 74 329 74 55 330 76 54 331 73 74 332 74 55 333 73 74 334 70 71 335 76 54 336 75 52 337 71 75 338 76 54 339 71 75 340 73 74 341 10 76 342 73 74 343 71 75 344 73 74 345 10 76 346 72 72 347 77 53 348 71 75 349 75 52 350 71 75 351 77 53 352 79 69 353 71 75 354 78 70 355 10 76 356 78 70 357 71 75 358 79 69 359 81 77 360 4 73 361 82 78 362 4 73 363 72 72 364 82 78 365 80 79 366 82 78 367 72 72 368 80 79 369 72 72 370 10 76 371 84 80 372 87 81 373 82 78 374 82 78 375 80 79 376 84 80 377 86 82 378 81 77 379 87 81 380 81 77 381 82 78 382 87 81 383 83 83 384 80 79 385 10 76 386 83 83 387 10 76 388 78 70 389 93 84 390 83 83 391 65 68 392 83 83 393 78 70 394 65 68 395 92 85 396 85 86 397 93 84 398 85 86 399 83 83 400 93 84 401 85 86 402 84 80 403 80 79 404 85 86 405 80 79 406 83 83 407 107 87 408 85 86 409 109 88 410 85 86 411 107 87 412 84 80 413 107 87 414 108 89 415 87 81 416 107 87 417 87 81 418 84 80 419 106 90 420 86 82 421 108 89 422 86 82 423 87 81 424 108 89 425 88 91 426 89 92 427 5 66 428 5 66 429 89 92 430 62 64 431 91 93 432 88 91 433 90 94 434 88 91 435 91 93 436 89 92 437 92 85 438 89 92 439 91 93 440 89 92 441 92 85 442 93 84 443 93 84 444 62 64 445 89 92 446 62 64 447 93 84 448 65 68 449 101 95 450 90 94 451 100 96 452 90 94 453 101 95 454 91 93 455 101 95 456 99 97 457 91 93 458 99 97 459 92 85 460 91 93 461 109 88 462 92 85 463 99 97 464 92 85 465 109 88 466 85 86 467 94 98 468 96 99 469 7 100 470 7 100 471 96 99 472 95 101 473 94 98 474 98 102 475 96 99 476 98 102 477 94 98 478 97 103 479 96 99 480 100 96 481 95 101 482 100 96 483 96 99 484 101 95 485 110 104 486 98 102 487 97 103 488 98 102 489 110 104 490 111 105 491 111 105 492 99 97 493 98 102 494 99 97 495 111 105 496 109 88 497 98 102 498 101 95 499 96 99 500 101 95 501 98 102 502 99 97 503 105 106 504 104 107 505 6 108 506 6 108 507 102 109 508 105 106 509 102 109 510 108 89 511 105 106 512 108 89 513 102 109 514 106 90 515 105 106 516 107 87 517 103 110 518 107 87 519 105 106 520 108 89 521 11 111 522 104 107 523 103 110 524 104 107 525 105 106 526 103 110 527 111 105 528 103 110 529 109 88 530 103 110 531 107 87 532 109 88 533 110 104 534 11 111 535 111 105 536 11 111 537 103 110 538 111 105 539 114 112 540 113 113 541 6 108 542 114 112 543 6 108 544 104 107 545 112 114 546 114 112 547 104 107 548 112 114 549 104 107 550 11 111 551 116 115 552 119 116 553 114 112 554 116 115 555 114 112 556 112 114 557 118 117 558 113 113 559 119 116 560 119 116 561 113 113 562 114 112 563 115 118 564 112 114 565 11 111 566 115 118 567 11 111 568 110 104 569 110 104 570 125 119 571 115 118 572 125 119 573 110 104 574 97 103 575 124 120 576 115 118 577 125 119 578 115 118 579 124 120 580 117 121 581 117 121 582 116 115 583 112 114 584 117 121 585 112 114 586 115 118 587 138 122 588 136 123 589 116 115 590 138 122 591 116 115 592 117 121 593 136 123 594 137 124 595 119 116 596 136 123 597 119 116 598 116 115 599 137 124 600 135 125 601 118 117 602 137 124 603 118 117 604 119 116 605 121 126 606 7 100 607 120 127 608 7 100 609 121 126 610 94 98 611 123 128 612 120 127 613 122 129 614 120 127 615 123 128 616 121 126 617 124 120 618 121 126 619 123 128 620 121 126 621 124 120 622 125 119 623 125 119 624 94 98 625 121 126 626 94 98 627 125 119 628 97 103 629 131 130 630 122 129 631 130 131 632 122 129 633 131 130 634 123 128 635 131 130 636 124 120 637 123 128 638 124 120 639 131 130 640 129 132 641 129 132 642 138 122 643 117 121 644 129 132 645 117 121 646 124 120 647 33 33 648 127 133 649 1 32 650 1 32 651 127 133 652 126 134 653 33 33 654 128 135 655 127 133 656 128 135 657 33 33 658 38 28 659 131 130 660 126 134 661 127 133 662 126 134 663 131 130 664 130 131 665 38 28 666 139 136 667 128 135 668 139 136 669 38 28 670 26 27 671 128 135 672 138 122 673 129 132 674 138 122 675 128 135 676 139 136 677 129 132 678 127 133 679 128 135 680 127 133 681 129 132 682 131 130 683 134 137 684 22 23 685 0 22 686 0 22 687 132 138 688 134 137 689 132 138 690 135 125 691 134 137 692 134 137 693 135 125 694 137 124 695 134 137 696 137 124 697 133 139 698 133 139 699 137 124 700 136 123 701 9 25 702 134 137 703 133 139 704 134 137 705 9 25 706 22 23 707 139 136 708 136 123 709 138 122 710 136 123 711 139 136 712 133 139 713 26 27 714 133 139 715 139 136 716 133 139 717 26 27 718 9 25 719 95 101 720 140 140 721 7 100 722 7 100 723 140 140 724 120 127 725 95 101 726 141 141 727 140 140 728 141 141 729 95 101 730 100 96 731 120 127 732 143 142 733 122 129 734 143 142 735 120 127 736 140 140 737 100 96 738 147 143 739 141 141 740 147 143 741 100 96 742 90 94 743 146 144 744 142 145 745 147 143 746 142 145 747 141 141 748 147 143 749 142 145 750 143 142 751 140 140 752 142 145 753 140 140 754 141 141 755 154 146 756 153 147 757 142 145 758 153 147 759 143 142 760 142 145 761 143 142 762 153 147 763 130 131 764 130 131 765 122 129 766 143 142 767 144 148 768 88 91 769 5 66 770 144 148 771 5 66 772 63 63 773 145 149 774 63 63 775 68 60 776 63 63 777 145 149 778 144 148 779 146 144 780 144 148 781 145 149 782 144 148 783 146 144 784 147 143 785 147 143 786 88 91 787 144 148 788 88 91 789 147 143 790 90 94 791 151 150 792 68 60 793 58 58 794 68 60 795 151 150 796 145 149 797 146 144 798 151 150 799 150 151 800 151 150 801 146 144 802 145 149 803 154 146 804 146 144 805 150 151 806 146 144 807 154 146 808 142 145 809 41 41 810 148 152 811 3 40 812 148 152 813 56 56 814 3 40 815 149 153 816 41 41 817 46 36 818 41 41 819 149 153 820 148 152 821 56 56 822 151 150 823 58 58 824 151 150 825 56 56 826 148 152 827 149 153 828 35 35 829 155 154 830 35 35 831 149 153 832 46 36 833 150 151 834 155 154 835 154 146 836 155 154 837 150 151 838 149 153 839 149 153 840 150 151 841 148 152 842 148 152 843 150 151 844 151 150 845 126 134 846 152 155 847 1 32 848 1 32 849 152 155 850 32 30 851 126 134 852 153 147 853 152 155 854 153 147 855 126 134 856 130 131 857 155 154 858 152 155 859 154 146 860 152 155 861 153 147 862 154 146 863 32 30 864 155 154 865 35 35 866 155 154 867 32 30 868 152 155 869 0 22 870 24 21 871 156 156 872 0 22 873 156 156 874 132 138 875 24 21 876 157 157 877 156 156 878 157 157 879 24 21 880 30 9 881 132 138 882 159 158 883 135 125 884 159 158 885 132 138 886 156 156 887 30 9 888 163 159 889 157 157 890 163 159 891 30 9 892 16 5 893 157 157 894 162 160 895 158 161 896 162 160 897 157 157 898 163 159 899 157 157 900 158 161 901 156 156 902 156 156 903 158 161 904 159 158 905 159 158 906 170 162 907 169 163 908 170 162 909 159 158 910 158 161 911 135 125 912 169 163 913 118 117 914 169 163 915 135 125 916 159 158 917 12 3 918 2 2 919 160 164 920 2 2 921 49 42 922 160 164 923 49 42 924 161 165 925 160 164 926 161 165 927 49 42 928 54 47 929 163 159 930 160 164 931 162 160 932 160 164 933 161 165 934 162 160 935 12 3 936 163 159 937 16 5 938 163 159 939 12 3 940 160 164 941 54 47 942 167 166 943 161 165 944 167 166 945 54 47 946 74 55 947 162 160 948 167 166 949 166 167 950 167 166 951 162 160 952 161 165 953 162 160 954 166 167 955 158 161 956 158 161 957 166 167 958 170 162 959 164 168 960 70 71 961 4 73 962 4 73 963 81 77 964 164 168 965 165 169 966 81 77 967 86 82 968 81 77 969 165 169 970 164 168 971 70 71 972 167 166 973 74 55 974 167 166 975 70 71 976 164 168 977 171 170 978 165 169 979 106 90 980 165 169 981 86 82 982 106 90 983 170 162 984 165 169 985 171 170 986 165 169 987 170 162 988 166 167 989 166 167 990 167 166 991 164 168 992 166 167 993 164 168 994 165 169 995 113 113 996 168 171 997 6 108 998 6 108 999 168 171 1000 102 109 1001 169 163 1002 113 113 1003 118 117 1004 113 113 1005 169 163 1006 168 171 1007 170 162 1008 168 171 1009 169 163 1010 168 171 1011 170 162 1012 171 170 1013 171 170 1014 102 109 1015 168 171 1016 102 109 1017 171 170 1018 106 90 1019</p>
        </triangles>
      </mesh>
    </geometry>
  </library_geometries>
  <library_controllers/>
  <library_visual_scenes>
    <visual_scene id="Scene" name="Scene">
      <node id="VIS_Alpha_Surface_023" name="VIS_Alpha_Surface_023" type="NODE">
        <instance_geometry url="#Alpha_SurfaceMesh_313-mesh" name="VIS_Alpha_Surface_023">
          <bind_material>
            <technique_common>
              <instance_material symbol="Alpha_Body_MAT_007-material" target="#Alpha_Body_MAT_007-material"/>
            </technique_common>
          </bind_material>
        </instance_geometry>
      </node>
    </visual_scene>
  </library_visual_scenes>
  <scene>
    <instance_visual_scene url="#Scene"/>
  </scene>
</COLLADA>