<?xml version="1.0" encoding="utf-8"?>
<COLLADA xmlns="http://www.collada.org/2005/11/COLLADASchema" version="1.4.1" xmlns:xsi="http://www.w3.org/2001/XMLSchema-instance">
  <asset>
    <contributor>
      <author>Blender User</author>
      <authoring_tool>Blender 2.79.0 commit date:2018-03-22, commit time:14:10, hash:f4dc9f9d68b</authoring_tool>
    </contributor>
    <created>2018-10-09T21:23:55</created>
    <modified>2018-10-09T21:23:55</modified>
    <unit name="meter" meter="1"/>
    <up_axis>Z_UP</up_axis>
  </asset>
  <library_images/>
  <library_effects>
    <effect id="Alpha_Body_MAT_007-effect">
      <profile_COMMON>
        <technique sid="common">
          <phong>
            <emission>
              <color sid="emission">0 0 0 1</color>
            </emission>
            <ambient>
              <color sid="ambient">0 0 0 1</color>
            </ambient>
            <diffuse>
              <color sid="diffuse">0.077256 0.337296 0.4176 1</color>
            </diffuse>
            <specular>
              <color sid="specular">0.239315 0.239315 0.239315 1</color>
            </specular>
            <shininess>
              <float sid="shininess">3</float>
            </shininess>
            <transparent opaque="A_ONE">
              <color>1 1 1 1</color>
            </transparent>
            <index_of_refraction>
              <float sid="index_of_refraction">1</float>
            </index_of_refraction>
          </phong>
        </technique>
      </profile_COMMON>
    </effect>
  </library_effects>
  <library_materials>
    <material id="Alpha_Body_MAT_007-material" name="Alpha_Body_MAT_007">
      <instance_effect url="#Alpha_Body_MAT_007-effect"/>
    </material>
  </library_materials>
  <library_geometries>
    <geometry id="Alpha_SurfaceMesh_317-mesh" name="Alpha_SurfaceMesh.317">
      <mesh>
        <source id="Alpha_SurfaceMesh_317-mesh-positions">
          <float_array id="Alpha_SurfaceMesh_317-mesh-positions-array" count="456">94.41915 142.2999 -2.605427 96.26016 142.7435 -2.788251 94.0605 143.7991 -2.224042 96.15106 143.7909 -2.428037 94.18694 144.1714 -3.850293 96.10604 143.9435 -3.679857 94.45189 142.5269 -4.068996 96.24485 142.8827 -3.793021 93.96634 143.5964 -2.162922 94.3852 143.7791 -2.186374 94.35713 143.5304 -2.080321 93.94478 143.1791 -2.182274 94.3567 143.1645 -2.090599 95.06001 143.1776 -2.132273 94.9914 143.7317 -2.22348 95.01715 143.4951 -2.099155 94.70346 142.3035 -2.600778 94.28302 142.4279 -2.482868 94.62896 142.4713 -2.417987 95.24323 142.3728 -2.63713 95.21068 142.5548 -2.441222 95.13843 142.8457 -2.257553 94.06428 142.7717 -2.291526 94.47003 142.7907 -2.214868 96.29848 142.8832 -2.685795 96.06006 142.6485 -2.764169 96.05364 142.7996 -2.601415 96.31324 143.1162 -2.55088 96.04651 143.0345 -2.447899 95.68155 142.9289 -2.349428 95.73267 142.5095 -2.70459 95.71276 142.6756 -2.517036 95.92911 143.7699 -2.366084 96.21619 143.6492 -2.408038 95.97039 143.5746 -2.293589 95.53932 143.7299 -2.302145 95.59494 143.5116 -2.197549 95.64127 143.2315 -2.222595 96.27855 143.4062 -2.437727 96.02894 143.3192 -2.322833 93.96772 143.9461 -2.451519 94.37518 143.9613 -2.443904 94.96463 143.9019 -2.463679 94.95083 144.0187 -2.809761 93.93202 144.1152 -2.90384 94.38888 144.0987 -2.833074 96.22103 143.8848 -2.583017 95.93799 143.9186 -2.55855 96.28297 143.9791 -2.850991 95.94485 144.024 -2.852037 95.4663 144.0034 -2.832683 95.49356 143.8926 -2.520961 95.88065 143.9545 -3.721559 96.20309 144.0024 -3.48253 95.88098 144.0382 -3.489579 95.47895 143.9578 -3.733244 95.46859 144.0419 -3.482648 95.47012 144.0516 -3.164665 96.29273 144.039 -3.17163 95.9292 144.075 -3.183863 94.08262 144.212 -3.666339 94.5237 144.1093 -3.790921 94.48854 144.1775 -3.543136 93.98007 144.2024 -3.320636 94.42895 144.1734 -3.208392 94.97127 144.0839 -3.163676 95.01002 144.0095 -3.747644 94.99606 144.087 -3.49018 94.11231 143.9899 -3.974141 94.52138 143.9246 -3.968568 95.03577 143.828 -3.928713 95.08963 143.5367 -4.043849 94.1136 143.5879 -4.103549 94.5665 143.5792 -4.090021 96.18164 143.8097 -3.741441 95.93936 143.7906 -3.852493 96.29542 143.5606 -3.788797 96.02483 143.536 -3.927113 95.5869 143.5185 -4.003924 95.51764 143.7838 -3.90223 96.05652 142.8139 -3.858576 96.28516 143.0317 -3.803317 96.04757 142.9961 -3.924252 95.73746 142.7158 -3.934885 95.70864 142.931 -4.024164 95.65862 143.2114 -4.043299 96.3115 143.27 -3.798222 96.04152 143.2449 -3.942535 94.31485 142.7312 -4.140491 94.77856 142.5343 -4.055048 94.72039 142.7963 -4.156406 94.18556 143.1207 -4.169411 94.63729 143.1699 -4.14951 95.17181 143.1898 -4.099532 95.31403 142.5907 -4.021759 95.2669 142.8491 -4.109599 94.37765 142.4025 -3.876323 94.78495 142.3513 -3.853912 95.337 142.4071 -3.83398 95.33147 142.2826 -3.55805 94.34481 142.2938 -3.557087 94.78523 142.2297 -3.555894 96.30386 142.8373 -3.656066 96.08732 142.6996 -3.708975 96.34085 142.7924 -3.429203 96.10984 142.6237 -3.484468 95.78594 142.4581 -3.528507 95.76495 142.5621 -3.767741 96.31908 142.7392 -2.935048 96.08942 142.5869 -2.966746 95.75234 142.4261 -2.93905 95.7835 142.4069 -3.236323 96.34851 142.7565 -3.16925 96.11173 142.5832 -3.220419 94.35292 142.2572 -2.781221 94.70856 142.2083 -2.830725 94.34373 142.2399 -3.173179 94.77085 142.17 -3.200767 95.2986 142.2376 -3.214426 95.25743 142.2728 -2.878348 96.42279 143.0225 -3.617988 96.49765 143.2738 -3.579603 96.58486 143.2612 -3.264175 96.48945 142.9964 -3.358129 96.37471 143.8592 -3.506559 96.50649 143.889 -3.158408 96.59214 143.6021 -3.183126 96.48907 143.5877 -3.539378 96.36865 143.7378 -2.585051 96.4488 143.4864 -2.606815 96.56602 143.5639 -2.851542 96.47417 143.8247 -2.843665 96.4317 142.9262 -2.839139 96.49874 142.9592 -3.074909 96.56896 143.2263 -2.944945 96.48342 143.1754 -2.703643 94.08848 142.4089 -2.684461 93.79891 142.785 -2.513825 93.69522 142.8719 -3.05391 93.99424 142.4484 -3.125728 93.73753 143.7302 -2.410393 93.63925 143.9142 -2.946641 93.53582 143.3548 -2.997186 93.66093 143.2277 -2.405575 93.86221 144.016 -3.80165 93.78135 143.5493 -3.961655 93.60111 143.4505 -3.506361 93.69081 144.0048 -3.411662 94.08554 142.6072 -3.934043 94.01091 142.5133 -3.562247 93.75704 142.944 -3.549623 93.90267 143.0296 -3.963769</float_array>
          <technique_common>
            <accessor source="#Alpha_SurfaceMesh_317-mesh-positions-array" count="152" stride="3">
              <param name="X" type="float"/>
              <param name="Y" type="float"/>
              <param name="Z" type="float"/>
            </accessor>
          </technique_common>
        </source>
        <source id="Alpha_SurfaceMesh_317-mesh-normals">
          <float_array id="Alpha_SurfaceMesh_317-mesh-normals-array" count="456">0.02511703 0.6219452 0.7826579 -0.237041 0.6117838 0.7546737 -0.06070178 0.1764899 0.982429 -0.4258044 0.2012133 0.8821587 -0.4460129 -0.188153 0.8750264 -0.08880984 -0.1811293 0.9794412 0.09265655 0.6503662 0.7539487 0.1023319 0.1943176 0.9755864 -0.383292 -0.4887668 0.7837054 -0.02939039 -0.4330739 0.9008792 0.1196054 -0.2045409 0.9715234 0.1523812 -0.417469 0.8958234 0.1751511 0.1875115 0.9665204 0.2370114 -0.2049968 0.9496326 0.08746749 0.6435241 0.7604119 0.03497523 -0.6262277 0.7788553 -0.2796194 -0.7066174 0.6500037 -0.1777408 -0.8574834 0.482836 0.07608366 -0.8347533 0.5453425 0.1908987 -0.60172 0.7755584 0.2157419 -0.8138009 0.5396142 0.3216385 -0.5937753 0.7375498 0.3573473 -0.7886727 0.5002984 0.2830969 -0.4273921 0.8585991 0.4015449 -0.5730949 0.7143697 0.5589872 -0.6980321 0.4475316 0.5870763 -0.5111739 0.6277284 0.4203124 -0.7685686 0.4823277 0.3857293 -0.4190255 0.8219676 0.5789895 -0.3414851 0.7403777 0.3686403 -0.1874483 0.9104765 0.5847464 -0.0867964 0.8065595 0.2846503 0.1616894 0.9448974 0.3437713 0.5719653 0.7447665 0.1175292 0.6085822 0.7847387 0.5293173 0.1930311 0.8261733 0.03534096 0.8902692 0.4540614 -0.3301281 0.8245115 0.4595608 0.08444553 0.8880978 0.4518312 0.05395752 0.9604932 0.2730228 -0.3190209 0.9120463 0.2576766 0.03009194 0.8840809 0.4663643 0.08517861 0.962143 0.2588929 0.009552478 0.9695972 0.2445204 0.08816862 0.9887769 0.1206101 0.1069383 0.9889351 0.1028182 -0.2845337 0.957276 0.0516085 0.05911642 0.8798186 0.4716191 0.398396 0.7811358 0.4807365 0.04477167 0.9674587 0.2490367 0.390213 0.874027 0.289501 0.3763366 0.926238 -0.02130264 0.02847421 0.9995591 0.008423209 0.02243143 0.9982144 0.05536139 0.04754918 0.9738732 -0.2220589 0.3613805 0.8735575 -0.326039 0.3442562 0.7548305 -0.5583177 0.08777242 0.8191893 -0.5667672 0.05536127 0.9836246 -0.1715162 0.06607365 0.8451941 -0.5303598 0.1402662 0.9817418 -0.1284858 0.1584551 0.8500789 -0.5022528 -0.2323708 0.9549055 -0.1848223 0.1503354 0.9849932 -0.08478111 -0.05533111 0.8328965 -0.550656 0.2246531 0.8463633 -0.4829081 0.1425843 0.504325 -0.8516608 -0.2326154 0.444539 -0.865029 0.1250362 0.5490364 -0.8263928 0.07358157 0.2529425 -0.9646791 0.09357088 0.2772946 -0.9562177 -0.2059128 0.2217523 -0.9531139 0.08405071 0.5389135 -0.8381573 0.1175003 0.2628955 -0.9576427 0.09299272 0.1125252 -0.9892879 0.1860125 0.06180071 -0.9806019 0.0535615 0.08328741 -0.9950852 -0.2579503 -0.04983824 -0.964872 0.5022561 0.4851043 -0.7158302 0.202373 0.4897726 -0.8480377 0.3141657 0.2135435 -0.9250401 0.6102916 0.2317625 -0.757516 0.6365997 -0.002807736 -0.7711893 0.362106 0.007568657 -0.9321063 0.3982132 -0.4996587 -0.7692644 0.3711461 -0.1628819 -0.9141772 0.5964737 -0.4348423 -0.6746342 0.6463305 -0.1372438 -0.7506138 0.2623699 -0.1798166 -0.9480655 0.3204798 -0.5028917 -0.8027407 0.1469796 -0.1381291 -0.9794474 0.2071651 -0.5079942 -0.8360769 0.08350014 -0.556729 -0.826487 -0.2042339 -0.6020201 -0.77192 0.04940962 -0.1535087 -0.9869113 -0.2598727 -0.3148686 -0.9128658 0.02948123 -0.854133 -0.5192184 -0.2967051 -0.8263308 -0.4786896 0.2313653 -0.8021948 -0.5504122 -0.008972525 -0.9640905 -0.2654225 -0.3474367 -0.9086643 -0.2315533 0.3762378 -0.7589457 -0.5314573 0.2246806 -0.9386414 -0.2616696 0.4083198 -0.8714525 -0.2717452 0.2197979 -0.9755399 0.003296017 -0.009460806 -0.9995233 -0.02938961 -0.3437325 -0.9381459 -0.041597 0.711748 -0.5994052 -0.3662354 0.4805581 -0.7469618 -0.4594692 0.5341784 -0.8159017 -0.2212646 0.7293888 -0.6584612 -0.1855288 0.5363073 -0.8430521 -0.04046791 0.7093844 -0.7037079 -0.03961366 0.4034337 -0.9146003 -0.02734518 0.4861709 -0.8564604 0.1735321 0.6724845 -0.7236647 0.1551582 0.3753872 -0.9002274 0.2206239 0.2186698 -0.9419438 0.2548046 0.01370286 -0.9744 0.2244037 -0.3021408 -0.9360262 0.1804605 0.8539798 -0.2992378 -0.4256471 0.8884795 -0.05902439 -0.4551047 0.8959488 -0.4064531 -0.179086 0.8609248 0.2416229 -0.4476906 0.9801453 0.1741714 -0.09476119 0.9837496 -0.1250363 -0.1288512 0.9706247 -0.1740801 0.1660841 0.8938165 -0.4460995 0.04568725 0.6955389 0.5605208 -0.4494909 0.8089176 0.5851186 -0.05734598 0.7791553 0.5420821 0.3147445 0.9518001 0.1392282 0.2732988 0.7157967 0.4102082 0.5651235 0.8090909 0.04980707 0.5855693 0.8394638 -0.240309 0.4873932 0.818022 -0.4737893 0.3261345 -0.577881 -0.7667033 0.2796779 -0.7655425 -0.5118672 0.3897906 -0.6863782 -0.7268162 -0.02496474 -0.8612818 -0.1333383 0.4903211 -0.8978132 -0.4397813 -0.02288937 -0.9974107 -0.06592029 0.02874857 -0.7003887 -0.6781401 -0.2226692 -0.8918855 -0.3668681 -0.2644771 -0.7660731 0.4042324 0.4997283 -0.844061 0.5132362 0.1554022 -0.8245543 0.5458777 -0.1487537 -0.9671285 -0.02121096 -0.2534024 -0.6655786 0.5344955 -0.5208836 -0.7393542 0.1112419 -0.6640638 -0.7415116 -0.260202 -0.6184299 -0.6076146 -0.5674813 -0.5556702</float_array>
          <technique_common>
            <accessor source="#Alpha_SurfaceMesh_317-mesh-normals-array" count="152" stride="3">
              <param name="X" type="float"/>
              <param name="Y" type="float"/>
              <param name="Z" type="float"/>
            </accessor>
          </technique_common>
        </source>
        <source id="Alpha_SurfaceMesh_317-mesh-map-0">
          <float_array id="Alpha_SurfaceMesh_317-mesh-map-0-array" count="1800">0.66504 0.01302897 0.663998 0.01232898 0.665886 0.01188498 0.663998 0.01232898 0.664234 0.01134794 0.665886 0.01188498 0.664234 0.01134794 0.664862 0.009089946 0.665886 0.01188498 0.665886 0.01188498 0.664862 0.009089946 0.667117 0.009970963 0.665886 0.01188498 0.666926 0.01502698 0.66504 0.01302897 0.666926 0.01502698 0.665886 0.01188498 0.668303 0.01412296 0.664862 0.009089946 0.666246 0.005686998 0.667117 0.009970963 0.667117 0.009970963 0.666246 0.005686998 0.669506 0.00732696 0.667117 0.009970963 0.669506 0.00732696 0.67038 0.01290595 0.67038 0.01290595 0.669506 0.00732696 0.673365 0.01158797 0.667117 0.009970963 0.668303 0.01412296 0.665886 0.01188498 0.668303 0.01412296 0.667117 0.009970963 0.67038 0.01290595 0.67038 0.01290595 0.669796 0.017039 0.668303 0.01412296 0.669796 0.017039 0.67038 0.01290595 0.671905 0.01662194 0.668303 0.01412296 0.668259 0.01750296 0.666926 0.01502698 0.668259 0.01750296 0.668303 0.01412296 0.669796 0.017039 0.01281398 0.06997597 0.01408499 0.06843 0.014741 0.06958198 0.014741 0.06958198 0.01420599 0.070899 0.01281398 0.06997597 0.01420599 0.070899 0.01170498 0.07311999 0.01281398 0.06997597 0.01170498 0.07311999 0.01420599 0.070899 0.01341396 0.073587 0.009165942 0.07230299 0.01060497 0.06784296 0.01281398 0.06997597 0.01281398 0.06997597 0.01170498 0.07311999 0.009165942 0.07230299 0.01255398 0.06557101 0.01408499 0.06843 0.01060497 0.06784296 0.01408499 0.06843 0.01281398 0.06997597 0.01060497 0.06784296 0.01341396 0.073587 0.01130199 0.076168 0.01170498 0.07311999 0.01130199 0.076168 0.01341396 0.073587 0.01297897 0.07629197 0.009165942 0.07230299 0.01130199 0.076168 0.008928 0.076168 0.01130199 0.076168 0.009165942 0.07230299 0.01170498 0.07311999 0.673365 0.01158797 0.671905 0.01662194 0.67038 0.01290595 0.671905 0.01662194 0.673365 0.01158797 0.675191 0.01619696 0.01127696 0.07844001 0.01268196 0.079544 0.01164096 0.08007699 0.01127696 0.07844001 0.01279896 0.07829797 0.01268196 0.079544 0.009204983 0.07893395 0.01164096 0.08007699 0.009770989 0.08096897 0.01164096 0.08007699 0.009204983 0.07893395 0.01127696 0.07844001 0.01127696 0.07844001 0.01297897 0.07629197 0.01279896 0.07829797 0.01297897 0.07629197 0.01127696 0.07844001 0.01130199 0.076168 0.671899 0.01942396 0.673846 0.02242499 0.671295 0.021254 0.673846 0.02242499 0.671899 0.01942396 0.674795 0.01985895 0.671905 0.01662194 0.674795 0.01985895 0.671899 0.01942396 0.674795 0.01985895 0.671905 0.01662194 0.675191 0.01619696 0.008928 0.076168 0.01127696 0.07844001 0.009204983 0.07893395 0.01127696 0.07844001 0.008928 0.076168 0.01130199 0.076168 0.670033 0.01923894 0.668866 0.02051895 0.66875 0.01943796 0.668866 0.02051895 0.670033 0.01923894 0.66971 0.02072495 0.669796 0.017039 0.66875 0.01943796 0.668259 0.01750296 0.66875 0.01943796 0.669796 0.017039 0.670033 0.01923894 0.671905 0.01662194 0.670033 0.01923894 0.669796 0.017039 0.670033 0.01923894 0.671905 0.01662194 0.671899 0.01942396 0.670033 0.01923894 0.671295 0.021254 0.66971 0.02072495 0.671295 0.021254 0.670033 0.01923894 0.671899 0.01942396 0.66504 0.01302897 0.663911 0.01401597 0.663998 0.01232898 0.663998 0.01232898 0.663911 0.01401597 0.662924 0.01286995 0.66504 0.01302897 0.665535 0.01593697 0.663911 0.01401597 0.665535 0.01593697 0.66504 0.01302897 0.666926 0.01502698 0.663911 0.01401597 0.662422 0.01517599 0.662924 0.01286995 0.662924 0.01286995 0.662422 0.01517599 0.661218 0.01396 0.666926 0.01502698 0.666745 0.01815497 0.665535 0.01593697 0.666745 0.01815497 0.666926 0.01502698 0.668259 0.01750296 0.666745 0.01815497 0.663929 0.01703399 0.665535 0.01593697 0.663929 0.01703399 0.666745 0.01815497 0.665109 0.01903498 0.663929 0.01703399 0.663911 0.01401597 0.665535 0.01593697 0.663911 0.01401597 0.663929 0.01703399 0.662422 0.01517599 0.663929 0.01703399 0.661021 0.01621794 0.662422 0.01517599 0.661021 0.01621794 0.663929 0.01703399 0.66237 0.01809996 0.662422 0.01517599 0.661021 0.01621794 0.661218 0.01396 0.661218 0.01396 0.661021 0.01621794 0.659817 0.01502597 0.66875 0.01943796 0.668866 0.02051895 0.667564 0.020069 0.668866 0.02051895 0.668146 0.02121394 0.667564 0.020069 0.668146 0.02121394 0.666153 0.02094197 0.667564 0.020069 0.666153 0.02094197 0.668146 0.02121394 0.667007 0.02218699 0.666745 0.01815497 0.667564 0.020069 0.665109 0.01903498 0.667564 0.020069 0.666153 0.02094197 0.665109 0.01903498 0.66875 0.01943796 0.666745 0.01815497 0.668259 0.01750296 0.666745 0.01815497 0.66875 0.01943796 0.667564 0.020069 0.667007 0.02218699 0.665615 0.02311295 0.666153 0.02094197 0.666153 0.02094197 0.665615 0.02311295 0.664636 0.02185696 0.666153 0.02094197 0.663559 0.02005195 0.665109 0.01903498 0.663559 0.02005195 0.666153 0.02094197 0.664636 0.02185696 0.665109 0.01903498 0.66237 0.01809996 0.663929 0.01703399 0.66237 0.01809996 0.665109 0.01903498 0.663559 0.02005195 0.663156 0.02266496 0.664099 0.02383595 0.662952 0.02425599 0.663156 0.02266496 0.662952 0.02425599 0.662075 0.02356499 0.662041 0.02102696 0.663156 0.02266496 0.660724 0.02197796 0.663156 0.02266496 0.662075 0.02356499 0.660724 0.02197796 0.664636 0.02185696 0.665615 0.02311295 0.664099 0.02383595 0.664636 0.02185696 0.664099 0.02383595 0.663156 0.02266496 0.660875 0.01904797 0.662041 0.02102696 0.659522 0.01981699 0.662041 0.02102696 0.660724 0.02197796 0.659522 0.01981699 0.66237 0.01809996 0.663559 0.02005195 0.660875 0.01904797 0.663559 0.02005195 0.662041 0.02102696 0.660875 0.01904797 0.663559 0.02005195 0.664636 0.02185696 0.663156 0.02266496 0.663559 0.02005195 0.663156 0.02266496 0.662041 0.02102696 0.65876 0.01594597 0.659757 0.01710695 0.658205 0.01651698 0.658205 0.01651698 0.659757 0.01710695 0.658667 0.01767498 0.659757 0.01710695 0.659817 0.01502597 0.661021 0.01621794 0.659817 0.01502597 0.659757 0.01710695 0.65876 0.01594597 0.66237 0.01809996 0.659757 0.01710695 0.661021 0.01621794 0.659757 0.01710695 0.66237 0.01809996 0.660875 0.01904797 0.660875 0.01904797 0.658667 0.01767498 0.659757 0.01710695 0.658667 0.01767498 0.660875 0.01904797 0.659522 0.01981699 0.657424 0.01813596 0.657291 0.01644998 0.658205 0.01651698 0.657424 0.01813596 0.658205 0.01651698 0.658667 0.01767498 0.658667 0.01767498 0.659522 0.01981699 0.657424 0.01813596 0.658156 0.02071696 0.657424 0.01813596 0.659522 0.01981699 0.655308 0.01897197 0.658156 0.02071696 0.656323 0.02213299 0.658156 0.02071696 0.655308 0.01897197 0.657424 0.01813596 0.655127 0.01645499 0.657424 0.01813596 0.655308 0.01897197 0.657424 0.01813596 0.655127 0.01645499 0.657291 0.01644998 0.660724 0.02197796 0.658156 0.02071696 0.659522 0.01981699 0.658156 0.02071696 0.660724 0.02197796 0.659593 0.02313297 0.656323 0.02213299 0.659593 0.02313297 0.658208 0.02491796 0.659593 0.02313297 0.656323 0.02213299 0.658156 0.02071696 0.653857 0.02422899 0.658208 0.02491796 0.656538 0.027345 0.658208 0.02491796 0.653857 0.02422899 0.656323 0.02213299 0.651949 0.02019798 0.656323 0.02213299 0.653857 0.02422899 0.656323 0.02213299 0.651949 0.02019798 0.655308 0.01897197 0.651294 0.01645898 0.655308 0.01897197 0.651949 0.02019798 0.655308 0.01897197 0.651294 0.01645898 0.655127 0.01645499 0.662806 0.02520096 0.661356 0.02475595 0.662952 0.02425599 0.662952 0.02425599 0.661356 0.02475595 0.662075 0.02356499 0.660715 0.02664798 0.662806 0.02520096 0.662739 0.02712899 0.662806 0.02520096 0.660715 0.02664798 0.661356 0.02475595 0.659593 0.02313297 0.662075 0.02356499 0.661356 0.02475595 0.662075 0.02356499 0.659593 0.02313297 0.660724 0.02197796 0.662359 0.02982997 0.65956 0.029145 0.660715 0.02664798 0.662359 0.02982997 0.660715 0.02664798 0.662739 0.02712899 0.656538 0.027345 0.660715 0.02664798 0.65956 0.029145 0.660715 0.02664798 0.656538 0.027345 0.658208 0.02491796 0.658208 0.02491796 0.661356 0.02475595 0.660715 0.02664798 0.661356 0.02475595 0.658208 0.02491796 0.659593 0.02313297 0.019611 0.08041399 0.02054297 0.08131998 0.01895898 0.08134198 0.01895898 0.08134198 0.02054297 0.08131998 0.01924395 0.08229196 0.019611 0.08041399 0.02186995 0.079647 0.02054297 0.08131998 0.02186995 0.079647 0.019611 0.08041399 0.02054697 0.07881295 0.02054297 0.08131998 0.02186995 0.079647 0.02364695 0.08091497 0.02054297 0.08131998 0.02364695 0.08091497 0.02165395 0.08285999 0.02054297 0.08131998 0.02165395 0.08285999 0.01924395 0.08229196 0.01924395 0.08229196 0.02165395 0.08285999 0.01974797 0.08401399 0.02054697 0.07881295 0.02309399 0.07727098 0.02186995 0.079647 0.02309399 0.07727098 0.02054697 0.07881295 0.02146899 0.076635 0.02309399 0.07727098 0.02364695 0.08091497 0.02186995 0.079647 0.02364695 0.08091497 0.02309399 0.07727098 0.02567297 0.07816797 0.02237796 0.07414895 0.02282696 0.07267898 0.02414798 0.07440495 0.02282696 0.07267898 0.02415496 0.07222598 0.02414798 0.07440495 0.02415496 0.07222598 0.02690994 0.07459795 0.02414798 0.07440495 0.02690994 0.07459795 0.02415496 0.07222598 0.02704399 0.07148998 0.02146899 0.076635 0.02237796 0.07414895 0.02309399 0.07727098 0.02237796 0.07414895 0.02414798 0.07440495 0.02309399 0.07727098 0.02309399 0.07727098 0.02414798 0.07440495 0.02567297 0.07816797 0.02414798 0.07440495 0.02690994 0.07459795 0.02567297 0.07816797 0.02091598 0.07368898 0.02173197 0.07198399 0.02282696 0.07267898 0.02091598 0.07368898 0.02282696 0.07267898 0.02237796 0.07414895 0.02237796 0.07414895 0.02146899 0.076635 0.02091598 0.07368898 0.02004694 0.07610595 0.02091598 0.07368898 0.02146899 0.076635 0.01926195 0.07309299 0.02004694 0.07116097 0.02173197 0.07198399 0.01926195 0.07309299 0.02173197 0.07198399 0.02091598 0.07368898 0.01925694 0.07823395 0.02146899 0.076635 0.02054697 0.07881295 0.02146899 0.076635 0.01925694 0.07823395 0.02004694 0.07610595 0.02004694 0.07610595 0.01925694 0.07823395 0.01849895 0.075486 0.01780796 0.07773298 0.01849895 0.075486 0.01925694 0.07823395 0.01926195 0.07309299 0.02004694 0.07610595 0.01849895 0.075486 0.02004694 0.07610595 0.01926195 0.07309299 0.02091598 0.07368898 0.01673895 0.07474297 0.01926195 0.07309299 0.01849895 0.075486 0.01926195 0.07309299 0.01673895 0.07474297 0.01744198 0.07238 0.01744198 0.07238 0.01799297 0.07040297 0.02004694 0.07116097 0.01744198 0.07238 0.02004694 0.07116097 0.01926195 0.07309299 0.01801794 0.08125299 0.01854097 0.07993996 0.01895898 0.08134198 0.01895898 0.08134198 0.01854097 0.07993996 0.019611 0.08041399 0.01716899 0.07950997 0.01801794 0.08125299 0.01657396 0.08100599 0.01801794 0.08125299 0.01716899 0.07950997 0.01854097 0.07993996 0.01780796 0.07773298 0.01854097 0.07993996 0.01716899 0.07950997 0.01854097 0.07993996 0.01780796 0.07773298 0.01925694 0.07823395 0.01925694 0.07823395 0.019611 0.08041399 0.01854097 0.07993996 0.019611 0.08041399 0.01925694 0.07823395 0.02054697 0.07881295 0.015625 0.07903999 0.01657396 0.08100599 0.01496297 0.08057397 0.01657396 0.08100599 0.015625 0.07903999 0.01716899 0.07950997 0.015625 0.07903999 0.01616597 0.07719099 0.01716899 0.07950997 0.01616597 0.07719099 0.01780796 0.07773298 0.01716899 0.07950997 0.01616597 0.07719099 0.01673895 0.07474297 0.01849895 0.075486 0.01616597 0.07719099 0.01849895 0.075486 0.01780796 0.07773298 0.01279896 0.07829797 0.014126 0.07857596 0.01268196 0.079544 0.01268196 0.079544 0.014126 0.07857596 0.01355999 0.080006 0.01279896 0.07829797 0.01449894 0.07661998 0.014126 0.07857596 0.01449894 0.07661998 0.01279896 0.07829797 0.01297897 0.07629197 0.014126 0.07857596 0.01496297 0.08057397 0.01355999 0.080006 0.01496297 0.08057397 0.014126 0.07857596 0.015625 0.07903999 0.01297897 0.07629197 0.01494795 0.07402396 0.01449894 0.07661998 0.01494795 0.07402396 0.01297897 0.07629197 0.01341396 0.073587 0.01449894 0.07661998 0.01673895 0.07474297 0.01616597 0.07719099 0.01673895 0.07474297 0.01449894 0.07661998 0.01494795 0.07402396 0.01449894 0.07661998 0.01616597 0.07719099 0.014126 0.07857596 0.014126 0.07857596 0.01616597 0.07719099 0.015625 0.07903999 0.01420599 0.070899 0.014741 0.06958198 0.01556295 0.07141697 0.014741 0.06958198 0.01584994 0.06967896 0.01556295 0.07141697 0.01584994 0.06967896 0.01799297 0.07040297 0.01556295 0.07141697 0.01556295 0.07141697 0.01799297 0.07040297 0.01744198 0.07238 0.01494795 0.07402396 0.01744198 0.07238 0.01673895 0.07474297 0.01744198 0.07238 0.01494795 0.07402396 0.01556295 0.07141697 0.01341396 0.073587 0.01420599 0.070899 0.01556295 0.07141697 0.01341396 0.073587 0.01556295 0.07141697 0.01494795 0.07402396 0.01778399 0.08264398 0.01801794 0.08125299 0.01895898 0.08134198 0.01778399 0.08264398 0.01895898 0.08134198 0.01924395 0.08229196 0.01763397 0.08456397 0.01778399 0.08264398 0.01974797 0.08401399 0.01778399 0.08264398 0.01924395 0.08229196 0.01974797 0.08401399 0.01591598 0.08250695 0.01657396 0.08100599 0.01778399 0.08264398 0.01657396 0.08100599 0.01801794 0.08125299 0.01778399 0.08264398 0.664993 0.026838 0.665281 0.02982997 0.662739 0.02712899 0.665281 0.02982997 0.662359 0.02982997 0.662739 0.02712899 0.667351 0.02565896 0.668683 0.028665 0.664993 0.026838 0.668683 0.028665 0.665281 0.02982997 0.664993 0.026838 0.01591598 0.08250695 0.01763397 0.08456397 0.01502698 0.08456397 0.01763397 0.08456397 0.01591598 0.08250695 0.01778399 0.08264398 0.01247894 0.08370298 0.01400297 0.081968 0.01502698 0.08456397 0.01400297 0.081968 0.01591598 0.08250695 0.01502698 0.08456397 0.01496297 0.08057397 0.01657396 0.08100599 0.01591598 0.08250695 0.01496297 0.08057397 0.01591598 0.08250695 0.01400297 0.081968 0.662806 0.02520096 0.664099 0.02383595 0.66454 0.02495795 0.664099 0.02383595 0.662806 0.02520096 0.662952 0.02425599 0.666419 0.02406197 0.66454 0.02495795 0.665615 0.02311295 0.66454 0.02495795 0.664099 0.02383595 0.665615 0.02311295 0.667351 0.02565896 0.66454 0.02495795 0.666419 0.02406197 0.66454 0.02495795 0.667351 0.02565896 0.664993 0.026838 0.664993 0.026838 0.662806 0.02520096 0.66454 0.02495795 0.662806 0.02520096 0.664993 0.026838 0.662739 0.02712899 0.667853 0.02304196 0.665615 0.02311295 0.667007 0.02218699 0.665615 0.02311295 0.667853 0.02304196 0.666419 0.02406197 0.667351 0.02565896 0.667853 0.02304196 0.669195 0.02420496 0.667853 0.02304196 0.667351 0.02565896 0.666419 0.02406197 0.671116 0.02642798 0.667351 0.02565896 0.669195 0.02420496 0.667351 0.02565896 0.671116 0.02642798 0.668683 0.028665 0.66971 0.02072495 0.668985 0.02190297 0.668866 0.02051895 0.668866 0.02051895 0.668985 0.02190297 0.668146 0.02121394 0.66971 0.02072495 0.670447 0.02271598 0.668985 0.02190297 0.670447 0.02271598 0.66971 0.02072495 0.671295 0.021254 0.668985 0.02190297 0.667007 0.02218699 0.668146 0.02121394 0.667007 0.02218699 0.668985 0.02190297 0.667853 0.02304196 0.672774 0.02438795 0.671295 0.021254 0.673846 0.02242499 0.671295 0.021254 0.672774 0.02438795 0.670447 0.02271598 0.669195 0.02420496 0.672774 0.02438795 0.671116 0.02642798 0.672774 0.02438795 0.669195 0.02420496 0.670447 0.02271598 0.669195 0.02420496 0.668985 0.02190297 0.670447 0.02271598 0.668985 0.02190297 0.669195 0.02420496 0.667853 0.02304196 0.01355999 0.080006 0.01251494 0.08114397 0.01268196 0.079544 0.01268196 0.079544 0.01251494 0.08114397 0.01164096 0.08007699 0.01355999 0.080006 0.01400297 0.081968 0.01251494 0.08114397 0.01400297 0.081968 0.01355999 0.080006 0.01496297 0.08057397 0.01400297 0.081968 0.01247894 0.08370298 0.01251494 0.08114397 0.01251494 0.08114397 0.01247894 0.08370298 0.01078099 0.08243197 0.01164096 0.08007699 0.01078099 0.08243197 0.009770989 0.08096897 0.01078099 0.08243197 0.01164096 0.08007699 0.01251494 0.08114397 0.01408499 0.06843 0.01584994 0.06967896 0.014741 0.06958198 0.01584994 0.06967896 0.01408499 0.06843 0.01571595 0.06789296 0.01408499 0.06843 0.01255398 0.06557101 0.01571595 0.06789296 0.01571595 0.06789296 0.01255398 0.06557101 0.01491695 0.064471 0.01584994 0.06967896 0.01856499 0.06828999 0.01799297 0.07040297 0.01856499 0.06828999 0.01584994 0.06967896 0.01571595 0.06789296 0.66282 0.008999943 0.663074 0.005023956 0.664862 0.009089946 0.663074 0.005023956 0.666246 0.005686998 0.664862 0.009089946 0.66282 0.008999943 0.657357 0.005940973 0.663074 0.005023956 0.657357 0.005940973 0.66282 0.008999943 0.65928 0.01009696 0.01491695 0.064471 0.01954799 0.06463497 0.01571595 0.06789296 0.01571595 0.06789296 0.01954799 0.06463497 0.01856499 0.06828999 0.01954799 0.06463497 0.02114397 0.06936097 0.01856499 0.06828999 0.02114397 0.06936097 0.01954799 0.06463497 0.02327799 0.06657099 0.01799297 0.07040297 0.02114397 0.06936097 0.02004694 0.07116097 0.02114397 0.06936097 0.01799297 0.07040297 0.01856499 0.06828999 0.664234 0.01134794 0.663998 0.01232898 0.662672 0.01160097 0.663998 0.01232898 0.662924 0.01286995 0.662672 0.01160097 0.661218 0.01396 0.662672 0.01160097 0.662924 0.01286995 0.662672 0.01160097 0.661218 0.01396 0.660468 0.01280498 0.66282 0.008999943 0.662672 0.01160097 0.65928 0.01009696 0.662672 0.01160097 0.660468 0.01280498 0.65928 0.01009696 0.664234 0.01134794 0.66282 0.008999943 0.664862 0.009089946 0.66282 0.008999943 0.664234 0.01134794 0.662672 0.01160097 0.661218 0.01396 0.659817 0.01502597 0.660468 0.01280498 0.660468 0.01280498 0.659817 0.01502597 0.658889 0.01409095 0.660468 0.01280498 0.656728 0.01206099 0.65928 0.01009696 0.656728 0.01206099 0.660468 0.01280498 0.658889 0.01409095 0.65928 0.01009696 0.653548 0.00941199 0.657357 0.005940973 0.653548 0.00941199 0.65928 0.01009696 0.656728 0.01206099 0.657291 0.01644998 0.657715 0.01533395 0.658205 0.01651698 0.658205 0.01651698 0.657715 0.01533395 0.65876 0.01594597 0.655127 0.01645499 0.655438 0.01463395 0.657715 0.01533395 0.655127 0.01645499 0.657715 0.01533395 0.657291 0.01644998 0.658889 0.01409095 0.65876 0.01594597 0.657715 0.01533395 0.65876 0.01594597 0.658889 0.01409095 0.659817 0.01502597 0.655438 0.01463395 0.651294 0.01645898 0.651527 0.01322394 0.651294 0.01645898 0.655438 0.01463395 0.655127 0.01645499 0.653548 0.00941199 0.656728 0.01206099 0.651527 0.01322394 0.656728 0.01206099 0.655438 0.01463395 0.651527 0.01322394 0.656728 0.01206099 0.658889 0.01409095 0.657715 0.01533395 0.656728 0.01206099 0.657715 0.01533395 0.655438 0.01463395 0.02415496 0.07222598 0.02173197 0.07198399 0.02309995 0.070674 0.02173197 0.07198399 0.02415496 0.07222598 0.02282696 0.07267898 0.02004694 0.07116097 0.02114397 0.06936097 0.02309995 0.070674 0.02004694 0.07116097 0.02309995 0.070674 0.02173197 0.07198399 0.02327799 0.06657099 0.02309995 0.070674 0.02114397 0.06936097 0.02309995 0.070674 0.02327799 0.06657099 0.02582895 0.06913399 0.02415496 0.07222598 0.02582895 0.06913399 0.02704399 0.07148998 0.02582895 0.06913399 0.02415496 0.07222598 0.02309995 0.070674</float_array>
          <technique_common>
            <accessor source="#Alpha_SurfaceMesh_317-mesh-map-0-array" count="900" stride="2">
              <param name="S" type="float"/>
              <param name="T" type="float"/>
            </accessor>
          </technique_common>
        </source>
        <vertices id="Alpha_SurfaceMesh_317-mesh-vertices">
          <input semantic="POSITION" source="#Alpha_SurfaceMesh_317-mesh-positions"/>
        </vertices>
        <triangles material="Alpha_Body_MAT_007-material" count="300">
          <input semantic="VERTEX" source="#Alpha_SurfaceMesh_317-mesh-vertices" offset="0"/>
          <input semantic="NORMAL" source="#Alpha_SurfaceMesh_317-mesh-normals" offset="1"/>
          <input semantic="TEXCOORD" source="#Alpha_SurfaceMesh_317-mesh-map-0" offset="2" set="0"/>
          <p>9 0 0 2 1 1 10 2 2 2 1 3 8 3 4 10 2 5 8 3 6 11 4 7 10 2 8 10 2 9 11 4 10 12 5 11 10 2 12 14 6 13 9 0 14 14 6 15 10 2 16 15 7 17 11 4 18 22 8 19 12 5 20 12 5 21 22 8 22 23 9 23 12 5 24 23 9 25 13 10 26 13 10 27 23 9 28 21 11 29 12 5 30 15 7 31 10 2 32 15 7 33 12 5 34 13 10 35 13 10 36 36 12 37 15 7 38 36 12 39 13 10 40 37 13 41 15 7 42 35 14 43 14 6 44 35 14 45 15 7 46 36 12 47 18 15 48 17 16 49 0 17 50 0 17 51 16 18 52 18 15 53 16 18 54 20 19 55 18 15 56 20 19 57 16 18 58 19 20 59 21 11 60 23 9 61 18 15 62 18 15 63 20 19 64 21 11 65 22 8 66 17 16 67 23 9 68 17 16 69 18 15 70 23 9 71 19 20 72 31 21 73 20 19 74 31 21 75 19 20 76 30 22 77 21 11 78 31 21 79 29 23 80 31 21 81 21 11 82 20 19 83 21 11 84 37 13 85 13 10 86 37 13 87 21 11 88 29 23 89 26 24 90 1 25 91 24 26 92 26 24 93 25 27 94 1 25 95 28 28 96 24 26 97 27 29 98 24 26 99 28 28 100 26 24 101 26 24 102 30 22 103 25 27 104 30 22 105 26 24 106 31 21 107 39 30 108 27 29 109 38 31 110 27 29 111 39 30 112 28 28 113 37 13 114 28 28 115 39 30 116 28 28 117 37 13 118 29 23 119 29 23 120 26 24 121 28 28 122 26 24 123 29 23 124 31 21 125 34 32 126 3 33 127 32 34 128 3 33 129 34 32 130 33 35 131 36 12 132 32 34 133 35 14 134 32 34 135 36 12 136 34 32 137 37 13 138 34 32 139 36 12 140 34 32 141 37 13 142 39 30 143 34 32 144 38 31 145 33 35 146 38 31 147 34 32 148 39 30 149 9 0 150 41 36 151 2 1 152 2 1 153 41 36 154 40 37 155 9 0 156 42 38 157 41 36 158 42 38 159 9 0 160 14 6 161 41 36 162 45 39 163 40 37 164 40 37 165 45 39 166 44 40 167 14 6 168 51 41 169 42 38 170 51 41 171 14 6 172 35 14 173 51 41 174 43 42 175 42 38 176 43 42 177 51 41 178 50 43 179 43 42 180 41 36 181 42 38 182 41 36 183 43 42 184 45 39 185 43 42 186 64 44 187 45 39 188 64 44 189 43 42 190 65 45 191 45 39 192 64 44 193 44 40 194 44 40 195 64 44 196 63 46 197 32 34 198 3 33 199 47 47 200 3 33 201 46 48 202 47 47 203 46 48 204 49 49 205 47 47 206 49 49 207 46 48 208 48 50 209 51 41 210 47 47 211 50 43 212 47 47 213 49 49 214 50 43 215 32 34 216 51 41 217 35 14 218 51 41 219 32 34 220 47 47 221 48 50 222 58 51 223 49 49 224 49 49 225 58 51 226 59 52 227 49 49 228 57 53 229 50 43 230 57 53 231 49 49 232 59 52 233 50 43 234 65 45 235 43 42 236 65 45 237 50 43 238 57 53 239 54 54 240 53 55 241 5 56 242 54 54 243 5 56 244 52 57 245 56 58 246 54 54 247 55 59 248 54 54 249 52 57 250 55 59 251 59 52 252 58 51 253 53 55 254 59 52 255 53 55 256 54 54 257 67 60 258 56 58 259 66 61 260 56 58 261 55 59 262 66 61 263 65 45 264 57 53 265 67 60 266 57 53 267 56 58 268 67 60 269 57 53 270 59 52 271 54 54 272 57 53 273 54 54 274 56 58 275 60 62 276 62 63 277 4 64 278 4 64 279 62 63 280 61 65 281 62 63 282 63 46 283 64 44 284 63 46 285 62 63 286 60 62 287 65 45 288 62 63 289 64 44 290 62 63 291 65 45 292 67 60 293 67 60 294 61 65 295 62 63 296 61 65 297 67 60 298 66 61 299 69 66 300 68 67 301 4 64 302 69 66 303 4 64 304 61 65 305 61 65 306 66 61 307 69 66 308 70 68 309 69 66 310 66 61 311 73 69 312 70 68 313 71 70 314 70 68 315 73 69 316 69 66 317 72 71 318 69 66 319 73 69 320 69 66 321 72 71 322 68 67 323 55 59 324 70 68 325 66 61 326 70 68 327 55 59 328 79 72 329 71 70 330 79 72 331 78 73 332 79 72 333 71 70 334 70 68 335 93 74 336 78 73 337 85 75 338 78 73 339 93 74 340 71 70 341 92 76 342 71 70 343 93 74 344 71 70 345 92 76 346 73 69 347 91 77 348 73 69 349 92 76 350 73 69 351 91 77 352 72 71 353 74 78 354 75 79 355 5 56 356 5 56 357 75 79 358 52 57 359 77 80 360 74 78 361 76 81 362 74 78 363 77 80 364 75 79 365 79 72 366 52 57 367 75 79 368 52 57 369 79 72 370 55 59 371 86 82 372 87 83 373 77 80 374 86 82 375 77 80 376 76 81 377 85 75 378 77 80 379 87 83 380 77 80 381 85 75 382 78 73 383 78 73 384 75 79 385 77 80 386 75 79 387 78 73 388 79 72 389 80 84 390 82 85 391 7 86 392 7 86 393 82 85 394 81 87 395 80 84 396 84 88 397 82 85 398 84 88 399 80 84 400 83 89 401 82 85 402 84 88 403 85 75 404 82 85 405 85 75 406 87 83 407 82 85 408 87 83 409 81 87 410 81 87 411 87 83 412 86 82 413 83 89 414 95 90 415 84 88 416 95 90 417 83 89 418 94 91 419 95 90 420 85 75 421 84 88 422 85 75 423 95 90 424 93 74 425 89 92 426 6 93 427 90 94 428 6 93 429 88 95 430 90 94 431 88 95 432 92 76 433 90 94 434 92 76 435 88 95 436 91 77 437 94 91 438 89 92 439 95 90 440 89 92 441 90 94 442 95 90 443 95 90 444 90 94 445 93 74 446 90 94 447 92 76 448 93 74 449 97 96 450 96 97 451 6 93 452 97 96 453 6 93 454 89 92 455 89 92 456 94 91 457 97 96 458 98 98 459 97 96 460 94 91 461 101 99 462 100 100 463 96 97 464 101 99 465 96 97 466 97 96 467 107 101 468 94 91 469 83 89 470 94 91 471 107 101 472 98 98 473 98 98 474 107 101 475 99 102 476 106 103 477 99 102 478 107 101 479 101 99 480 98 98 481 99 102 482 98 98 483 101 99 484 97 96 485 118 104 486 101 99 487 99 102 488 101 99 489 118 104 490 117 105 491 117 105 492 116 106 493 100 100 494 117 105 495 100 100 496 101 99 497 102 107 498 103 108 499 7 86 500 7 86 501 103 108 502 80 84 503 105 109 504 102 107 505 104 110 506 102 107 507 105 109 508 103 108 509 106 103 510 103 108 511 105 109 512 103 108 513 106 103 514 107 101 515 107 101 516 80 84 517 103 108 518 80 84 519 107 101 520 83 89 521 113 111 522 104 110 523 112 112 524 104 110 525 113 111 526 105 109 527 113 111 528 111 113 529 105 109 530 111 113 531 106 103 532 105 109 533 111 113 534 118 104 535 99 102 536 111 113 537 99 102 538 106 103 539 25 27 540 109 114 541 1 25 542 1 25 543 109 114 544 108 115 545 25 27 546 110 116 547 109 114 548 110 116 549 25 27 550 30 22 551 109 114 552 112 112 553 108 115 554 112 112 555 109 114 556 113 111 557 30 22 558 119 117 559 110 116 560 119 117 561 30 22 562 19 20 563 110 116 564 118 104 565 111 113 566 118 104 567 110 116 568 119 117 569 110 116 570 111 113 571 109 114 572 109 114 573 111 113 574 113 111 575 16 18 576 0 17 577 115 118 578 0 17 579 114 119 580 115 118 581 114 119 582 116 106 583 115 118 584 115 118 585 116 106 586 117 105 587 119 117 588 117 105 589 118 104 590 117 105 591 119 117 592 115 118 593 19 20 594 16 18 595 115 118 596 19 20 597 115 118 598 119 117 599 120 120 600 102 107 601 7 86 602 120 120 603 7 86 604 81 87 605 121 121 606 120 120 607 86 82 608 120 120 609 81 87 610 86 82 611 123 122 612 104 110 613 120 120 614 104 110 615 102 107 616 120 120 617 127 123 618 121 121 619 76 81 620 121 121 621 86 82 622 76 81 623 126 124 624 122 125 625 127 123 626 122 125 627 121 121 628 127 123 629 123 122 630 121 121 631 122 125 632 121 121 633 123 122 634 120 120 635 134 126 636 133 127 637 122 125 638 133 127 639 123 122 640 122 125 641 112 112 642 104 110 643 123 122 644 112 112 645 123 122 646 133 127 647 74 78 648 53 55 649 124 128 650 53 55 651 74 78 652 5 56 653 125 129 654 124 128 655 58 51 656 124 128 657 53 55 658 58 51 659 126 124 660 124 128 661 125 129 662 124 128 663 126 124 664 127 123 665 127 123 666 74 78 667 124 128 668 74 78 669 127 123 670 76 81 671 131 130 672 58 51 673 48 50 674 58 51 675 131 130 676 125 129 677 126 124 678 131 130 679 130 131 680 131 130 681 126 124 682 125 129 683 134 126 684 126 124 685 130 131 686 126 124 687 134 126 688 122 125 689 33 35 690 128 132 691 3 33 692 3 33 693 128 132 694 46 48 695 33 35 696 129 133 697 128 132 698 129 133 699 33 35 700 38 31 701 128 132 702 48 50 703 46 48 704 48 50 705 128 132 706 131 130 707 135 134 708 38 31 709 27 29 710 38 31 711 135 134 712 129 133 713 130 131 714 135 134 715 134 126 716 135 134 717 130 131 718 129 133 719 130 131 720 128 132 721 129 133 722 128 132 723 130 131 724 131 130 725 108 115 726 132 135 727 1 25 728 1 25 729 132 135 730 24 26 731 108 115 732 133 127 733 132 135 734 133 127 735 108 115 736 112 112 737 133 127 738 134 126 739 132 135 740 132 135 741 134 126 742 135 134 743 24 26 744 135 134 745 27 29 746 135 134 747 24 26 748 132 135 749 17 16 750 114 119 751 0 17 752 114 119 753 17 16 754 136 136 755 17 16 756 22 8 757 136 136 758 136 136 759 22 8 760 137 137 761 114 119 762 139 138 763 116 106 764 139 138 765 114 119 766 136 136 767 143 139 768 137 137 769 11 4 770 137 137 771 22 8 772 11 4 773 143 139 774 138 140 775 137 137 776 138 140 777 143 139 778 142 141 779 137 137 780 138 140 781 136 136 782 136 136 783 138 140 784 139 138 785 138 140 786 149 142 787 139 138 788 149 142 789 138 140 790 150 143 791 116 106 792 149 142 793 100 100 794 149 142 795 116 106 796 139 138 797 8 3 798 2 1 799 140 144 800 2 1 801 40 37 802 140 144 803 44 40 804 140 144 805 40 37 806 140 144 807 44 40 808 141 145 809 143 139 810 140 144 811 142 141 812 140 144 813 141 145 814 142 141 815 8 3 816 143 139 817 11 4 818 143 139 819 8 3 820 140 144 821 44 40 822 63 46 823 141 145 824 141 145 825 63 46 826 147 146 827 141 145 828 146 147 829 142 141 830 146 147 831 141 145 832 147 146 833 142 141 834 150 143 835 138 140 836 150 143 837 142 141 838 146 147 839 68 67 840 144 148 841 4 64 842 4 64 843 144 148 844 60 62 845 72 71 846 145 149 847 144 148 848 72 71 849 144 148 850 68 67 851 147 146 852 60 62 853 144 148 854 60 62 855 147 146 856 63 46 857 145 149 858 91 77 859 151 150 860 91 77 861 145 149 862 72 71 863 150 143 864 146 147 865 151 150 866 146 147 867 145 149 868 151 150 869 146 147 870 147 146 871 144 148 872 146 147 873 144 148 874 145 149 875 88 95 876 96 97 877 148 151 878 96 97 879 88 95 880 6 93 881 100 100 882 149 142 883 148 151 884 100 100 885 148 151 886 96 97 887 150 143 888 148 151 889 149 142 890 148 151 891 150 143 892 151 150 893 88 95 894 151 150 895 91 77 896 151 150 897 88 95 898 148 151 899</p>
        </triangles>
      </mesh>
    </geometry>
  </library_geometries>
  <library_controllers/>
  <library_visual_scenes>
    <visual_scene id="Scene" name="Scene">
      <node id="VIS_Alpha_Surface_027" name="VIS_Alpha_Surface_027" type="NODE">
        <instance_geometry url="#Alpha_SurfaceMesh_317-mesh" name="VIS_Alpha_Surface_027">
          <bind_material>
            <technique_common>
              <instance_material symbol="Alpha_Body_MAT_007-material" target="#Alpha_Body_MAT_007-material"/>
            </technique_common>
          </bind_material>
        </instance_geometry>
      </node>
    </visual_scene>
  </library_visual_scenes>
  <scene>
    <instance_visual_scene url="#Scene"/>
  </scene>
</COLLADA>