<?xml version="1.0" encoding="utf-8"?>
<COLLADA xmlns="http://www.collada.org/2005/11/COLLADASchema" version="1.4.1" xmlns:xsi="http://www.w3.org/2001/XMLSchema-instance">
  <asset>
    <contributor>
      <author>Blender User</author>
      <authoring_tool>Blender 2.79.0 commit date:2018-03-22, commit time:14:10, hash:f4dc9f9d68b</authoring_tool>
    </contributor>
    <created>2018-10-09T21:23:56</created>
    <modified>2018-10-09T21:23:56</modified>
    <unit name="meter" meter="1"/>
    <up_axis>Z_UP</up_axis>
  </asset>
  <library_images/>
  <library_effects>
    <effect id="Alpha_Joints_MAT_007-effect">
      <profile_COMMON>
        <technique sid="common">
          <phong>
            <emission>
              <color sid="emission">0 0 0 1</color>
            </emission>
            <ambient>
              <color sid="ambient">0 0 0 1</color>
            </ambient>
            <diffuse>
              <color sid="diffuse">0.122841 0.170315 0.177774 1</color>
            </diffuse>
            <specular>
              <color sid="specular">0.141024 0.141024 0.141024 1</color>
            </specular>
            <shininess>
              <float sid="shininess">2</float>
            </shininess>
            <transparent opaque="A_ONE">
              <color>1 1 1 1</color>
            </transparent>
            <index_of_refraction>
              <float sid="index_of_refraction">1</float>
            </index_of_refraction>
          </phong>
        </technique>
      </profile_COMMON>
    </effect>
  </library_effects>
  <library_materials>
    <material id="Alpha_Joints_MAT_007-material" name="Alpha_Joints_MAT_007">
      <instance_effect url="#Alpha_Joints_MAT_007-effect"/>
    </material>
  </library_materials>
  <library_geometries>
    <geometry id="Alpha_JointsMesh_313-mesh" name="Alpha_JointsMesh.313">
      <mesh>
        <source id="Alpha_JointsMesh_313-mesh-positions">
          <float_array id="Alpha_JointsMesh_313-mesh-positions-array" count="402">-81.60789 137.8957 -1.166162 -81.48533 137.9116 -1.297995 -81.31288 137.9129 -1.352038 -81.13677 137.8993 -1.313793 -81.00418 137.8744 -1.193523 -80.95067 137.8449 -1.023464 -80.99055 137.8187 -0.849172 -81.11313 137.8028 -0.717337 -81.28558 137.8014 -0.663295 -81.46166 137.815 -0.70154 -81.59425 137.8399 -0.82181 -81.64775 137.8694 -0.99187 -81.87137 138.0622 -1.28307 -81.64193 138.0919 -1.52984 -81.31914 138.0944 -1.630994 -80.98949 138.069 -1.559421 -80.74132 138.0224 -1.334288 -80.64112 137.9671 -1.015935 -80.71577 137.9181 -0.689677 -80.94524 137.8883 -0.442906 -81.26805 137.8858 -0.341751 -81.59769 137.9112 -0.413345 -81.84583 137.9578 -0.638459 -81.94603 138.0131 -0.956802 -82.10163 138.3059 -1.371701 -81.77713 138.348 -1.720687 -81.32064 138.3515 -1.863742 -80.85443 138.3156 -1.762506 -80.5035 138.2497 -1.444134 -80.3618 138.1716 -0.993932 -80.46737 138.1021 -0.532524 -80.79186 138.06 -0.183529 -81.24836 138.0564 -0.04048299 -81.71456 138.0924 -0.141709 -82.06551 138.1583 -0.460091 -82.20719 138.2365 -0.910293 -82.27345 138.6075 -1.421378 -81.87602 138.6591 -1.8488 -81.31691 138.6634 -2.023996 -80.74596 138.6193 -1.900018 -80.31612 138.5386 -1.510091 -80.1426 138.443 -0.95869 -80.27188 138.3579 -0.393576 -80.66931 138.3063 0.03384596 -81.22842 138.302 0.209042 -81.79939 138.3461 0.085065 -82.22922 138.4268 -0.304863 -82.40274 138.5225 -0.856253 -82.37513 138.9464 -1.428668 -81.93186 139.004 -1.905402 -81.30827 139.0088 -2.100804 -80.67142 138.9596 -1.962529 -80.19202 138.8696 -1.527613 -79.99848 138.7629 -0.912613 -80.14267 138.6681 -0.282305 -80.58594 138.6105 0.194419 -81.20954 138.6057 0.389832 -81.84638 138.6549 0.251557 -82.32578 138.7449 -0.183359 -82.5193 138.8516 -0.798361 -82.39974 139.2997 -1.393091 -81.94082 139.3593 -1.886632 -81.29521 139.3643 -2.088932 -80.63591 139.3134 -1.945775 -80.13961 139.2202 -1.495528 -79.93923 139.1097 -0.85883 -80.0885 139.0115 -0.2062849 -80.54741 138.9519 0.287254 -81.19303 138.9469 0.489555 -81.85232 138.9978 0.346397 -82.34865 139.091 -0.103848 -82.54899 139.2015 -0.740547 -82.34557 139.6431 -1.31708 -81.90231 139.7006 -1.793814 -81.27869 139.7055 -1.989217 -80.64187 139.6563 -1.85093 -80.16246 139.5663 -1.416026 -79.96891 139.4596 -0.801025 -80.1131 139.3647 -0.170717 -80.55637 139.3072 0.306017 -81.18 139.3024 0.501421 -81.81682 139.3515 0.363144 -82.29622 139.4415 -0.07177096 -82.48976 139.5483 -0.686772 -82.21633 139.9533 -1.205815 -81.81891 140.0049 -1.633236 -81.25983 140.0092 -1.808432 -80.68885 139.9651 -1.684454 -80.25904 139.8844 -1.294526 -80.08549 139.7888 -0.743127 -80.21479 139.7037 -0.178012 -80.61221 139.6521 0.24941 -81.17133 139.6478 0.424607 -81.74227 139.6919 0.300628 -82.17211 139.7726 -0.08929896 -82.34564 139.8683 -0.64069 -82.02087 140.2091 -1.066851 -81.69637 140.2512 -1.415837 -81.23988 140.2548 -1.558882 -80.77368 140.2188 -1.457656 -80.42273 140.1529 -1.139284 -80.28103 140.0748 -0.689082 -80.38661 140.0054 -0.227674 -80.7111 139.9632 0.121312 -81.16762 139.9597 0.264358 -81.63379 139.9957 0.1631309 -81.98474 140.0616 -0.155241 -82.12644 140.1397 -0.605443 -81.77246 140.3931 -0.90971 -81.54299 140.4229 -1.156481 -81.22021 140.4254 -1.257635 -80.89058 140.3999 -1.186051 -80.64241 140.3533 -0.960929 -80.54221 140.2981 -0.642575 -80.61686 140.249 -0.316317 -80.84631 140.2192 -0.06954699 -81.16912 140.2167 0.03160798 -81.49876 140.2422 -0.039976 -81.74692 140.2888 -0.265099 -81.84712 140.344 -0.583443 -81.49768 140.4925 -0.750216 -81.37512 140.5084 -0.88205 -81.20269 140.5097 -0.936091 -81.02657 140.4961 -0.897837 -80.89399 140.4712 -0.777577 -80.84047 140.4417 -0.607508 -80.88034 140.4155 -0.433225 -81.00294 140.3996 -0.301391 -81.17539 140.3983 -0.247348 -81.35149 140.4118 -0.285603 -81.48405 140.4367 -0.405864 -81.53755 140.4663 -0.575924 -81.30145 137.8049 -1.016047 -81.18681 140.5063 -0.583334</float_array>
          <technique_common>
            <accessor source="#Alpha_JointsMesh_313-mesh-positions-array" count="134" stride="3">
              <param name="X" type="float"/>
              <param name="Y" type="float"/>
              <param name="Z" type="float"/>
            </accessor>
          </technique_common>
        </source>
        <source id="Alpha_JointsMesh_313-mesh-normals">
          <float_array id="Alpha_JointsMesh_313-mesh-normals-array" count="402">-0.3203925 -0.7504106 -0.5781286 -0.305257 -0.9080188 -0.2869147 -0.5080593 -0.7748003 -0.3762452 -0.1998687 -0.8943282 -0.4002869 -0.05627745 -0.748393 -0.6608638 -0.05166947 -0.8931837 -0.4467139 0.09964656 -0.9048767 -0.4138463 0.21336 -0.7692068 -0.6023276 0.2136319 -0.9262774 -0.3104377 0.4164071 -0.8072999 -0.4181772 0.2595942 -0.9516416 -0.1642834 0.4983552 -0.8525051 -0.1577255 0.2253527 -0.9741685 -0.01455754 0.4372852 -0.8926686 0.1091992 0.1199718 -0.9878528 0.09876084 0.2495847 -0.9170362 0.3110501 -0.02822989 -0.9889938 0.1452392 -0.01449662 -0.9190863 0.3937895 -0.284165 -0.8982738 0.3351932 -0.1795428 -0.9773077 0.1124012 -0.4871479 -0.860154 0.1510701 -0.2935014 -0.9559166 0.008972585 -0.5690993 -0.8149653 -0.1093518 -0.3394894 -0.9305437 -0.1372423 -0.4185373 -0.5585584 -0.7161279 -0.6753869 -0.5919172 -0.4398712 -0.05713146 -0.5557506 -0.8293837 0.3119094 -0.5842351 -0.7492542 0.5896951 -0.6364203 -0.4972214 0.7018777 -0.698246 -0.1407845 0.6182976 -0.753225 0.224411 0.3614388 -0.7865712 0.5006673 6.1038e-5 -0.789344 0.6139512 -0.3689779 -0.7608759 0.533782 -0.6467596 -0.7087439 0.2817518 -0.7589513 -0.6468542 -0.07464993 -0.4887292 -0.3324421 -0.8066139 -0.7975351 -0.3725208 -0.4745169 -0.0542941 -0.329061 -0.9427466 0.3893045 -0.3633325 -0.8464228 0.7233153 -0.4260236 -0.5434326 0.8581437 -0.5003651 -0.114997 0.7577041 -0.5664393 0.3240851 0.4488827 -0.6065167 0.6562331 0.01443535 -0.6098862 0.7923576 -0.4291608 -0.575653 0.6960206 -0.7631665 -0.5129385 0.393028 -0.8980026 -0.4385637 -0.03540247 -0.8676189 -0.1339775 -0.4788399 -0.527123 -0.08972567 -0.8450388 -0.04812836 -0.0860024 -0.9951319 0.4410008 -0.1237854 -0.8889295 0.809281 -0.1929126 -0.5548414 0.9579365 -0.2748864 -0.08243232 0.8471751 -0.3477632 0.4016902 0.5066875 -0.3919641 0.7678749 0.02768045 -0.3956754 0.9179732 -0.4614583 -0.3579049 0.8117638 -0.8297106 -0.288798 0.477678 -0.9783701 -0.206795 0.005279719 -0.8841704 0.1102352 -0.4539724 -0.5330234 0.1558326 -0.8316264 -0.03906416 0.1596444 -0.9864014 0.4653217 0.1207327 -0.8768691 0.8450677 0.04941004 -0.5323714 0.99836 -0.03509652 -0.04522877 0.8841582 -0.1102336 0.4539967 0.5330259 -0.1558029 0.8316303 0.03906416 -0.1596444 0.9864014 -0.4653234 -0.1207027 0.8768724 -0.8450815 -0.04941082 0.5323495 -0.99836 0.03509652 0.04522877 -0.8471766 0.3477944 -0.4016603 -0.5066757 0.391955 -0.7678875 -0.02765029 0.39565 -0.9179851 0.4614583 0.3579049 -0.8117638 0.8297252 0.2887421 -0.4776864 0.9783763 0.2067658 -0.005279719 0.8676259 0.1339175 0.4788438 0.527123 0.08972567 0.8450388 0.0480979 0.08600252 0.9951333 -0.4410008 0.1237854 0.8889295 -0.8092763 0.192942 0.5548381 -0.9579365 0.2748864 0.08243232 -0.7577022 0.5664073 -0.3241453 -0.4488827 0.6065167 -0.6562331 -0.01446586 0.6098859 -0.7923573 0.4291933 0.5756251 -0.6960238 0.7631694 0.5129099 -0.39306 0.8980215 0.4385275 0.03537148 0.7975552 0.3724854 0.4745107 0.4887343 0.3324149 0.8066221 0.05426269 0.3290249 0.942761 -0.389329 0.3632658 0.8464402 -0.7233393 0.4259892 0.5434277 -0.8581809 0.500308 0.1149674 -0.3614091 0.7866035 -0.500638 -0.6182835 0.7532382 -0.2244058 -3.05193e-5 0.7894114 -0.6138646 0.3689491 0.7609097 -0.5337538 0.6467596 0.7087439 -0.2817518 0.7589268 0.6468899 0.07458949 0.6753581 0.5919492 0.4398723 0.418505 0.5585865 0.7161248 0.05713099 0.5558068 0.8293461 -0.3118779 0.5842943 0.7492213 -0.5896727 0.6364595 0.4971977 -0.7018258 0.6982856 0.1408473 -0.249523 0.9170947 -0.3109271 -0.4372164 0.8927137 -0.1091057 0.01449674 0.9191243 -0.3937011 0.2841069 0.8983137 -0.3351356 0.487057 0.8602162 -0.1510093 0.5690297 0.8150141 0.1093501 0.5079731 0.7748696 0.3762187 0.3202996 0.750499 0.5780652 0.05624675 0.7484512 0.6608003 -0.2133286 0.7692649 0.6022643 -0.4163112 0.8073831 0.4181119 -0.4982628 0.8525647 0.1576947 -0.1200008 0.9878402 -0.09885114 -0.2253819 0.9741627 0.01449644 0.02823048 0.9889844 -0.1453033 0.179573 0.9773058 -0.1123704 0.2935013 0.9559164 -0.009003102 0.3394936 0.9305555 0.1371524 0.3052543 0.908011 0.2869427 0.1998981 0.8943228 0.4002845 0.0516079 0.8931743 0.4467397 -0.09967702 0.9048455 0.413907 -0.2136359 0.9262644 0.310474 -0.2596524 0.9516314 0.1642512 -0.04187178 -0.9865517 -0.1579959 0.04187178 0.9865517 0.1579959</float_array>
          <technique_common>
            <accessor source="#Alpha_JointsMesh_313-mesh-normals-array" count="134" stride="3">
              <param name="X" type="float"/>
              <param name="Y" type="float"/>
              <param name="Z" type="float"/>
            </accessor>
          </technique_common>
        </source>
        <source id="Alpha_JointsMesh_313-mesh-map-0">
          <float_array id="Alpha_JointsMesh_313-mesh-map-0-array" count="1584">0.08332997 0.16666 0 0.08332997 0 0.16666 0 0.08332997 0.08332997 0.16666 0.08332997 0.08332997 0.16666 0.16666 0.16666 0.08332997 0.08332997 0.08332997 0.08332997 0.08332997 0.08332997 0.16666 0.16666 0.16666 0.16666 0.16666 0.25 0.08332997 0.16666 0.08332997 0.25 0.08332997 0.16666 0.16666 0.25 0.16666 0.25 0.16666 0.33333 0.08332997 0.25 0.08332997 0.33333 0.08332997 0.25 0.16666 0.33333 0.16666 0.33333 0.16666 0.41666 0.08332997 0.33333 0.08332997 0.41666 0.08332997 0.33333 0.16666 0.41666 0.16666 0.5 0.08332997 0.41666 0.16666 0.5 0.16666 0.41666 0.16666 0.5 0.08332997 0.41666 0.08332997 0.5 0.16666 0.58333 0.08332997 0.5 0.08332997 0.58333 0.08332997 0.5 0.16666 0.58333 0.16666 0.58333 0.16666 0.66666 0.08332997 0.58333 0.08332997 0.66666 0.08332997 0.58333 0.16666 0.66666 0.16666 0.75 0.16666 0.66666 0.08332997 0.66666 0.16666 0.66666 0.08332997 0.75 0.16666 0.75 0.08332997 0.83333 0.16666 0.83333 0.08332997 0.75 0.08332997 0.75 0.08332997 0.75 0.16666 0.83333 0.16666 0.83333 0.08332997 0.83333 0.16666 0.91666 0.16666 0.83333 0.08332997 0.91666 0.16666 0.91666 0.08332997 0.91666 0.16666 1 0.16666 0.91666 0.08332997 0.91666 0.08332997 1 0.16666 1 0.08332997 0.08332997 0.25 0 0.16666 0 0.25 0 0.16666 0.08332997 0.25 0.08332997 0.16666 0.16666 0.16666 0.08332997 0.16666 0.16666 0.25 0.08332997 0.16666 0.08332997 0.25 0.16666 0.25 0.16666 0.25 0.25 0.16666 0.16666 0.16666 0.25 0.16666 0.16666 0.25 0.25 0.25 0.25 0.25 0.33333 0.16666 0.25 0.16666 0.33333 0.16666 0.25 0.25 0.33333 0.25 0.33333 0.25 0.41666 0.16666 0.33333 0.16666 0.41666 0.16666 0.33333 0.25 0.41666 0.25 0.5 0.16666 0.41666 0.25 0.5 0.25 0.41666 0.25 0.5 0.16666 0.41666 0.16666 0.5 0.25 0.58333 0.16666 0.5 0.16666 0.58333 0.16666 0.5 0.25 0.58333 0.25 0.58333 0.25 0.66666 0.16666 0.58333 0.16666 0.66666 0.16666 0.58333 0.25 0.66666 0.25 0.75 0.25 0.66666 0.16666 0.66666 0.25 0.66666 0.16666 0.75 0.25 0.75 0.16666 0.83333 0.16666 0.75 0.16666 0.83333 0.25 0.75 0.16666 0.75 0.25 0.83333 0.25 0.83333 0.25 0.91666 0.25 0.83333 0.16666 0.83333 0.16666 0.91666 0.25 0.91666 0.16666 0.91666 0.25 1 0.25 0.91666 0.16666 0.91666 0.16666 1 0.25 1 0.16666 0.08332997 0.25 0 0.25 0.08332997 0.33333 0 0.25 0 0.33333 0.08332997 0.33333 0.16666 0.25 0.08332997 0.25 0.16666 0.33333 0.08332997 0.25 0.08332997 0.33333 0.16666 0.33333 0.16666 0.33333 0.25 0.25 0.16666 0.25 0.25 0.25 0.16666 0.33333 0.25 0.33333 0.25 0.33333 0.33333 0.25 0.25 0.25 0.33333 0.25 0.25 0.33333 0.33333 0.33333 0.41666 0.25 0.33333 0.25 0.41666 0.33333 0.33333 0.25 0.33333 0.33333 0.41666 0.33333 0.5 0.25 0.41666 0.33333 0.5 0.33333 0.41666 0.33333 0.5 0.25 0.41666 0.25 0.5 0.33333 0.58333 0.25 0.5 0.25 0.58333 0.25 0.5 0.33333 0.58333 0.33333 0.58333 0.33333 0.66666 0.25 0.58333 0.25 0.66666 0.25 0.58333 0.33333 0.66666 0.33333 0.66666 0.33333 0.75 0.25 0.66666 0.25 0.75 0.25 0.66666 0.33333 0.75 0.33333 0.83333 0.25 0.75 0.25 0.83333 0.33333 0.75 0.25 0.75 0.33333 0.83333 0.33333 0.83333 0.33333 0.91666 0.33333 0.83333 0.25 0.83333 0.25 0.91666 0.33333 0.91666 0.25 0.91666 0.33333 1 0.25 0.91666 0.25 1 0.25 0.91666 0.33333 1 0.33333 0 0.41666 0.08332997 0.33333 0 0.33333 0.08332997 0.33333 0 0.41666 0.08332997 0.41666 0.16666 0.33333 0.08332997 0.33333 0.16666 0.41666 0.08332997 0.33333 0.08332997 0.41666 0.16666 0.41666 0.16666 0.41666 0.25 0.33333 0.16666 0.33333 0.25 0.33333 0.16666 0.41666 0.25 0.41666 0.25 0.41666 0.33333 0.33333 0.25 0.33333 0.33333 0.33333 0.25 0.41666 0.33333 0.41666 0.41666 0.33333 0.33333 0.33333 0.41666 0.41666 0.33333 0.33333 0.33333 0.41666 0.41666 0.41666 0.5 0.33333 0.41666 0.41666 0.5 0.41666 0.41666 0.41666 0.5 0.33333 0.41666 0.33333 0.58333 0.33333 0.5 0.41666 0.58333 0.41666 0.5 0.41666 0.58333 0.33333 0.5 0.33333 0.66666 0.41666 0.58333 0.33333 0.58333 0.41666 0.58333 0.33333 0.66666 0.41666 0.66666 0.33333 0.66666 0.41666 0.75 0.33333 0.66666 0.33333 0.75 0.33333 0.66666 0.41666 0.75 0.41666 0.75 0.41666 0.83333 0.41666 0.75 0.33333 0.83333 0.33333 0.75 0.33333 0.83333 0.41666 0.83333 0.41666 0.91666 0.41666 0.83333 0.33333 0.83333 0.33333 0.91666 0.41666 0.91666 0.33333 0.91666 0.41666 1 0.33333 0.91666 0.33333 1 0.33333 0.91666 0.41666 1 0.41666 0 0.5 0.08332997 0.41666 0 0.41666 0.08332997 0.41666 0 0.5 0.08332997 0.5 0.08332997 0.5 0.16666 0.41666 0.08332997 0.41666 0.16666 0.41666 0.08332997 0.5 0.16666 0.5 0.16666 0.5 0.25 0.5 0.16666 0.41666 0.25 0.41666 0.16666 0.41666 0.25 0.5 0.25 0.5 0.33333 0.5 0.25 0.41666 0.33333 0.41666 0.25 0.41666 0.33333 0.5 0.41666 0.41666 0.33333 0.41666 0.41666 0.5 0.33333 0.41666 0.33333 0.5 0.41666 0.5 0.5 0.41666 0.41666 0.5 0.5 0.5 0.41666 0.5 0.5 0.41666 0.41666 0.41666 0.58333 0.41666 0.5 0.5 0.58333 0.5 0.5 0.5 0.58333 0.41666 0.5 0.41666 0.66666 0.5 0.58333 0.41666 0.58333 0.5 0.58333 0.41666 0.66666 0.5 0.66666 0.41666 0.66666 0.5 0.75 0.41666 0.66666 0.41666 0.75 0.41666 0.66666 0.5 0.75 0.5 0.75 0.5 0.83333 0.41666 0.75 0.41666 0.83333 0.41666 0.75 0.5 0.83333 0.5 0.83333 0.5 0.91666 0.5 0.83333 0.41666 0.83333 0.41666 0.91666 0.5 0.91666 0.41666 0.91666 0.5 1 0.41666 0.91666 0.41666 1 0.41666 0.91666 0.5 1 0.5 0 0.58333 0.08332997 0.58333 0 0.5 0 0.5 0.08332997 0.58333 0.08332997 0.5 0.08332997 0.58333 0.16666 0.5 0.08332997 0.5 0.16666 0.5 0.08332997 0.58333 0.16666 0.58333 0.16666 0.58333 0.25 0.58333 0.16666 0.5 0.25 0.5 0.16666 0.5 0.25 0.58333 0.25 0.58333 0.33333 0.58333 0.25 0.5 0.33333 0.5 0.25 0.5 0.33333 0.58333 0.41666 0.5 0.33333 0.58333 0.41666 0.58333 0.33333 0.58333 0.41666 0.5 0.33333 0.5 0.5 0.5 0.41666 0.5 0.5 0.58333 0.41666 0.5 0.41666 0.58333 0.5 0.58333 0.58333 0.58333 0.58333 0.5 0.5 0.5 0.58333 0.58333 0.5 0.5 0.5 0.58333 0.66666 0.58333 0.58333 0.5 0.58333 0.58333 0.58333 0.5 0.66666 0.58333 0.66666 0.5 0.66666 0.58333 0.75 0.5 0.66666 0.5 0.75 0.5 0.66666 0.58333 0.75 0.58333 0.75 0.58333 0.83333 0.5 0.75 0.5 0.83333 0.5 0.75 0.58333 0.83333 0.58333 0.83333 0.58333 0.91666 0.5 0.83333 0.5 0.91666 0.5 0.83333 0.58333 0.91666 0.58333 0.91666 0.58333 1 0.58333 0.91666 0.5 0.91666 0.5 1 0.58333 1 0.5 0 0.66666 0.08332997 0.66666 0 0.58333 0.08332997 0.58333 0 0.58333 0.08332997 0.66666 0.08332997 0.66666 0.16666 0.58333 0.08332997 0.58333 0.16666 0.58333 0.08332997 0.66666 0.16666 0.66666 0.16666 0.66666 0.25 0.66666 0.16666 0.58333 0.25 0.58333 0.16666 0.58333 0.25 0.66666 0.33333 0.58333 0.25 0.66666 0.33333 0.66666 0.25 0.66666 0.33333 0.58333 0.25 0.58333 0.41666 0.58333 0.33333 0.66666 0.41666 0.66666 0.33333 0.66666 0.41666 0.58333 0.33333 0.58333 0.5 0.58333 0.41666 0.58333 0.5 0.66666 0.41666 0.58333 0.41666 0.66666 0.5 0.66666 0.58333 0.66666 0.58333 0.58333 0.5 0.58333 0.58333 0.66666 0.5 0.58333 0.5 0.66666 0.58333 0.66666 0.66666 0.58333 0.58333 0.58333 0.66666 0.58333 0.58333 0.66666 0.66666 0.66666 0.75 0.66666 0.66666 0.58333 0.66666 0.66666 0.66666 0.58333 0.75 0.66666 0.75 0.58333 0.83333 0.66666 0.75 0.58333 0.75 0.66666 0.75 0.58333 0.83333 0.66666 0.83333 0.58333 0.83333 0.66666 0.91666 0.58333 0.83333 0.58333 0.91666 0.58333 0.83333 0.66666 0.91666 0.66666 0.91666 0.66666 1 0.66666 0.91666 0.58333 1 0.58333 0.91666 0.58333 1 0.66666 0.08332997 0.66666 0 0.66666 0.08332997 0.75 0 0.66666 0 0.75 0.08332997 0.75 0.08332997 0.66666 0.16666 0.75 0.16666 0.66666 0.16666 0.75 0.08332997 0.66666 0.08332997 0.75 0.16666 0.75 0.25 0.75 0.16666 0.66666 0.25 0.66666 0.16666 0.66666 0.25 0.75 0.25 0.75 0.33333 0.66666 0.25 0.66666 0.33333 0.66666 0.25 0.75 0.33333 0.75 0.41666 0.66666 0.33333 0.75 0.41666 0.75 0.33333 0.75 0.41666 0.66666 0.33333 0.66666 0.5 0.66666 0.41666 0.66666 0.5 0.75 0.41666 0.66666 0.41666 0.75 0.5 0.75 0.58333 0.66666 0.5 0.75 0.58333 0.75 0.5 0.75 0.58333 0.66666 0.5 0.66666 0.66666 0.66666 0.58333 0.75 0.66666 0.75 0.58333 0.75 0.66666 0.66666 0.58333 0.66666 0.75 0.75 0.66666 0.66666 0.66666 0.75 0.66666 0.66666 0.75 0.75 0.75 0.66666 0.83333 0.75 0.75 0.66666 0.75 0.75 0.75 0.66666 0.83333 0.75 0.83333 0.66666 0.83333 0.75 0.91666 0.66666 0.83333 0.66666 0.91666 0.66666 0.83333 0.75 0.91666 0.75 0.91666 0.75 1 0.75 0.91666 0.66666 1 0.66666 0.91666 0.66666 1 0.75 0.08332997 0.75 0 0.75 0.08332997 0.83333 0 0.75 0 0.83333 0.08332997 0.83333 0.08332997 0.75 0.16666 0.83333 0.16666 0.75 0.16666 0.83333 0.08332997 0.75 0.08332997 0.83333 0.16666 0.83333 0.25 0.75 0.16666 0.75 0.25 0.75 0.16666 0.83333 0.25 0.83333 0.25 0.83333 0.33333 0.75 0.25 0.75 0.33333 0.75 0.25 0.83333 0.33333 0.83333 0.41666 0.75 0.33333 0.83333 0.41666 0.83333 0.33333 0.83333 0.41666 0.75 0.33333 0.75 0.5 0.75 0.41666 0.83333 0.5 0.83333 0.41666 0.83333 0.5 0.75 0.41666 0.75 0.5 0.83333 0.58333 0.75 0.5 0.75 0.58333 0.75 0.5 0.83333 0.58333 0.83333 0.66666 0.75 0.58333 0.83333 0.66666 0.83333 0.58333 0.83333 0.66666 0.75 0.58333 0.75 0.75 0.83333 0.66666 0.75 0.66666 0.83333 0.66666 0.75 0.75 0.83333 0.75 0.75 0.75 0.75 0.83333 0.83333 0.83333 0.75 0.83333 0.83333 0.75 0.75 0.75 0.83333 0.91666 0.83333 0.83333 0.75 0.83333 0.83333 0.83333 0.75 0.91666 0.83333 0.91666 0.75 0.91666 0.83333 1 0.83333 0.91666 0.75 1 0.75 0.91666 0.75 1 0.83333 0.08332997 0.91666 0.08332997 0.83333 0 0.83333 0 0.83333 0 0.91666 0.08332997 0.91666 0.08332997 0.83333 0.16666 0.91666 0.16666 0.83333 0.16666 0.91666 0.08332997 0.83333 0.08332997 0.91666 0.16666 0.91666 0.25 0.83333 0.16666 0.83333 0.25 0.83333 0.16666 0.91666 0.25 0.91666 0.25 0.91666 0.33333 0.83333 0.25 0.83333 0.33333 0.83333 0.25 0.91666 0.33333 0.91666 0.41666 0.83333 0.33333 0.91666 0.41666 0.91666 0.33333 0.91666 0.41666 0.83333 0.33333 0.83333 0.5 0.83333 0.41666 0.91666 0.5 0.91666 0.41666 0.91666 0.5 0.83333 0.41666 0.83333 0.5 0.91666 0.58333 0.83333 0.5 0.83333 0.58333 0.83333 0.5 0.91666 0.58333 0.91666 0.58333 0.91666 0.66666 0.83333 0.58333 0.83333 0.66666 0.83333 0.58333 0.91666 0.66666 0.91666 0.75 0.83333 0.66666 0.83333 0.75 0.91666 0.66666 0.83333 0.66666 0.91666 0.75 0.91666 0.75 0.83333 0.83333 0.91666 0.83333 0.83333 0.83333 0.91666 0.75 0.83333 0.75 0.91666 0.91666 0.91666 0.83333 0.83333 0.83333 0.91666 0.83333 0.83333 0.91666 0.91666 0.91666 0.83333 1 0.83333 0.91666 0.83333 1 0.91666 0.91666 0.83333 0.91666 0.91666 1 0.91666 0.08332997 0.08332997 0.04165995 0 0 0.08332997 0.16666 0.08332997 0.125 0 0.08332997 0.08332997 0.25 0.08332997 0.20833 0 0.16666 0.08332997 0.33333 0.08332997 0.29166 0 0.25 0.08332997 0.41666 0.08332997 0.375 0 0.33333 0.08332997 0.5 0.08332997 0.45833 0 0.41666 0.08332997 0.58333 0.08332997 0.54166 0 0.5 0.08332997 0.66666 0.08332997 0.625 0 0.58333 0.08332997 0.75 0.08332997 0.70833 0 0.66666 0.08332997 0.83333 0.08332997 0.79166 0 0.75 0.08332997 0.91666 0.08332997 0.875 0 0.83333 0.08332997 1 0.08332997 0.95833 0 0.91666 0.08332997 0 0.91666 0.04165995 1 0.08332997 0.91666 0.08332997 0.91666 0.125 1 0.16666 0.91666 0.16666 0.91666 0.20833 1 0.25 0.91666 0.25 0.91666 0.29166 1 0.33333 0.91666 0.33333 0.91666 0.375 1 0.41666 0.91666 0.41666 0.91666 0.45833 1 0.5 0.91666 0.5 0.91666 0.54166 1 0.58333 0.91666 0.58333 0.91666 0.625 1 0.66666 0.91666 0.66666 0.91666 0.70833 1 0.75 0.91666 0.75 0.91666 0.79166 1 0.83333 0.91666 0.83333 0.91666 0.875 1 0.91666 0.91666 0.91666 0.91666 0.95833 1 1 0.91666</float_array>
          <technique_common>
            <accessor source="#Alpha_JointsMesh_313-mesh-map-0-array" count="792" stride="2">
              <param name="S" type="float"/>
              <param name="T" type="float"/>
            </accessor>
          </technique_common>
        </source>
        <vertices id="Alpha_JointsMesh_313-mesh-vertices">
          <input semantic="POSITION" source="#Alpha_JointsMesh_313-mesh-positions"/>
        </vertices>
        <triangles material="Alpha_Joints_MAT_007-material" count="264">
          <input semantic="VERTEX" source="#Alpha_JointsMesh_313-mesh-vertices" offset="0"/>
          <input semantic="NORMAL" source="#Alpha_JointsMesh_313-mesh-normals" offset="1"/>
          <input semantic="TEXCOORD" source="#Alpha_JointsMesh_313-mesh-map-0" offset="2" set="0"/>
          <p>13 0 0 0 1 1 12 2 2 0 1 3 13 0 4 1 3 5 14 4 6 2 5 7 1 3 8 1 3 9 13 0 10 14 4 11 14 4 12 3 6 13 2 5 14 3 6 15 14 4 16 15 7 17 15 7 18 4 8 19 3 6 20 4 8 21 15 7 22 16 9 23 16 9 24 5 10 25 4 8 26 5 10 27 16 9 28 17 11 29 6 12 30 17 11 31 18 13 32 17 11 33 6 12 34 5 10 35 18 13 36 7 14 37 6 12 38 7 14 39 18 13 40 19 15 41 19 15 42 8 16 43 7 14 44 8 16 45 19 15 46 20 17 47 21 18 48 8 16 49 20 17 50 8 16 51 21 18 52 9 19 53 22 20 54 10 21 55 9 19 56 9 19 57 21 18 58 22 20 59 10 21 60 22 20 61 23 22 62 10 21 63 23 22 64 11 23 65 23 22 66 12 2 67 11 23 68 11 23 69 12 2 70 0 1 71 25 24 72 12 2 73 24 25 74 12 2 75 25 24 76 13 0 77 14 4 78 13 0 79 26 26 80 13 0 81 25 24 82 26 26 83 26 26 84 15 7 85 14 4 86 15 7 87 26 26 88 27 27 89 27 27 90 16 9 91 15 7 92 16 9 93 27 27 94 28 28 95 28 28 96 17 11 97 16 9 98 17 11 99 28 28 100 29 29 101 18 13 102 29 29 103 30 30 104 29 29 105 18 13 106 17 11 107 30 30 108 19 15 109 18 13 110 19 15 111 30 30 112 31 31 113 31 31 114 20 17 115 19 15 116 20 17 117 31 31 118 32 32 119 33 33 120 20 17 121 32 32 122 20 17 123 33 33 124 21 18 125 22 20 126 21 18 127 34 34 128 21 18 129 33 33 130 34 34 131 34 34 132 35 35 133 22 20 134 22 20 135 35 35 136 23 22 137 35 35 138 24 25 139 23 22 140 23 22 141 24 25 142 12 2 143 25 24 144 24 25 145 37 36 146 24 25 147 36 37 148 37 36 149 26 26 150 25 24 151 38 38 152 25 24 153 37 36 154 38 38 155 38 38 156 27 27 157 26 26 158 27 27 159 38 38 160 39 39 161 39 39 162 28 28 163 27 27 164 28 28 165 39 39 166 40 40 167 29 29 168 28 28 169 41 41 170 28 28 171 40 40 172 41 41 173 30 30 174 41 41 175 42 42 176 41 41 177 30 30 178 29 29 179 42 42 180 31 31 181 30 30 182 31 31 183 42 42 184 43 43 185 43 43 186 32 32 187 31 31 188 32 32 189 43 43 190 44 44 191 44 44 192 33 33 193 32 32 194 33 33 195 44 44 196 45 45 197 34 34 198 33 33 199 46 46 200 33 33 201 45 45 202 46 46 203 46 46 204 47 47 205 34 34 206 34 34 207 47 47 208 35 35 209 47 47 210 24 25 211 35 35 212 24 25 213 47 47 214 36 37 215 48 48 216 37 36 217 36 37 218 37 36 219 48 48 220 49 49 221 38 38 222 37 36 223 50 50 224 37 36 225 49 49 226 50 50 227 50 50 228 39 39 229 38 38 230 39 39 231 50 50 232 51 51 233 51 51 234 40 40 235 39 39 236 40 40 237 51 51 238 52 52 239 41 41 240 40 40 241 53 53 242 40 40 243 52 52 244 53 53 245 42 42 246 53 53 247 54 54 248 53 53 249 42 42 250 41 41 251 43 43 252 54 54 253 55 55 254 54 54 255 43 43 256 42 42 257 56 56 258 43 43 259 55 55 260 43 43 261 56 56 262 44 44 263 56 56 264 45 45 265 44 44 266 45 45 267 56 56 268 57 57 269 57 57 270 58 58 271 45 45 272 46 46 273 45 45 274 58 58 275 58 58 276 59 59 277 46 46 278 46 46 279 59 59 280 47 47 281 59 59 282 36 37 283 47 47 284 36 37 285 59 59 286 48 48 287 60 60 288 49 49 289 48 48 290 49 49 291 60 60 292 61 61 293 61 61 294 50 50 295 49 49 296 50 50 297 61 61 298 62 62 299 62 62 300 63 63 301 50 50 302 51 51 303 50 50 304 63 63 305 63 63 306 64 64 307 51 51 308 52 52 309 51 51 310 64 64 311 53 53 312 52 52 313 65 65 314 52 52 315 64 64 316 65 65 317 54 54 318 65 65 319 66 66 320 65 65 321 54 54 322 53 53 323 55 55 324 66 66 325 67 67 326 66 66 327 55 55 328 54 54 329 68 68 330 55 55 331 67 67 332 55 55 333 68 68 334 56 56 335 68 68 336 57 57 337 56 56 338 57 57 339 68 68 340 69 69 341 69 69 342 58 58 343 57 57 344 58 58 345 69 69 346 70 70 347 70 70 348 71 71 349 58 58 350 58 58 351 71 71 352 59 59 353 71 71 354 48 48 355 59 59 356 48 48 357 71 71 358 60 60 359 72 72 360 73 73 361 60 60 362 60 60 363 73 73 364 61 61 365 73 73 366 62 62 367 61 61 368 62 62 369 73 73 370 74 74 371 74 74 372 75 75 373 62 62 374 63 63 375 62 62 376 75 75 377 75 75 378 76 76 379 63 63 380 64 64 381 63 63 382 76 76 383 65 65 384 76 76 385 77 77 386 76 76 387 65 65 388 64 64 389 66 66 390 65 65 391 78 78 392 65 65 393 77 77 394 78 78 395 79 79 396 67 67 397 66 66 398 79 79 399 66 66 400 78 78 401 80 80 402 67 67 403 79 79 404 67 67 405 80 80 406 68 68 407 80 80 408 69 69 409 68 68 410 69 69 411 80 80 412 81 81 413 81 81 414 70 70 415 69 69 416 70 70 417 81 81 418 82 82 419 82 82 420 71 71 421 70 70 422 71 71 423 82 82 424 83 83 425 83 83 426 72 72 427 71 71 428 71 71 429 72 72 430 60 60 431 84 84 432 85 85 433 72 72 434 73 73 435 72 72 436 85 85 437 85 85 438 74 74 439 73 73 440 74 74 441 85 85 442 86 86 443 86 86 444 87 87 445 74 74 446 75 75 447 74 74 448 87 87 449 76 76 450 87 87 451 88 88 452 87 87 453 76 76 454 75 75 455 77 77 456 88 88 457 89 89 458 88 88 459 77 77 460 76 76 461 78 78 462 77 77 463 90 90 464 77 77 465 89 89 466 90 90 467 91 91 468 79 79 469 78 78 470 91 91 471 78 78 472 90 90 473 91 91 474 80 80 475 79 79 476 80 80 477 91 91 478 92 92 479 93 93 480 80 80 481 92 92 482 80 80 483 93 93 484 81 81 485 94 94 486 81 81 487 93 93 488 81 81 489 94 94 490 82 82 491 94 94 492 83 83 493 82 82 494 83 83 495 94 94 496 95 95 497 95 95 498 84 84 499 83 83 500 72 72 501 83 83 502 84 84 503 85 85 504 84 84 505 97 96 506 84 84 507 96 97 508 97 96 509 85 85 510 98 98 511 86 86 512 98 98 513 85 85 514 97 96 515 98 98 516 99 99 517 86 86 518 87 87 519 86 86 520 99 99 521 99 99 522 88 88 523 87 87 524 88 88 525 99 99 526 100 100 527 89 89 528 100 100 529 101 101 530 100 100 531 89 89 532 88 88 533 90 90 534 89 89 535 102 102 536 89 89 537 101 101 538 102 102 539 91 91 540 102 102 541 103 103 542 102 102 543 91 91 544 90 90 545 92 92 546 103 103 547 104 104 548 103 103 549 92 92 550 91 91 551 105 105 552 92 92 553 104 104 554 92 92 555 105 105 556 93 93 557 106 106 558 93 93 559 105 105 560 93 93 561 106 106 562 94 94 563 106 106 564 95 95 565 94 94 566 95 95 567 106 106 568 107 107 569 107 107 570 96 97 571 95 95 572 84 84 573 95 95 574 96 97 575 97 96 576 96 97 577 109 108 578 96 97 579 108 109 580 109 108 581 97 96 582 110 110 583 98 98 584 110 110 585 97 96 586 109 108 587 110 110 588 99 99 589 98 98 590 99 99 591 110 110 592 111 111 593 111 111 594 100 100 595 99 99 596 100 100 597 111 111 598 112 112 599 101 101 600 112 112 601 113 113 602 112 112 603 101 101 604 100 100 605 102 102 606 113 113 607 114 114 608 113 113 609 102 102 610 101 101 611 114 114 612 103 103 613 102 102 614 103 103 615 114 114 616 115 115 617 104 104 618 115 115 619 116 116 620 115 115 621 104 104 622 103 103 623 117 117 624 104 104 625 116 116 626 104 104 627 117 117 628 105 105 629 105 105 630 118 118 631 106 106 632 118 118 633 105 105 634 117 117 635 119 119 636 106 106 637 118 118 638 106 106 639 119 119 640 107 107 641 119 119 642 108 109 643 107 107 644 96 97 645 107 107 646 108 109 647 121 120 648 109 108 649 108 109 650 108 109 651 120 121 652 121 120 653 109 108 654 122 122 655 110 110 656 122 122 657 109 108 658 121 120 659 122 122 660 111 111 661 110 110 662 111 111 663 122 122 664 123 123 665 123 123 666 112 112 667 111 111 668 112 112 669 123 123 670 124 124 671 113 113 672 124 124 673 125 125 674 124 124 675 113 113 676 112 112 677 114 114 678 125 125 679 126 126 680 125 125 681 114 114 682 113 113 683 126 126 684 115 115 685 114 114 686 115 115 687 126 126 688 127 127 689 127 127 690 116 116 691 115 115 692 116 116 693 127 127 694 128 128 695 117 117 696 116 116 697 129 129 698 116 116 699 128 128 700 129 129 701 117 117 702 130 130 703 118 118 704 130 130 705 117 117 706 129 129 707 131 131 708 118 118 709 130 130 710 118 118 711 131 131 712 119 119 713 108 109 714 119 119 715 120 121 716 119 119 717 131 131 718 120 121 719 1 3 720 132 132 721 0 1 722 2 5 723 132 132 724 1 3 725 3 6 726 132 132 727 2 5 728 4 8 729 132 132 730 3 6 731 5 10 732 132 132 733 4 8 734 6 12 735 132 132 736 5 10 737 7 14 738 132 132 739 6 12 740 8 16 741 132 132 742 7 14 743 9 19 744 132 132 745 8 16 746 10 21 747 132 132 748 9 19 749 11 23 750 132 132 751 10 21 752 0 1 753 132 132 754 11 23 755 120 121 756 133 133 757 121 120 758 121 120 759 133 133 760 122 122 761 122 122 762 133 133 763 123 123 764 123 123 765 133 133 766 124 124 767 124 124 768 133 133 769 125 125 770 125 125 771 133 133 772 126 126 773 126 126 774 133 133 775 127 127 776 127 127 777 133 133 778 128 128 779 128 128 780 133 133 781 129 129 782 129 129 783 133 133 784 130 130 785 130 130 786 133 133 787 131 131 788 131 131 789 133 133 790 120 121 791</p>
        </triangles>
      </mesh>
    </geometry>
  </library_geometries>
  <library_controllers/>
  <library_visual_scenes>
    <visual_scene id="Scene" name="Scene">
      <node id="VIS_Alpha_Joints_030" name="VIS_Alpha_Joints_030" type="NODE">
        <instance_geometry url="#Alpha_JointsMesh_313-mesh" name="VIS_Alpha_Joints_030">
          <bind_material>
            <technique_common>
              <instance_material symbol="Alpha_Joints_MAT_007-material" target="#Alpha_Joints_MAT_007-material"/>
            </technique_common>
          </bind_material>
        </instance_geometry>
      </node>
    </visual_scene>
  </library_visual_scenes>
  <scene>
    <instance_visual_scene url="#Scene"/>
  </scene>
</COLLADA>