<?xml version="1.0" encoding="utf-8"?>
<COLLADA xmlns="http://www.collada.org/2005/11/COLLADASchema" version="1.4.1" xmlns:xsi="http://www.w3.org/2001/XMLSchema-instance">
  <asset>
    <contributor>
      <author>Blender User</author>
      <authoring_tool>Blender 2.79.0 commit date:2018-03-22, commit time:14:10, hash:f4dc9f9d68b</authoring_tool>
    </contributor>
    <created>2018-10-09T21:23:55</created>
    <modified>2018-10-09T21:23:55</modified>
    <unit name="meter" meter="1"/>
    <up_axis>Z_UP</up_axis>
  </asset>
  <library_images/>
  <library_effects>
    <effect id="Alpha_Body_MAT_007-effect">
      <profile_COMMON>
        <technique sid="common">
          <phong>
            <emission>
              <color sid="emission">0 0 0 1</color>
            </emission>
            <ambient>
              <color sid="ambient">0 0 0 1</color>
            </ambient>
            <diffuse>
              <color sid="diffuse">0.077256 0.337296 0.4176 1</color>
            </diffuse>
            <specular>
              <color sid="specular">0.239315 0.239315 0.239315 1</color>
            </specular>
            <shininess>
              <float sid="shininess">3</float>
            </shininess>
            <transparent opaque="A_ONE">
              <color>1 1 1 1</color>
            </transparent>
            <index_of_refraction>
              <float sid="index_of_refraction">1</float>
            </index_of_refraction>
          </phong>
        </technique>
      </profile_COMMON>
    </effect>
  </library_effects>
  <library_materials>
    <material id="Alpha_Body_MAT_007-material" name="Alpha_Body_MAT_007">
      <instance_effect url="#Alpha_Body_MAT_007-effect"/>
    </material>
  </library_materials>
  <library_geometries>
    <geometry id="Alpha_SurfaceMesh_310-mesh" name="Alpha_SurfaceMesh.310">
      <mesh>
        <source id="Alpha_SurfaceMesh_310-mesh-positions">
          <float_array id="Alpha_SurfaceMesh_310-mesh-positions-array" count="516">87.02322 142.3953 -5.145024 89.35588 142.3485 -5.364905 87.13149 144.3421 -4.723687 89.53454 144.0857 -4.954009 87.25221 144.7921 -6.761454 89.6262 144.4296 -6.654906 87.15956 142.8264 -7.079866 89.59512 142.6529 -6.927241 87.76599 144.2931 -4.829993 87.60435 142.2942 -5.278913 87.89962 144.7445 -6.709701 87.73193 142.7418 -7.105467 87.01518 144.0965 -4.631298 87.67187 143.9725 -4.61637 87.36531 144.3454 -4.730554 87.27568 144.0269 -4.57327 86.91083 143.6753 -4.586854 87.6026 143.5491 -4.584791 87.19511 143.6057 -4.53227 88.1146 143.5104 -4.685675 88.23826 144.1858 -4.959725 88.17131 143.8963 -4.745668 87.24695 142.3051 -5.164054 87.58085 142.629 -4.947557 86.93082 142.6875 -4.898597 87.20127 142.6412 -4.858392 88.06526 142.3271 -5.366265 88.06035 142.6533 -5.034651 87.57349 143.0754 -4.703779 88.07466 143.0733 -4.788704 86.87819 143.1718 -4.656841 87.17181 143.117 -4.631176 89.49629 142.543 -5.189878 89.03772 142.3267 -5.375983 89.09464 142.5938 -5.110584 89.64483 142.9236 -4.964921 89.1764 142.9822 -4.898022 88.62823 143.052 -4.857535 88.57628 142.3507 -5.386727 88.59031 142.6678 -5.078952 89.16841 144.064 -5.027622 89.64664 143.8465 -4.815655 89.17469 143.7937 -4.865866 88.71897 144.0967 -5.038638 88.68423 143.8168 -4.858387 88.65966 143.465 -4.774729 89.70531 143.3975 -4.784997 89.19323 143.4193 -4.79438 87.83036 144.5451 -5.127419 87.10247 144.5047 -4.963301 87.41023 144.5948 -5.017818 88.29953 144.4153 -5.240053 87.8766 144.7326 -5.503477 88.34725 144.5825 -5.57434 87.0964 144.7045 -5.412698 87.44713 144.7988 -5.443552 89.70439 144.2463 -5.14463 89.24535 144.2659 -5.257921 89.83491 144.4308 -5.526793 89.32195 144.4302 -5.583799 88.82508 144.4734 -5.604374 88.77304 144.3142 -5.289907 89.30367 144.4308 -6.629343 89.75471 144.5273 -6.424435 89.34996 144.5615 -6.338907 88.85196 144.4562 -6.619794 88.86167 144.5641 -6.304884 88.85663 144.563 -5.955238 89.84387 144.5467 -5.997672 89.35326 144.5366 -5.96682 87.17858 144.8626 -6.481318 87.91432 144.8528 -6.334726 87.51377 144.8106 -6.76984 87.50261 144.9507 -6.41407 87.12084 144.8428 -5.991153 87.90406 144.8479 -5.921977 87.46778 144.9627 -5.943846 88.37165 144.6763 -5.938108 88.37038 144.5736 -6.639726 88.37461 144.6817 -6.302307 87.85463 144.4866 -6.996989 87.13417 144.5623 -6.919339 87.45629 144.5431 -7.018396 88.35179 144.3244 -6.895743 87.79133 144.0763 -7.142469 88.32146 143.9624 -7.055448 87.04679 144.1484 -7.032742 87.37498 144.1317 -7.163144 89.74588 144.201 -6.818938 89.34118 144.1916 -6.860048 89.87342 143.77 -7.015076 89.37999 143.8019 -7.026963 88.85292 143.8569 -7.035532 88.85528 144.2186 -6.871792 89.25605 142.6414 -6.974445 89.71839 142.8387 -6.979519 89.34375 142.9183 -7.086913 88.73043 142.6736 -6.991622 88.78893 143.0112 -7.113551 88.83767 143.4356 -7.118375 89.84957 143.266 -7.020307 89.39424 143.3498 -7.117127 87.08684 143.0816 -7.109957 87.74381 143.1116 -7.197788 87.37143 142.7794 -7.12133 87.34949 143.1035 -7.204456 87.01669 143.6216 -7.08933 87.75724 143.5985 -7.202999 87.3125 143.6365 -7.1999 88.28038 143.5237 -7.137045 88.20571 142.7184 -7.032931 88.24234 143.0825 -7.126756 87.70803 142.4431 -6.918471 87.08374 142.6703 -6.922496 87.34438 142.5185 -6.943665 88.16822 142.4264 -6.84686 87.66719 142.1967 -6.60279 88.13188 142.1995 -6.559153 87.00767 142.4496 -6.531161 87.29782 142.2602 -6.590567 89.66528 142.531 -6.767756 89.2313 142.4208 -6.776903 89.68276 142.3439 -6.411337 89.21889 142.2252 -6.464931 88.66754 142.1925 -6.504614 88.69355 142.4021 -6.790998 89.47357 142.2657 -5.597267 89.0776 142.1724 -5.697617 88.59563 142.1427 -5.750991 88.633 142.0904 -6.1479 89.60925 142.2488 -5.989042 89.15248 142.1305 -6.085138 86.97467 142.3233 -5.468416 87.62519 142.086 -5.707486 87.25466 142.1268 -5.60844 86.96654 142.3252 -5.995512 87.65087 142.0556 -6.196402 87.26833 142.1109 -6.133286 88.11033 142.0771 -6.19437 88.08553 142.1212 -5.767394 89.90729 142.7264 -6.784647 90.12057 143.1794 -6.798198 90.30383 143.0402 -6.285288 90.00557 142.5561 -6.363835 90.05334 144.3012 -6.627406 90.16311 144.3419 -6.074946 90.3582 143.7011 -6.19007 90.19785 143.7089 -6.777212 89.99015 144.0019 -4.980425 90.08042 143.4492 -5.018845 90.31222 143.5675 -5.511947 90.16665 144.2057 -5.454158 89.75363 142.4585 -5.435388 89.95237 142.4496 -5.865989 90.26958 142.9212 -5.706249 89.99009 142.8842 -5.216526 86.79482 142.6966 -5.213489 86.73482 143.237 -4.936269 86.70498 143.3272 -5.552714 86.77085 142.7307 -5.787235 86.88863 144.2382 -4.881032 86.84703 144.4171 -5.38837 86.7276 143.9081 -5.43583 86.75616 143.7734 -4.834327 86.95333 144.5912 -6.59683 86.85081 144.1354 -6.728184 86.75836 144.0396 -6.138314 86.88035 144.5358 -6.041852 86.92091 142.9789 -6.899817 86.81516 142.8158 -6.430685 86.74118 143.4334 -6.26978 86.83186 143.5602 -6.839251</float_array>
          <technique_common>
            <accessor source="#Alpha_SurfaceMesh_310-mesh-positions-array" count="172" stride="3">
              <param name="X" type="float"/>
              <param name="Y" type="float"/>
              <param name="Z" type="float"/>
            </accessor>
          </technique_common>
        </source>
        <source id="Alpha_SurfaceMesh_310-mesh-normals">
          <float_array id="Alpha_SurfaceMesh_310-mesh-normals-array" count="516">0.01089519 0.249674 0.9682688 0.1106324 0.616795 0.7793102 -0.2633241 0.6381977 0.7234392 -0.4671263 0.3356497 0.8180051 -0.5607333 0.05276805 0.8263134 -0.03378474 -0.04098725 0.9985883 0.1519532 -0.09412002 0.9838962 0.2138804 0.2635356 0.9406404 0.2924984 0.5983641 0.7459257 -0.5841705 -0.249526 0.7723222 -0.01852518 -0.3292726 0.9440532 0.1548237 -0.3612859 0.9195119 0.2755858 0.321059 0.906076 0.1882709 -0.05926764 0.9803273 0.1285464 -0.3761783 0.9175869 0.09607404 0.00701934 0.9953495 0.06036669 -0.3582937 0.9316553 0.1279961 0.3699192 0.9202048 0.2944532 0.6168014 0.7299681 0.1339802 0.6389849 0.7574613 -0.03051918 -0.5636898 0.8254225 -0.5769973 -0.5028965 0.6435598 -0.5109584 -0.7301194 0.4537038 -0.08136355 -0.8310622 0.5501961 0.1804326 -0.581523 0.7932687 0.1447837 -0.8134928 0.5632648 0.1088635 -0.8074885 0.579751 0.1215894 -0.6067876 0.7855094 0.02484273 -0.6003763 0.7993318 0.001220762 -0.7949097 0.6067267 0.2441839 -0.6356534 0.7323381 0.02093595 -0.598872 0.8005712 0.1496382 -0.8131371 0.5625091 -0.004486203 -0.8106373 0.5855315 0.03918671 -0.383841 0.9225673 0.2973472 -0.4668195 0.8328651 0.2924668 -0.1296766 0.9474425 -0.00564599 -0.03726387 0.9992895 -0.05560624 0.3453572 0.9368225 0.006470143 0.6380733 0.7699485 -0.0693705 0.6476514 0.7587723 0.1457915 0.2952149 0.9442421 -0.4178406 0.7802885 0.4653592 0.041018 0.8370247 0.5456256 0.2848368 0.7837057 0.5519725 -0.02111893 0.9330785 0.3590524 0.2693921 0.8887163 0.3709597 -0.5019851 0.8243018 0.2617965 0.2882902 0.7802085 0.5551248 0.138252 0.8120855 0.5669248 0.2837675 0.8877425 0.3624765 0.1471931 0.9204533 0.3620775 0.2935019 0.9445347 0.147346 0.2887415 0.9472833 0.138862 -0.05838292 0.9885121 0.139411 -0.5692179 0.8190499 0.07175117 -0.03198426 0.8395572 0.5423291 0.1333993 0.8063473 0.5762021 0.005798578 0.9347681 0.3552113 0.246775 0.9029293 0.3518818 0.01141411 0.9869848 0.1604079 0.2959107 0.9521269 0.07675486 0.1460329 0.9799008 0.1359006 -6.10373e-4 0.9840441 -0.1779238 0.24946 0.9308209 -0.2670998 0.09412199 0.7883787 -0.6079476 -0.006012201 0.8273388 -0.5616712 0.1301629 0.9780683 -0.1626045 0.1312925 0.8476641 -0.5140308 0.2954546 0.9448994 -0.1409673 0.2909708 0.818527 -0.4953278 0.01013219 0.9859052 -0.166998 -0.3387315 0.7864773 -0.5164442 -0.4987179 0.8508814 -0.165171 0.06836384 0.8283623 -0.5560057 0.3080015 0.9426823 -0.128395 0.3021727 0.8201178 -0.4858997 -0.04187214 0.5079593 -0.8603629 -0.5297645 0.4896918 -0.6924966 0.2327739 0.5090384 -0.8286713 0.1414851 0.214425 -0.9664388 -0.1344963 0.2136926 -0.9675982 -0.6156894 0.2256876 -0.754978 0.2314612 0.5343997 -0.8129223 0.09958475 0.5652802 -0.8188658 0.1480807 0.2762321 -0.9496147 0.06625646 0.2966741 -0.9526776 0.0743131 0.06341797 -0.9952164 0.09509658 0.0759918 -0.9925633 -0.1833579 0.05636852 -0.9814288 -0.6118836 0.03943103 -0.7899643 0.1904085 0.5291094 -0.8269147 0.04855692 0.5403218 -0.8400563 0.04818975 0.3015599 -0.9522287 0.3502978 0.2288625 -0.9082474 0.09982681 0.02923691 -0.9945753 0.414475 -0.1112713 -0.9032327 0.03058034 0.08890277 -0.9955708 0.05551356 -0.534963 -0.8430498 0.1143547 -0.2353322 -0.9651642 0.2682902 -0.5638337 -0.7810966 0.3830174 -0.3219178 -0.865833 0.004425168 -0.1854622 -0.9826415 0.01342821 -0.4734673 -0.8807091 0.07886064 -0.1495422 -0.9856055 0.08313298 -0.4088287 -0.9088169 -0.1374602 -0.4132658 -0.9001755 -0.4453737 -0.3872947 -0.8072454 -0.1497282 -0.1210399 -0.9812904 -0.5581356 -0.130195 -0.8194718 0.07428276 -0.1300712 -0.9887182 0.05630803 -0.3984596 -0.9154559 -0.6251854 -0.513943 -0.5873721 -0.2474792 -0.6522842 -0.7164353 0.001739561 -0.6716656 -0.7408525 -0.05389714 -0.8773393 -0.4768341 -0.3584815 -0.8215227 -0.4433866 -0.7412938 -0.5837204 -0.3312917 0.07059079 -0.6769759 -0.7326123 0.0435816 -0.7147628 -0.6980077 0.06494534 -0.8983395 -0.4344747 0.0438866 -0.8804184 -0.4721627 0.03708094 -0.9934948 -0.107672 -0.05179095 -0.9890037 -0.1385264 -0.3810619 -0.9145973 -0.1352913 -0.7715896 -0.6305598 -0.0839281 0.384297 -0.7430189 -0.5479406 0.1064813 -0.7663668 -0.6335169 0.1690451 -0.9152364 -0.3657405 0.4238551 -0.8597654 -0.2848692 0.3822509 -0.9240553 0.002471983 0.1622702 -0.9854932 -0.04971563 0.05646055 -0.9958123 -0.07190328 0.08578884 -0.9576249 0.2749456 0.2848642 -0.9139215 0.2891368 0.01641905 -0.9518472 0.3061329 0.06866848 -0.9581853 0.277787 -0.6987203 -0.700521 0.1451216 -0.2771168 -0.9403658 0.1972778 0.02563619 -0.9698416 0.2423841 0.6422468 -0.5129978 -0.5695195 0.7870665 -0.2047856 -0.5818842 0.7212853 -0.6526481 -0.2319442 0.8309788 0.1069395 -0.5459288 0.9887878 0.1084648 -0.1026356 0.9431486 -0.2759802 -0.1852177 0.6698064 -0.7355144 0.1018733 0.9057454 -0.3698608 0.2069499 0.6334542 0.5998222 -0.4888243 0.7874582 0.6153905 -0.03470039 0.7719195 0.5465665 0.3246621 0.9641963 0.007233023 0.2650907 0.5566402 0.4116433 0.7215965 0.7464942 -0.1185052 0.6547542 0.6762433 -0.455071 0.5793145 0.5132459 -0.7273705 0.4555336 -0.9198403 -0.348465 0.1801837 -0.9606286 -0.1081913 0.2559052 -0.9630817 -0.2671616 -0.0331434 -0.9303341 0.135778 0.3406505 -0.9894648 0.1389847 0.04052954 -0.9993487 -0.03604304 -0.001831114 -0.9928266 -0.02383559 -0.117164 -0.9463919 -0.2472032 -0.2079254 -0.8063845 0.4485136 0.3854604 -0.8767922 0.4593477 0.142251 -0.8923503 0.4511345 -0.01373362 -0.9862461 0.1481688 -0.0732451 -0.8353013 0.485494 -0.2580065 -0.923379 0.1949545 -0.3307025 -0.9216097 -0.005554437 -0.3880783 -0.8560621 -0.2189138 -0.4682248</float_array>
          <technique_common>
            <accessor source="#Alpha_SurfaceMesh_310-mesh-normals-array" count="172" stride="3">
              <param name="X" type="float"/>
              <param name="Y" type="float"/>
              <param name="Z" type="float"/>
            </accessor>
          </technique_common>
        </source>
        <source id="Alpha_SurfaceMesh_310-mesh-map-0">
          <float_array id="Alpha_SurfaceMesh_310-mesh-map-0-array" count="2040">0.191278 0.01594495 0.1894119 0.01686298 0.189221 0.015266 0.189221 0.015266 0.1903229 0.01421797 0.191278 0.01594495 0.1903229 0.01421797 0.192279 0.01256895 0.191278 0.01594495 0.191278 0.01594495 0.192279 0.01256895 0.193675 0.01471799 0.191278 0.01594495 0.194718 0.01838898 0.191917 0.01914 0.194718 0.01838898 0.191278 0.01594495 0.193675 0.01471799 0.18945 0.01997298 0.1894119 0.01686298 0.191917 0.01914 0.1894119 0.01686298 0.191278 0.01594495 0.191917 0.01914 0.192279 0.01256895 0.195402 0.01028698 0.193675 0.01471799 0.193675 0.01471799 0.195402 0.01028698 0.197272 0.01334095 0.193675 0.01471799 0.197272 0.01334095 0.194718 0.01838898 0.194718 0.01838898 0.197272 0.01334095 0.19857 0.01791197 0.191905 0.023835 0.191917 0.01914 0.194908 0.02366697 0.191917 0.01914 0.194718 0.01838898 0.194908 0.02366697 0.194718 0.01838898 0.19857 0.02372997 0.194908 0.02366697 0.19857 0.02372997 0.194718 0.01838898 0.19857 0.01791197 0.19418 0.02958297 0.194908 0.02366697 0.197742 0.03027999 0.194908 0.02366697 0.19857 0.02372997 0.197742 0.03027999 0.191295 0.02909398 0.194908 0.02366697 0.19418 0.02958297 0.194908 0.02366697 0.191295 0.02909398 0.191905 0.023835 0.189233 0.02421796 0.18945 0.01997298 0.191905 0.023835 0.18945 0.01997298 0.191917 0.01914 0.191905 0.023835 0.188754 0.02887898 0.189233 0.02421796 0.191295 0.02909398 0.189233 0.02421796 0.191905 0.023835 0.191295 0.02909398 0.257062 0.01204395 0.258261 0.009980976 0.259793 0.01188796 0.259793 0.01188796 0.259417 0.01366496 0.257062 0.01204395 0.256145 0.01543295 0.257062 0.01204395 0.259417 0.01366496 0.256145 0.01543295 0.259417 0.01366496 0.259138 0.016604 0.252487 0.01398998 0.25393 0.009594976 0.257062 0.01204395 0.252487 0.01398998 0.257062 0.01204395 0.256145 0.01543295 0.255848 0.006774961 0.258261 0.009980976 0.25393 0.009594976 0.25393 0.009594976 0.258261 0.009980976 0.257062 0.01204395 0.256145 0.01543295 0.25872 0.02067899 0.25539 0.02005398 0.25872 0.02067899 0.256145 0.01543295 0.259138 0.016604 0.255021 0.025303 0.25539 0.02005398 0.258264 0.02541595 0.25539 0.02005398 0.25872 0.02067899 0.258264 0.02541595 0.251601 0.02547997 0.251601 0.01951199 0.255021 0.025303 0.251601 0.01951199 0.25539 0.02005398 0.255021 0.025303 0.252487 0.01398998 0.25539 0.02005398 0.251601 0.01951199 0.25539 0.02005398 0.252487 0.01398998 0.256145 0.01543295 0.25663 0.03393095 0.255563 0.03024798 0.258225 0.03250294 0.258225 0.03250294 0.255563 0.03024798 0.258217 0.02967298 0.252376 0.03122699 0.25663 0.03393095 0.253688 0.03593397 0.25663 0.03393095 0.252376 0.03122699 0.255563 0.03024798 0.251601 0.02547997 0.255563 0.03024798 0.252376 0.03122699 0.255563 0.03024798 0.251601 0.02547997 0.255021 0.025303 0.255021 0.025303 0.258217 0.02967298 0.255563 0.03024798 0.258217 0.02967298 0.255021 0.025303 0.258264 0.02541595 0.190119 0.03953194 0.192636 0.03520494 0.19626 0.036942 0.190119 0.03953194 0.19626 0.036942 0.193277 0.04228895 0.192636 0.03520494 0.197742 0.03027999 0.19626 0.036942 0.197742 0.03027999 0.192636 0.03520494 0.19418 0.02958297 0.190084 0.03386199 0.1871629 0.036017 0.187958 0.03305399 0.1871629 0.036017 0.190084 0.03386199 0.18823 0.03748297 0.187958 0.03305399 0.191295 0.02909398 0.190084 0.03386199 0.191295 0.02909398 0.187958 0.03305399 0.188754 0.02887898 0.192636 0.03520494 0.18823 0.03748297 0.190084 0.03386199 0.18823 0.03748297 0.192636 0.03520494 0.190119 0.03953194 0.191295 0.02909398 0.19418 0.02958297 0.190084 0.03386199 0.190084 0.03386199 0.19418 0.02958297 0.192636 0.03520494 0.1894119 0.01686298 0.187695 0.01517295 0.189221 0.015266 0.187695 0.01517295 0.1894119 0.01686298 0.187335 0.01729398 0.18945 0.01997298 0.187335 0.01729398 0.1894119 0.01686298 0.187335 0.01729398 0.18945 0.01997298 0.187032 0.02047896 0.187032 0.02047896 0.184751 0.01755899 0.187335 0.01729398 0.184751 0.01755899 0.187032 0.02047896 0.184467 0.02075195 0.187335 0.01729398 0.185088 0.01512998 0.187695 0.01517295 0.185088 0.01512998 0.187335 0.01729398 0.184751 0.01755899 0.189233 0.02421796 0.187032 0.02047896 0.18945 0.01997298 0.187032 0.02047896 0.189233 0.02421796 0.186685 0.02457797 0.188754 0.02887898 0.186685 0.02457797 0.189233 0.02421796 0.186685 0.02457797 0.188754 0.02887898 0.186258 0.02894198 0.186258 0.02894198 0.184108 0.02478396 0.186685 0.02457797 0.184108 0.02478396 0.186258 0.02894198 0.183722 0.02903699 0.186685 0.02457797 0.184467 0.02075195 0.187032 0.02047896 0.184467 0.02075195 0.186685 0.02457797 0.184108 0.02478396 0.184108 0.02478396 0.181856 0.020756 0.184467 0.02075195 0.181856 0.020756 0.184108 0.02478396 0.181532 0.02477896 0.184467 0.02075195 0.18193 0.01754999 0.184751 0.01755899 0.18193 0.01754999 0.184467 0.02075195 0.181856 0.020756 0.184751 0.01755899 0.181919 0.015154 0.185088 0.01512998 0.181919 0.015154 0.184751 0.01755899 0.18193 0.01754999 0.187958 0.03305399 0.1871629 0.036017 0.185795 0.03310096 0.1871629 0.036017 0.185436 0.036686 0.185795 0.03310096 0.185436 0.036686 0.183413 0.033243 0.185795 0.03310096 0.183413 0.033243 0.185436 0.036686 0.183081 0.036951 0.186258 0.02894198 0.185795 0.03310096 0.183722 0.02903699 0.185795 0.03310096 0.183413 0.033243 0.183722 0.02903699 0.187958 0.03305399 0.186258 0.02894198 0.188754 0.02887898 0.186258 0.02894198 0.187958 0.03305399 0.185795 0.03310096 0.183081 0.036951 0.180941 0.03325694 0.183413 0.033243 0.180941 0.03325694 0.183081 0.036951 0.180609 0.03673499 0.183413 0.033243 0.181179 0.02907997 0.183722 0.02903699 0.181179 0.02907997 0.183413 0.033243 0.180941 0.03325694 0.183722 0.02903699 0.181532 0.02477896 0.184108 0.02478396 0.181532 0.02477896 0.183722 0.02903699 0.181179 0.02907997 0.17862 0.03325599 0.178396 0.03625696 0.176896 0.03564095 0.17862 0.03325599 0.176896 0.03564095 0.176563 0.03313499 0.176563 0.03313499 0.178718 0.02906996 0.17862 0.03325599 0.178718 0.02906996 0.176563 0.03313499 0.176294 0.02904397 0.180609 0.03673499 0.17862 0.03325599 0.180941 0.03325694 0.17862 0.03325599 0.180609 0.03673499 0.178396 0.03625696 0.179019 0.02457696 0.176294 0.02904397 0.176519 0.02437698 0.176294 0.02904397 0.179019 0.02457696 0.178718 0.02906996 0.181532 0.02477896 0.181179 0.02907997 0.179019 0.02457696 0.181179 0.02907997 0.178718 0.02906996 0.179019 0.02457696 0.180941 0.03325694 0.178718 0.02906996 0.181179 0.02907997 0.178718 0.02906996 0.180941 0.03325694 0.17862 0.03325599 0.17946 0.01748996 0.177871 0.01554197 0.179388 0.015338 0.177871 0.01554197 0.17946 0.01748996 0.17744 0.01723796 0.181919 0.015154 0.18193 0.01754999 0.17946 0.01748996 0.181919 0.015154 0.17946 0.01748996 0.179388 0.015338 0.18193 0.01754999 0.181856 0.020756 0.179369 0.02057498 0.18193 0.01754999 0.179369 0.02057498 0.17946 0.01748996 0.17946 0.01748996 0.177029 0.02012598 0.17744 0.01723796 0.177029 0.02012598 0.17946 0.01748996 0.179369 0.02057498 0.181856 0.020756 0.179019 0.02457696 0.179369 0.02057498 0.179019 0.02457696 0.181856 0.020756 0.181532 0.02477896 0.179369 0.02057498 0.176519 0.02437698 0.177029 0.02012598 0.176519 0.02437698 0.179369 0.02057498 0.179019 0.02457696 0.175608 0.01633197 0.176879 0.01431298 0.177871 0.01554197 0.177871 0.01554197 0.17744 0.01723796 0.175608 0.01633197 0.174674 0.019436 0.175608 0.01633197 0.17744 0.01723796 0.174674 0.019436 0.17744 0.01723796 0.177029 0.02012598 0.171759 0.01844298 0.173334 0.01468795 0.175608 0.01633197 0.171759 0.01844298 0.175608 0.01633197 0.174674 0.019436 0.175316 0.01231497 0.176879 0.01431298 0.173334 0.01468795 0.176879 0.01431298 0.175608 0.01633197 0.173334 0.01468795 0.177029 0.02012598 0.176519 0.02437698 0.1738899 0.02424198 0.177029 0.02012598 0.1738899 0.02424198 0.174674 0.019436 0.176519 0.02437698 0.173759 0.02939295 0.1738899 0.02424198 0.173759 0.02939295 0.176519 0.02437698 0.176294 0.02904397 0.1738899 0.02424198 0.173759 0.02939295 0.170771 0.02409696 0.170744 0.02996098 0.170771 0.02409696 0.173759 0.02939295 0.171759 0.01844298 0.1738899 0.02424198 0.170771 0.02409696 0.1738899 0.02424198 0.171759 0.01844298 0.174674 0.019436 0.167801 0.01735895 0.170771 0.02409696 0.166905 0.023907 0.170771 0.02409696 0.167801 0.01735895 0.171759 0.01844298 0.170085 0.01210695 0.171759 0.01844298 0.167801 0.01735895 0.171759 0.01844298 0.170085 0.01210695 0.173334 0.01468795 0.172632 0.009071946 0.175316 0.01231497 0.170085 0.01210695 0.175316 0.01231497 0.173334 0.01468795 0.170085 0.01210695 0.175741 0.03700399 0.174415 0.03391295 0.176896 0.03564095 0.176896 0.03564095 0.174415 0.03391295 0.176563 0.03313499 0.171841 0.03530699 0.175741 0.03700399 0.173725 0.03924298 0.175741 0.03700399 0.171841 0.03530699 0.174415 0.03391295 0.170744 0.02996098 0.174415 0.03391295 0.171841 0.03530699 0.174415 0.03391295 0.170744 0.02996098 0.173759 0.02939295 0.176563 0.03313499 0.173759 0.02939295 0.176294 0.02904397 0.173759 0.02939295 0.176563 0.03313499 0.174415 0.03391295 0.16875 0.03706699 0.173725 0.03924298 0.170901 0.04171496 0.173725 0.03924298 0.16875 0.03706699 0.171841 0.03530699 0.16875 0.03706699 0.167161 0.030689 0.171841 0.03530699 0.167161 0.030689 0.170744 0.02996098 0.171841 0.03530699 0.166905 0.023907 0.170744 0.02996098 0.167161 0.030689 0.170744 0.02996098 0.166905 0.023907 0.170771 0.02409696 0.270181 0.03240096 0.272058 0.03356295 0.269425 0.03525495 0.269425 0.03525495 0.272058 0.03356295 0.270298 0.03666299 0.273634 0.02848696 0.270181 0.03240096 0.271158 0.02772599 0.270181 0.03240096 0.273634 0.02848696 0.272058 0.03356295 0.275001 0.03486198 0.270298 0.03666299 0.272058 0.03356295 0.270298 0.03666299 0.275001 0.03486198 0.272539 0.03913396 0.271158 0.02772599 0.274502 0.02322995 0.273634 0.02848696 0.274502 0.02322995 0.271158 0.02772599 0.271869 0.02292299 0.274502 0.02322995 0.276772 0.02927595 0.273634 0.02848696 0.276772 0.02927595 0.274502 0.02322995 0.277769 0.02351099 0.273634 0.02848696 0.275001 0.03486198 0.272058 0.03356295 0.275001 0.03486198 0.273634 0.02848696 0.276772 0.02927595 0.271978 0.01589095 0.271755 0.01423698 0.273897 0.01519197 0.271755 0.01423698 0.272929 0.01315099 0.273897 0.01519197 0.272929 0.01315099 0.27723 0.01362395 0.273897 0.01519197 0.27723 0.01362395 0.272929 0.01315099 0.275889 0.01074498 0.273897 0.01519197 0.277962 0.01806098 0.274599 0.01855599 0.277962 0.01806098 0.273897 0.01519197 0.27723 0.01362395 0.272112 0.01878595 0.271978 0.01589095 0.274599 0.01855599 0.271978 0.01589095 0.273897 0.01519197 0.274599 0.01855599 0.274502 0.02322995 0.274599 0.01855599 0.277769 0.02351099 0.274599 0.01855599 0.277962 0.01806098 0.277769 0.02351099 0.271869 0.02292299 0.274599 0.01855599 0.274502 0.02322995 0.274599 0.01855599 0.271869 0.02292299 0.272112 0.01878595 0.270414 0.01388198 0.271978 0.01589095 0.270143 0.01596599 0.271978 0.01589095 0.270414 0.01388198 0.271755 0.01423698 0.270143 0.01596599 0.272112 0.01878595 0.269928 0.01877599 0.272112 0.01878595 0.270143 0.01596599 0.271978 0.01589095 0.267509 0.018507 0.267664 0.01573795 0.270143 0.01596599 0.267509 0.018507 0.270143 0.01596599 0.269928 0.01877599 0.267664 0.01573795 0.267871 0.01334697 0.270414 0.01388198 0.267664 0.01573795 0.270414 0.01388198 0.270143 0.01596599 0.269542 0.02260398 0.269928 0.01877599 0.272112 0.01878595 0.269542 0.02260398 0.272112 0.01878595 0.271869 0.02292299 0.271869 0.02292299 0.268842 0.02721196 0.269542 0.02260398 0.268842 0.02721196 0.271869 0.02292299 0.271158 0.02772599 0.269542 0.02260398 0.26644 0.026802 0.267117 0.022246 0.26644 0.026802 0.269542 0.02260398 0.268842 0.02721196 0.267117 0.022246 0.267509 0.018507 0.269928 0.01877599 0.267117 0.022246 0.269928 0.01877599 0.269542 0.02260398 0.264568 0.02190899 0.264943 0.01820498 0.267509 0.018507 0.264568 0.02190899 0.267509 0.018507 0.267117 0.022246 0.264943 0.01820498 0.264974 0.01533198 0.267664 0.01573795 0.264943 0.01820498 0.267664 0.01573795 0.267509 0.018507 0.264974 0.01533198 0.264751 0.01273298 0.267871 0.01334697 0.264974 0.01533198 0.267871 0.01334697 0.267664 0.01573795 0.267991 0.03559297 0.268261 0.03187698 0.269425 0.03525495 0.269425 0.03525495 0.268261 0.03187698 0.270181 0.03240096 0.265828 0.03148698 0.267991 0.03559297 0.26537 0.03537899 0.267991 0.03559297 0.265828 0.03148698 0.268261 0.03187698 0.265828 0.03148698 0.268842 0.02721196 0.268261 0.03187698 0.268842 0.02721196 0.265828 0.03148698 0.26644 0.026802 0.268261 0.03187698 0.268842 0.02721196 0.271158 0.02772599 0.268261 0.03187698 0.271158 0.02772599 0.270181 0.03240096 0.262555 0.03461295 0.263269 0.03074896 0.265828 0.03148698 0.265828 0.03148698 0.26537 0.03537899 0.262555 0.03461295 0.26644 0.026802 0.263269 0.03074896 0.263925 0.02633094 0.263269 0.03074896 0.26644 0.026802 0.265828 0.03148698 0.264568 0.02190899 0.26644 0.026802 0.263925 0.02633094 0.26644 0.026802 0.264568 0.02190899 0.267117 0.022246 0.258217 0.02967298 0.260661 0.03002995 0.258225 0.03250294 0.258225 0.03250294 0.260661 0.03002995 0.259949 0.03344994 0.258217 0.02967298 0.261195 0.02581799 0.260661 0.03002995 0.261195 0.02581799 0.258217 0.02967298 0.258264 0.02541595 0.263269 0.03074896 0.259949 0.03344994 0.260661 0.03002995 0.259949 0.03344994 0.263269 0.03074896 0.262555 0.03461295 0.258264 0.02541595 0.261729 0.02135896 0.261195 0.02581799 0.261729 0.02135896 0.258264 0.02541595 0.25872 0.02067899 0.261195 0.02581799 0.264568 0.02190899 0.263925 0.02633094 0.264568 0.02190899 0.261195 0.02581799 0.261729 0.02135896 0.263925 0.02633094 0.260661 0.03002995 0.261195 0.02581799 0.260661 0.03002995 0.263925 0.02633094 0.263269 0.03074896 0.259417 0.01366496 0.261761 0.01217395 0.262076 0.01461398 0.261761 0.01217395 0.259417 0.01366496 0.259793 0.01188796 0.261761 0.01217395 0.264751 0.01273298 0.262076 0.01461398 0.264974 0.01533198 0.262076 0.01461398 0.264751 0.01273298 0.262076 0.01461398 0.264974 0.01533198 0.261996 0.01753896 0.261996 0.01753896 0.264974 0.01533198 0.264943 0.01820498 0.259138 0.016604 0.262076 0.01461398 0.261996 0.01753896 0.262076 0.01461398 0.259138 0.016604 0.259417 0.01366496 0.261729 0.02135896 0.264943 0.01820498 0.264568 0.02190899 0.264943 0.01820498 0.261729 0.02135896 0.261996 0.01753896 0.25872 0.02067899 0.261996 0.01753896 0.261729 0.02135896 0.261996 0.01753896 0.25872 0.02067899 0.259138 0.016604 0.268383 0.03797996 0.269425 0.03525495 0.270298 0.03666299 0.269425 0.03525495 0.268383 0.03797996 0.267991 0.03559297 0.270298 0.03666299 0.269889 0.04142498 0.268383 0.03797996 0.269889 0.04142498 0.270298 0.03666299 0.272539 0.03913396 0.265153 0.03834098 0.26537 0.03537899 0.268383 0.03797996 0.26537 0.03537899 0.267991 0.03559297 0.268383 0.03797996 0.170901 0.04171496 0.175882 0.041489 0.173362 0.04480099 0.175882 0.041489 0.170901 0.04171496 0.173725 0.03924298 0.179535 0.04258894 0.173362 0.04480099 0.175882 0.041489 0.173362 0.04480099 0.179535 0.04258894 0.178258 0.04796797 0.265232 0.042885 0.265153 0.03834098 0.268383 0.03797996 0.268383 0.03797996 0.269889 0.04142498 0.265232 0.042885 0.26173 0.03773498 0.265153 0.03834098 0.265232 0.042885 0.26173 0.03773498 0.265232 0.042885 0.26031 0.04209095 0.26173 0.03773498 0.262555 0.03461295 0.265153 0.03834098 0.262555 0.03461295 0.26537 0.03537899 0.265153 0.03834098 0.177495 0.03854894 0.175741 0.03700399 0.176896 0.03564095 0.177495 0.03854894 0.176896 0.03564095 0.178396 0.03625696 0.18028 0.03902399 0.178396 0.03625696 0.180609 0.03673499 0.178396 0.03625696 0.18028 0.03902399 0.177495 0.03854894 0.179535 0.04258894 0.177495 0.03854894 0.18028 0.03902399 0.177495 0.03854894 0.179535 0.04258894 0.175882 0.041489 0.177495 0.03854894 0.175882 0.041489 0.173725 0.03924298 0.173725 0.03924298 0.175741 0.03700399 0.177495 0.03854894 0.18335 0.03933894 0.180609 0.03673499 0.183081 0.036951 0.180609 0.03673499 0.18335 0.03933894 0.18028 0.03902399 0.179535 0.04258894 0.18335 0.03933894 0.183853 0.04294097 0.18335 0.03933894 0.179535 0.04258894 0.18028 0.03902399 0.184105 0.04794394 0.179535 0.04258894 0.183853 0.04294097 0.179535 0.04258894 0.184105 0.04794394 0.178258 0.04796797 0.18823 0.03748297 0.185436 0.036686 0.1871629 0.036017 0.185436 0.036686 0.18823 0.03748297 0.186073 0.03900295 0.18823 0.03748297 0.187372 0.04172497 0.186073 0.03900295 0.187372 0.04172497 0.18823 0.03748297 0.190119 0.03953194 0.185436 0.036686 0.18335 0.03933894 0.183081 0.036951 0.18335 0.03933894 0.185436 0.036686 0.186073 0.03900295 0.190119 0.03953194 0.189609 0.04581296 0.187372 0.04172497 0.189609 0.04581296 0.190119 0.03953194 0.193277 0.04228895 0.183853 0.04294097 0.189609 0.04581296 0.184105 0.04794394 0.189609 0.04581296 0.183853 0.04294097 0.187372 0.04172497 0.183853 0.04294097 0.186073 0.03900295 0.187372 0.04172497 0.186073 0.03900295 0.183853 0.04294097 0.18335 0.03933894 0.259949 0.03344994 0.258664 0.03608494 0.258225 0.03250294 0.258225 0.03250294 0.258664 0.03608494 0.25663 0.03393095 0.259949 0.03344994 0.26173 0.03773498 0.258664 0.03608494 0.26173 0.03773498 0.259949 0.03344994 0.262555 0.03461295 0.256248 0.03928697 0.258664 0.03608494 0.26031 0.04209095 0.258664 0.03608494 0.26173 0.03773498 0.26031 0.04209095 0.258664 0.03608494 0.256248 0.03928697 0.253688 0.03593397 0.253688 0.03593397 0.25663 0.03393095 0.258664 0.03608494 0.261761 0.01217395 0.259793 0.01188796 0.260632 0.009287953 0.259793 0.01188796 0.258261 0.009980976 0.260632 0.009287953 0.258261 0.009980976 0.258421 0.005532979 0.260632 0.009287953 0.258421 0.005532979 0.258261 0.009980976 0.255848 0.006774961 0.261761 0.01217395 0.264301 0.009713947 0.264751 0.01273298 0.264301 0.009713947 0.261761 0.01217395 0.260632 0.009287953 0.192279 0.01256895 0.193069 0.007956981 0.195402 0.01028698 0.193069 0.007956981 0.192279 0.01256895 0.190509 0.01130199 0.193069 0.007956981 0.186578 0.00990498 0.187636 0.005050957 0.186578 0.00990498 0.193069 0.007956981 0.190509 0.01130199 0.260632 0.009287953 0.258421 0.005532979 0.263832 0.005023956 0.260632 0.009287953 0.263832 0.005023956 0.264301 0.009713947 0.264301 0.009713947 0.269533 0.006548941 0.268332 0.01079297 0.269533 0.006548941 0.264301 0.009713947 0.263832 0.005023956 0.264751 0.01273298 0.268332 0.01079297 0.267871 0.01334697 0.268332 0.01079297 0.264751 0.01273298 0.264301 0.009713947 0.1903229 0.01421797 0.189221 0.015266 0.188682 0.01338398 0.189221 0.015266 0.187695 0.01517295 0.188682 0.01338398 0.187695 0.01517295 0.185712 0.01294797 0.188682 0.01338398 0.185712 0.01294797 0.187695 0.01517295 0.185088 0.01512998 0.186578 0.00990498 0.190509 0.01130199 0.188682 0.01338398 0.188682 0.01338398 0.185712 0.01294797 0.186578 0.00990498 0.1903229 0.01421797 0.190509 0.01130199 0.192279 0.01256895 0.190509 0.01130199 0.1903229 0.01421797 0.188682 0.01338398 0.185088 0.01512998 0.181919 0.01289898 0.185712 0.01294797 0.181919 0.01289898 0.185088 0.01512998 0.181919 0.015154 0.185712 0.01294797 0.181562 0.009640991 0.186578 0.00990498 0.181562 0.009640991 0.185712 0.01294797 0.181919 0.01289898 0.186578 0.00990498 0.181562 0.009640991 0.187636 0.005050957 0.187636 0.005050957 0.181562 0.009640991 0.180533 0.005024969 0.1788319 0.01335096 0.177871 0.01554197 0.176879 0.01431298 0.177871 0.01554197 0.1788319 0.01335096 0.179388 0.015338 0.177559 0.01091998 0.176879 0.01431298 0.175316 0.01231497 0.176879 0.01431298 0.177559 0.01091998 0.1788319 0.01335096 0.181919 0.01289898 0.179388 0.015338 0.1788319 0.01335096 0.179388 0.015338 0.181919 0.01289898 0.181919 0.015154 0.175282 0.006995975 0.175316 0.01231497 0.172632 0.009071946 0.175316 0.01231497 0.175282 0.006995975 0.177559 0.01091998 0.180533 0.005024969 0.177559 0.01091998 0.175282 0.006995975 0.177559 0.01091998 0.180533 0.005024969 0.181562 0.009640991 0.181562 0.009640991 0.181919 0.01289898 0.1788319 0.01335096 0.181562 0.009640991 0.1788319 0.01335096 0.177559 0.01091998 0.270414 0.01388198 0.271369 0.01190096 0.271755 0.01423698 0.271755 0.01423698 0.271369 0.01190096 0.272929 0.01315099 0.268332 0.01079297 0.270414 0.01388198 0.267871 0.01334697 0.270414 0.01388198 0.268332 0.01079297 0.271369 0.01190096 0.269533 0.006548941 0.271369 0.01190096 0.268332 0.01079297 0.271369 0.01190096 0.269533 0.006548941 0.27385 0.008754968 0.27385 0.008754968 0.272929 0.01315099 0.271369 0.01190096 0.272929 0.01315099 0.27385 0.008754968 0.275889 0.01074498</float_array>
          <technique_common>
            <accessor source="#Alpha_SurfaceMesh_310-mesh-map-0-array" count="1020" stride="2">
              <param name="S" type="float"/>
              <param name="T" type="float"/>
            </accessor>
          </technique_common>
        </source>
        <vertices id="Alpha_SurfaceMesh_310-mesh-vertices">
          <input semantic="POSITION" source="#Alpha_SurfaceMesh_310-mesh-positions"/>
        </vertices>
        <triangles material="Alpha_Body_MAT_007-material" count="340">
          <input semantic="VERTEX" source="#Alpha_SurfaceMesh_310-mesh-vertices" offset="0"/>
          <input semantic="NORMAL" source="#Alpha_SurfaceMesh_310-mesh-normals" offset="1"/>
          <input semantic="TEXCOORD" source="#Alpha_SurfaceMesh_310-mesh-map-0" offset="2" set="0"/>
          <p>15 0 0 14 1 1 2 2 2 2 2 3 12 3 4 15 0 5 12 3 6 16 4 7 15 0 8 15 0 9 16 4 10 18 5 11 15 0 12 17 6 13 13 7 14 17 6 15 15 0 16 18 5 17 8 8 18 14 1 19 13 7 20 14 1 21 15 0 22 13 7 23 16 4 24 30 9 25 18 5 26 18 5 27 30 9 28 31 10 29 18 5 30 31 10 31 17 6 32 17 6 33 31 10 34 28 11 35 21 12 36 13 7 37 19 13 38 13 7 39 17 6 40 19 13 41 17 6 42 29 14 43 19 13 44 29 14 45 17 6 46 28 11 47 45 15 48 19 13 49 37 16 50 19 13 51 29 14 52 37 16 53 44 17 54 19 13 55 45 15 56 19 13 57 44 17 58 21 12 59 20 18 60 8 8 61 21 12 62 8 8 63 13 7 64 21 12 65 43 19 66 20 18 67 44 17 68 20 18 69 21 12 70 44 17 71 25 20 72 24 21 73 0 22 74 0 22 75 22 23 76 25 20 77 23 24 78 25 20 79 22 23 80 23 24 81 22 23 82 9 25 83 28 11 84 31 10 85 25 20 86 28 11 87 25 20 88 23 24 89 30 9 90 24 21 91 31 10 92 31 10 93 24 21 94 25 20 95 23 24 96 26 26 97 27 27 98 26 26 99 23 24 100 9 25 101 39 28 102 27 27 103 38 29 104 27 27 105 26 26 106 38 29 107 37 16 108 29 14 109 39 28 110 29 14 111 27 27 112 39 28 113 28 11 114 27 27 115 29 14 116 27 27 117 28 11 118 23 24 119 32 30 120 34 31 121 1 32 122 1 32 123 34 31 124 33 33 125 36 34 126 32 30 127 35 35 128 32 30 129 36 34 130 34 31 131 37 16 132 34 31 133 36 34 134 34 31 135 37 16 136 39 28 137 39 28 138 33 33 139 34 31 140 33 33 141 39 28 142 38 29 143 46 36 144 47 37 145 36 34 146 46 36 147 36 34 148 35 35 149 47 37 150 37 16 151 36 34 152 37 16 153 47 37 154 45 15 155 42 38 156 3 39 157 40 40 158 3 39 159 42 38 160 41 41 161 40 40 162 44 17 163 42 38 164 44 17 165 40 40 166 43 19 167 47 37 168 41 41 169 42 38 170 41 41 171 47 37 172 46 36 173 44 17 174 45 15 175 42 38 176 42 38 177 45 15 178 47 37 179 14 1 180 49 42 181 2 2 182 49 42 183 14 1 184 50 43 185 8 8 186 50 43 187 14 1 188 50 43 189 8 8 190 48 44 191 48 44 192 55 45 193 50 43 194 55 45 195 48 44 196 52 46 197 50 43 198 54 47 199 49 42 200 54 47 201 50 43 202 55 45 203 20 18 204 48 44 205 8 8 206 48 44 207 20 18 208 51 48 209 43 19 210 51 48 211 20 18 212 51 48 213 43 19 214 61 49 215 61 49 216 53 50 217 51 48 218 53 50 219 61 49 220 60 51 221 51 48 222 52 46 223 48 44 224 52 46 225 51 48 226 53 50 227 53 50 228 75 52 229 52 46 230 75 52 231 53 50 232 77 53 233 52 46 234 76 54 235 55 45 236 76 54 237 52 46 238 75 52 239 55 45 240 74 55 241 54 47 242 74 55 243 55 45 244 76 54 245 40 40 246 3 39 247 57 56 248 3 39 249 56 57 250 57 56 251 56 57 252 59 58 253 57 56 254 59 58 255 56 57 256 58 59 257 61 49 258 57 56 259 60 51 260 57 56 261 59 58 262 60 51 263 40 40 264 61 49 265 43 19 266 61 49 267 40 40 268 57 56 269 58 59 270 69 60 271 59 58 272 69 60 273 58 59 274 68 61 275 59 58 276 67 62 277 60 51 278 67 62 279 59 58 280 69 60 281 60 51 282 77 53 283 53 50 284 77 53 285 60 51 286 67 62 287 64 63 288 63 64 289 5 65 290 64 63 291 5 65 292 62 66 293 62 66 294 66 67 295 64 63 296 66 67 297 62 66 298 65 68 299 68 61 300 64 63 301 69 60 302 64 63 303 68 61 304 63 64 305 79 69 306 65 68 307 78 70 308 65 68 309 79 69 310 66 67 311 77 53 312 67 62 313 79 69 314 67 62 315 66 67 316 79 69 317 69 60 318 66 67 319 67 62 320 66 67 321 69 60 322 64 63 323 73 71 324 4 72 325 70 73 326 4 72 327 73 71 328 72 74 329 74 55 330 76 54 331 73 71 332 74 55 333 73 71 334 70 73 335 76 54 336 75 52 337 71 75 338 76 54 339 71 75 340 73 71 341 73 71 342 10 76 343 72 74 344 10 76 345 73 71 346 71 75 347 75 52 348 79 69 349 71 75 350 79 69 351 75 52 352 77 53 353 71 75 354 78 70 355 10 76 356 78 70 357 71 75 358 79 69 359 82 77 360 81 78 361 4 72 362 4 72 363 72 74 364 82 77 365 80 79 366 82 77 367 72 74 368 80 79 369 72 74 370 10 76 371 84 80 372 87 81 373 82 77 374 84 80 375 82 77 376 80 79 377 86 82 378 81 78 379 87 81 380 81 78 381 82 77 382 87 81 383 10 76 384 78 70 385 83 83 386 10 76 387 83 83 388 80 79 389 78 70 390 93 84 391 83 83 392 93 84 393 78 70 394 65 68 395 83 83 396 93 84 397 85 85 398 92 86 399 85 85 400 93 84 401 84 80 402 83 83 403 85 85 404 83 83 405 84 80 406 80 79 407 107 87 408 85 85 409 109 88 410 85 85 411 107 87 412 84 80 413 108 89 414 84 80 415 107 87 416 84 80 417 108 89 418 87 81 419 106 90 420 86 82 421 108 89 422 86 82 423 87 81 424 108 89 425 88 91 426 89 92 427 5 65 428 5 65 429 89 92 430 62 66 431 91 93 432 88 91 433 90 94 434 88 91 435 91 93 436 89 92 437 92 86 438 89 92 439 91 93 440 89 92 441 92 86 442 93 84 443 62 66 444 93 84 445 65 68 446 93 84 447 62 66 448 89 92 449 101 95 450 90 94 451 100 96 452 90 94 453 101 95 454 91 93 455 101 95 456 99 97 457 91 93 458 99 97 459 92 86 460 91 93 461 109 88 462 92 86 463 99 97 464 92 86 465 109 88 466 85 85 467 94 98 468 96 99 469 7 100 470 7 100 471 96 99 472 95 101 473 98 102 474 94 98 475 97 103 476 94 98 477 98 102 478 96 99 479 101 95 480 95 101 481 96 99 482 95 101 483 101 95 484 100 96 485 97 103 486 111 104 487 98 102 488 111 104 489 97 103 490 110 105 491 111 104 492 99 97 493 98 102 494 99 97 495 111 104 496 109 88 497 98 102 498 101 95 499 96 99 500 101 95 501 98 102 502 99 97 503 104 106 504 6 107 505 105 108 506 6 107 507 102 109 508 105 108 509 102 109 510 108 89 511 105 108 512 108 89 513 102 109 514 106 90 515 105 108 516 107 87 517 103 110 518 107 87 519 105 108 520 108 89 521 11 111 522 104 106 523 103 110 524 104 106 525 105 108 526 103 110 527 111 104 528 103 110 529 109 88 530 103 110 531 107 87 532 109 88 533 110 105 534 103 110 535 111 104 536 103 110 537 110 105 538 11 111 539 113 112 540 104 106 541 114 113 542 104 106 543 113 112 544 6 107 545 114 113 546 11 111 547 112 114 548 11 111 549 114 113 550 104 106 551 116 115 552 119 116 553 114 113 554 116 115 555 114 113 556 112 114 557 119 116 558 118 117 559 113 112 560 119 116 561 113 112 562 114 113 563 115 118 564 112 114 565 11 111 566 115 118 567 11 111 568 110 105 569 110 105 570 125 119 571 115 118 572 125 119 573 110 105 574 97 103 575 115 118 576 124 120 577 117 121 578 124 120 579 115 118 580 125 119 581 117 121 582 116 115 583 112 114 584 117 121 585 112 114 586 115 118 587 138 122 588 136 123 589 116 115 590 138 122 591 116 115 592 117 121 593 136 123 594 137 124 595 119 116 596 136 123 597 119 116 598 116 115 599 137 124 600 135 125 601 118 117 602 137 124 603 118 117 604 119 116 605 120 126 606 121 127 607 7 100 608 7 100 609 121 127 610 94 98 611 123 128 612 120 126 613 122 129 614 120 126 615 123 128 616 121 127 617 123 128 618 125 119 619 121 127 620 125 119 621 123 128 622 124 120 623 121 127 624 125 119 625 97 103 626 121 127 627 97 103 628 94 98 629 130 130 630 131 131 631 123 128 632 123 128 633 122 129 634 130 130 635 124 120 636 131 131 637 129 132 638 131 131 639 124 120 640 123 128 641 138 122 642 124 120 643 129 132 644 124 120 645 138 122 646 117 121 647 33 33 648 127 133 649 1 32 650 1 32 651 127 133 652 126 134 653 33 33 654 128 135 655 127 133 656 128 135 657 33 33 658 38 29 659 131 131 660 126 134 661 127 133 662 126 134 663 131 131 664 130 130 665 38 29 666 139 136 667 128 135 668 139 136 669 38 29 670 26 26 671 128 135 672 138 122 673 129 132 674 138 122 675 128 135 676 139 136 677 129 132 678 127 133 679 128 135 680 127 133 681 129 132 682 131 131 683 22 23 684 132 137 685 134 138 686 132 137 687 22 23 688 0 22 689 132 137 690 135 125 691 134 138 692 137 124 693 134 138 694 135 125 695 134 138 696 137 124 697 133 139 698 133 139 699 137 124 700 136 123 701 9 25 702 134 138 703 133 139 704 134 138 705 9 25 706 22 23 707 139 136 708 136 123 709 138 122 710 136 123 711 139 136 712 133 139 713 26 26 714 133 139 715 139 136 716 133 139 717 26 26 718 9 25 719 140 140 720 7 100 721 95 101 722 7 100 723 140 140 724 120 126 725 95 101 726 141 141 727 140 140 728 141 141 729 95 101 730 100 96 731 143 142 732 122 129 733 140 140 734 122 129 735 120 126 736 140 140 737 100 96 738 147 143 739 141 141 740 147 143 741 100 96 742 90 94 743 146 144 744 141 141 745 147 143 746 141 141 747 146 144 748 142 145 749 142 145 750 143 142 751 140 140 752 140 140 753 141 141 754 142 145 755 153 146 756 143 142 757 142 145 758 153 146 759 142 145 760 154 147 761 153 146 762 130 130 763 143 142 764 130 130 765 122 129 766 143 142 767 144 148 768 88 91 769 5 65 770 144 148 771 5 65 772 63 64 773 145 149 774 63 64 775 68 61 776 63 64 777 145 149 778 144 148 779 146 144 780 144 148 781 145 149 782 144 148 783 146 144 784 147 143 785 144 148 786 147 143 787 90 94 788 90 94 789 88 91 790 144 148 791 151 150 792 68 61 793 58 59 794 68 61 795 151 150 796 145 149 797 146 144 798 151 150 799 150 151 800 151 150 801 146 144 802 145 149 803 154 147 804 146 144 805 150 151 806 146 144 807 154 147 808 142 145 809 41 41 810 56 57 811 3 39 812 56 57 813 41 41 814 148 152 815 41 41 816 149 153 817 148 152 818 149 153 819 41 41 820 46 36 821 56 57 822 151 150 823 58 59 824 151 150 825 56 57 826 148 152 827 46 36 828 155 154 829 149 153 830 155 154 831 46 36 832 35 35 833 150 151 834 155 154 835 154 147 836 155 154 837 150 151 838 149 153 839 150 151 840 148 152 841 149 153 842 148 152 843 150 151 844 151 150 845 126 134 846 152 155 847 1 32 848 1 32 849 152 155 850 32 30 851 126 134 852 153 146 853 152 155 854 153 146 855 126 134 856 130 130 857 155 154 858 152 155 859 154 147 860 152 155 861 153 146 862 154 147 863 152 155 864 155 154 865 35 35 866 35 35 867 32 30 868 152 155 869 132 137 870 0 22 871 156 156 872 0 22 873 24 21 874 156 156 875 24 21 876 157 157 877 156 156 878 157 157 879 24 21 880 30 9 881 132 137 882 159 158 883 135 125 884 159 158 885 132 137 886 156 156 887 16 4 888 157 157 889 30 9 890 157 157 891 16 4 892 163 159 893 157 157 894 162 160 895 158 161 896 162 160 897 157 157 898 163 159 899 156 156 900 157 157 901 158 161 902 156 156 903 158 161 904 159 158 905 159 158 906 170 162 907 169 163 908 170 162 909 159 158 910 158 161 911 135 125 912 169 163 913 118 117 914 169 163 915 135 125 916 159 158 917 12 3 918 2 2 919 160 164 920 2 2 921 49 42 922 160 164 923 49 42 924 161 165 925 160 164 926 161 165 927 49 42 928 54 47 929 162 160 930 163 159 931 160 164 932 160 164 933 161 165 934 162 160 935 12 3 936 163 159 937 16 4 938 163 159 939 12 3 940 160 164 941 54 47 942 167 166 943 161 165 944 167 166 945 54 47 946 74 55 947 161 165 948 166 167 949 162 160 950 166 167 951 161 165 952 167 166 953 162 160 954 166 167 955 158 161 956 158 161 957 166 167 958 170 162 959 164 168 960 4 72 961 81 78 962 4 72 963 164 168 964 70 73 965 165 169 966 81 78 967 86 82 968 81 78 969 165 169 970 164 168 971 167 166 972 70 73 973 164 168 974 70 73 975 167 166 976 74 55 977 171 170 978 86 82 979 106 90 980 86 82 981 171 170 982 165 169 983 170 162 984 165 169 985 171 170 986 165 169 987 170 162 988 166 167 989 166 167 990 167 166 991 164 168 992 166 167 993 164 168 994 165 169 995 113 112 996 168 171 997 6 107 998 6 107 999 168 171 1000 102 109 1001 169 163 1002 113 112 1003 118 117 1004 113 112 1005 169 163 1006 168 171 1007 170 162 1008 168 171 1009 169 163 1010 168 171 1011 170 162 1012 171 170 1013 171 170 1014 102 109 1015 168 171 1016 102 109 1017 171 170 1018 106 90 1019</p>
        </triangles>
      </mesh>
    </geometry>
  </library_geometries>
  <library_controllers/>
  <library_visual_scenes>
    <visual_scene id="Scene" name="Scene">
      <node id="VIS_Alpha_Surface_020" name="VIS_Alpha_Surface_020" type="NODE">
        <instance_geometry url="#Alpha_SurfaceMesh_310-mesh" name="VIS_Alpha_Surface_020">
          <bind_material>
            <technique_common>
              <instance_material symbol="Alpha_Body_MAT_007-material" target="#Alpha_Body_MAT_007-material"/>
            </technique_common>
          </bind_material>
        </instance_geometry>
      </node>
    </visual_scene>
  </library_visual_scenes>
  <scene>
    <instance_visual_scene url="#Scene"/>
  </scene>
</COLLADA>