<?xml version="1.0" encoding="utf-8"?>
<COLLADA xmlns="http://www.collada.org/2005/11/COLLADASchema" version="1.4.1" xmlns:xsi="http://www.w3.org/2001/XMLSchema-instance">
  <asset>
    <contributor>
      <author>Blender User</author>
      <authoring_tool>Blender 2.79.0 commit date:2018-03-22, commit time:14:10, hash:f4dc9f9d68b</authoring_tool>
    </contributor>
    <created>2018-10-09T21:23:56</created>
    <modified>2018-10-09T21:23:56</modified>
    <unit name="meter" meter="1"/>
    <up_axis>Z_UP</up_axis>
  </asset>
  <library_images/>
  <library_effects>
    <effect id="Alpha_Body_MAT_007-effect">
      <profile_COMMON>
        <technique sid="common">
          <phong>
            <emission>
              <color sid="emission">0 0 0 1</color>
            </emission>
            <ambient>
              <color sid="ambient">0 0 0 1</color>
            </ambient>
            <diffuse>
              <color sid="diffuse">0.077256 0.337296 0.4176 1</color>
            </diffuse>
            <specular>
              <color sid="specular">0.239315 0.239315 0.239315 1</color>
            </specular>
            <shininess>
              <float sid="shininess">3</float>
            </shininess>
            <transparent opaque="A_ONE">
              <color>1 1 1 1</color>
            </transparent>
            <index_of_refraction>
              <float sid="index_of_refraction">1</float>
            </index_of_refraction>
          </phong>
        </technique>
      </profile_COMMON>
    </effect>
  </library_effects>
  <library_materials>
    <material id="Alpha_Body_MAT_007-material" name="Alpha_Body_MAT_007">
      <instance_effect url="#Alpha_Body_MAT_007-effect"/>
    </material>
  </library_materials>
  <library_geometries>
    <geometry id="Alpha_SurfaceMesh_334-mesh" name="Alpha_SurfaceMesh.334">
      <mesh>
        <source id="Alpha_SurfaceMesh_334-mesh-positions">
          <float_array id="Alpha_SurfaceMesh_334-mesh-positions-array" count="516">-90.51702 142.2722 -2.568506 -92.52706 142.2517 -2.651803 -90.68095 143.7879 -2.179023 -92.43601 143.7431 -2.210669 -90.64166 144.0146 -3.726962 -92.38121 144.0762 -3.72229 -90.5196 142.4909 -4.036774 -92.60395 142.4483 -4.025361 -91.11906 143.7557 -2.198956 -90.96922 142.2028 -2.601451 -91.15305 143.9822 -3.733537 -91.01514 142.4352 -4.104533 -90.58813 143.5695 -2.127302 -91.04264 143.462 -2.091188 -90.85256 143.7933 -2.170614 -90.77608 143.5184 -2.065564 -90.48635 143.1823 -2.142045 -90.95285 143.0951 -2.092479 -90.67537 143.1413 -2.073098 -91.34979 143.0438 -2.141592 -91.46327 143.7133 -2.252313 -91.42166 143.4155 -2.142178 -90.68323 142.222 -2.571607 -90.96315 142.4183 -2.38837 -90.48136 142.466 -2.447493 -90.67909 142.4377 -2.381264 -91.36015 142.2155 -2.64217 -91.34725 142.4183 -2.419975 -90.95227 142.7263 -2.222146 -91.33822 142.6973 -2.247859 -90.4677 142.7944 -2.297326 -90.67082 142.7596 -2.215572 -92.61773 142.4072 -2.504493 -92.26708 142.2384 -2.654293 -92.31732 142.4212 -2.441455 -92.68412 142.715 -2.300588 -92.38835 142.716 -2.248229 -91.87995 142.6977 -2.259024 -91.83336 142.2373 -2.662326 -91.84193 142.4288 -2.438227 -92.23206 143.745 -2.221118 -92.56487 143.4708 -2.13502 -92.29602 143.4315 -2.111195 -91.87909 143.7188 -2.252675 -91.91133 143.4056 -2.137464 -91.93225 143.0417 -2.14208 -92.64878 143.0857 -2.14595 -92.36331 143.0665 -2.105268 -91.16846 143.9919 -2.431128 -90.66106 143.9375 -2.364243 -90.88624 144.019 -2.386219 -91.48738 143.9524 -2.468872 -91.20388 144.1769 -2.763122 -91.4975 144.1092 -2.793144 -90.68218 144.1344 -2.713248 -90.92842 144.213 -2.729198 -92.46543 143.9546 -2.418099 -92.18712 144.0174 -2.4564 -92.48108 144.2095 -2.760524 -92.16644 144.2362 -2.77668 -91.83291 144.1443 -2.794492 -91.84766 143.9789 -2.474573 -92.17045 144.0511 -3.701195 -92.43282 144.1875 -3.508911 -92.15972 144.2079 -3.460501 -91.86579 143.9976 -3.690542 -91.84136 144.1485 -3.463859 -91.8339 144.2014 -3.147697 -92.47035 144.2788 -3.152787 -92.16452 144.2815 -3.131419 -90.62976 144.1206 -3.484057 -91.18552 144.1344 -3.463675 -90.84335 144.018 -3.744544 -90.89009 144.1715 -3.450014 -90.66417 144.1953 -3.112548 -91.20852 144.2174 -3.130268 -90.92278 144.2771 -3.1029 -91.50145 144.1563 -3.164519 -91.52254 143.9781 -3.708896 -91.50574 144.1063 -3.480354 -91.11109 143.7841 -3.941597 -90.52337 143.8107 -3.866589 -90.76778 143.8123 -3.965189 -91.53182 143.7577 -3.883374 -91.0428 143.4887 -4.088504 -91.52435 143.4453 -4.034088 -90.42613 143.4984 -3.994562 -90.68003 143.5069 -4.105308 -92.51938 143.859 -3.897957 -92.25292 143.8056 -3.90901 -92.65217 143.3987 -4.048426 -92.33806 143.3984 -4.074031 -91.95536 143.4068 -4.034192 -91.91207 143.7485 -3.867513 -92.36173 142.4266 -4.053922 -92.66528 142.6011 -4.077484 -92.38795 142.6481 -4.156463 -91.94735 142.4052 -4.05583 -91.95606 142.6772 -4.141647 -91.95969 143.0298 -4.12724 -92.70217 142.9601 -4.10531 -92.37771 142.9996 -4.163524 -90.46324 142.6856 -4.076283 -91.01795 142.7226 -4.191879 -90.69313 142.4597 -4.083651 -90.67243 142.7133 -4.170273 -90.40244 143.1083 -4.072898 -91.01366 143.1175 -4.177466 -90.62528 143.1351 -4.162826 -91.50411 143.0689 -4.131158 -91.47898 142.4086 -4.069809 -91.49282 142.7011 -4.154334 -90.98571 142.2174 -3.902891 -90.44792 142.3767 -3.870634 -90.6567 142.2686 -3.889178 -91.456 142.1988 -3.888338 -90.94983 142.0866 -3.567051 -91.42354 142.0767 -3.601084 -90.39602 142.281 -3.469309 -90.61675 142.1416 -3.519 -92.67215 142.3629 -3.882273 -92.3702 142.264 -3.866518 -92.71823 142.2352 -3.56174 -92.38156 142.1426 -3.577255 -91.92239 142.0798 -3.595067 -91.93878 142.208 -3.868619 -92.61246 142.1928 -2.848768 -92.29404 142.1343 -2.913409 -91.8542 142.1147 -2.946389 -91.88914 142.0546 -3.271966 -92.69258 142.1785 -3.186678 -92.34501 142.0961 -3.239523 -90.45228 142.2388 -2.758972 -90.95699 142.0757 -2.874826 -90.65056 142.1183 -2.820006 -90.39996 142.2407 -3.077066 -90.93937 142.0336 -3.207369 -90.61097 142.0872 -3.143062 -91.39704 142.0415 -3.26743 -91.37538 142.0901 -2.933338 -92.81684 142.5296 -3.909379 -92.91406 142.912 -3.919804 -93.07715 142.8256 -3.475351 -92.92018 142.4179 -3.535822 -92.68952 143.9736 -3.671576 -92.76515 144.0647 -3.226861 -93.04022 143.4072 -3.36905 -92.89817 143.3876 -3.870021 -92.73268 143.6343 -2.346782 -92.89646 143.1641 -2.3545 -93.04167 143.2878 -2.802354 -92.79147 143.9194 -2.758526 -92.80214 142.3505 -2.717953 -92.91851 142.3469 -3.0937 -93.08676 142.7412 -2.957671 -92.91448 142.7065 -2.520115 -90.3572 142.4796 -2.655038 -90.3325 142.8321 -2.526091 -90.2544 142.8848 -2.912205 -90.28493 142.5073 -2.998881 -90.49527 143.6706 -2.34255 -90.48423 143.8349 -2.738831 -90.31258 143.3383 -2.826824 -90.36383 143.2425 -2.382783 -90.4234 143.8559 -3.590321 -90.29345 143.4642 -3.755442 -90.29272 143.4157 -3.306733 -90.45255 143.8955 -3.169357 -90.33246 142.6034 -3.875831 -90.27079 142.5415 -3.426869 -90.24052 142.9528 -3.383532 -90.27867 143.0438 -3.858936</float_array>
          <technique_common>
            <accessor source="#Alpha_SurfaceMesh_334-mesh-positions-array" count="172" stride="3">
              <param name="X" type="float"/>
              <param name="Y" type="float"/>
              <param name="Z" type="float"/>
            </accessor>
          </technique_common>
        </source>
        <source id="Alpha_SurfaceMesh_334-mesh-normals">
          <float_array id="Alpha_SurfaceMesh_334-mesh-normals-array" count="516">-0.04092603 0.5423544 0.8391523 0.05642986 0.1686488 0.9840596 0.3710587 0.5616238 0.7395231 0.5745349 0.2594487 0.7762706 0.1785072 -0.1668488 0.969689 0.6650984 -0.0546593 0.7447527 -0.0638768 -0.1887617 0.9799433 -0.1335208 0.1372747 0.9814926 -0.1750873 0.4971234 0.8498311 0.6688612 -0.2779699 0.6894617 0.2096367 -0.3858548 0.8984256 -0.01031553 -0.3977293 0.9174448 -0.05163866 -0.1701452 0.9840651 -0.07583999 0.1563189 0.9847908 -0.03622668 -0.4117393 0.9105814 0.02865713 -0.1776194 0.983682 -0.003723263 -0.440692 0.8976507 0.04599142 0.1582387 0.9863293 -0.090002 0.5093705 0.8558279 0.06351041 0.5017358 0.8626864 0.1666349 -0.5443714 0.8221269 0.5075623 -0.6748372 0.5357009 0.6181753 -0.4176918 0.6658775 0.1136221 -0.8096992 0.5757407 -0.02331638 -0.5945993 0.8036841 -0.03415066 -0.8248664 0.5642955 -0.05890208 -0.6325721 0.7722586 -0.07141578 -0.838464 0.5402573 -0.0175485 -0.6586949 0.7522056 -0.02786374 -0.8489149 0.5277946 -0.05118101 -0.6554956 0.7534628 -0.3329697 -0.6421952 0.6904467 -0.1955102 -0.835878 0.5129169 -0.01690739 -0.8537327 0.520437 -0.07373428 -0.4601373 0.8847808 -0.4210737 -0.4275438 0.7999395 -0.4169842 -0.134254 0.8989439 -0.0370804 -0.1848527 0.9820665 0.01745682 0.1562569 0.9875622 0.06293064 0.5058258 0.8603371 -0.2020689 0.5253304 0.8265568 -0.3658972 0.2231884 0.9034967 0.5311239 0.6932719 0.4871154 0.02990841 0.7954736 0.6052497 -0.1745688 0.7685301 0.6155382 0.04791486 0.9427634 0.3300023 -0.2005081 0.9314929 0.3035088 0.5591809 0.7817911 0.2758975 -0.07379466 0.7857699 0.6141011 0.104435 0.7677893 0.6321337 -0.07138335 0.9539551 0.291332 0.180219 0.9342702 0.3076695 -0.199226 0.9776362 -0.06735473 -0.02035611 0.9990377 -0.0388506 0.0583226 0.9970083 -0.05072325 0.5617369 0.8273152 -0.001098692 -0.3256703 0.6962648 0.6396517 0.02975594 0.7451812 0.6661981 -0.3725503 0.8579308 0.3537809 0.09598201 0.9354661 0.3401334 -0.3244515 0.9451548 -0.03759986 0.1169794 0.9925397 -0.0343644 0.1745697 0.9845184 -0.01577842 -0.2309703 0.8980618 -0.3743501 0.1436865 0.7349131 -0.6627647 -0.05267602 0.7822054 -0.6207898 0.09610575 0.9222064 -0.3745653 0.06711083 0.7154217 -0.6954624 0.125678 0.9238154 -0.3616217 -0.01452708 0.7535494 -0.6572308 0.01702952 0.9412341 -0.3373256 0.4843356 0.841926 -0.2378646 -0.02056962 0.8179344 -0.5749437 0.03323554 0.9341358 -0.3553671 0.3600075 0.7887143 -0.4983217 -0.09817862 0.9235569 -0.3706801 -0.09344851 0.7853704 -0.6119321 0.08749729 0.5785441 -0.8109445 0.5792334 0.5530779 -0.598827 -0.1241202 0.5704587 -0.8118935 -0.1003159 0.3217925 -0.941481 0.1795139 0.3210619 -0.9298893 0.6582304 0.3167855 -0.6829201 -0.07934892 0.5352696 -0.8409461 0.06448698 0.5066182 -0.8597555 0.04297071 0.3261259 -0.9443492 -0.08343887 0.33873 -0.9371766 -0.0444352 0.1223495 -0.9914919 -0.06131356 0.150583 -0.9866942 0.227213 0.08902353 -0.9697676 0.6627857 0.05475145 -0.746805 -0.269726 0.5194316 -0.810826 0.1174982 0.4887927 -0.8644514 0.01086467 0.2869082 -0.9578965 -0.3591188 0.290817 -0.8868253 -0.05145585 0.09662473 -0.99399 -0.4438456 0.0262773 -0.895718 0.0290845 0.1395326 -0.9897903 -0.08115118 -0.5802966 -0.8103521 -0.3228304 -0.5842871 -0.7445731 -0.0790748 -0.2240707 -0.9713597 -0.4474429 -0.2760773 -0.8506329 0.00814855 -0.1489026 -0.9888183 -0.02383571 -0.5101336 -0.859765 -0.0458697 -0.1159409 -0.9921965 -0.03470009 -0.4858323 -0.873363 0.1928535 -0.506107 -0.8406327 0.2114033 -0.1555539 -0.9649414 0.492646 -0.4580674 -0.7399151 0.6067215 -0.1807651 -0.7740886 -0.006042778 -0.1258615 -0.9920295 0.0280773 -0.4887286 -0.8719841 0.6639827 -0.6133508 -0.4277006 0.2885008 -0.8025103 -0.5222496 0.08014351 -0.8206622 -0.5657656 0.1067858 -0.9616827 -0.2525138 0.3727003 -0.8998889 -0.2264829 0.7593569 -0.631663 -0.156138 -0.01245176 -0.8096424 -0.5867915 -0.06201487 -0.8162648 -0.5743396 -0.06973695 -0.9659717 -0.2490693 0.008240163 -0.9684355 -0.2491283 -0.0207526 -0.9996673 0.0153203 0.07239109 -0.9973309 -0.009521901 0.3764826 -0.9264048 0.005920648 0.7652361 -0.6421526 0.04532086 -0.1735324 -0.8390963 -0.5155617 -0.4538801 -0.7456123 -0.487909 -0.2073198 -0.9455592 -0.2508714 -0.4836316 -0.8422275 -0.2382298 -0.163492 -0.9865369 0.003906428 -0.4323073 -0.9017263 -4.57791e-4 -0.04678583 -0.9979148 0.04446637 -0.07565772 -0.9649645 0.2512362 -0.3306408 -0.9102236 0.2493387 -0.03198415 -0.9583051 0.2839513 -0.06000065 -0.9616283 0.2677141 0.2674086 -0.9322981 0.2435426 0.694534 -0.684432 0.2217552 0.01297038 -0.9631066 0.268808 -0.7396219 -0.4125829 -0.5317282 -0.8243491 -0.05554455 -0.5633504 -0.8182619 -0.5327507 -0.2159264 -0.7923077 0.2711932 -0.546537 -0.9605155 0.2534884 -0.1146893 -0.974936 -0.1214054 -0.1864418 -0.96858 -0.2002654 0.1474676 -0.7775713 -0.6255545 0.06375485 -0.639352 0.6209488 -0.4534885 -0.7584706 0.6491497 -0.05768179 -0.7893456 0.5439416 0.2847126 -0.9621186 0.1785069 0.2060658 -0.7070657 0.4141132 0.573209 -0.8248701 0.03692805 0.564115 -0.799782 -0.3169097 0.5098206 -0.6379199 -0.6589478 0.3985549 0.8991619 -0.3076048 0.3112671 0.9376419 -0.1042841 0.3315913 0.9617915 -0.2577372 0.09235197 0.941859 0.09729582 0.3216134 0.9738597 0.1921778 0.1210992 0.9930388 -0.004974603 0.1176826 0.9997234 0.003692805 -0.02322524 0.9654071 -0.2467154 -0.08438497 0.8579275 0.3764858 0.3495984 0.8876851 0.4294069 0.1662082 0.8888692 0.4543075 0.05929863 0.9773112 0.2069496 0.04510712 0.8491358 0.5025902 -0.1623927 0.9433553 0.2430261 -0.2258742 0.9495061 -0.008118033 -0.3136434 0.8904125 -0.257669 -0.3751964</float_array>
          <technique_common>
            <accessor source="#Alpha_SurfaceMesh_334-mesh-normals-array" count="172" stride="3">
              <param name="X" type="float"/>
              <param name="Y" type="float"/>
              <param name="Z" type="float"/>
            </accessor>
          </technique_common>
        </source>
        <source id="Alpha_SurfaceMesh_334-mesh-map-0">
          <float_array id="Alpha_SurfaceMesh_334-mesh-map-0-array" count="2040">0.43955 0.01647597 0.44107 0.01603394 0.439566 0.01563096 0.439566 0.01563096 0.44107 0.01603394 0.44059 0.01505398 0.443199 0.01502197 0.44059 0.01505398 0.44107 0.01603394 0.44059 0.01505398 0.443199 0.01502197 0.442544 0.01383894 0.443882 0.01686197 0.44107 0.01603394 0.441445 0.01761394 0.44107 0.01603394 0.443882 0.01686197 0.443199 0.01502197 0.441445 0.01761394 0.43955 0.01647597 0.439521 0.01790797 0.43955 0.01647597 0.441445 0.01761394 0.44107 0.01603394 0.442544 0.01383894 0.443199 0.01502197 0.445277 0.01191395 0.443199 0.01502197 0.446255 0.01378196 0.445277 0.01191395 0.443199 0.01502197 0.443882 0.01686197 0.446255 0.01378196 0.443882 0.01686197 0.447233 0.01637399 0.446255 0.01378196 0.444332 0.02004498 0.441445 0.01761394 0.441384 0.02016395 0.441445 0.01761394 0.444332 0.02004498 0.443882 0.01686197 0.443882 0.01686197 0.444332 0.02004498 0.447233 0.01637399 0.444332 0.02004498 0.447623 0.02023595 0.447233 0.01637399 0.443082 0.0248 0.44652 0.02571398 0.444332 0.02004498 0.444332 0.02004498 0.44652 0.02571398 0.447623 0.02023595 0.440452 0.02350097 0.443082 0.0248 0.441384 0.02016395 0.441384 0.02016395 0.443082 0.0248 0.444332 0.02004498 0.441384 0.02016395 0.439521 0.01790797 0.439217 0.01997298 0.439521 0.01790797 0.441384 0.02016395 0.441445 0.01761394 0.438474 0.02250897 0.440452 0.02350097 0.439217 0.01997298 0.439217 0.01997298 0.440452 0.02350097 0.441384 0.02016395 0.679185 0.01057595 0.681096 0.01026499 0.679971 0.009315967 0.681096 0.01026499 0.679185 0.01057595 0.680938 0.01130795 0.678622 0.01258397 0.680938 0.01130795 0.679185 0.01057595 0.680938 0.01130795 0.678622 0.01258397 0.680709 0.01312899 0.675828 0.01159 0.679185 0.01057595 0.676633 0.009071946 0.679185 0.01057595 0.675828 0.01159 0.678622 0.01258397 0.676633 0.009071946 0.679971 0.009315967 0.677806 0.007437944 0.679971 0.009315967 0.676633 0.009071946 0.679185 0.01057595 0.678261 0.01554799 0.680709 0.01312899 0.678622 0.01258397 0.680709 0.01312899 0.678261 0.01554799 0.680543 0.01582795 0.678251 0.01947695 0.680543 0.01582795 0.678261 0.01554799 0.680543 0.01582795 0.678251 0.01947695 0.68052 0.01928895 0.67543 0.01518297 0.675546 0.02002298 0.678251 0.01947695 0.67543 0.01518297 0.678251 0.01947695 0.678261 0.01554799 0.67543 0.01518297 0.678622 0.01258397 0.675828 0.01159 0.678622 0.01258397 0.67543 0.01518297 0.678261 0.01554799 0.678798 0.02314698 0.679794 0.02520596 0.681044 0.02417796 0.681044 0.02417796 0.680776 0.02240699 0.678798 0.02314698 0.679794 0.02520596 0.676187 0.02446395 0.677244 0.02686595 0.676187 0.02446395 0.679794 0.02520596 0.678798 0.02314698 0.675546 0.02002298 0.676187 0.02446395 0.678798 0.02314698 0.675546 0.02002298 0.678798 0.02314698 0.678251 0.01947695 0.678251 0.01947695 0.678798 0.02314698 0.680776 0.02240699 0.678251 0.01947695 0.680776 0.02240699 0.68052 0.01928895 0.439279 0.02916795 0.443506 0.03042 0.440942 0.02767497 0.443506 0.03042 0.439279 0.02916795 0.440851 0.03265196 0.440942 0.02767497 0.443506 0.03042 0.443082 0.0248 0.443082 0.0248 0.443506 0.03042 0.44652 0.02571398 0.439177 0.02573096 0.437581 0.02445399 0.437111 0.02545398 0.437111 0.02545398 0.437995 0.02691596 0.439177 0.02573096 0.437581 0.02445399 0.440452 0.02350097 0.438474 0.02250897 0.440452 0.02350097 0.437581 0.02445399 0.439177 0.02573096 0.440942 0.02767497 0.439177 0.02573096 0.437995 0.02691596 0.437995 0.02691596 0.439279 0.02916795 0.440942 0.02767497 0.440452 0.02350097 0.439177 0.02573096 0.443082 0.0248 0.439177 0.02573096 0.440942 0.02767497 0.443082 0.0248 0.438457 0.01541399 0.43955 0.01647597 0.439566 0.01563096 0.43955 0.01647597 0.438457 0.01541399 0.437996 0.01647299 0.437996 0.01647299 0.439521 0.01790797 0.43955 0.01647597 0.439521 0.01790797 0.437996 0.01647299 0.437667 0.017901 0.437667 0.017901 0.436084 0.01627898 0.435655 0.01762497 0.436084 0.01627898 0.437667 0.017901 0.437996 0.01647299 0.436556 0.015118 0.437996 0.01647299 0.438457 0.01541399 0.437996 0.01647299 0.436556 0.015118 0.436084 0.01627898 0.439217 0.01997298 0.437667 0.017901 0.437252 0.01968795 0.437667 0.017901 0.439217 0.01997298 0.439521 0.01790797 0.436567 0.02170395 0.438474 0.02250897 0.437252 0.01968795 0.437252 0.01968795 0.438474 0.02250897 0.439217 0.01997298 0.436567 0.02170395 0.437252 0.01968795 0.435196 0.01923096 0.436567 0.02170395 0.435196 0.01923096 0.43464 0.02105998 0.437252 0.01968795 0.435655 0.01762497 0.435196 0.01923096 0.435655 0.01762497 0.437252 0.01968795 0.437667 0.017901 0.435196 0.01923096 0.433753 0.01712697 0.433079 0.01871395 0.433753 0.01712697 0.435196 0.01923096 0.435655 0.01762497 0.435655 0.01762497 0.434351 0.01572996 0.433753 0.01712697 0.434351 0.01572996 0.435655 0.01762497 0.436084 0.01627898 0.436084 0.01627898 0.436556 0.015118 0.434351 0.01572996 0.436556 0.015118 0.434729 0.01444995 0.434351 0.01572996 0.435678 0.02492296 0.437581 0.02445399 0.435925 0.02344697 0.437581 0.02445399 0.435678 0.02492296 0.437111 0.02545398 0.435678 0.02492296 0.435925 0.02344697 0.433799 0.024221 0.435925 0.02344697 0.43409 0.02276396 0.433799 0.024221 0.436567 0.02170395 0.43409 0.02276396 0.435925 0.02344697 0.43409 0.02276396 0.436567 0.02170395 0.43464 0.02105998 0.435925 0.02344697 0.438474 0.02250897 0.436567 0.02170395 0.438474 0.02250897 0.435925 0.02344697 0.437581 0.02445399 0.433799 0.024221 0.43409 0.02276396 0.432073 0.02374196 0.43409 0.02276396 0.432416 0.02234995 0.432073 0.02374196 0.43464 0.02105998 0.432416 0.02234995 0.43409 0.02276396 0.432416 0.02234995 0.43464 0.02105998 0.43271 0.02057397 0.43464 0.02105998 0.435196 0.01923096 0.43271 0.02057397 0.435196 0.01923096 0.433079 0.01871395 0.43271 0.02057397 0.430381 0.023395 0.4292 0.021963 0.429172 0.02311497 0.4292 0.021963 0.430381 0.023395 0.430753 0.02204197 0.429219 0.02006196 0.430753 0.02204197 0.430904 0.02024799 0.430753 0.02204197 0.429219 0.02006196 0.4292 0.021963 0.432073 0.02374196 0.430753 0.02204197 0.430381 0.023395 0.430753 0.02204197 0.432073 0.02374196 0.432416 0.02234995 0.429569 0.01783996 0.430904 0.02024799 0.431206 0.01821094 0.430904 0.02024799 0.429569 0.01783996 0.429219 0.02006196 0.433079 0.01871395 0.430904 0.02024799 0.43271 0.02057397 0.430904 0.02024799 0.433079 0.01871395 0.431206 0.01821094 0.43271 0.02057397 0.430753 0.02204197 0.432416 0.02234995 0.430753 0.02204197 0.43271 0.02057397 0.430904 0.02024799 0.433049 0.01355397 0.431149 0.01387798 0.432694 0.01491099 0.431149 0.01387798 0.433049 0.01355397 0.431783 0.01293897 0.434729 0.01444995 0.432694 0.01491099 0.434351 0.01572996 0.432694 0.01491099 0.434729 0.01444995 0.433049 0.01355397 0.434351 0.01572996 0.431933 0.01641899 0.433753 0.01712697 0.431933 0.01641899 0.434351 0.01572996 0.432694 0.01491099 0.432694 0.01491099 0.430261 0.01553297 0.431933 0.01641899 0.430261 0.01553297 0.432694 0.01491099 0.431149 0.01387798 0.433079 0.01871395 0.433753 0.01712697 0.431933 0.01641899 0.433079 0.01871395 0.431933 0.01641899 0.431206 0.01821094 0.431933 0.01641899 0.429569 0.01783996 0.431206 0.01821094 0.429569 0.01783996 0.431933 0.01641899 0.430261 0.01553297 0.429859 0.01252895 0.431149 0.01387798 0.431783 0.01293897 0.431783 0.01293897 0.431127 0.01152294 0.429859 0.01252895 0.430261 0.01553297 0.431149 0.01387798 0.428636 0.01446598 0.431149 0.01387798 0.429859 0.01252895 0.428636 0.01446598 0.426634 0.01278799 0.429859 0.01252895 0.428487 0.01050198 0.429859 0.01252895 0.426634 0.01278799 0.428636 0.01446598 0.428487 0.01050198 0.431127 0.01152294 0.430252 0.009352982 0.431127 0.01152294 0.428487 0.01050198 0.429859 0.01252895 0.427643 0.01736295 0.430261 0.01553297 0.428636 0.01446598 0.430261 0.01553297 0.427643 0.01736295 0.429569 0.01783996 0.427132 0.02010899 0.429219 0.02006196 0.427643 0.01736295 0.427643 0.01736295 0.429219 0.02006196 0.429569 0.01783996 0.424126 0.02029299 0.427132 0.02010899 0.4249 0.01657998 0.4249 0.01657998 0.427132 0.02010899 0.427643 0.01736295 0.4249 0.01657998 0.428636 0.01446598 0.426634 0.01278799 0.428636 0.01446598 0.4249 0.01657998 0.427643 0.01736295 0.423594 0.01057296 0.4249 0.01657998 0.426634 0.01278799 0.4249 0.01657998 0.423594 0.01057296 0.421191 0.01545798 0.423594 0.01057296 0.428487 0.01050198 0.426615 0.007420957 0.428487 0.01050198 0.423594 0.01057296 0.426634 0.01278799 0.426615 0.007420957 0.430252 0.009352982 0.428844 0.005983948 0.430252 0.009352982 0.426615 0.007420957 0.428487 0.01050198 0.427769 0.02399694 0.429172 0.02311497 0.427209 0.02241098 0.429172 0.02311497 0.4292 0.021963 0.427209 0.02241098 0.427769 0.02399694 0.424219 0.02350896 0.425005 0.02580499 0.424219 0.02350896 0.427769 0.02399694 0.427209 0.02241098 0.424126 0.02029299 0.424219 0.02350896 0.427209 0.02241098 0.424126 0.02029299 0.427209 0.02241098 0.427132 0.02010899 0.4292 0.021963 0.427132 0.02010899 0.427209 0.02241098 0.427132 0.02010899 0.4292 0.021963 0.429219 0.02006196 0.42077 0.024872 0.425005 0.02580499 0.424219 0.02350896 0.425005 0.02580499 0.42077 0.024872 0.421709 0.02801197 0.42077 0.024872 0.424219 0.02350896 0.420246 0.020361 0.420246 0.020361 0.424219 0.02350896 0.424126 0.02029299 0.421191 0.01545798 0.424126 0.02029299 0.4249 0.01657998 0.424126 0.02029299 0.421191 0.01545798 0.420246 0.020361 0.690643 0.02279096 0.690356 0.02433997 0.692275 0.02330797 0.690356 0.02433997 0.691241 0.02506196 0.692275 0.02330797 0.690643 0.02279096 0.692985 0.02017796 0.69089 0.01995396 0.692985 0.02017796 0.690643 0.02279096 0.692275 0.02330797 0.692275 0.02330797 0.693503 0.02666795 0.69499 0.02413797 0.693503 0.02666795 0.692275 0.02330797 0.691241 0.02506196 0.69089 0.01995396 0.693188 0.01659899 0.690946 0.01665896 0.693188 0.01659899 0.69089 0.01995396 0.692985 0.02017796 0.693188 0.01659899 0.692985 0.02017796 0.696008 0.02049899 0.693188 0.01659899 0.696008 0.02049899 0.696244 0.01639199 0.692985 0.02017796 0.69499 0.02413797 0.696008 0.02049899 0.69499 0.02413797 0.692985 0.02017796 0.692275 0.02330797 0.690395 0.01163095 0.691908 0.01088994 0.690067 0.01060396 0.690067 0.01060396 0.691908 0.01088994 0.690955 0.009734988 0.69453 0.009018957 0.690955 0.009734988 0.691908 0.01088994 0.690955 0.009734988 0.69453 0.009018957 0.693204 0.007399976 0.691908 0.01088994 0.695691 0.01210498 0.69453 0.009018957 0.695691 0.01210498 0.691908 0.01088994 0.692819 0.01309698 0.690819 0.01356995 0.692819 0.01309698 0.690395 0.01163095 0.690395 0.01163095 0.692819 0.01309698 0.691908 0.01088994 0.693188 0.01659899 0.696244 0.01639199 0.692819 0.01309698 0.692819 0.01309698 0.696244 0.01639199 0.695691 0.01210498 0.690819 0.01356995 0.690946 0.01665896 0.693188 0.01659899 0.690819 0.01356995 0.693188 0.01659899 0.692819 0.01309698 0.68886 0.01044094 0.688813 0.01175498 0.690067 0.01060396 0.690067 0.01060396 0.688813 0.01175498 0.690395 0.01163095 0.68897 0.01367396 0.690395 0.01163095 0.688813 0.01175498 0.690395 0.01163095 0.68897 0.01367396 0.690819 0.01356995 0.68682 0.01357799 0.688813 0.01175498 0.686605 0.011608 0.688813 0.01175498 0.68682 0.01357799 0.68897 0.01367396 0.686605 0.011608 0.68886 0.01044094 0.686525 0.01004499 0.68886 0.01044094 0.686605 0.011608 0.688813 0.01175498 0.68908 0.01662194 0.690819 0.01356995 0.68897 0.01367396 0.690819 0.01356995 0.68908 0.01662194 0.690946 0.01665896 0.68902 0.01981198 0.690946 0.01665896 0.68908 0.01662194 0.690946 0.01665896 0.68902 0.01981198 0.69089 0.01995396 0.687053 0.01968497 0.68908 0.01662194 0.687063 0.01648896 0.68908 0.01662194 0.687053 0.01968497 0.68902 0.01981198 0.687063 0.01648896 0.68897 0.01367396 0.68682 0.01357799 0.68897 0.01367396 0.687063 0.01648896 0.68908 0.01662194 0.684917 0.016321 0.68682 0.01357799 0.684679 0.013457 0.68682 0.01357799 0.684917 0.016321 0.687063 0.01648896 0.684679 0.013457 0.686605 0.011608 0.684446 0.01150399 0.686605 0.011608 0.684679 0.013457 0.68682 0.01357799 0.684446 0.01150399 0.686525 0.01004499 0.684186 0.009951949 0.686525 0.01004499 0.684446 0.01150399 0.686605 0.011608 0.689039 0.02264398 0.689261 0.02464097 0.690356 0.02433997 0.689039 0.02264398 0.690356 0.02433997 0.690643 0.02279096 0.687034 0.02264398 0.689261 0.02464097 0.689039 0.02264398 0.689261 0.02464097 0.687034 0.02264398 0.687107 0.02483195 0.687053 0.01968497 0.687034 0.02264398 0.689039 0.02264398 0.687053 0.01968497 0.689039 0.02264398 0.68902 0.01981198 0.68902 0.01981198 0.690643 0.02279096 0.69089 0.01995396 0.690643 0.02279096 0.68902 0.01981198 0.689039 0.02264398 0.684862 0.02248996 0.687107 0.02483195 0.687034 0.02264398 0.687107 0.02483195 0.684862 0.02248996 0.684708 0.02480298 0.684862 0.02248996 0.687053 0.01968497 0.684937 0.019517 0.687053 0.01968497 0.684862 0.02248996 0.687034 0.02264398 0.684937 0.019517 0.687063 0.01648896 0.684917 0.016321 0.687063 0.01648896 0.684937 0.019517 0.687053 0.01968497 0.680776 0.02240699 0.681044 0.02417796 0.682693 0.02233999 0.681044 0.02417796 0.682486 0.02449697 0.682693 0.02233999 0.680776 0.02240699 0.682725 0.01935499 0.68052 0.01928895 0.682725 0.01935499 0.680776 0.02240699 0.682693 0.02233999 0.682693 0.02233999 0.682486 0.02449697 0.684862 0.02248996 0.682486 0.02449697 0.684708 0.02480298 0.684862 0.02248996 0.68052 0.01928895 0.682718 0.01608896 0.680543 0.01582795 0.682718 0.01608896 0.68052 0.01928895 0.682725 0.01935499 0.682725 0.01935499 0.684917 0.016321 0.682718 0.01608896 0.684917 0.016321 0.682725 0.01935499 0.684937 0.019517 0.682725 0.01935499 0.682693 0.02233999 0.684937 0.019517 0.682693 0.02233999 0.684862 0.02248996 0.684937 0.019517 0.680938 0.01130795 0.682561 0.01147896 0.681096 0.01026499 0.681096 0.01026499 0.682561 0.01147896 0.682289 0.01010799 0.682561 0.01147896 0.684446 0.01150399 0.684186 0.009951949 0.682561 0.01147896 0.684186 0.009951949 0.682289 0.01010799 0.682561 0.01147896 0.682632 0.01337498 0.684446 0.01150399 0.682632 0.01337498 0.684679 0.013457 0.684446 0.01150399 0.680709 0.01312899 0.682561 0.01147896 0.680938 0.01130795 0.682561 0.01147896 0.680709 0.01312899 0.682632 0.01337498 0.682718 0.01608896 0.684679 0.013457 0.682632 0.01337498 0.684679 0.013457 0.682718 0.01608896 0.684917 0.016321 0.680543 0.01582795 0.682632 0.01337498 0.680709 0.01312899 0.682632 0.01337498 0.680543 0.01582795 0.682718 0.01608896 0.691241 0.02506196 0.690356 0.02433997 0.689884 0.02597898 0.690356 0.02433997 0.689261 0.02464097 0.689884 0.02597898 0.691241 0.02506196 0.691708 0.02831798 0.693503 0.02666795 0.691708 0.02831798 0.691241 0.02506196 0.689884 0.02597898 0.687253 0.02658796 0.689261 0.02464097 0.687107 0.02483195 0.689261 0.02464097 0.687253 0.02658796 0.689884 0.02597898 0.421709 0.02801197 0.426338 0.02758997 0.425005 0.02580499 0.426338 0.02758997 0.421709 0.02801197 0.423143 0.03059798 0.429693 0.02915698 0.426338 0.02758997 0.427134 0.03424894 0.427134 0.03424894 0.426338 0.02758997 0.423143 0.03059798 0.687853 0.030043 0.689884 0.02597898 0.687253 0.02658796 0.689884 0.02597898 0.687853 0.030043 0.691708 0.02831798 0.683225 0.030043 0.687853 0.030043 0.684248 0.02670598 0.684248 0.02670598 0.687853 0.030043 0.687253 0.02658796 0.684248 0.02670598 0.687253 0.02658796 0.684708 0.02480298 0.684708 0.02480298 0.687253 0.02658796 0.687107 0.02483195 0.4292 0.02484297 0.429172 0.02311497 0.427769 0.02399694 0.429172 0.02311497 0.4292 0.02484297 0.430381 0.023395 0.43144 0.02537697 0.430381 0.023395 0.4292 0.02484297 0.430381 0.023395 0.43144 0.02537697 0.432073 0.02374196 0.429693 0.02915698 0.43144 0.02537697 0.4292 0.02484297 0.429693 0.02915698 0.4292 0.02484297 0.426338 0.02758997 0.426338 0.02758997 0.4292 0.02484297 0.425005 0.02580499 0.425005 0.02580499 0.4292 0.02484297 0.427769 0.02399694 0.43371 0.02620899 0.432073 0.02374196 0.43144 0.02537697 0.432073 0.02374196 0.43371 0.02620899 0.433799 0.024221 0.43371 0.02620899 0.429693 0.02915698 0.433558 0.03038597 0.429693 0.02915698 0.43371 0.02620899 0.43144 0.02537697 0.432684 0.03536599 0.429693 0.02915698 0.427134 0.03424894 0.429693 0.02915698 0.432684 0.03536599 0.433558 0.03038597 0.437995 0.02691596 0.437111 0.02545398 0.436173 0.02709597 0.437111 0.02545398 0.435678 0.02492296 0.436173 0.02709597 0.437073 0.03008699 0.437995 0.02691596 0.436173 0.02709597 0.437995 0.02691596 0.437073 0.03008699 0.439279 0.02916795 0.435678 0.02492296 0.43371 0.02620899 0.436173 0.02709597 0.43371 0.02620899 0.435678 0.02492296 0.433799 0.024221 0.439279 0.02916795 0.437793 0.03453296 0.440851 0.03265196 0.437793 0.03453296 0.439279 0.02916795 0.437073 0.03008699 0.433558 0.03038597 0.437793 0.03453296 0.437073 0.03008699 0.437793 0.03453296 0.433558 0.03038597 0.432684 0.03536599 0.437073 0.03008699 0.436173 0.02709597 0.433558 0.03038597 0.436173 0.02709597 0.43371 0.02620899 0.433558 0.03038597 0.682486 0.02449697 0.681044 0.02417796 0.681613 0.02617895 0.681044 0.02417796 0.679794 0.02520596 0.681613 0.02617895 0.682486 0.02449697 0.684248 0.02670598 0.684708 0.02480298 0.684248 0.02670598 0.682486 0.02449697 0.681613 0.02617895 0.679397 0.02854698 0.683225 0.030043 0.681613 0.02617895 0.681613 0.02617895 0.683225 0.030043 0.684248 0.02670598 0.679397 0.02854698 0.681613 0.02617895 0.677244 0.02686595 0.677244 0.02686595 0.681613 0.02617895 0.679794 0.02520596 0.682289 0.01010799 0.681476 0.008496999 0.681096 0.01026499 0.679971 0.009315967 0.681096 0.01026499 0.681476 0.008496999 0.679971 0.009315967 0.679764 0.006163954 0.677806 0.007437944 0.679764 0.006163954 0.679971 0.009315967 0.681476 0.008496999 0.682289 0.01010799 0.683812 0.008089959 0.681476 0.008496999 0.683812 0.008089959 0.682289 0.01010799 0.684186 0.009951949 0.445277 0.01191395 0.441444 0.01241099 0.442544 0.01383894 0.441444 0.01241099 0.445277 0.01191395 0.443981 0.009645998 0.443981 0.009645998 0.43888 0.01046895 0.441444 0.01241099 0.43888 0.01046895 0.443981 0.009645998 0.441113 0.006665945 0.679764 0.006163954 0.681476 0.008496999 0.683165 0.005023956 0.681476 0.008496999 0.683812 0.008089959 0.683165 0.005023956 0.683812 0.008089959 0.687326 0.005116999 0.683165 0.005023956 0.687326 0.005116999 0.683812 0.008089959 0.686687 0.008245944 0.684186 0.009951949 0.686687 0.008245944 0.683812 0.008089959 0.686687 0.008245944 0.684186 0.009951949 0.686525 0.01004499 0.44059 0.01505398 0.439519 0.01420497 0.439566 0.01563096 0.439566 0.01563096 0.439519 0.01420497 0.438457 0.01541399 0.437383 0.01348298 0.438457 0.01541399 0.439519 0.01420497 0.438457 0.01541399 0.437383 0.01348298 0.436556 0.015118 0.43888 0.01046895 0.439519 0.01420497 0.441444 0.01241099 0.439519 0.01420497 0.43888 0.01046895 0.437383 0.01348298 0.441444 0.01241099 0.44059 0.01505398 0.442544 0.01383894 0.44059 0.01505398 0.441444 0.01241099 0.439519 0.01420497 0.435119 0.01258695 0.436556 0.015118 0.437383 0.01348298 0.436556 0.015118 0.435119 0.01258695 0.434729 0.01444995 0.43888 0.01046895 0.435119 0.01258695 0.437383 0.01348298 0.435119 0.01258695 0.43888 0.01046895 0.435586 0.009086966 0.441113 0.006665945 0.436337 0.005023956 0.435586 0.009086966 0.441113 0.006665945 0.435586 0.009086966 0.43888 0.01046895 0.433049 0.01355397 0.432938 0.011608 0.431783 0.01293897 0.432938 0.011608 0.431127 0.01152294 0.431783 0.01293897 0.432179 0.008821964 0.431127 0.01152294 0.432938 0.011608 0.431127 0.01152294 0.432179 0.008821964 0.430252 0.009352982 0.435119 0.01258695 0.433049 0.01355397 0.434729 0.01444995 0.433049 0.01355397 0.435119 0.01258695 0.432938 0.011608 0.431352 0.005023956 0.430252 0.009352982 0.432179 0.008821964 0.430252 0.009352982 0.431352 0.005023956 0.428844 0.005983948 0.436337 0.005023956 0.432179 0.008821964 0.435586 0.009086966 0.432179 0.008821964 0.436337 0.005023956 0.431352 0.005023956 0.435586 0.009086966 0.432938 0.011608 0.435119 0.01258695 0.435586 0.009086966 0.432179 0.008821964 0.432938 0.011608 0.689485 0.009030997 0.68886 0.01044094 0.690067 0.01060396 0.690067 0.01060396 0.690955 0.009734988 0.689485 0.009030997 0.68886 0.01044094 0.686687 0.008245944 0.686525 0.01004499 0.686687 0.008245944 0.68886 0.01044094 0.689485 0.009030997 0.687326 0.005116999 0.686687 0.008245944 0.689485 0.009030997 0.689485 0.009030997 0.691314 0.006371974 0.687326 0.005116999 0.690955 0.009734988 0.691314 0.006371974 0.689485 0.009030997 0.691314 0.006371974 0.690955 0.009734988 0.693204 0.007399976</float_array>
          <technique_common>
            <accessor source="#Alpha_SurfaceMesh_334-mesh-map-0-array" count="1020" stride="2">
              <param name="S" type="float"/>
              <param name="T" type="float"/>
            </accessor>
          </technique_common>
        </source>
        <vertices id="Alpha_SurfaceMesh_334-mesh-vertices">
          <input semantic="POSITION" source="#Alpha_SurfaceMesh_334-mesh-positions"/>
        </vertices>
        <triangles material="Alpha_Body_MAT_007-material" count="340">
          <input semantic="VERTEX" source="#Alpha_SurfaceMesh_334-mesh-vertices" offset="0"/>
          <input semantic="NORMAL" source="#Alpha_SurfaceMesh_334-mesh-normals" offset="1"/>
          <input semantic="TEXCOORD" source="#Alpha_SurfaceMesh_334-mesh-map-0" offset="2" set="0"/>
          <p>14 0 0 15 1 1 2 2 2 2 2 3 15 1 4 12 3 5 18 4 6 12 3 7 15 1 8 12 3 9 18 4 10 16 5 11 17 6 12 15 1 13 13 7 14 15 1 15 17 6 16 18 4 17 13 7 18 14 0 19 8 8 20 14 0 21 13 7 22 15 1 23 16 5 24 18 4 25 30 9 26 18 4 27 31 10 28 30 9 29 18 4 30 17 6 31 31 10 32 17 6 33 28 11 34 31 10 35 19 12 36 13 7 37 21 13 38 13 7 39 19 12 40 17 6 41 17 6 42 19 12 43 28 11 44 19 12 45 29 14 46 28 11 47 45 15 48 37 16 49 19 12 50 19 12 51 37 16 52 29 14 53 44 17 54 45 15 55 21 13 56 21 13 57 45 15 58 19 12 59 21 13 60 8 8 61 20 18 62 8 8 63 21 13 64 13 7 65 43 19 66 44 17 67 20 18 68 20 18 69 44 17 70 21 13 71 25 20 72 0 21 73 24 22 74 0 21 75 25 20 76 22 23 77 23 24 78 22 23 79 25 20 80 22 23 81 23 24 82 9 25 83 28 11 84 25 20 85 31 10 86 25 20 87 28 11 88 23 24 89 31 10 90 24 22 91 30 9 92 24 22 93 31 10 94 25 20 95 27 26 96 9 25 97 23 24 98 9 25 99 27 26 100 26 27 101 39 28 102 26 27 103 27 26 104 26 27 105 39 28 106 38 29 107 29 14 108 37 16 109 39 28 110 29 14 111 39 28 112 27 26 113 29 14 114 23 24 115 28 11 116 23 24 117 29 14 118 27 26 119 34 30 120 32 31 121 1 32 122 1 32 123 33 33 124 34 30 125 32 31 126 36 34 127 35 35 128 36 34 129 32 31 130 34 30 131 37 16 132 36 34 133 34 30 134 37 16 135 34 30 136 39 28 137 39 28 138 34 30 139 33 33 140 39 28 141 33 33 142 38 29 143 46 36 144 36 34 145 47 37 146 36 34 147 46 36 148 35 35 149 47 37 150 36 34 151 45 15 152 45 15 153 36 34 154 37 16 155 42 38 156 40 39 157 3 40 158 3 40 159 41 41 160 42 38 161 40 39 162 44 17 163 43 19 164 44 17 165 40 39 166 42 38 167 47 37 168 42 38 169 41 41 170 41 41 171 46 36 172 47 37 173 44 17 174 42 38 175 45 15 176 42 38 177 47 37 178 45 15 179 49 42 180 14 0 181 2 2 182 14 0 183 49 42 184 50 43 185 50 43 186 8 8 187 14 0 188 8 8 189 50 43 190 48 44 191 48 44 192 55 45 193 52 46 194 55 45 195 48 44 196 50 43 197 54 47 198 50 43 199 49 42 200 50 43 201 54 47 202 55 45 203 20 18 204 48 44 205 51 48 206 48 44 207 20 18 208 8 8 209 61 49 210 43 19 211 51 48 212 51 48 213 43 19 214 20 18 215 61 49 216 51 48 217 53 50 218 61 49 219 53 50 220 60 51 221 51 48 222 52 46 223 53 50 224 52 46 225 51 48 226 48 44 227 53 50 228 75 52 229 77 53 230 75 52 231 53 50 232 52 46 233 52 46 234 76 54 235 75 52 236 76 54 237 52 46 238 55 45 239 55 45 240 54 47 241 76 54 242 54 47 243 74 55 244 76 54 245 56 56 246 40 39 247 57 57 248 40 39 249 56 56 250 3 40 251 56 56 252 57 57 253 58 58 254 57 57 255 59 59 256 58 58 257 61 49 258 59 59 259 57 57 260 59 59 261 61 49 262 60 51 263 57 57 264 43 19 265 61 49 266 43 19 267 57 57 268 40 39 269 58 58 270 59 59 271 68 60 272 59 59 273 69 61 274 68 60 275 60 51 276 69 61 277 59 59 278 69 61 279 60 51 280 67 62 281 60 51 282 53 50 283 67 62 284 53 50 285 77 53 286 67 62 287 63 63 288 62 64 289 5 65 290 62 64 291 63 63 292 64 66 293 65 67 294 64 66 295 66 68 296 64 66 297 65 67 298 62 64 299 68 60 300 64 66 301 63 63 302 64 66 303 68 60 304 69 61 305 78 69 306 66 68 307 79 70 308 66 68 309 78 69 310 65 67 311 77 53 312 66 68 313 67 62 314 66 68 315 77 53 316 79 70 317 67 62 318 64 66 319 69 61 320 64 66 321 67 62 322 66 68 323 70 71 324 72 72 325 73 73 326 72 72 327 70 71 328 4 74 329 74 55 330 73 73 331 76 54 332 73 73 333 74 55 334 70 71 335 76 54 336 71 75 337 75 52 338 71 75 339 76 54 340 73 73 341 73 73 342 10 76 343 71 75 344 10 76 345 73 73 346 72 72 347 77 53 348 75 52 349 71 75 350 77 53 351 71 75 352 79 70 353 71 75 354 78 69 355 79 70 356 78 69 357 71 75 358 10 76 359 82 77 360 72 72 361 4 74 362 4 74 363 81 78 364 82 77 365 10 76 366 72 72 367 80 79 368 72 72 369 82 77 370 80 79 371 84 80 372 82 77 373 87 81 374 82 77 375 84 80 376 80 79 377 87 81 378 81 78 379 86 82 380 81 78 381 87 81 382 82 77 383 83 83 384 10 76 385 80 79 386 10 76 387 83 83 388 78 69 389 93 84 390 65 67 391 83 83 392 83 83 393 65 67 394 78 69 395 92 85 396 93 84 397 85 86 398 85 86 399 93 84 400 83 83 401 85 86 402 80 79 403 84 80 404 80 79 405 85 86 406 83 83 407 107 87 408 85 86 409 84 80 410 85 86 411 107 87 412 109 88 413 107 87 414 87 81 415 108 89 416 87 81 417 107 87 418 84 80 419 108 89 420 86 82 421 106 90 422 86 82 423 108 89 424 87 81 425 88 91 426 5 65 427 89 92 428 5 65 429 62 64 430 89 92 431 88 91 432 91 93 433 90 94 434 91 93 435 88 91 436 89 92 437 92 85 438 91 93 439 89 92 440 92 85 441 89 92 442 93 84 443 62 64 444 93 84 445 89 92 446 93 84 447 62 64 448 65 67 449 101 95 450 90 94 451 91 93 452 90 94 453 101 95 454 100 96 455 101 95 456 91 93 457 99 97 458 99 97 459 91 93 460 92 85 461 109 88 462 92 85 463 85 86 464 92 85 465 109 88 466 99 97 467 94 98 468 7 99 469 96 100 470 7 99 471 95 101 472 96 100 473 94 98 474 98 102 475 97 103 476 98 102 477 94 98 478 96 100 479 96 100 480 100 96 481 101 95 482 100 96 483 96 100 484 95 101 485 97 103 486 111 104 487 110 105 488 111 104 489 97 103 490 98 102 491 111 104 492 98 102 493 99 97 494 111 104 495 99 97 496 109 88 497 98 102 498 101 95 499 99 97 500 101 95 501 98 102 502 96 100 503 104 106 504 105 107 505 6 108 506 6 108 507 105 107 508 102 109 509 108 89 510 102 109 511 105 107 512 102 109 513 108 89 514 106 90 515 105 107 516 107 87 517 108 89 518 107 87 519 105 107 520 103 110 521 11 111 522 103 110 523 104 106 524 104 106 525 103 110 526 105 107 527 111 104 528 109 88 529 103 110 530 103 110 531 109 88 532 107 87 533 11 111 534 110 105 535 111 104 536 11 111 537 111 104 538 103 110 539 113 112 540 114 113 541 6 108 542 6 108 543 114 113 544 104 106 545 112 114 546 104 106 547 114 113 548 104 106 549 112 114 550 11 111 551 116 115 552 114 113 553 119 116 554 114 113 555 116 115 556 112 114 557 119 116 558 113 112 559 118 117 560 113 112 561 119 116 562 114 113 563 115 118 564 11 111 565 112 114 566 11 111 567 115 118 568 110 105 569 125 119 570 110 105 571 115 118 572 110 105 573 125 119 574 97 103 575 124 120 576 115 118 577 117 121 578 115 118 579 124 120 580 125 119 581 117 121 582 112 114 583 116 115 584 112 114 585 117 121 586 115 118 587 138 122 588 116 115 589 136 123 590 116 115 591 138 122 592 117 121 593 136 123 594 119 116 595 137 124 596 119 116 597 136 123 598 116 115 599 137 124 600 118 117 601 135 125 602 118 117 603 137 124 604 119 116 605 121 126 606 120 127 607 7 99 608 121 126 609 7 99 610 94 98 611 123 128 612 120 127 613 121 126 614 120 127 615 123 128 616 122 129 617 124 120 618 123 128 619 121 126 620 124 120 621 121 126 622 125 119 623 125 119 624 94 98 625 97 103 626 94 98 627 125 119 628 121 126 629 131 130 630 122 129 631 123 128 632 122 129 633 131 130 634 130 131 635 131 130 636 124 120 637 129 132 638 124 120 639 131 130 640 123 128 641 129 132 642 117 121 643 138 122 644 117 121 645 129 132 646 124 120 647 33 33 648 1 32 649 127 133 650 1 32 651 126 134 652 127 133 653 33 33 654 128 135 655 38 29 656 128 135 657 33 33 658 127 133 659 127 133 660 126 134 661 131 130 662 126 134 663 130 131 664 131 130 665 38 29 666 139 136 667 26 27 668 139 136 669 38 29 670 128 135 671 128 135 672 138 122 673 139 136 674 138 122 675 128 135 676 129 132 677 128 135 678 127 133 679 129 132 680 127 133 681 131 130 682 129 132 683 22 23 684 134 137 685 0 21 686 0 21 687 134 137 688 132 138 689 134 137 690 137 124 691 135 125 692 134 137 693 135 125 694 132 138 695 134 137 696 133 139 697 137 124 698 133 139 699 136 123 700 137 124 701 9 25 702 134 137 703 22 23 704 134 137 705 9 25 706 133 139 707 139 136 708 136 123 709 133 139 710 136 123 711 139 136 712 138 122 713 26 27 714 133 139 715 9 25 716 133 139 717 26 27 718 139 136 719 95 101 720 7 99 721 140 140 722 7 99 723 120 127 724 140 140 725 95 101 726 141 141 727 100 96 728 141 141 729 95 101 730 140 140 731 143 142 732 120 127 733 122 129 734 120 127 735 143 142 736 140 140 737 100 96 738 147 143 739 90 94 740 147 143 741 100 96 742 141 141 743 146 144 744 147 143 745 142 145 746 142 145 747 147 143 748 141 141 749 142 145 750 140 140 751 143 142 752 140 140 753 142 145 754 141 141 755 154 146 756 142 145 757 153 147 758 153 147 759 142 145 760 143 142 761 153 147 762 143 142 763 130 131 764 130 131 765 143 142 766 122 129 767 144 148 768 5 65 769 88 91 770 5 65 771 144 148 772 63 63 773 145 149 774 63 63 775 144 148 776 63 63 777 145 149 778 68 60 779 146 144 780 145 149 781 144 148 782 146 144 783 144 148 784 147 143 785 147 143 786 144 148 787 90 94 788 90 94 789 144 148 790 88 91 791 151 150 792 68 60 793 145 149 794 68 60 795 151 150 796 58 58 797 151 150 798 146 144 799 150 151 800 146 144 801 151 150 802 145 149 803 154 146 804 146 144 805 142 145 806 146 144 807 154 146 808 150 151 809 41 41 810 3 40 811 148 152 812 3 40 813 56 56 814 148 152 815 149 153 816 41 41 817 148 152 818 41 41 819 149 153 820 46 36 821 56 56 822 151 150 823 148 152 824 151 150 825 56 56 826 58 58 827 46 36 828 155 154 829 35 35 830 155 154 831 46 36 832 149 153 833 150 151 834 155 154 835 149 153 836 155 154 837 150 151 838 154 146 839 149 153 840 148 152 841 150 151 842 148 152 843 151 150 844 150 151 845 126 134 846 1 32 847 152 155 848 1 32 849 32 31 850 152 155 851 126 134 852 153 147 853 130 131 854 153 147 855 126 134 856 152 155 857 155 154 858 154 146 859 152 155 860 152 155 861 154 146 862 153 147 863 155 154 864 152 155 865 35 35 866 35 35 867 152 155 868 32 31 869 132 138 870 156 156 871 0 21 872 24 22 873 0 21 874 156 156 875 24 22 876 157 157 877 30 9 878 157 157 879 24 22 880 156 156 881 132 138 882 159 158 883 156 156 884 159 158 885 132 138 886 135 125 887 30 9 888 163 159 889 16 5 890 163 159 891 30 9 892 157 157 893 157 157 894 162 160 895 163 159 896 162 160 897 157 157 898 158 161 899 157 157 900 156 156 901 158 161 902 156 156 903 159 158 904 158 161 905 159 158 906 170 162 907 158 161 908 170 162 909 159 158 910 169 163 911 135 125 912 169 163 913 159 158 914 169 163 915 135 125 916 118 117 917 12 3 918 160 164 919 2 2 920 2 2 921 160 164 922 49 42 923 161 165 924 49 42 925 160 164 926 49 42 927 161 165 928 54 47 929 162 160 930 160 164 931 163 159 932 160 164 933 162 160 934 161 165 935 163 159 936 12 3 937 16 5 938 12 3 939 163 159 940 160 164 941 167 166 942 54 47 943 161 165 944 54 47 945 167 166 946 74 55 947 162 160 948 167 166 949 161 165 950 167 166 951 162 160 952 166 167 953 158 161 954 170 162 955 166 167 956 158 161 957 166 167 958 162 160 959 70 71 960 164 168 961 4 74 962 164 168 963 81 78 964 4 74 965 165 169 966 81 78 967 164 168 968 81 78 969 165 169 970 86 82 971 167 166 972 70 71 973 74 55 974 70 71 975 167 166 976 164 168 977 171 170 978 86 82 979 165 169 980 86 82 981 171 170 982 106 90 983 170 162 984 165 169 985 166 167 986 165 169 987 170 162 988 171 170 989 166 167 990 164 168 991 167 166 992 166 167 993 165 169 994 164 168 995 168 171 996 113 112 997 6 108 998 6 108 999 102 109 1000 168 171 1001 113 112 1002 169 163 1003 118 117 1004 169 163 1005 113 112 1006 168 171 1007 170 162 1008 169 163 1009 168 171 1010 168 171 1011 171 170 1012 170 162 1013 102 109 1014 171 170 1015 168 171 1016 171 170 1017 102 109 1018 106 90 1019</p>
        </triangles>
      </mesh>
    </geometry>
  </library_geometries>
  <library_controllers/>
  <library_visual_scenes>
    <visual_scene id="Scene" name="Scene">
      <node id="VIS_Alpha_Surface_044" name="VIS_Alpha_Surface_044" type="NODE">
        <instance_geometry url="#Alpha_SurfaceMesh_334-mesh" name="VIS_Alpha_Surface_044">
          <bind_material>
            <technique_common>
              <instance_material symbol="Alpha_Body_MAT_007-material" target="#Alpha_Body_MAT_007-material"/>
            </technique_common>
          </bind_material>
        </instance_geometry>
      </node>
    </visual_scene>
  </library_visual_scenes>
  <scene>
    <instance_visual_scene url="#Scene"/>
  </scene>
</COLLADA>