<?xml version="1.0" encoding="utf-8"?>
<COLLADA xmlns="http://www.collada.org/2005/11/COLLADASchema" version="1.4.1" xmlns:xsi="http://www.w3.org/2001/XMLSchema-instance">
  <asset>
    <contributor>
      <author>Blender User</author>
      <authoring_tool>Blender 2.79.0 commit date:2018-03-22, commit time:14:10, hash:f4dc9f9d68b</authoring_tool>
    </contributor>
    <created>2018-10-09T21:23:55</created>
    <modified>2018-10-09T21:23:55</modified>
    <unit name="meter" meter="1"/>
    <up_axis>Z_UP</up_axis>
  </asset>
  <library_images/>
  <library_effects>
    <effect id="Alpha_Joints_MAT_007-effect">
      <profile_COMMON>
        <technique sid="common">
          <phong>
            <emission>
              <color sid="emission">0 0 0 1</color>
            </emission>
            <ambient>
              <color sid="ambient">0 0 0 1</color>
            </ambient>
            <diffuse>
              <color sid="diffuse">0.122841 0.170315 0.177774 1</color>
            </diffuse>
            <specular>
              <color sid="specular">0.141024 0.141024 0.141024 1</color>
            </specular>
            <shininess>
              <float sid="shininess">2</float>
            </shininess>
            <transparent opaque="A_ONE">
              <color>1 1 1 1</color>
            </transparent>
            <index_of_refraction>
              <float sid="index_of_refraction">1</float>
            </index_of_refraction>
          </phong>
        </technique>
      </profile_COMMON>
    </effect>
  </library_effects>
  <library_materials>
    <material id="Alpha_Joints_MAT_007-material" name="Alpha_Joints_MAT_007">
      <instance_effect url="#Alpha_Joints_MAT_007-effect"/>
    </material>
  </library_materials>
  <library_geometries>
    <geometry id="Alpha_JointsMesh_300-mesh" name="Alpha_JointsMesh.300">
      <mesh>
        <source id="Alpha_JointsMesh_300-mesh-positions">
          <float_array id="Alpha_JointsMesh_300-mesh-positions-array" count="402">86.91575 142.1862 -6.313291 86.78491 142.2003 -6.438084 86.60895 142.1992 -6.481982 86.43499 142.1831 -6.433224 86.30966 142.1564 -6.304873 86.26657 142.1262 -6.131322 86.31721 142.1006 -5.959052 86.44807 142.0864 -5.834259 86.62404 142.0875 -5.790362 86.79798 142.1036 -5.839119 86.9233 142.1303 -5.96747 86.96641 142.1605 -6.141042 87.17044 142.3569 -6.446031 86.92552 142.3834 -6.679643 86.59613 142.3813 -6.761812 86.27047 142.3512 -6.670545 86.03591 142.3011 -6.430273 85.95522 142.2445 -6.105406 86.05003 142.1966 -5.782944 86.29496 142.1701 -5.549344 86.62437 142.1722 -5.467164 86.94998 142.2023 -5.558442 87.18457 142.2523 -5.798702 87.26525 142.3089 -6.123601 87.39242 142.6046 -6.548485 87.04605 142.642 -6.878854 86.58023 142.6391 -6.995073 86.11972 142.5966 -6.865979 85.78797 142.5258 -6.5262 85.67385 142.4458 -6.066767 85.80795 142.3779 -5.610751 86.15432 142.3404 -5.280381 86.62018 142.3433 -5.164164 87.08067 142.3859 -5.293247 87.41239 142.4567 -5.633035 87.52652 142.5367 -6.092499 87.55736 142.9095 -6.608436 87.13317 142.9554 -7.013047 86.56264 142.9518 -7.155381 85.99864 142.8997 -6.99729 85.59233 142.813 -6.581133 85.45257 142.715 -6.018442 85.61682 142.6319 -5.459943 86.04103 142.586 -5.055323 86.61157 142.5896 -4.912999 87.17554 142.6417 -5.07108 87.58185 142.7284 -5.487236 87.72158 142.8264 -6.049957 87.65404 143.2511 -6.621751 87.1809 143.3023 -7.073037 86.54457 143.2983 -7.23179 85.91552 143.2402 -7.055462 85.46234 143.1435 -6.59131 85.30644 143.0342 -5.963696 85.48963 142.9415 -5.340771 85.96279 142.8903 -4.889484 86.59914 142.8943 -4.730722 87.22817 142.9525 -4.907059 87.68132 143.0491 -5.371211 87.83724 143.1585 -5.998846 87.67586 143.606 -6.587549 87.186 143.659 -7.054751 86.52723 143.6549 -7.219111 85.87599 143.5947 -7.036556 85.40682 143.4946 -6.556024 85.24545 143.3814 -5.906278 85.43508 143.2855 -5.261376 85.92491 143.2325 -4.794174 86.58373 143.2366 -4.629825 87.23495 143.2968 -4.812369 87.70411 143.3969 -5.292891 87.86549 143.5101 -5.942668 87.62133 143.9499 -6.50816 87.14817 144.0011 -6.959446 86.51183 143.9971 -7.118198 85.88279 143.939 -6.941871 85.42961 143.8423 -6.477719 85.2737 143.733 -5.850104 85.4569 143.6403 -5.227179 85.93006 143.5891 -4.775893 86.5664 143.5931 -4.617141 87.19543 143.6512 -4.793468 87.64862 143.7479 -5.25762 87.80449 143.8572 -5.885255 87.49414 144.2595 -6.388999 87.06993 144.3053 -6.79361 86.4994 144.3018 -6.935944 85.93542 144.2496 -6.777853 85.52911 144.163 -6.361696 85.38934 144.0649 -5.799005 85.55358 143.9818 -5.240506 85.97779 143.936 -4.835885 86.54833 143.9395 -4.693562 87.11231 143.9916 -4.851643 87.5186 144.0783 -5.267798 87.65837 144.1763 -5.83052 87.303 144.5136 -6.238164 86.95663 144.5511 -6.568534 86.49079 144.5481 -6.684752 86.03029 144.5056 -6.555668 85.69854 144.4348 -6.21588 85.58443 144.3547 -5.756447 85.71852 144.2869 -5.300431 86.06489 144.2494 -4.97006 86.53075 144.2524 -4.853843 86.99123 144.2949 -4.982926 87.32296 144.3657 -5.322715 87.43708 144.4457 -5.782178 87.06091 144.6949 -6.065968 86.816 144.7214 -6.299579 86.4866 144.7193 -6.381749 86.16096 144.6893 -6.290481 85.92638 144.6392 -6.05021 85.84571 144.5826 -5.725342 85.94051 144.5346 -5.402881 86.18544 144.5081 -5.16928 86.51484 144.5102 -5.087101 86.84046 144.5403 -5.178378 87.07503 144.5903 -5.418638 87.15571 144.6469 -5.743537 86.79373 144.7909 -5.889875 86.66289 144.8051 -6.014668 86.48693 144.804 -6.058567 86.31297 144.7879 -6.009808 86.18764 144.7611 -5.881457 86.14454 144.7309 -5.707906 86.19519 144.7053 -5.535637 86.32604 144.6911 -5.410844 86.50202 144.6922 -5.366946 86.67596 144.7083 -5.415704 86.80127 144.7351 -5.544055 86.84439 144.7653 -5.717627 86.61894 142.0909 -6.144712 86.49201 144.8006 -5.704236</float_array>
          <technique_common>
            <accessor source="#Alpha_JointsMesh_300-mesh-positions-array" count="134" stride="3">
              <param name="X" type="float"/>
              <param name="Y" type="float"/>
              <param name="Z" type="float"/>
            </accessor>
          </technique_common>
        </source>
        <source id="Alpha_JointsMesh_300-mesh-normals">
          <float_array id="Alpha_JointsMesh_300-mesh-normals-array" count="402">0.2960072 -0.7463509 -0.5961041 0.4956571 -0.7679465 -0.4056874 0.3003416 -0.9038937 -0.3045838 0.1882705 -0.8917593 -0.4114849 0.03759938 -0.8927118 -0.4490568 0.02752834 -0.7480582 -0.6630619 -0.1113352 -0.9064906 -0.4072829 -0.2378672 -0.7725954 -0.5886557 -0.218697 -0.9293861 -0.2973437 -0.4291066 -0.8133493 -0.3928492 -0.2555958 -0.955272 -0.1487491 -0.4948681 -0.8594805 -0.1280583 -0.2122293 -0.9772192 -0.001159667 -0.4175599 -0.8985991 0.1347715 -0.1001641 -0.9893419 0.105688 -0.2179398 -0.9201939 0.3251854 0.05053961 -0.9185031 0.3921706 0.05050927 -0.9883958 0.1432572 0.3159396 -0.8939821 0.3177707 0.1995036 -0.9746286 0.1014761 0.5071614 -0.8531836 0.1219226 0.3068439 -0.9517226 -0.008423388 0.3437676 -0.9258287 -0.1570515 0.5729408 -0.8070552 -0.1428308 0.3831367 -0.5533112 -0.7396303 0.6563546 -0.5828329 -0.4790663 0.01574772 -0.5555959 -0.8313034 -0.347463 -0.5891459 -0.7295044 -0.609098 -0.6449883 -0.4615082 -0.6991082 -0.7081114 -0.09912705 -0.5933554 -0.7616081 0.2605429 -0.3201757 -0.7911766 0.5210828 0.04724425 -0.78887 0.6127415 0.4104262 -0.7552966 0.5109575 0.6720898 -0.6994959 0.2429009 0.7621229 -0.6363232 -0.1194212 0.4447843 -0.3262179 -0.8341156 0.7732002 -0.3617423 -0.5208687 0.003021359 -0.3289973 -0.9443261 -0.4335859 -0.369343 -0.8219423 -0.7481839 -0.4364584 -0.4997252 -0.8563989 -0.5123256 -0.06405973 -0.729256 -0.5766601 0.3683056 -0.4007803 -0.6122185 0.6815891 0.04089534 -0.6094323 0.7917827 0.4775632 -0.5690594 0.6694064 0.792143 -0.5019713 0.3471806 0.9003374 -0.4261046 -0.08847421 0.4774401 -0.08298128 -0.8747372 0.8395669 -0.1222009 -0.529334 -0.009583055 -0.08606457 -0.9962435 -0.491021 -0.1305605 -0.8613086 -0.8379012 -0.2045693 -0.5060368 -0.9572289 -0.288191 -0.02566647 -0.8170131 -0.3591867 0.4510816 -0.4548552 -0.398334 0.7965154 0.03213608 -0.395277 0.9179998 0.5136121 -0.3507907 0.783038 0.8604596 -0.276779 0.4277883 0.9797638 -0.1931266 -0.05258488 0.8541304 0.1221363 -0.5055139 0.480684 0.162578 -0.8616909 -0.02151566 0.1594297 -0.9869748 -0.5179972 0.1135302 -0.8478148 -0.8756876 0.03723341 -0.4814405 -0.9987021 -0.04901343 0.01385557 -0.8541404 -0.1221683 0.5054892 -0.4807075 -0.1625756 0.8616783 0.02151578 -0.1593999 0.9869797 0.5179972 -0.1135302 0.8478148 0.8756737 -0.03726333 0.4814634 0.9987006 0.04904383 -0.01385557 0.8170042 0.3592132 -0.4510766 0.4548607 0.3983694 -0.7964946 -0.03213709 0.3953506 -0.9179679 -0.5136011 0.3508443 -0.7830213 -0.8604371 0.2768426 -0.4277922 -0.9797596 0.1931563 0.05255413 -0.8395471 0.1222591 0.529352 -0.4774141 0.08304309 0.8747455 0.009582996 0.08612519 0.9962383 0.4910319 0.1305939 0.8612973 0.8378959 0.2045986 0.5060335 0.9572011 0.2882834 0.02566653 0.7292417 0.5766729 -0.3683137 0.4008051 0.6121792 -0.6816098 -0.04092657 0.6094123 -0.7917966 -0.4775714 0.5690388 -0.669418 -0.7921589 0.5019204 -0.347218 -0.9003515 0.4260807 0.08844506 -0.7732172 0.3616892 0.5208802 -0.4447574 0.3261595 0.8341528 -0.003021299 0.3289606 0.9443388 0.4336204 0.3692854 0.82195 0.7481824 0.436427 0.4997547 0.8564005 0.5123265 0.06402933 0.3202083 0.7911209 -0.5211473 0.5934226 0.7615549 -0.2605456 -0.04724389 0.7888027 -0.6128282 -0.4104831 0.7552279 -0.5110133 -0.6721515 0.699405 -0.2429926 -0.7621561 0.6362949 0.1193606 -0.6564031 0.5827607 0.4790876 -0.3831713 0.5531951 0.7396993 -0.01571744 0.5554836 0.831379 0.3474946 0.5890866 0.7295372 0.6091724 0.6449109 0.4615183 0.6991873 0.7080377 0.09909474 0.2179377 0.9201847 -0.3252127 0.4175599 0.8985991 -0.1347715 -0.05050915 0.9185045 -0.3921712 -0.315931 0.8939882 -0.3177621 -0.5071406 0.8532 -0.1218944 -0.5729013 0.8070729 0.1428896 -0.4956286 0.7679801 0.4056586 -0.2960059 0.746378 0.5960708 -0.02749788 0.7480588 0.6630625 0.2378672 0.7725954 0.5886557 0.4290959 0.8133596 0.3928395 0.4948451 0.8594935 0.1280603 0.1001647 0.9893483 -0.1056277 0.2122001 0.9772255 0.001281797 -0.05047911 0.9884017 -0.1432276 -0.1994749 0.9746375 -0.1014465 -0.3067798 0.9517436 0.008392751 -0.3437041 0.9258525 0.1570503 -0.3003361 0.9039077 0.3045477 -0.1883018 0.8917939 0.4113953 -0.03756844 0.8927313 0.4490208 0.1113352 0.9064906 0.4072829 0.218699 0.9293945 0.2973158 0.2555958 0.955272 0.1487491 0.04617601 -0.9859945 -0.160258 -0.04617577 0.9859897 0.1602877</float_array>
          <technique_common>
            <accessor source="#Alpha_JointsMesh_300-mesh-normals-array" count="134" stride="3">
              <param name="X" type="float"/>
              <param name="Y" type="float"/>
              <param name="Z" type="float"/>
            </accessor>
          </technique_common>
        </source>
        <source id="Alpha_JointsMesh_300-mesh-map-0">
          <float_array id="Alpha_JointsMesh_300-mesh-map-0-array" count="1584">0.08332997 0.16666 0 0.16666 0 0.08332997 0.08332997 0.16666 0 0.08332997 0.08332997 0.08332997 0.16666 0.08332997 0.08332997 0.16666 0.08332997 0.08332997 0.08332997 0.16666 0.16666 0.08332997 0.16666 0.16666 0.25 0.08332997 0.16666 0.16666 0.16666 0.08332997 0.16666 0.16666 0.25 0.08332997 0.25 0.16666 0.25 0.16666 0.33333 0.08332997 0.33333 0.16666 0.33333 0.08332997 0.25 0.16666 0.25 0.08332997 0.33333 0.16666 0.41666 0.08332997 0.41666 0.16666 0.41666 0.08332997 0.33333 0.16666 0.33333 0.08332997 0.5 0.08332997 0.41666 0.16666 0.41666 0.08332997 0.41666 0.16666 0.5 0.08332997 0.5 0.16666 0.58333 0.08332997 0.5 0.16666 0.5 0.08332997 0.5 0.16666 0.58333 0.08332997 0.58333 0.16666 0.58333 0.16666 0.58333 0.08332997 0.66666 0.16666 0.66666 0.16666 0.58333 0.08332997 0.66666 0.08332997 0.75 0.16666 0.66666 0.16666 0.66666 0.08332997 0.75 0.16666 0.66666 0.08332997 0.75 0.08332997 0.83333 0.16666 0.75 0.08332997 0.83333 0.08332997 0.75 0.08332997 0.83333 0.16666 0.75 0.16666 0.91666 0.08332997 0.91666 0.16666 0.83333 0.08332997 0.83333 0.08332997 0.91666 0.16666 0.83333 0.16666 0.91666 0.16666 0.91666 0.08332997 1 0.16666 1 0.16666 0.91666 0.08332997 1 0.08332997 0.08332997 0.25 0 0.25 0 0.16666 0.08332997 0.25 0 0.16666 0.08332997 0.16666 0.16666 0.16666 0.16666 0.25 0.08332997 0.16666 0.08332997 0.16666 0.16666 0.25 0.08332997 0.25 0.25 0.16666 0.16666 0.25 0.16666 0.16666 0.16666 0.25 0.25 0.16666 0.25 0.25 0.25 0.25 0.33333 0.16666 0.33333 0.25 0.33333 0.16666 0.25 0.25 0.25 0.16666 0.33333 0.25 0.41666 0.16666 0.41666 0.25 0.41666 0.16666 0.33333 0.25 0.33333 0.16666 0.5 0.16666 0.41666 0.25 0.41666 0.16666 0.41666 0.25 0.5 0.16666 0.5 0.25 0.58333 0.16666 0.5 0.25 0.5 0.16666 0.5 0.25 0.58333 0.16666 0.58333 0.25 0.66666 0.25 0.58333 0.25 0.58333 0.16666 0.66666 0.25 0.58333 0.16666 0.66666 0.16666 0.75 0.25 0.66666 0.25 0.66666 0.16666 0.75 0.25 0.66666 0.16666 0.75 0.16666 0.83333 0.25 0.75 0.16666 0.83333 0.16666 0.75 0.16666 0.83333 0.25 0.75 0.25 0.83333 0.16666 0.91666 0.16666 0.91666 0.25 0.83333 0.16666 0.91666 0.25 0.83333 0.25 1 0.25 0.91666 0.25 0.91666 0.16666 1 0.25 0.91666 0.16666 1 0.16666 0.08332997 0.33333 0 0.25 0.08332997 0.25 0 0.25 0.08332997 0.33333 0 0.33333 0.16666 0.25 0.16666 0.33333 0.08332997 0.25 0.08332997 0.25 0.16666 0.33333 0.08332997 0.33333 0.25 0.25 0.16666 0.33333 0.16666 0.25 0.16666 0.33333 0.25 0.25 0.25 0.33333 0.33333 0.25 0.25 0.33333 0.25 0.25 0.25 0.33333 0.33333 0.25 0.33333 0.33333 0.41666 0.33333 0.33333 0.25 0.41666 0.25 0.33333 0.25 0.41666 0.33333 0.33333 0.33333 0.5 0.25 0.41666 0.33333 0.41666 0.25 0.41666 0.33333 0.5 0.25 0.5 0.33333 0.58333 0.25 0.5 0.33333 0.5 0.25 0.5 0.33333 0.58333 0.25 0.58333 0.33333 0.66666 0.33333 0.58333 0.33333 0.58333 0.25 0.66666 0.33333 0.58333 0.25 0.66666 0.25 0.75 0.33333 0.66666 0.33333 0.66666 0.25 0.75 0.33333 0.66666 0.25 0.75 0.25 0.83333 0.33333 0.75 0.25 0.83333 0.25 0.75 0.25 0.83333 0.33333 0.75 0.33333 0.83333 0.25 0.91666 0.25 0.91666 0.33333 0.83333 0.25 0.91666 0.33333 0.83333 0.33333 1 0.25 0.91666 0.33333 0.91666 0.25 0.91666 0.33333 1 0.25 1 0.33333 0.08332997 0.41666 0 0.33333 0.08332997 0.33333 0 0.33333 0.08332997 0.41666 0 0.41666 0.08332997 0.33333 0.16666 0.33333 0.16666 0.41666 0.08332997 0.33333 0.16666 0.41666 0.08332997 0.41666 0.25 0.33333 0.16666 0.41666 0.16666 0.33333 0.16666 0.41666 0.25 0.33333 0.25 0.41666 0.33333 0.33333 0.25 0.41666 0.25 0.33333 0.25 0.41666 0.33333 0.33333 0.33333 0.41666 0.41666 0.41666 0.33333 0.33333 0.41666 0.33333 0.33333 0.33333 0.41666 0.41666 0.33333 0.41666 0.5 0.33333 0.41666 0.41666 0.41666 0.33333 0.41666 0.41666 0.5 0.33333 0.5 0.41666 0.58333 0.33333 0.5 0.41666 0.5 0.33333 0.5 0.41666 0.58333 0.33333 0.58333 0.41666 0.66666 0.41666 0.58333 0.41666 0.58333 0.33333 0.66666 0.41666 0.58333 0.33333 0.66666 0.33333 0.66666 0.41666 0.75 0.33333 0.75 0.41666 0.75 0.33333 0.66666 0.41666 0.66666 0.33333 0.75 0.33333 0.83333 0.33333 0.83333 0.41666 0.75 0.33333 0.83333 0.41666 0.75 0.41666 0.83333 0.33333 0.91666 0.33333 0.91666 0.41666 0.83333 0.33333 0.91666 0.41666 0.83333 0.41666 1 0.33333 0.91666 0.41666 0.91666 0.33333 0.91666 0.41666 1 0.33333 1 0.41666 0.08332997 0.41666 0 0.5 0 0.41666 0 0.5 0.08332997 0.41666 0.08332997 0.5 0.16666 0.41666 0.08332997 0.5 0.08332997 0.41666 0.08332997 0.5 0.16666 0.41666 0.16666 0.5 0.16666 0.41666 0.25 0.41666 0.25 0.5 0.16666 0.41666 0.25 0.5 0.16666 0.5 0.33333 0.5 0.25 0.41666 0.33333 0.41666 0.25 0.41666 0.33333 0.5 0.25 0.5 0.41666 0.5 0.33333 0.41666 0.41666 0.41666 0.33333 0.41666 0.41666 0.5 0.33333 0.5 0.5 0.41666 0.41666 0.5 0.41666 0.41666 0.41666 0.5 0.5 0.41666 0.5 0.5 0.58333 0.5 0.5 0.5 0.5 0.41666 0.58333 0.5 0.5 0.41666 0.58333 0.41666 0.66666 0.5 0.58333 0.5 0.58333 0.41666 0.66666 0.5 0.58333 0.41666 0.66666 0.41666 0.66666 0.5 0.75 0.41666 0.75 0.5 0.75 0.41666 0.66666 0.5 0.66666 0.41666 0.75 0.41666 0.83333 0.41666 0.83333 0.5 0.75 0.41666 0.83333 0.5 0.75 0.5 0.83333 0.41666 0.91666 0.41666 0.91666 0.5 0.83333 0.41666 0.91666 0.5 0.83333 0.5 1 0.41666 0.91666 0.5 0.91666 0.41666 0.91666 0.5 1 0.41666 1 0.5 0.08332997 0.5 0 0.58333 0 0.5 0 0.58333 0.08332997 0.5 0.08332997 0.58333 0.16666 0.5 0.08332997 0.58333 0.08332997 0.5 0.08332997 0.58333 0.16666 0.5 0.16666 0.58333 0.16666 0.5 0.25 0.5 0.25 0.58333 0.16666 0.5 0.25 0.58333 0.16666 0.58333 0.33333 0.5 0.25 0.58333 0.25 0.5 0.25 0.58333 0.33333 0.5 0.33333 0.58333 0.41666 0.5 0.33333 0.58333 0.33333 0.5 0.33333 0.58333 0.41666 0.5 0.41666 0.58333 0.5 0.58333 0.41666 0.5 0.5 0.5 0.41666 0.5 0.5 0.58333 0.41666 0.58333 0.58333 0.58333 0.5 0.58333 0.5 0.5 0.58333 0.58333 0.5 0.5 0.58333 0.5 0.66666 0.58333 0.58333 0.58333 0.58333 0.5 0.66666 0.58333 0.58333 0.5 0.66666 0.5 0.66666 0.58333 0.75 0.5 0.75 0.58333 0.75 0.5 0.66666 0.58333 0.66666 0.5 0.83333 0.5 0.75 0.58333 0.75 0.5 0.75 0.58333 0.83333 0.5 0.83333 0.58333 0.91666 0.5 0.83333 0.58333 0.83333 0.5 0.83333 0.58333 0.91666 0.5 0.91666 0.58333 0.91666 0.5 1 0.5 1 0.58333 0.91666 0.5 1 0.58333 0.91666 0.58333 0 0.66666 0 0.58333 0.08332997 0.66666 0 0.58333 0.08332997 0.58333 0.08332997 0.66666 0.16666 0.58333 0.08332997 0.66666 0.08332997 0.58333 0.08332997 0.66666 0.16666 0.58333 0.16666 0.66666 0.16666 0.58333 0.25 0.58333 0.25 0.66666 0.16666 0.58333 0.25 0.66666 0.16666 0.66666 0.33333 0.58333 0.25 0.66666 0.25 0.58333 0.25 0.66666 0.33333 0.58333 0.33333 0.66666 0.41666 0.58333 0.33333 0.66666 0.33333 0.58333 0.33333 0.66666 0.41666 0.58333 0.41666 0.66666 0.5 0.66666 0.41666 0.58333 0.5 0.58333 0.41666 0.58333 0.5 0.66666 0.41666 0.66666 0.5 0.66666 0.58333 0.58333 0.58333 0.66666 0.58333 0.58333 0.5 0.66666 0.5 0.58333 0.58333 0.66666 0.66666 0.58333 0.66666 0.66666 0.66666 0.58333 0.58333 0.66666 0.58333 0.58333 0.75 0.66666 0.66666 0.66666 0.66666 0.58333 0.66666 0.58333 0.75 0.58333 0.75 0.66666 0.83333 0.66666 0.75 0.66666 0.75 0.58333 0.75 0.58333 0.83333 0.58333 0.83333 0.66666 0.91666 0.58333 0.83333 0.66666 0.83333 0.58333 0.83333 0.66666 0.91666 0.58333 0.91666 0.66666 0.91666 0.58333 1 0.58333 1 0.66666 0.91666 0.58333 1 0.66666 0.91666 0.66666 0.08332997 0.75 0 0.66666 0.08332997 0.66666 0 0.66666 0.08332997 0.75 0 0.75 0.08332997 0.75 0.16666 0.66666 0.16666 0.75 0.16666 0.66666 0.08332997 0.75 0.08332997 0.66666 0.16666 0.75 0.25 0.66666 0.25 0.75 0.25 0.66666 0.16666 0.75 0.16666 0.66666 0.33333 0.66666 0.25 0.75 0.25 0.66666 0.25 0.75 0.33333 0.66666 0.33333 0.75 0.41666 0.66666 0.33333 0.75 0.33333 0.66666 0.33333 0.75 0.41666 0.66666 0.41666 0.75 0.5 0.75 0.41666 0.66666 0.5 0.66666 0.41666 0.66666 0.5 0.75 0.41666 0.75 0.5 0.75 0.58333 0.66666 0.58333 0.75 0.58333 0.66666 0.5 0.75 0.5 0.66666 0.58333 0.75 0.66666 0.66666 0.66666 0.75 0.66666 0.66666 0.58333 0.75 0.58333 0.66666 0.75 0.75 0.66666 0.75 0.66666 0.66666 0.66666 0.66666 0.75 0.66666 0.75 0.75 0.75 0.75 0.75 0.66666 0.83333 0.75 0.75 0.66666 0.83333 0.66666 0.83333 0.75 0.91666 0.66666 0.83333 0.75 0.83333 0.66666 0.83333 0.75 0.91666 0.66666 0.91666 0.75 0.91666 0.66666 1 0.66666 1 0.75 0.91666 0.66666 1 0.75 0.91666 0.75 0.08332997 0.83333 0 0.75 0.08332997 0.75 0 0.75 0.08332997 0.83333 0 0.83333 0.08332997 0.83333 0.16666 0.75 0.16666 0.83333 0.16666 0.75 0.08332997 0.83333 0.08332997 0.75 0.16666 0.83333 0.25 0.75 0.25 0.83333 0.25 0.75 0.16666 0.83333 0.16666 0.75 0.33333 0.75 0.25 0.83333 0.25 0.75 0.25 0.83333 0.33333 0.75 0.33333 0.83333 0.41666 0.75 0.33333 0.83333 0.33333 0.75 0.33333 0.83333 0.41666 0.75 0.41666 0.83333 0.41666 0.83333 0.5 0.75 0.5 0.83333 0.5 0.75 0.41666 0.83333 0.41666 0.75 0.5 0.83333 0.58333 0.75 0.58333 0.83333 0.58333 0.75 0.5 0.83333 0.5 0.75 0.58333 0.83333 0.66666 0.75 0.66666 0.83333 0.66666 0.75 0.58333 0.83333 0.58333 0.75 0.75 0.83333 0.66666 0.83333 0.66666 0.75 0.66666 0.75 0.75 0.75 0.75 0.83333 0.75 0.75 0.83333 0.83333 0.75 0.83333 0.83333 0.83333 0.75 0.75 0.83333 0.75 0.91666 0.83333 0.83333 0.83333 0.83333 0.75 0.83333 0.75 0.91666 0.75 0.91666 0.83333 0.91666 0.75 1 0.75 1 0.83333 0.91666 0.75 1 0.83333 0.91666 0.83333 0.08332997 0.91666 0 0.83333 0.08332997 0.83333 0 0.83333 0.08332997 0.91666 0 0.91666 0.08332997 0.91666 0.16666 0.83333 0.16666 0.91666 0.16666 0.83333 0.08332997 0.91666 0.08332997 0.83333 0.16666 0.91666 0.25 0.83333 0.25 0.91666 0.25 0.83333 0.16666 0.91666 0.16666 0.83333 0.33333 0.83333 0.25 0.91666 0.25 0.83333 0.25 0.91666 0.33333 0.83333 0.33333 0.91666 0.41666 0.83333 0.33333 0.91666 0.33333 0.83333 0.33333 0.91666 0.41666 0.83333 0.41666 0.91666 0.41666 0.91666 0.5 0.83333 0.5 0.91666 0.5 0.83333 0.41666 0.91666 0.41666 0.83333 0.5 0.91666 0.58333 0.83333 0.58333 0.91666 0.58333 0.83333 0.5 0.91666 0.5 0.83333 0.66666 0.83333 0.66666 0.91666 0.58333 0.83333 0.58333 0.83333 0.66666 0.91666 0.58333 0.91666 0.75 0.91666 0.66666 0.83333 0.75 0.83333 0.66666 0.83333 0.75 0.91666 0.66666 0.91666 0.75 0.83333 0.83333 0.91666 0.75 0.91666 0.83333 0.91666 0.75 0.83333 0.83333 0.83333 0.83333 0.91666 0.83333 0.83333 0.91666 0.91666 0.83333 0.83333 0.91666 0.83333 0.91666 0.91666 1 0.83333 1 0.91666 0.91666 0.83333 0.91666 0.83333 1 0.91666 0.91666 0.91666 0.08332997 0.08332997 0 0.08332997 0.04165995 0 0.16666 0.08332997 0.08332997 0.08332997 0.125 0 0.25 0.08332997 0.16666 0.08332997 0.20833 0 0.33333 0.08332997 0.25 0.08332997 0.29166 0 0.41666 0.08332997 0.33333 0.08332997 0.375 0 0.5 0.08332997 0.41666 0.08332997 0.45833 0 0.58333 0.08332997 0.5 0.08332997 0.54166 0 0.66666 0.08332997 0.58333 0.08332997 0.625 0 0.75 0.08332997 0.66666 0.08332997 0.70833 0 0.83333 0.08332997 0.75 0.08332997 0.79166 0 0.91666 0.08332997 0.83333 0.08332997 0.875 0 1 0.08332997 0.91666 0.08332997 0.95833 0 0 0.91666 0.08332997 0.91666 0.04165995 1 0.08332997 0.91666 0.16666 0.91666 0.125 1 0.16666 0.91666 0.25 0.91666 0.20833 1 0.25 0.91666 0.33333 0.91666 0.29166 1 0.33333 0.91666 0.41666 0.91666 0.375 1 0.41666 0.91666 0.5 0.91666 0.45833 1 0.5 0.91666 0.58333 0.91666 0.54166 1 0.58333 0.91666 0.66666 0.91666 0.625 1 0.66666 0.91666 0.75 0.91666 0.70833 1 0.75 0.91666 0.83333 0.91666 0.79166 1 0.83333 0.91666 0.91666 0.91666 0.875 1 0.91666 0.91666 1 0.91666 0.95833 1</float_array>
          <technique_common>
            <accessor source="#Alpha_JointsMesh_300-mesh-map-0-array" count="792" stride="2">
              <param name="S" type="float"/>
              <param name="T" type="float"/>
            </accessor>
          </technique_common>
        </source>
        <vertices id="Alpha_JointsMesh_300-mesh-vertices">
          <input semantic="POSITION" source="#Alpha_JointsMesh_300-mesh-positions"/>
        </vertices>
        <triangles material="Alpha_Joints_MAT_007-material" count="264">
          <input semantic="VERTEX" source="#Alpha_JointsMesh_300-mesh-vertices" offset="0"/>
          <input semantic="NORMAL" source="#Alpha_JointsMesh_300-mesh-normals" offset="1"/>
          <input semantic="TEXCOORD" source="#Alpha_JointsMesh_300-mesh-map-0" offset="2" set="0"/>
          <p>13 0 0 12 1 1 0 2 2 13 0 3 0 2 4 1 3 5 2 4 6 13 0 7 1 3 8 13 0 9 2 4 10 14 5 11 3 6 12 14 5 13 2 4 14 14 5 15 3 6 16 15 7 17 15 7 18 4 8 19 16 9 20 4 8 21 15 7 22 3 6 23 16 9 24 5 10 25 17 11 26 5 10 27 16 9 28 4 8 29 6 12 30 17 11 31 5 10 32 17 11 33 6 12 34 18 13 35 7 14 36 18 13 37 6 12 38 18 13 39 7 14 40 19 15 41 19 15 42 7 14 43 20 16 44 20 16 45 7 14 46 8 17 47 21 18 48 20 16 49 8 17 50 21 18 51 8 17 52 9 19 53 22 20 54 9 19 55 10 21 56 9 19 57 22 20 58 21 18 59 11 22 60 23 23 61 10 21 62 10 21 63 23 23 64 22 20 65 23 23 66 11 22 67 12 1 68 12 1 69 11 22 70 0 2 71 25 24 72 24 25 73 12 1 74 25 24 75 12 1 76 13 0 77 14 5 78 26 26 79 13 0 80 13 0 81 26 26 82 25 24 83 15 7 84 26 26 85 14 5 86 26 26 87 15 7 88 27 27 89 27 27 90 16 9 91 28 28 92 16 9 93 27 27 94 15 7 95 28 28 96 17 11 97 29 29 98 17 11 99 28 28 100 16 9 101 18 13 102 29 29 103 17 11 104 29 29 105 18 13 106 30 30 107 19 15 108 30 30 109 18 13 110 30 30 111 19 15 112 31 31 113 32 32 114 31 31 115 19 15 116 32 32 117 19 15 118 20 16 119 33 33 120 32 32 121 20 16 122 33 33 123 20 16 124 21 18 125 34 34 126 21 18 127 22 20 128 21 18 129 34 34 130 33 33 131 22 20 132 23 23 133 35 35 134 22 20 135 35 35 136 34 34 137 24 25 138 35 35 139 23 23 140 24 25 141 23 23 142 12 1 143 37 36 144 24 25 145 25 24 146 24 25 147 37 36 148 36 37 149 26 26 150 38 38 151 25 24 152 25 24 153 38 38 154 37 36 155 27 27 156 38 38 157 26 26 158 38 38 159 27 27 160 39 39 161 28 28 162 39 39 163 27 27 164 39 39 165 28 28 166 40 40 167 41 41 168 28 28 169 29 29 170 28 28 171 41 41 172 40 40 173 30 30 174 41 41 175 29 29 176 41 41 177 30 30 178 42 42 179 31 31 180 42 42 181 30 30 182 42 42 183 31 31 184 43 43 185 44 44 186 43 43 187 31 31 188 44 44 189 31 31 190 32 32 191 45 45 192 44 44 193 32 32 194 45 45 195 32 32 196 33 33 197 46 46 198 33 33 199 34 34 200 33 33 201 46 46 202 45 45 203 34 34 204 35 35 205 47 47 206 34 34 207 47 47 208 46 46 209 24 25 210 47 47 211 35 35 212 47 47 213 24 25 214 36 37 215 49 48 216 36 37 217 37 36 218 36 37 219 49 48 220 48 49 221 37 36 222 38 38 223 50 50 224 37 36 225 50 50 226 49 48 227 39 39 228 50 50 229 38 38 230 50 50 231 39 39 232 51 51 233 40 40 234 51 51 235 39 39 236 51 51 237 40 40 238 52 52 239 53 53 240 40 40 241 41 41 242 40 40 243 53 53 244 52 52 245 42 42 246 53 53 247 41 41 248 53 53 249 42 42 250 54 54 251 43 43 252 54 54 253 42 42 254 54 54 255 43 43 256 55 55 257 56 56 258 55 55 259 43 43 260 56 56 261 43 43 262 44 44 263 56 56 264 45 45 265 57 57 266 45 45 267 56 56 268 44 44 269 45 45 270 46 46 271 58 58 272 45 45 273 58 58 274 57 57 275 46 46 276 47 47 277 59 59 278 46 46 279 59 59 280 58 58 281 36 37 282 59 59 283 47 47 284 59 59 285 36 37 286 48 49 287 49 48 288 60 60 289 48 49 290 60 60 291 49 48 292 61 61 293 50 50 294 61 61 295 49 48 296 61 61 297 50 50 298 62 62 299 50 50 300 51 51 301 63 63 302 50 50 303 63 63 304 62 62 305 64 64 306 51 51 307 52 52 308 51 51 309 64 64 310 63 63 311 65 65 312 52 52 313 53 53 314 52 52 315 65 65 316 64 64 317 54 54 318 65 65 319 53 53 320 65 65 321 54 54 322 66 66 323 67 67 324 66 66 325 54 54 326 67 67 327 54 54 328 55 55 329 68 68 330 67 67 331 55 55 332 68 68 333 55 55 334 56 56 335 68 68 336 57 57 337 69 69 338 57 57 339 68 68 340 56 56 341 57 57 342 58 58 343 70 70 344 57 57 345 70 70 346 69 69 347 58 58 348 59 59 349 71 71 350 58 58 351 71 71 352 70 70 353 48 49 354 71 71 355 59 59 356 71 71 357 48 49 358 60 60 359 61 61 360 72 72 361 60 60 362 72 72 363 61 61 364 73 73 365 62 62 366 73 73 367 61 61 368 73 73 369 62 62 370 74 74 371 62 62 372 63 63 373 75 75 374 62 62 375 75 75 376 74 74 377 64 64 378 75 75 379 63 63 380 75 75 381 64 64 382 76 76 383 65 65 384 76 76 385 64 64 386 76 76 387 65 65 388 77 77 389 78 78 390 65 65 391 66 66 392 65 65 393 78 78 394 77 77 395 79 79 396 78 78 397 66 66 398 79 79 399 66 66 400 67 67 401 80 80 402 79 79 403 67 67 404 80 80 405 67 67 406 68 68 407 80 80 408 69 69 409 81 81 410 69 69 411 80 80 412 68 68 413 70 70 414 81 81 415 69 69 416 81 81 417 70 70 418 82 82 419 71 71 420 82 82 421 70 70 422 82 82 423 71 71 424 83 83 425 71 71 426 60 60 427 72 72 428 71 71 429 72 72 430 83 83 431 84 84 432 72 72 433 85 85 434 72 72 435 73 73 436 85 85 437 74 74 438 85 85 439 73 73 440 85 85 441 74 74 442 86 86 443 74 74 444 75 75 445 87 87 446 74 74 447 87 87 448 86 86 449 76 76 450 87 87 451 75 75 452 87 87 453 76 76 454 88 88 455 77 77 456 88 88 457 76 76 458 88 88 459 77 77 460 89 89 461 90 90 462 77 77 463 78 78 464 77 77 465 90 90 466 89 89 467 90 90 468 79 79 469 91 91 470 79 79 471 90 90 472 78 78 473 91 91 474 80 80 475 92 92 476 80 80 477 91 91 478 79 79 479 93 93 480 92 92 481 80 80 482 80 80 483 81 81 484 93 93 485 94 94 486 93 93 487 81 81 488 81 81 489 82 82 490 94 94 491 83 83 492 94 94 493 82 82 494 94 94 495 83 83 496 95 95 497 83 83 498 72 72 499 84 84 500 83 83 501 84 84 502 95 95 503 97 96 504 84 84 505 85 85 506 84 84 507 97 96 508 96 97 509 97 96 510 86 86 511 98 98 512 86 86 513 97 96 514 85 85 515 98 98 516 87 87 517 99 99 518 87 87 519 98 98 520 86 86 521 88 88 522 99 99 523 87 87 524 99 99 525 88 88 526 100 100 527 89 89 528 100 100 529 88 88 530 100 100 531 89 89 532 101 101 533 102 102 534 89 89 535 90 90 536 89 89 537 102 102 538 101 101 539 102 102 540 91 91 541 103 103 542 91 91 543 102 102 544 90 90 545 103 103 546 92 92 547 104 104 548 92 92 549 103 103 550 91 91 551 105 105 552 104 104 553 92 92 554 92 92 555 93 93 556 105 105 557 105 105 558 93 93 559 106 106 560 93 93 561 94 94 562 106 106 563 95 95 564 106 106 565 94 94 566 106 106 567 95 95 568 107 107 569 95 95 570 84 84 571 96 97 572 95 95 573 96 97 574 107 107 575 109 108 576 96 97 577 97 96 578 96 97 579 109 108 580 108 109 581 109 108 582 98 98 583 110 110 584 98 98 585 109 108 586 97 96 587 110 110 588 99 99 589 111 111 590 99 99 591 110 110 592 98 98 593 100 100 594 111 111 595 99 99 596 111 111 597 100 100 598 112 112 599 101 101 600 112 112 601 100 100 602 112 112 603 101 101 604 113 113 605 113 113 606 102 102 607 114 114 608 102 102 609 113 113 610 101 101 611 114 114 612 103 103 613 115 115 614 103 103 615 114 114 616 102 102 617 115 115 618 104 104 619 116 116 620 104 104 621 115 115 622 103 103 623 117 117 624 116 116 625 104 104 626 104 104 627 105 105 628 117 117 629 105 105 630 118 118 631 117 117 632 118 118 633 105 105 634 106 106 635 119 119 636 118 118 637 106 106 638 106 106 639 107 107 640 119 119 641 107 107 642 96 97 643 108 109 644 107 107 645 108 109 646 119 119 647 121 120 648 108 109 649 109 108 650 108 109 651 121 120 652 120 121 653 121 120 654 110 110 655 122 122 656 110 110 657 121 120 658 109 108 659 122 122 660 111 111 661 123 123 662 111 111 663 122 122 664 110 110 665 112 112 666 123 123 667 111 111 668 123 123 669 112 112 670 124 124 671 113 113 672 124 124 673 112 112 674 124 124 675 113 113 676 125 125 677 125 125 678 114 114 679 126 126 680 114 114 681 125 125 682 113 113 683 126 126 684 115 115 685 127 127 686 115 115 687 126 126 688 114 114 689 116 116 690 128 128 691 115 115 692 115 115 693 128 128 694 127 127 695 129 129 696 116 116 697 117 117 698 116 116 699 129 129 700 128 128 701 117 117 702 130 130 703 129 129 704 130 130 705 117 117 706 118 118 707 130 130 708 118 118 709 131 131 710 118 118 711 119 119 712 131 131 713 108 109 714 120 121 715 119 119 716 119 119 717 120 121 718 131 131 719 1 3 720 0 2 721 132 132 722 2 4 723 1 3 724 132 132 725 3 6 726 2 4 727 132 132 728 4 8 729 3 6 730 132 132 731 5 10 732 4 8 733 132 132 734 6 12 735 5 10 736 132 132 737 7 14 738 6 12 739 132 132 740 8 17 741 7 14 742 132 132 743 9 19 744 8 17 745 132 132 746 10 21 747 9 19 748 132 132 749 11 22 750 10 21 751 132 132 752 0 2 753 11 22 754 132 132 755 120 121 756 121 120 757 133 133 758 121 120 759 122 122 760 133 133 761 122 122 762 123 123 763 133 133 764 123 123 765 124 124 766 133 133 767 124 124 768 125 125 769 133 133 770 125 125 771 126 126 772 133 133 773 126 126 774 127 127 775 133 133 776 127 127 777 128 128 778 133 133 779 128 128 780 129 129 781 133 133 782 129 129 783 130 130 784 133 133 785 130 130 786 131 131 787 133 133 788 131 131 789 120 121 790 133 133 791</p>
        </triangles>
      </mesh>
    </geometry>
  </library_geometries>
  <library_controllers/>
  <library_visual_scenes>
    <visual_scene id="Scene" name="Scene">
      <node id="VIS_Alpha_Joints_017" name="VIS_Alpha_Joints_017" type="NODE">
        <instance_geometry url="#Alpha_JointsMesh_300-mesh" name="VIS_Alpha_Joints_017">
          <bind_material>
            <technique_common>
              <instance_material symbol="Alpha_Joints_MAT_007-material" target="#Alpha_Joints_MAT_007-material"/>
            </technique_common>
          </bind_material>
        </instance_geometry>
      </node>
    </visual_scene>
  </library_visual_scenes>
  <scene>
    <instance_visual_scene url="#Scene"/>
  </scene>
</COLLADA>