<?xml version="1.0" encoding="utf-8"?>
<COLLADA xmlns="http://www.collada.org/2005/11/COLLADASchema" version="1.4.1" xmlns:xsi="http://www.w3.org/2001/XMLSchema-instance">
  <asset>
    <contributor>
      <author>Blender User</author>
      <authoring_tool>Blender 2.79.0 commit date:2018-03-22, commit time:14:10, hash:f4dc9f9d68b</authoring_tool>
    </contributor>
    <created>2018-10-09T21:23:55</created>
    <modified>2018-10-09T21:23:55</modified>
    <unit name="meter" meter="1"/>
    <up_axis>Z_UP</up_axis>
  </asset>
  <library_images/>
  <library_effects>
    <effect id="Alpha_Joints_MAT_007-effect">
      <profile_COMMON>
        <technique sid="common">
          <phong>
            <emission>
              <color sid="emission">0 0 0 1</color>
            </emission>
            <ambient>
              <color sid="ambient">0 0 0 1</color>
            </ambient>
            <diffuse>
              <color sid="diffuse">0.122841 0.170315 0.177774 1</color>
            </diffuse>
            <specular>
              <color sid="specular">0.141024 0.141024 0.141024 1</color>
            </specular>
            <shininess>
              <float sid="shininess">2</float>
            </shininess>
            <transparent opaque="A_ONE">
              <color>1 1 1 1</color>
            </transparent>
            <index_of_refraction>
              <float sid="index_of_refraction">1</float>
            </index_of_refraction>
          </phong>
        </technique>
      </profile_COMMON>
    </effect>
  </library_effects>
  <library_materials>
    <material id="Alpha_Joints_MAT_007-material" name="Alpha_Joints_MAT_007">
      <instance_effect url="#Alpha_Joints_MAT_007-effect"/>
    </material>
  </library_materials>
  <library_geometries>
    <geometry id="Alpha_JointsMesh_286-mesh" name="Alpha_JointsMesh.286">
      <mesh>
        <source id="Alpha_JointsMesh_286-mesh-positions">
          <float_array id="Alpha_JointsMesh_286-mesh-positions-array" count="1146">0.83719 148.7723 -2.01897 0.71216 148.7723 -2.26437 0.51741 148.7723 -2.45912 0.27201 148.7723 -2.58416 0 148.7723 -2.62724 -0.27201 148.7723 -2.58416 -0.51741 148.7723 -2.45912 -0.71216 148.7723 -2.26437 -0.83719 148.7723 -2.01897 -0.88028 148.7723 -1.74694 -0.83719 148.7723 -1.47492 -0.71216 148.7723 -1.22952 -0.51741 148.7723 -1.03477 -0.27202 148.7723 -0.90973 0 148.7723 -0.86664 0.27201 148.7723 -0.90973 0.51741 148.7723 -1.03477 0.71216 148.7723 -1.22952 0.83719 148.7723 -1.47492 0.88028 148.7723 -1.74694 1.57047 148.9717 -2.25722 1.33592 148.9717 -2.71755 0.97059 148.9717 -3.08288 0.51027 148.9717 -3.31743 0 148.9717 -3.39825 -0.51027 148.9717 -3.31743 -0.97059 148.9717 -3.08288 -1.33592 148.9717 -2.71755 -1.57047 148.9717 -2.25722 -1.65129 148.9717 -1.74694 -1.57047 148.9717 -1.23667 -1.33592 148.9717 -0.77633 -0.97059 148.9717 -0.41101 -0.51027 148.9717 -0.17646 0 148.9717 -0.09564 0.51027 148.9717 -0.17646 0.97059 148.9717 -0.41101 1.33592 148.9717 -0.77633 1.57047 148.9717 -1.23667 1.65129 148.9717 -1.74694 2.30133 149.3015 -2.4947 1.95763 149.3015 -3.16926 1.42229 149.3015 -3.70459 0.74774 149.3015 -4.04829 0 149.3015 -4.16673 -0.74774 149.3015 -4.04829 -1.42229 149.3015 -3.70459 -1.95762 149.3015 -3.16926 -2.30133 149.3015 -2.4947 -2.41977 149.3015 -1.74694 -2.30133 149.3015 -0.99919 -1.95762 149.3015 -0.32464 -1.42229 149.3015 0.2107 -0.74774 149.3015 0.55441 0 149.3015 0.67284 0.74774 149.3015 0.55441 1.42229 149.3015 0.2107 1.95762 149.3015 -0.32464 2.30133 149.3015 -0.99919 2.41977 149.3015 -1.74694 2.97956 149.7522 -2.71506 2.53456 149.7522 -3.58842 1.84146 149.7522 -4.28152 0.96811 149.7522 -4.72652 0 149.7522 -4.87984 -0.96811 149.7522 -4.72651 -1.84146 149.7522 -4.28152 -2.53456 149.7522 -3.58842 -2.97956 149.7522 -2.71506 -3.1329 149.7522 -1.74694 -2.97956 149.7522 -0.77882 -2.53456 149.7522 0.09453999 -1.84146 149.7522 0.78764 -0.96811 149.7522 1.23263 0 149.7522 1.38596 0.96811 149.7522 1.23263 1.84146 149.7522 0.78764 2.53456 149.7522 0.09453999 2.97956 149.7522 -0.77882 3.1329 149.7522 -1.74694 3.58442 150.3124 -2.91159 3.04908 150.3124 -3.96224 2.21529 150.3124 -4.79604 1.16464 150.3124 -5.33136 0 150.3124 -5.51583 -1.16464 150.3124 -5.33136 -2.21529 150.3124 -4.79604 -3.04908 150.3124 -3.96224 -3.58442 150.3124 -2.9116 -3.76888 150.3124 -1.74694 -3.58442 150.3124 -0.58229 -3.04908 150.3124 0.46836 -2.21529 150.3124 1.30216 -1.16464 150.3124 1.83747 0 150.3124 2.02193 1.16464 150.3124 1.83747 2.21529 150.3124 1.30216 3.04908 150.3124 0.46836 3.58442 150.3124 -0.58229 3.76888 150.3124 -1.74694 4.10101 150.9682 -3.07945 3.48853 150.9682 -4.28152 2.53456 150.9682 -5.23548 1.33249 150.9682 -5.84796 0 150.9682 -6.05901 -1.33249 150.9682 -5.84796 -2.53456 150.9682 -5.23548 -3.48853 150.9682 -4.28152 -4.10102 150.9682 -3.07945 -4.31207 150.9682 -1.74694 -4.10101 150.9682 -0.41443 -3.48853 150.9682 0.78763 -2.53456 150.9682 1.74159 -1.33249 150.9682 2.35407 0 150.9682 2.56511 1.33249 150.9682 2.35407 2.53456 150.9682 1.74159 3.48853 150.9682 0.78763 4.10101 150.9682 -0.41443 4.31206 150.9682 -1.74694 4.51663 151.7037 -3.21449 3.84208 151.7037 -4.53838 2.79143 151.7037 -5.58902 1.46753 151.7037 -6.26357 0 151.7037 -6.496009 -1.46753 151.7037 -6.26357 -2.79143 151.7037 -5.58902 -3.84208 151.7037 -4.53838 -4.51663 151.7037 -3.21449 -4.74907 151.7037 -1.74694 -4.51663 151.7037 -0.2794 -3.84208 151.7037 1.0445 -2.79143 151.7037 2.09514 -1.46753 151.7037 2.76969 0 151.7037 3.00212 1.46753 151.7037 2.76968 2.79143 151.7037 2.09513 3.84208 151.7037 1.0445 4.51663 151.7037 -0.2794 4.74907 151.7037 -1.74694 4.82103 152.5005 -3.3134 4.10101 152.5005 -4.72651 2.97956 152.5005 -5.84796 1.56644 152.5005 -6.56797 0 152.5005 -6.81608 -1.56644 152.5005 -6.56797 -2.97956 152.5005 -5.84796 -4.10101 152.5005 -4.72651 -4.82103 152.5005 -3.31341 -5.06914 152.5005 -1.74694 -4.82103 152.5005 -0.18049 -4.10101 152.5005 1.23263 -2.97956 152.5005 2.35407 -1.56644 152.5005 3.07409 0 152.5005 3.32219 1.56644 152.5005 3.07409 2.97956 152.5005 2.35407 4.10101 152.5005 1.23263 4.82103 152.5005 -0.18049 5.06914 152.5005 -1.74694 5.00673 153.3394 -3.37374 4.25898 153.3394 -4.84128 3.09433 153.3394 -6.00593 1.62678 153.3394 -6.753669 0 153.3394 -7.01134 -1.62678 153.3394 -6.753669 -3.09432 153.3394 -6.00592 -4.25897 153.3394 -4.84128 -5.00673 153.3394 -3.37374 -5.26439 153.3394 -1.74694 -5.00673 153.3394 -0.12015 -4.25897 153.3394 1.34739 -3.09433 153.3394 2.51203 -1.62678 153.3394 3.25978 0 153.3394 3.51744 1.62678 153.3394 3.25978 3.09432 153.3394 2.51203 4.25897 153.3394 1.34739 5.00673 153.3394 -0.12015 5.26439 153.3394 -1.74694 5.06914 154.1992 -3.39401 4.31207 154.1992 -4.87985 3.1329 154.1992 -6.05901 1.64706 154.1992 -6.816089 0 154.1992 -7.076959 -1.64706 154.1992 -6.816089 -3.1329 154.1992 -6.05901 -4.31206 154.1992 -4.87984 -5.06914 154.1992 -3.39401 -5.33001 154.1992 -1.74694 -5.06914 154.1992 -0.09986996 -4.31206 154.1992 1.38596 -3.1329 154.1992 2.56511 -1.64706 154.1992 3.32219 0 154.1992 3.58305 1.64706 154.1992 3.32219 3.1329 154.1992 2.56511 4.31206 154.1992 1.38597 5.06914 154.1992 -0.09986996 5.33001 154.1992 -1.74694 5.00673 155.0591 -3.37373 4.25898 155.0591 -4.84128 3.09433 155.0591 -6.00593 1.62678 155.0591 -6.753669 0 155.0591 -7.01134 -1.62678 155.0591 -6.753669 -3.09432 155.0591 -6.00593 -4.25897 155.0591 -4.84128 -5.00673 155.0591 -3.37373 -5.26439 155.0591 -1.74694 -5.00673 155.0591 -0.12015 -4.25897 155.0591 1.34739 -3.09432 155.0591 2.51203 -1.62678 155.0591 3.25978 0 155.0591 3.51744 1.62678 155.0591 3.25978 3.09432 155.0591 2.51203 4.25897 155.0591 1.34739 5.00673 155.0591 -0.12015 5.26439 155.0591 -1.74694 4.82104 155.8979 -3.3134 4.10102 155.8979 -4.72651 2.97956 155.8979 -5.84796 1.56644 155.8979 -6.56797 0 155.8979 -6.81608 -1.56644 155.8979 -6.56797 -2.97956 155.8979 -5.84796 -4.10101 155.8979 -4.72651 -4.82104 155.8979 -3.31341 -5.06914 155.8979 -1.74694 -4.82104 155.8979 -0.18049 -4.10101 155.8979 1.23263 -2.97956 155.8979 2.35407 -1.56644 155.8979 3.07409 0 155.8979 3.32219 1.56644 155.8979 3.07409 2.97956 155.8979 2.35407 4.10101 155.8979 1.23263 4.82104 155.8979 -0.18049 5.06914 155.8979 -1.74694 4.51664 156.6948 -3.21449 3.84208 156.6948 -4.53838 2.79143 156.6948 -5.58902 1.46753 156.6948 -6.26357 0 156.6948 -6.496009 -1.46753 156.6948 -6.26357 -2.79143 156.6948 -5.58902 -3.84208 156.6948 -4.53838 -4.51663 156.6948 -3.21449 -4.74907 156.6948 -1.74694 -4.51663 156.6948 -0.2794 -3.84208 156.6948 1.0445 -2.79143 156.6948 2.09512 -1.46753 156.6948 2.76968 0 156.6948 3.00212 1.46753 156.6948 2.76968 2.79143 156.6948 2.09512 3.84208 156.6948 1.0445 4.51663 156.6948 -0.2794 4.74908 156.6948 -1.74694 4.10102 157.4303 -3.07945 3.48853 157.4302 -4.28152 2.53456 157.4302 -5.23549 1.33249 157.4302 -5.84796 0 157.4302 -6.05901 -1.33249 157.4302 -5.84796 -2.53456 157.4302 -5.23549 -3.48853 157.4302 -4.28152 -4.10101 157.4302 -3.07945 -4.31206 157.4302 -1.74694 -4.10101 157.4302 -0.41443 -3.48853 157.4302 0.78763 -2.53456 157.4302 1.74159 -1.33249 157.4302 2.35407 0 157.4302 2.56511 1.33249 157.4302 2.35407 2.53456 157.4302 1.74159 3.48853 157.4302 0.78763 4.10101 157.4302 -0.41443 4.31206 157.4302 -1.74694 3.58442 158.0861 -2.91159 3.04908 158.0861 -3.96224 2.21529 158.0861 -4.79604 1.16464 158.0861 -5.33137 0 158.0861 -5.51583 -1.16464 158.0861 -5.33137 -2.21529 158.0861 -4.79604 -3.04908 158.0861 -3.96224 -3.58442 158.0861 -2.91159 -3.76888 158.0861 -1.74694 -3.58442 158.0861 -0.58229 -3.04908 158.0861 0.46836 -2.21529 158.0861 1.30216 -1.16464 158.0861 1.83747 0 158.0861 2.02193 1.16464 158.0861 1.83747 2.21529 158.0861 1.30216 3.04908 158.0861 0.46836 3.58441 158.0861 -0.58229 3.76887 158.0861 -1.74694 2.97956 158.6463 -2.71506 2.53456 158.6463 -3.58842 1.84146 158.6463 -4.28152 0.96811 158.6463 -4.72652 0 158.6463 -4.87984 -0.96811 158.6463 -4.72652 -1.84146 158.6463 -4.28152 -2.53456 158.6463 -3.58842 -2.97956 158.6463 -2.71506 -3.1329 158.6463 -1.74694 -2.97956 158.6463 -0.77882 -2.53456 158.6463 0.09453999 -1.84146 158.6463 0.78764 -0.96811 158.6463 1.23263 0 158.6463 1.38596 0.96811 158.6463 1.23263 1.84146 158.6463 0.78764 2.53456 158.6463 0.09453999 2.97956 158.6463 -0.77882 3.1329 158.6463 -1.74694 2.30133 159.0969 -2.4947 1.95763 159.0969 -3.16926 1.42229 159.0969 -3.70459 0.74774 159.0969 -4.04829 0 159.0969 -4.16673 -0.74774 159.0969 -4.04829 -1.42229 159.0969 -3.70459 -1.95762 159.0969 -3.16926 -2.30133 159.0969 -2.4947 -2.41977 159.0969 -1.74694 -2.30133 159.0969 -0.99919 -1.95762 159.0969 -0.32464 -1.42229 159.0969 0.2107 -0.74774 159.0969 0.55441 0 159.0969 0.67284 0.74774 159.0969 0.55441 1.42229 159.0969 0.2107 1.95762 159.0969 -0.32464 2.30133 159.0969 -0.99919 2.41977 159.0969 -1.74694 1.57047 159.4267 -2.25722 1.33591 159.4267 -2.71755 0.97059 159.4267 -3.08288 0.51027 159.4267 -3.31743 0 159.4267 -3.39825 -0.51027 159.4267 -3.31743 -0.97059 159.4267 -3.08288 -1.33591 159.4267 -2.71755 -1.57047 159.4267 -2.25722 -1.65129 159.4267 -1.74694 -1.57047 159.4267 -1.23667 -1.33591 159.4267 -0.77633 -0.97059 159.4267 -0.41101 -0.51027 159.4267 -0.17646 0 159.4267 -0.09564 0.51027 159.4267 -0.17646 0.97059 159.4267 -0.41102 1.33591 159.4267 -0.77633 1.57047 159.4267 -1.23667 1.65129 159.4267 -1.74694 0.83719 159.6262 -2.01897 0.71216 159.6262 -2.26437 0.51741 159.6262 -2.45912 0.27201 159.6262 -2.58416 0 159.6262 -2.62724 -0.27201 159.6262 -2.58416 -0.51741 159.6262 -2.45912 -0.71216 159.6262 -2.26437 -0.83719 159.6262 -2.01897 -0.88028 159.6262 -1.74694 -0.83719 159.6262 -1.47492 -0.71216 159.6262 -1.22952 -0.51741 159.6262 -1.03477 -0.27201 159.6262 -0.90973 0 159.6262 -0.86664 0.27201 159.6262 -0.90973 0.51741 159.6262 -1.03477 0.71216 159.6262 -1.22952 0.83719 159.6262 -1.47492 0.88028 159.6262 -1.74694 0 148.6791 -1.74694 0 159.7193 -1.74694</float_array>
          <technique_common>
            <accessor source="#Alpha_JointsMesh_286-mesh-positions-array" count="382" stride="3">
              <param name="X" type="float"/>
              <param name="Y" type="float"/>
              <param name="Z" type="float"/>
            </accessor>
          </technique_common>
        </source>
        <source id="Alpha_JointsMesh_286-mesh-normals">
          <float_array id="Alpha_JointsMesh_286-mesh-normals-array" count="1146">0.3139469 -0.9439464 -0.1019938 0.1500317 -0.9826528 -0.109014 0.26704 -0.9439484 -0.1940389 0.1763702 -0.9826557 -0.05728441 0.1090136 -0.9826483 -0.1500615 0.1940096 -0.9439541 -0.2670416 0.05731451 -0.9826487 -0.1763994 0.1019948 -0.9439554 -0.3139193 0 -0.9439488 -0.3300921 0 -0.9826511 -0.185464 -0.05731451 -0.9826487 -0.1763994 -0.1019938 -0.9439464 -0.3139469 -0.1090136 -0.9826483 -0.1500615 -0.1940096 -0.9439541 -0.2670416 -0.26704 -0.9439484 -0.1940389 -0.1500317 -0.9826528 -0.109014 -0.3139469 -0.9439464 -0.1019938 -0.1763702 -0.9826557 -0.05728441 -0.185464 -0.9826511 0 -0.3300921 -0.9439488 0 -0.3139469 -0.9439464 0.1019938 -0.1763702 -0.9826557 0.05728441 -0.1500317 -0.9826528 0.109014 -0.2670416 -0.9439541 0.1940096 -0.1090136 -0.9826483 0.1500615 -0.1940096 -0.9439541 0.2670416 -0.05731451 -0.9826487 0.1763994 -0.1019938 -0.9439464 0.3139469 0 -0.9826511 0.185464 0 -0.9439488 0.3300921 0.1019948 -0.9439554 0.3139193 0.05731451 -0.9826487 0.1763994 0.1940096 -0.9439541 0.2670416 0.1090131 -0.9826437 0.1500914 0.1500317 -0.9826528 0.109014 0.2670416 -0.9439541 0.1940096 0.1763702 -0.9826557 0.05728441 0.3139469 -0.9439464 0.1019938 0.185464 -0.9826511 0 0.3300921 -0.9439488 0 0.4487822 -0.8816639 -0.1458199 0.3817623 -0.8816637 -0.2773568 0.2773568 -0.8816637 -0.3817623 0.1458199 -0.8816639 -0.4487822 0 -0.8816609 -0.4718835 -0.1458178 -0.8816518 -0.4488065 -0.2773568 -0.8816637 -0.3817623 -0.3817623 -0.8816637 -0.2773568 -0.4487822 -0.8816639 -0.1458199 -0.4718835 -0.8816609 0 -0.4487822 -0.8816639 0.1458199 -0.3817623 -0.8816637 0.2773568 -0.2773568 -0.8816637 0.3817623 -0.1458199 -0.8816639 0.4487822 0 -0.8816609 0.4718835 0.1458199 -0.8816639 0.4487822 0.2773568 -0.8816637 0.3817623 0.3817623 -0.8816637 0.2773568 0.4487822 -0.8816639 0.1458199 0.4718835 -0.8816609 0 0.4890416 -0.7966153 -0.3553059 0.5749177 -0.796608 -0.1867765 0.3553059 -0.7966153 -0.4890416 0.1867765 -0.796608 -0.5749177 0 -0.7966108 -0.6044927 -0.1867765 -0.796608 -0.5749177 -0.3553059 -0.7966153 -0.4890416 -0.4890416 -0.7966153 -0.3553059 -0.5749177 -0.796608 -0.1867765 -0.6044927 -0.7966108 0 -0.5749177 -0.796608 0.1867765 -0.4890416 -0.7966153 0.3553059 -0.3553059 -0.7966153 0.4890416 -0.1867765 -0.796608 0.5749177 0 -0.7966108 0.6044927 0.1867765 -0.796608 0.5749177 0.3553059 -0.7966153 0.4890416 0.4890416 -0.7966153 0.3553059 0.5749177 -0.796608 0.1867765 0.6044927 -0.7966108 0 0.5837372 -0.6923848 -0.4240922 0.6862208 -0.6923857 -0.2229416 0.4240922 -0.6923848 -0.5837372 0.2229416 -0.6923857 -0.6862208 0 -0.6923838 -0.7215294 -0.2229416 -0.6923857 -0.6862208 -0.4240922 -0.6923848 -0.5837372 -0.5837372 -0.6923848 -0.4240922 -0.6862208 -0.6923857 -0.2229416 -0.7215294 -0.6923838 0 -0.6862208 -0.6923857 0.2229416 -0.5837372 -0.6923848 0.4240922 -0.4240922 -0.6923848 0.5837372 -0.2229416 -0.6923857 0.6862208 0 -0.6923838 0.7215294 0.2229416 -0.6923857 0.6862208 0.4240922 -0.6923848 0.5837372 0.5837372 -0.6923848 0.4240922 0.6862208 -0.6923857 0.2229416 0.7215294 -0.6923838 0 0.7798055 -0.5724555 -0.2533735 0.6633462 -0.5724585 -0.4819369 0.4819369 -0.5724585 -0.6633462 0.2533674 -0.5724419 -0.7798175 0 -0.5724542 -0.8199368 -0.2533674 -0.5724419 -0.7798175 -0.4819369 -0.5724585 -0.6633462 -0.6633462 -0.5724585 -0.4819369 -0.7798055 -0.5724555 -0.2533735 -0.8199368 -0.5724542 0 -0.7798055 -0.5724555 0.2533735 -0.6633462 -0.5724585 0.4819369 -0.4819369 -0.5724585 0.6633462 -0.2533674 -0.5724419 0.7798175 0 -0.5724542 0.8199368 0.2533674 -0.5724419 0.7798175 0.4819369 -0.5724585 0.6633462 0.6633365 -0.57245 0.4819604 0.7798055 -0.5724555 0.2533735 0.8199368 -0.5724542 0 0.8540217 -0.4400579 -0.2774815 0.7264816 -0.4400579 -0.5278009 0.5278009 -0.4400579 -0.7264816 0.2774815 -0.4400579 -0.8540217 0 -0.4400578 -0.8979695 -0.2774815 -0.4400579 -0.8540217 -0.5278009 -0.4400579 -0.7264816 -0.7264816 -0.4400579 -0.5278009 -0.8540217 -0.4400579 -0.2774815 -0.8979695 -0.4400578 0 -0.8540217 -0.4400579 0.2774815 -0.7264816 -0.4400579 0.5278009 -0.5278009 -0.4400579 0.7264816 -0.2774815 -0.4400579 0.8540217 0 -0.4400578 0.8979695 0.2774815 -0.4400579 0.8540217 0.5278009 -0.4400579 0.7264816 0.7264816 -0.4400579 0.5278009 0.8540217 -0.4400579 0.2774815 0.8979695 -0.4400578 0 0.907724 -0.2984139 -0.2949348 0.7721591 -0.298414 -0.5609987 0.5609987 -0.298414 -0.7721591 0.2949348 -0.2984139 -0.907724 0 -0.2984192 -0.9544349 -0.2949348 -0.2984139 -0.907724 -0.5609987 -0.298414 -0.7721591 -0.7721468 -0.298421 -0.561012 -0.907724 -0.2984139 -0.2949348 -0.9544349 -0.2984192 0 -0.907724 -0.2984139 0.2949348 -0.7721468 -0.298421 0.561012 -0.5609987 -0.298414 0.7721591 -0.2949348 -0.2984139 0.907724 0 -0.2984192 0.9544349 0.2949348 -0.2984139 0.907724 0.5609987 -0.298414 0.7721591 0.7721468 -0.298421 0.561012 0.907724 -0.2984139 0.2949348 0.9544349 -0.2984192 0 0.9402018 -0.1507033 -0.3054656 0.7997884 -0.1507042 -0.5810567 0.5810567 -0.1507042 -0.7997884 0.3054656 -0.1507033 -0.9402018 0 -0.150704 -0.988579 -0.3054656 -0.1507033 -0.9402018 -0.5810567 -0.1507042 -0.7997884 -0.7997741 -0.1507015 -0.5810769 -0.9402018 -0.1507033 -0.3054656 -0.988579 -0.150704 0 -0.9402018 -0.1507033 0.3054656 -0.7997741 -0.1507015 0.5810769 -0.5810567 -0.1507042 0.7997884 -0.3054656 -0.1507033 0.9402018 0 -0.150704 0.988579 0.3054656 -0.1507033 0.9402018 0.5810567 -0.1507042 0.7997884 0.7997741 -0.1507015 0.5810769 0.9402018 -0.1507033 0.3054656 0.988579 -0.150704 0 0.9510608 0 -0.309004 0.8090053 0 -0.5878015 0.587787 0 -0.8090158 0.309004 0 -0.9510608 0 0 -1 -0.309004 0 -0.9510608 -0.587767 0 -0.8090303 -0.8090053 0 -0.5878015 -0.9510608 0 -0.309004 -1 0 0 -0.9510608 0 0.309004 -0.8090053 0 0.5878015 -0.587767 0 0.8090303 -0.309004 0 0.9510608 0 0 1 0.309004 0 0.9510608 0.587767 0 0.8090303 0.8090053 0 0.5878015 0.9510608 0 0.309004 1 0 0 0.9402018 0.1507033 -0.3054656 0.7997741 0.1507015 -0.5810769 0.5810567 0.1507042 -0.7997884 0.3054656 0.1507033 -0.9402018 0 0.150704 -0.988579 -0.3054656 0.1507033 -0.9402018 -0.5810567 0.1507042 -0.7997884 -0.7997741 0.1507015 -0.5810769 -0.9402018 0.1507033 -0.3054656 -0.988579 0.150704 0 -0.9402018 0.1507033 0.3054656 -0.7997741 0.1507015 0.5810769 -0.5810567 0.1507042 0.7997884 -0.3054656 0.1507033 0.9402018 0 0.150704 0.988579 0.3054656 0.1507033 0.9402018 0.5810567 0.1507042 0.7997884 0.7997741 0.1507015 0.5810769 0.9402018 0.1507033 0.3054656 0.988579 0.150704 0 0.907724 0.2984139 -0.2949348 0.7721468 0.298421 -0.561012 0.5609987 0.298414 -0.7721591 0.2949348 0.2984139 -0.907724 0 0.2984192 -0.9544349 -0.2949348 0.2984139 -0.907724 -0.5609987 0.298414 -0.7721591 -0.7721468 0.298421 -0.561012 -0.907724 0.2984139 -0.2949348 -0.9544349 0.2984192 0 -0.907724 0.2984139 0.2949348 -0.7721468 0.298421 0.561012 -0.5609987 0.298414 0.7721591 -0.2949348 0.2984139 0.907724 0 0.2984192 0.9544349 0.2949348 0.2984139 0.907724 0.5609987 0.298414 0.7721591 0.7721468 0.298421 0.561012 0.907724 0.2984139 0.2949348 0.9544349 0.2984192 0 0.8540217 0.4400579 -0.2774815 0.7264698 0.4400507 -0.5278229 0.5278009 0.4400579 -0.7264816 0.2774815 0.4400579 -0.8540217 0 0.4400578 -0.8979695 -0.2774815 0.4400579 -0.8540217 -0.5278009 0.4400579 -0.7264816 -0.7264698 0.4400507 -0.5278229 -0.8540217 0.4400579 -0.2774815 -0.8979695 0.4400578 0 -0.8540217 0.4400579 0.2774815 -0.7264698 0.4400507 0.5278229 -0.5278009 0.4400579 0.7264816 -0.2774815 0.4400579 0.8540217 0 0.4400578 0.8979695 0.2774815 0.4400579 0.8540217 0.5278009 0.4400579 0.7264816 0.7264698 0.4400507 0.5278229 0.8540217 0.4400579 0.2774815 0.8979695 0.4400578 0 0.7798175 0.5724419 -0.2533674 0.6633365 0.57245 -0.4819604 0.4819272 0.5724469 -0.6633633 0.2533674 0.5724419 -0.7798175 0 0.5724399 -0.8199468 -0.2533674 0.5724419 -0.7798175 -0.4819506 0.5724384 -0.6633535 -0.6633365 0.57245 -0.4819604 -0.7798175 0.5724419 -0.2533674 -0.8199468 0.5724399 0 -0.7798175 0.5724419 0.2533674 -0.6633365 0.57245 0.4819604 -0.4819506 0.5724384 0.6633535 -0.2533674 0.5724419 0.7798175 0 0.5724399 0.8199468 0.2533674 0.5724419 0.7798175 0.4819506 0.5724384 0.6633535 0.6633365 0.57245 0.4819604 0.7798175 0.5724419 0.2533674 0.8199368 0.5724542 0 0.6862208 0.6923857 -0.2229416 0.5837372 0.6923848 -0.4240922 0.4240922 0.6923848 -0.5837372 0.2229707 0.692381 -0.6862162 0 0.6923838 -0.7215294 -0.2229707 0.692381 -0.6862162 -0.4240922 0.6923848 -0.5837372 -0.5837372 0.6923848 -0.4240922 -0.6862208 0.6923857 -0.2229416 -0.7215294 0.6923838 0 -0.6862208 0.6923857 0.2229416 -0.5837372 0.6923848 0.4240922 -0.4240922 0.6923848 0.5837372 -0.2229416 0.6923857 0.6862208 0 0.6923838 0.7215294 0.2229416 0.6923857 0.6862208 0.4240922 0.6923848 0.5837372 0.5837372 0.6923848 0.4240922 0.6862208 0.6923857 0.2229416 0.7215294 0.6923838 0 0.5748832 0.7966331 -0.1867752 0.4890416 0.7966153 -0.3553059 0.3553026 0.7966384 -0.4890065 0.1867797 0.796622 -0.5748972 0 0.7966367 -0.6044586 -0.1867752 0.7966331 -0.5748832 -0.3553026 0.7966384 -0.4890065 -0.4890298 0.7966266 -0.3552973 -0.5748832 0.7966331 -0.1867752 -0.6044586 0.7966367 0 -0.5748832 0.7966331 0.1867752 -0.4890298 0.7966266 0.3552973 -0.3553026 0.7966384 0.4890065 -0.1867797 0.796622 0.5748972 0 0.7966367 0.6044586 0.1867797 0.796622 0.5748972 0.3553026 0.7966384 0.4890065 0.4890298 0.7966266 0.3552973 0.5748832 0.7966331 0.1867752 0.6044733 0.7966254 0 0.4487578 0.881676 -0.1458218 0.3817362 0.881674 -0.27736 0.2773568 0.8816637 -0.3817623 0.14579 0.8816678 -0.4487842 0 0.8816737 -0.4718598 -0.14579 0.8816678 -0.4487842 -0.27736 0.8816739 -0.3817362 -0.3817362 0.881674 -0.27736 -0.4487578 0.881676 -0.1458218 -0.4718598 0.8816737 0 -0.4487578 0.881676 0.1458218 -0.3817362 0.881674 0.27736 -0.27736 0.8816739 0.3817362 -0.14579 0.8816678 0.4487842 0 0.8816737 0.4718598 0.14579 0.8816678 0.4487842 0.27736 0.8816739 0.3817362 0.3817362 0.881674 0.27736 0.4487578 0.881676 0.1458218 0.4718598 0.8816737 0 0.2670416 0.9439541 -0.1940096 0.3139469 0.9439464 -0.1019938 0.1940096 0.9439541 -0.2670416 0.1019948 0.9439554 -0.3139193 0 0.9439488 -0.3300921 -0.1019938 0.9439464 -0.3139469 -0.1940096 0.9439541 -0.2670416 -0.2670416 0.9439541 -0.1940096 -0.3139469 0.9439464 -0.1019938 -0.3300921 0.9439488 0 -0.3139469 0.9439464 0.1019938 -0.2670416 0.9439541 0.1940096 -0.1940096 0.9439541 0.2670416 -0.1019948 0.9439554 0.3139193 0 0.9439488 0.3300921 0.1019938 0.9439464 0.3139469 0.1940096 0.9439541 0.2670416 0.2670416 0.9439541 0.1940096 0.3139469 0.9439464 0.1019938 0.3300921 0.9439488 0 0.1763406 0.982661 -0.05728471 0.1500024 0.9826605 -0.1089844 0.1089849 0.9826651 -0.1499725 0.05728501 0.9826663 -0.176311 0 0.9826623 -0.1854051 -0.05728471 0.982661 -0.1763406 -0.1089844 0.9826605 -0.1500024 -0.1500028 0.9826638 -0.1089543 -0.1763406 0.982661 -0.05728471 -0.1854051 0.9826623 0 -0.1763406 0.982661 0.05728471 -0.1500024 0.9826605 0.1089844 -0.1089849 0.9826651 0.1499725 -0.05728501 0.9826663 0.176311 0 0.9826623 0.1854051 0.05728471 0.982661 0.1763406 0.1089849 0.9826651 0.1499725 0.1500028 0.9826638 0.1089543 0.1763409 0.9826626 0.05725431 0.1854051 0.9826623 0 0 -1 0 0 1 0</float_array>
          <technique_common>
            <accessor source="#Alpha_JointsMesh_286-mesh-normals-array" count="382" stride="3">
              <param name="X" type="float"/>
              <param name="Y" type="float"/>
              <param name="Z" type="float"/>
            </accessor>
          </technique_common>
        </source>
        <source id="Alpha_JointsMesh_286-mesh-map-0">
          <float_array id="Alpha_JointsMesh_286-mesh-map-0-array" count="4560">0 0.1 0.04999995 0.04999995 0.04999995 0.1 0.04999995 0.04999995 0 0.1 0 0.04999995 0.04999995 0.1 0.1 0.04999995 0.1 0.1 0.1 0.04999995 0.04999995 0.1 0.04999995 0.04999995 0.15 0.04999995 0.1 0.1 0.1 0.04999995 0.1 0.1 0.15 0.04999995 0.15 0.1 0.2 0.1 0.15 0.04999995 0.2 0.04999995 0.15 0.04999995 0.2 0.1 0.15 0.1 0.25 0.04999995 0.2 0.1 0.2 0.04999995 0.2 0.1 0.25 0.04999995 0.25 0.1 0.3 0.04999995 0.3 0.1 0.25 0.04999995 0.25 0.1 0.25 0.04999995 0.3 0.1 0.3 0.1 0.3 0.04999995 0.35 0.1 0.3 0.04999995 0.35 0.04999995 0.35 0.1 0.4 0.1 0.35 0.1 0.35 0.04999995 0.4 0.1 0.35 0.04999995 0.4 0.04999995 0.45 0.04999995 0.4 0.1 0.4 0.04999995 0.4 0.1 0.45 0.04999995 0.45 0.1 0.5 0.1 0.45 0.04999995 0.5 0.04999995 0.45 0.04999995 0.5 0.1 0.45 0.1 0.55 0.04999995 0.5 0.1 0.5 0.04999995 0.5 0.1 0.55 0.04999995 0.55 0.1 0.6 0.04999995 0.6 0.1 0.55 0.04999995 0.55 0.04999995 0.6 0.1 0.55 0.1 0.6 0.1 0.65 0.04999995 0.65 0.1 0.65 0.04999995 0.6 0.1 0.6 0.04999995 0.65 0.1 0.7 0.04999995 0.7 0.1 0.7 0.04999995 0.65 0.1 0.65 0.04999995 0.75 0.1 0.7 0.1 0.7 0.04999995 0.75 0.1 0.7 0.04999995 0.75 0.04999995 0.8 0.1 0.75 0.04999995 0.8 0.04999995 0.75 0.04999995 0.8 0.1 0.75 0.1 0.85 0.04999995 0.8 0.1 0.8 0.04999995 0.8 0.1 0.85 0.04999995 0.85 0.1 0.9 0.04999995 0.9 0.1 0.85 0.04999995 0.85 0.04999995 0.9 0.1 0.85 0.1 0.95 0.04999995 0.9 0.1 0.9 0.04999995 0.9 0.1 0.95 0.04999995 0.95 0.1 0.95 0.1 0.95 0.04999995 1 0.1 0.95 0.04999995 1 0.04999995 1 0.1 0 0.15 0.04999995 0.1 0.04999995 0.15 0.04999995 0.1 0 0.15 0 0.1 0.04999995 0.15 0.1 0.1 0.1 0.15 0.1 0.1 0.04999995 0.15 0.04999995 0.1 0.15 0.1 0.1 0.15 0.1 0.1 0.1 0.15 0.15 0.1 0.15 0.15 0.2 0.1 0.15 0.15 0.15 0.1 0.15 0.15 0.2 0.1 0.2 0.15 0.25 0.1 0.25 0.15 0.2 0.1 0.2 0.1 0.25 0.15 0.2 0.15 0.25 0.15 0.25 0.1 0.3 0.15 0.25 0.1 0.3 0.1 0.3 0.15 0.3 0.15 0.3 0.1 0.35 0.15 0.35 0.15 0.3 0.1 0.35 0.1 0.4 0.15 0.35 0.15 0.35 0.1 0.4 0.15 0.35 0.1 0.4 0.1 0.45 0.15 0.4 0.1 0.45 0.1 0.4 0.1 0.45 0.15 0.4 0.15 0.5 0.15 0.45 0.1 0.5 0.1 0.45 0.1 0.5 0.15 0.45 0.15 0.55 0.1 0.5 0.15 0.5 0.1 0.5 0.15 0.55 0.1 0.55 0.15 0.6 0.1 0.6 0.15 0.55 0.1 0.55 0.1 0.6 0.15 0.55 0.15 0.6 0.15 0.65 0.1 0.65 0.15 0.65 0.1 0.6 0.15 0.6 0.1 0.65 0.15 0.7 0.1 0.7 0.15 0.7 0.1 0.65 0.15 0.65 0.1 0.75 0.15 0.7 0.15 0.7 0.1 0.75 0.15 0.7 0.1 0.75 0.1 0.8 0.15 0.75 0.1 0.8 0.1 0.75 0.1 0.8 0.15 0.75 0.15 0.85 0.1 0.8 0.15 0.8 0.1 0.8 0.15 0.85 0.1 0.85 0.15 0.9 0.1 0.9 0.15 0.85 0.1 0.85 0.1 0.9 0.15 0.85 0.15 0.9 0.15 0.95 0.1 0.95 0.15 0.95 0.1 0.9 0.15 0.9 0.1 0.95 0.15 1 0.1 1 0.15 1 0.1 0.95 0.15 0.95 0.1 0.04999995 0.2 0 0.2 0 0.15 0.04999995 0.2 0 0.15 0.04999995 0.15 0.1 0.2 0.04999995 0.2 0.04999995 0.15 0.1 0.2 0.04999995 0.15 0.1 0.15 0.15 0.2 0.1 0.15 0.15 0.15 0.1 0.15 0.15 0.2 0.1 0.2 0.2 0.2 0.15 0.15 0.2 0.15 0.15 0.15 0.2 0.2 0.15 0.2 0.2 0.15 0.25 0.15 0.25 0.2 0.2 0.15 0.25 0.2 0.2 0.2 0.25 0.2 0.3 0.15 0.3 0.2 0.3 0.15 0.25 0.2 0.25 0.15 0.3 0.2 0.35 0.15 0.35 0.2 0.35 0.15 0.3 0.2 0.3 0.15 0.35 0.2 0.4 0.15 0.4 0.2 0.4 0.15 0.35 0.2 0.35 0.15 0.4 0.2 0.45 0.15 0.45 0.2 0.45 0.15 0.4 0.2 0.4 0.15 0.5 0.2 0.45 0.15 0.5 0.15 0.45 0.15 0.5 0.2 0.45 0.2 0.55 0.2 0.5 0.15 0.55 0.15 0.5 0.15 0.55 0.2 0.5 0.2 0.6 0.15 0.55 0.2 0.55 0.15 0.55 0.2 0.6 0.15 0.6 0.2 0.6 0.2 0.65 0.15 0.65 0.2 0.65 0.15 0.6 0.2 0.6 0.15 0.7 0.2 0.65 0.2 0.65 0.15 0.7 0.2 0.65 0.15 0.7 0.15 0.7 0.2 0.75 0.15 0.75 0.2 0.75 0.15 0.7 0.2 0.7 0.15 0.8 0.2 0.75 0.15 0.8 0.15 0.75 0.15 0.8 0.2 0.75 0.2 0.85 0.2 0.8 0.15 0.85 0.15 0.8 0.15 0.85 0.2 0.8 0.2 0.9 0.15 0.85 0.2 0.85 0.15 0.85 0.2 0.9 0.15 0.9 0.2 0.95 0.15 0.9 0.2 0.9 0.15 0.9 0.2 0.95 0.15 0.95 0.2 0.95 0.2 0.95 0.15 1 0.2 0.95 0.15 1 0.15 1 0.2 0.04999995 0.25 0 0.25 0 0.2 0.04999995 0.25 0 0.2 0.04999995 0.2 0.1 0.25 0.04999995 0.25 0.04999995 0.2 0.1 0.25 0.04999995 0.2 0.1 0.2 0.15 0.25 0.1 0.2 0.15 0.2 0.1 0.2 0.15 0.25 0.1 0.25 0.2 0.25 0.15 0.2 0.2 0.2 0.15 0.2 0.2 0.25 0.15 0.25 0.2 0.2 0.25 0.2 0.25 0.25 0.2 0.2 0.25 0.25 0.2 0.25 0.25 0.25 0.3 0.2 0.3 0.25 0.3 0.2 0.25 0.25 0.25 0.2 0.3 0.25 0.35 0.2 0.35 0.25 0.35 0.2 0.3 0.25 0.3 0.2 0.4 0.25 0.35 0.25 0.35 0.2 0.4 0.25 0.35 0.2 0.4 0.2 0.4 0.2 0.45 0.25 0.4 0.25 0.45 0.25 0.4 0.2 0.45 0.2 0.5 0.25 0.45 0.2 0.5 0.2 0.45 0.2 0.5 0.25 0.45 0.25 0.55 0.25 0.5 0.2 0.55 0.2 0.5 0.2 0.55 0.25 0.5 0.25 0.55 0.2 0.6 0.2 0.6 0.25 0.55 0.2 0.6 0.25 0.55 0.25 0.65 0.25 0.6 0.25 0.6 0.2 0.6 0.2 0.65 0.2 0.65 0.25 0.7 0.25 0.65 0.25 0.65 0.2 0.7 0.25 0.65 0.2 0.7 0.2 0.7 0.25 0.75 0.2 0.75 0.25 0.75 0.2 0.7 0.25 0.7 0.2 0.8 0.2 0.75 0.25 0.75 0.2 0.75 0.25 0.8 0.2 0.8 0.25 0.85 0.2 0.8 0.25 0.8 0.2 0.8 0.25 0.85 0.2 0.85 0.25 0.9 0.2 0.85 0.25 0.85 0.2 0.85 0.25 0.9 0.2 0.9 0.25 0.95 0.2 0.9 0.25 0.9 0.2 0.9 0.25 0.95 0.2 0.95 0.25 1 0.25 0.95 0.25 0.95 0.2 0.95 0.2 1 0.2 1 0.25 0 0.3 0.04999995 0.25 0.04999995 0.3 0.04999995 0.25 0 0.3 0 0.25 0.04999995 0.3 0.1 0.25 0.1 0.3 0.1 0.25 0.04999995 0.3 0.04999995 0.25 0.15 0.25 0.15 0.3 0.1 0.25 0.1 0.25 0.15 0.3 0.1 0.3 0.15 0.25 0.2 0.25 0.2 0.3 0.15 0.25 0.2 0.3 0.15 0.3 0.25 0.25 0.2 0.3 0.2 0.25 0.2 0.3 0.25 0.25 0.25 0.3 0.3 0.25 0.25 0.3 0.25 0.25 0.25 0.3 0.3 0.25 0.3 0.3 0.35 0.3 0.3 0.3 0.3 0.25 0.35 0.3 0.3 0.25 0.35 0.25 0.4 0.3 0.35 0.25 0.4 0.25 0.4 0.3 0.35 0.3 0.35 0.25 0.45 0.3 0.4 0.25 0.45 0.25 0.4 0.25 0.45 0.3 0.4 0.3 0.5 0.25 0.45 0.3 0.45 0.25 0.45 0.3 0.5 0.25 0.5 0.3 0.55 0.25 0.5 0.3 0.5 0.25 0.5 0.3 0.55 0.25 0.55 0.3 0.55 0.25 0.6 0.25 0.6 0.3 0.55 0.25 0.6 0.3 0.55 0.3 0.65 0.3 0.6 0.3 0.6 0.25 0.6 0.25 0.65 0.25 0.65 0.3 0.7 0.3 0.65 0.3 0.65 0.25 0.7 0.3 0.65 0.25 0.7 0.25 0.7 0.3 0.75 0.25 0.75 0.3 0.75 0.25 0.7 0.3 0.7 0.25 0.75 0.3 0.8 0.25 0.8 0.3 0.8 0.25 0.75 0.3 0.75 0.25 0.85 0.25 0.8 0.3 0.8 0.25 0.8 0.3 0.85 0.25 0.85 0.3 0.85 0.3 0.85 0.25 0.9 0.3 0.85 0.25 0.9 0.25 0.9 0.3 0.95 0.3 0.9 0.3 0.9 0.25 0.9 0.25 0.95 0.25 0.95 0.3 0.95 0.3 1 0.25 1 0.3 1 0.25 0.95 0.3 0.95 0.25 0 0.35 0.04999995 0.3 0.04999995 0.35 0.04999995 0.3 0 0.35 0 0.3 0.1 0.3 0.1 0.35 0.04999995 0.3 0.04999995 0.3 0.1 0.35 0.04999995 0.35 0.15 0.3 0.15 0.35 0.1 0.3 0.1 0.3 0.15 0.35 0.1 0.35 0.15 0.3 0.2 0.3 0.2 0.35 0.15 0.3 0.2 0.35 0.15 0.35 0.25 0.3 0.2 0.35 0.2 0.3 0.2 0.35 0.25 0.3 0.25 0.35 0.3 0.3 0.25 0.35 0.25 0.3 0.25 0.35 0.3 0.3 0.3 0.35 0.35 0.3 0.3 0.35 0.3 0.3 0.3 0.35 0.35 0.3 0.35 0.35 0.4 0.35 0.35 0.3 0.4 0.3 0.35 0.3 0.4 0.35 0.35 0.35 0.45 0.35 0.4 0.3 0.45 0.3 0.4 0.3 0.45 0.35 0.4 0.35 0.5 0.3 0.45 0.35 0.45 0.3 0.45 0.35 0.5 0.3 0.5 0.35 0.55 0.3 0.5 0.35 0.5 0.3 0.5 0.35 0.55 0.3 0.55 0.35 0.6 0.35 0.55 0.35 0.55 0.3 0.55 0.3 0.6 0.3 0.6 0.35 0.65 0.35 0.6 0.35 0.6 0.3 0.65 0.35 0.6 0.3 0.65 0.3 0.7 0.35 0.65 0.35 0.65 0.3 0.7 0.35 0.65 0.3 0.7 0.3 0.7 0.35 0.75 0.3 0.75 0.35 0.75 0.3 0.7 0.35 0.7 0.3 0.75 0.35 0.8 0.3 0.8 0.35 0.8 0.3 0.75 0.35 0.75 0.3 0.8 0.35 0.85 0.3 0.85 0.35 0.85 0.3 0.8 0.35 0.8 0.3 0.85 0.35 0.85 0.3 0.9 0.35 0.85 0.3 0.9 0.3 0.9 0.35 0.95 0.35 0.9 0.35 0.9 0.3 0.9 0.3 0.95 0.3 0.95 0.35 0.95 0.35 1 0.3 1 0.35 1 0.3 0.95 0.35 0.95 0.3 0 0.4 0.04999995 0.35 0.04999995 0.4 0.04999995 0.35 0 0.4 0 0.35 0.1 0.35 0.1 0.4 0.04999995 0.35 0.04999995 0.35 0.1 0.4 0.04999995 0.4 0.15 0.35 0.15 0.4 0.1 0.35 0.1 0.35 0.15 0.4 0.1 0.4 0.15 0.35 0.2 0.35 0.2 0.4 0.15 0.35 0.2 0.4 0.15 0.4 0.25 0.35 0.2 0.4 0.2 0.35 0.2 0.4 0.25 0.35 0.25 0.4 0.3 0.35 0.25 0.4 0.25 0.35 0.25 0.4 0.3 0.35 0.3 0.4 0.35 0.35 0.3 0.4 0.3 0.35 0.3 0.4 0.35 0.35 0.35 0.4 0.4 0.4 0.35 0.35 0.4 0.35 0.35 0.35 0.4 0.4 0.35 0.4 0.45 0.4 0.4 0.35 0.45 0.35 0.4 0.35 0.45 0.4 0.4 0.4 0.5 0.35 0.45 0.4 0.45 0.35 0.45 0.4 0.5 0.35 0.5 0.4 0.55 0.35 0.5 0.4 0.5 0.35 0.5 0.4 0.55 0.35 0.55 0.4 0.6 0.4 0.55 0.4 0.55 0.35 0.55 0.35 0.6 0.35 0.6 0.4 0.65 0.4 0.6 0.4 0.6 0.35 0.65 0.4 0.6 0.35 0.65 0.35 0.7 0.4 0.65 0.4 0.65 0.35 0.7 0.4 0.65 0.35 0.7 0.35 0.7 0.4 0.75 0.35 0.75 0.4 0.75 0.35 0.7 0.4 0.7 0.35 0.75 0.4 0.8 0.35 0.8 0.4 0.8 0.35 0.75 0.4 0.75 0.35 0.8 0.4 0.85 0.35 0.85 0.4 0.85 0.35 0.8 0.4 0.8 0.35 0.85 0.4 0.85 0.35 0.9 0.4 0.85 0.35 0.9 0.35 0.9 0.4 0.95 0.4 0.9 0.4 0.9 0.35 0.9 0.35 0.95 0.35 0.95 0.4 0.95 0.4 1 0.35 1 0.4 1 0.35 0.95 0.4 0.95 0.35 0 0.45 0.04999995 0.4 0.04999995 0.45 0.04999995 0.4 0 0.45 0 0.4 0.04999995 0.45 0.1 0.4 0.1 0.45 0.1 0.4 0.04999995 0.45 0.04999995 0.4 0.15 0.4 0.15 0.45 0.1 0.4 0.1 0.4 0.15 0.45 0.1 0.45 0.15 0.4 0.2 0.4 0.2 0.45 0.15 0.4 0.2 0.45 0.15 0.45 0.25 0.4 0.2 0.45 0.2 0.4 0.2 0.45 0.25 0.4 0.25 0.45 0.3 0.4 0.25 0.45 0.25 0.4 0.25 0.45 0.3 0.4 0.3 0.45 0.35 0.4 0.3 0.45 0.3 0.4 0.3 0.45 0.35 0.4 0.35 0.45 0.4 0.45 0.35 0.4 0.4 0.4 0.35 0.4 0.4 0.45 0.35 0.45 0.45 0.45 0.4 0.4 0.45 0.4 0.4 0.4 0.45 0.45 0.4 0.45 0.5 0.4 0.45 0.45 0.45 0.4 0.45 0.45 0.5 0.4 0.5 0.45 0.55 0.4 0.5 0.45 0.5 0.4 0.5 0.45 0.55 0.4 0.55 0.45 0.6 0.45 0.55 0.45 0.55 0.4 0.6 0.45 0.55 0.4 0.6 0.4 0.65 0.45 0.6 0.45 0.6 0.4 0.65 0.45 0.6 0.4 0.65 0.4 0.7 0.45 0.65 0.45 0.65 0.4 0.7 0.45 0.65 0.4 0.7 0.4 0.7 0.45 0.75 0.4 0.75 0.45 0.75 0.4 0.7 0.45 0.7 0.4 0.75 0.45 0.8 0.4 0.8 0.45 0.8 0.4 0.75 0.45 0.75 0.4 0.8 0.45 0.85 0.4 0.85 0.45 0.85 0.4 0.8 0.45 0.8 0.4 0.85 0.45 0.85 0.4 0.9 0.45 0.85 0.4 0.9 0.4 0.9 0.45 0.95 0.45 0.9 0.45 0.9 0.4 0.9 0.4 0.95 0.4 0.95 0.45 0.95 0.45 1 0.4 1 0.45 1 0.4 0.95 0.45 0.95 0.4 0 0.5 0.04999995 0.45 0.04999995 0.5 0.04999995 0.45 0 0.5 0 0.45 0.1 0.45 0.1 0.5 0.04999995 0.45 0.04999995 0.45 0.1 0.5 0.04999995 0.5 0.15 0.45 0.15 0.5 0.1 0.45 0.1 0.45 0.15 0.5 0.1 0.5 0.15 0.45 0.2 0.45 0.2 0.5 0.15 0.45 0.2 0.5 0.15 0.5 0.25 0.45 0.2 0.5 0.2 0.45 0.2 0.5 0.25 0.45 0.25 0.5 0.3 0.45 0.25 0.5 0.25 0.45 0.25 0.5 0.3 0.45 0.3 0.5 0.35 0.5 0.3 0.45 0.35 0.45 0.3 0.45 0.35 0.5 0.3 0.5 0.4 0.5 0.35 0.45 0.4 0.45 0.35 0.45 0.4 0.5 0.35 0.5 0.45 0.5 0.4 0.45 0.45 0.45 0.4 0.45 0.45 0.5 0.4 0.5 0.5 0.45 0.45 0.5 0.45 0.45 0.45 0.5 0.5 0.45 0.5 0.5 0.55 0.45 0.5 0.5 0.5 0.45 0.5 0.5 0.55 0.45 0.55 0.5 0.6 0.5 0.55 0.5 0.55 0.45 0.6 0.5 0.55 0.45 0.6 0.45 0.65 0.5 0.6 0.5 0.6 0.45 0.65 0.5 0.6 0.45 0.65 0.45 0.7 0.5 0.65 0.5 0.65 0.45 0.7 0.5 0.65 0.45 0.7 0.45 0.7 0.5 0.75 0.45 0.75 0.5 0.75 0.45 0.7 0.5 0.7 0.45 0.75 0.5 0.8 0.45 0.8 0.5 0.8 0.45 0.75 0.5 0.75 0.45 0.8 0.5 0.85 0.45 0.85 0.5 0.85 0.45 0.8 0.5 0.8 0.45 0.85 0.5 0.85 0.45 0.9 0.5 0.85 0.45 0.9 0.45 0.9 0.5 0.95 0.5 0.9 0.5 0.9 0.45 0.9 0.45 0.95 0.45 0.95 0.5 0.95 0.5 1 0.45 1 0.5 1 0.45 0.95 0.5 0.95 0.45 0 0.55 0 0.5 0.04999995 0.55 0 0.5 0.04999995 0.5 0.04999995 0.55 0.1 0.5 0.04999995 0.55 0.04999995 0.5 0.04999995 0.55 0.1 0.5 0.1 0.55 0.15 0.5 0.1 0.55 0.1 0.5 0.1 0.55 0.15 0.5 0.15 0.55 0.2 0.5 0.15 0.55 0.15 0.5 0.15 0.55 0.2 0.5 0.2 0.55 0.25 0.55 0.2 0.5 0.25 0.5 0.2 0.5 0.25 0.55 0.2 0.55 0.3 0.5 0.3 0.55 0.25 0.5 0.25 0.5 0.3 0.55 0.25 0.55 0.35 0.5 0.3 0.55 0.3 0.5 0.3 0.55 0.35 0.5 0.35 0.55 0.4 0.5 0.35 0.55 0.35 0.5 0.35 0.55 0.4 0.5 0.4 0.55 0.45 0.5 0.4 0.55 0.4 0.5 0.4 0.55 0.45 0.5 0.45 0.55 0.5 0.55 0.45 0.5 0.5 0.5 0.45 0.5 0.5 0.55 0.45 0.55 0.55 0.55 0.5 0.5 0.55 0.5 0.5 0.5 0.55 0.55 0.5 0.55 0.55 0.55 0.6 0.5 0.6 0.55 0.6 0.5 0.55 0.55 0.55 0.5 0.6 0.55 0.65 0.5 0.65 0.55 0.65 0.5 0.6 0.55 0.6 0.5 0.65 0.55 0.7 0.5 0.7 0.55 0.7 0.5 0.65 0.55 0.65 0.5 0.75 0.55 0.7 0.55 0.7 0.5 0.75 0.55 0.7 0.5 0.75 0.5 0.8 0.55 0.75 0.55 0.75 0.5 0.8 0.55 0.75 0.5 0.8 0.5 0.85 0.55 0.8 0.55 0.8 0.5 0.85 0.55 0.8 0.5 0.85 0.5 0.85 0.55 0.9 0.5 0.9 0.55 0.9 0.5 0.85 0.55 0.85 0.5 0.9 0.55 0.95 0.5 0.95 0.55 0.95 0.5 0.9 0.55 0.9 0.5 1 0.55 0.95 0.55 0.95 0.5 0.95 0.5 1 0.5 1 0.55 0 0.6 0 0.55 0.04999995 0.6 0 0.55 0.04999995 0.55 0.04999995 0.6 0.1 0.55 0.04999995 0.6 0.04999995 0.55 0.04999995 0.6 0.1 0.55 0.1 0.6 0.15 0.55 0.1 0.6 0.1 0.55 0.1 0.6 0.15 0.55 0.15 0.6 0.2 0.55 0.15 0.6 0.15 0.55 0.15 0.6 0.2 0.55 0.2 0.6 0.25 0.6 0.2 0.55 0.25 0.55 0.2 0.55 0.25 0.6 0.2 0.6 0.3 0.55 0.3 0.6 0.25 0.55 0.25 0.55 0.3 0.6 0.25 0.6 0.35 0.55 0.3 0.6 0.3 0.55 0.3 0.6 0.35 0.55 0.35 0.6 0.4 0.55 0.35 0.6 0.35 0.55 0.35 0.6 0.4 0.55 0.4 0.6 0.45 0.55 0.4 0.6 0.4 0.55 0.4 0.6 0.45 0.55 0.45 0.6 0.5 0.6 0.45 0.55 0.5 0.55 0.45 0.55 0.5 0.6 0.45 0.6 0.55 0.6 0.5 0.55 0.55 0.55 0.5 0.55 0.55 0.6 0.5 0.6 0.55 0.6 0.6 0.55 0.6 0.6 0.6 0.55 0.55 0.6 0.55 0.55 0.6 0.6 0.65 0.55 0.65 0.6 0.65 0.55 0.6 0.6 0.6 0.55 0.65 0.6 0.7 0.55 0.7 0.6 0.7 0.55 0.65 0.6 0.65 0.55 0.75 0.6 0.7 0.6 0.7 0.55 0.75 0.6 0.7 0.55 0.75 0.55 0.8 0.6 0.75 0.6 0.75 0.55 0.8 0.6 0.75 0.55 0.8 0.55 0.85 0.6 0.8 0.6 0.8 0.55 0.8 0.55 0.85 0.55 0.85 0.6 0.85 0.6 0.9 0.55 0.9 0.6 0.9 0.55 0.85 0.6 0.85 0.55 0.9 0.6 0.95 0.55 0.95 0.6 0.95 0.55 0.9 0.6 0.9 0.55 1 0.6 0.95 0.6 0.95 0.55 0.95 0.55 1 0.55 1 0.6 0 0.65 0 0.6 0.04999995 0.65 0 0.6 0.04999995 0.6 0.04999995 0.65 0.1 0.6 0.04999995 0.65 0.04999995 0.6 0.04999995 0.65 0.1 0.6 0.1 0.65 0.15 0.6 0.1 0.65 0.1 0.6 0.1 0.65 0.15 0.6 0.15 0.65 0.2 0.6 0.15 0.65 0.15 0.6 0.15 0.65 0.2 0.6 0.2 0.65 0.25 0.65 0.2 0.6 0.25 0.6 0.2 0.6 0.25 0.65 0.2 0.65 0.3 0.6 0.3 0.65 0.25 0.6 0.25 0.6 0.3 0.65 0.25 0.65 0.35 0.6 0.35 0.65 0.3 0.6 0.3 0.6 0.35 0.65 0.3 0.65 0.4 0.6 0.35 0.65 0.35 0.6 0.35 0.65 0.4 0.6 0.4 0.65 0.45 0.6 0.4 0.65 0.4 0.6 0.4 0.65 0.45 0.6 0.45 0.65 0.5 0.65 0.45 0.6 0.5 0.6 0.45 0.6 0.5 0.65 0.45 0.65 0.55 0.65 0.5 0.6 0.55 0.6 0.5 0.6 0.55 0.65 0.5 0.65 0.55 0.65 0.6 0.6 0.6 0.65 0.6 0.6 0.55 0.65 0.55 0.6 0.6 0.65 0.65 0.6 0.65 0.65 0.65 0.6 0.6 0.65 0.6 0.6 0.65 0.65 0.7 0.6 0.7 0.65 0.7 0.6 0.65 0.65 0.65 0.6 0.75 0.65 0.7 0.65 0.7 0.6 0.75 0.65 0.7 0.6 0.75 0.6 0.8 0.65 0.75 0.65 0.75 0.6 0.75 0.6 0.8 0.6 0.8 0.65 0.85 0.65 0.8 0.65 0.8 0.6 0.8 0.6 0.85 0.6 0.85 0.65 0.85 0.65 0.9 0.6 0.9 0.65 0.9 0.6 0.85 0.65 0.85 0.6 0.9 0.65 0.95 0.6 0.95 0.65 0.95 0.6 0.9 0.65 0.9 0.6 1 0.65 0.95 0.65 0.95 0.6 0.95 0.6 1 0.6 1 0.65 0 0.7 0 0.65 0.04999995 0.7 0 0.65 0.04999995 0.65 0.04999995 0.7 0.1 0.65 0.04999995 0.7 0.04999995 0.65 0.04999995 0.7 0.1 0.65 0.1 0.7 0.15 0.65 0.1 0.7 0.1 0.65 0.1 0.7 0.15 0.65 0.15 0.7 0.2 0.65 0.15 0.7 0.15 0.65 0.15 0.7 0.2 0.65 0.2 0.7 0.25 0.7 0.2 0.65 0.25 0.65 0.2 0.65 0.25 0.7 0.2 0.7 0.3 0.65 0.3 0.7 0.25 0.65 0.25 0.65 0.3 0.7 0.25 0.7 0.35 0.65 0.35 0.7 0.3 0.65 0.3 0.65 0.35 0.7 0.3 0.7 0.4 0.65 0.35 0.7 0.35 0.65 0.35 0.7 0.4 0.65 0.4 0.7 0.45 0.65 0.4 0.7 0.4 0.65 0.4 0.7 0.45 0.65 0.45 0.7 0.5 0.7 0.45 0.65 0.5 0.65 0.45 0.65 0.5 0.7 0.45 0.7 0.55 0.7 0.5 0.65 0.55 0.65 0.5 0.65 0.55 0.7 0.5 0.7 0.55 0.7 0.6 0.65 0.6 0.7 0.6 0.65 0.55 0.7 0.55 0.65 0.6 0.7 0.65 0.65 0.65 0.7 0.65 0.65 0.6 0.7 0.6 0.65 0.65 0.7 0.7 0.65 0.7 0.7 0.7 0.65 0.65 0.7 0.65 0.65 0.75 0.7 0.7 0.7 0.7 0.65 0.75 0.7 0.7 0.65 0.75 0.65 0.8 0.7 0.75 0.7 0.75 0.65 0.75 0.65 0.8 0.65 0.8 0.7 0.85 0.7 0.8 0.7 0.8 0.65 0.8 0.65 0.85 0.65 0.85 0.7 0.85 0.7 0.9 0.65 0.9 0.7 0.9 0.65 0.85 0.7 0.85 0.65 0.9 0.7 0.95 0.65 0.95 0.7 0.95 0.65 0.9 0.7 0.9 0.65 1 0.7 0.95 0.7 0.95 0.65 0.95 0.65 1 0.65 1 0.7 0 0.75 0 0.7 0.04999995 0.75 0 0.7 0.04999995 0.7 0.04999995 0.75 0.1 0.75 0.04999995 0.7 0.1 0.7 0.04999995 0.7 0.1 0.75 0.04999995 0.75 0.15 0.7 0.1 0.75 0.1 0.7 0.1 0.75 0.15 0.7 0.15 0.75 0.2 0.7 0.15 0.75 0.15 0.7 0.15 0.75 0.2 0.7 0.2 0.75 0.25 0.75 0.2 0.7 0.25 0.7 0.2 0.7 0.25 0.75 0.2 0.75 0.3 0.7 0.3 0.75 0.25 0.7 0.25 0.7 0.3 0.75 0.25 0.75 0.35 0.7 0.3 0.75 0.3 0.7 0.3 0.75 0.35 0.7 0.35 0.75 0.4 0.7 0.35 0.75 0.35 0.7 0.35 0.75 0.4 0.7 0.4 0.75 0.45 0.7 0.4 0.75 0.4 0.7 0.4 0.75 0.45 0.7 0.45 0.75 0.5 0.75 0.45 0.7 0.5 0.7 0.45 0.7 0.5 0.75 0.45 0.75 0.55 0.75 0.5 0.7 0.55 0.7 0.5 0.7 0.55 0.75 0.5 0.75 0.55 0.75 0.6 0.7 0.6 0.75 0.6 0.7 0.55 0.75 0.55 0.7 0.6 0.75 0.65 0.7 0.65 0.75 0.65 0.7 0.6 0.75 0.6 0.7 0.65 0.75 0.7 0.7 0.7 0.75 0.7 0.7 0.65 0.75 0.65 0.7 0.75 0.75 0.7 0.75 0.7 0.7 0.7 0.7 0.75 0.7 0.75 0.75 0.8 0.75 0.75 0.75 0.75 0.7 0.75 0.7 0.8 0.7 0.8 0.75 0.8 0.7 0.85 0.75 0.8 0.75 0.85 0.75 0.8 0.7 0.85 0.7 0.85 0.75 0.9 0.7 0.9 0.75 0.9 0.7 0.85 0.75 0.85 0.7 0.9 0.75 0.95 0.7 0.95 0.75 0.95 0.7 0.9 0.75 0.9 0.7 0.95 0.75 0.95 0.7 1 0.75 0.95 0.7 1 0.7 1 0.75 0.04999995 0.75 0 0.8 0 0.75 0 0.8 0.04999995 0.75 0.04999995 0.8 0.1 0.75 0.04999995 0.8 0.04999995 0.75 0.04999995 0.8 0.1 0.75 0.1 0.8 0.15 0.75 0.1 0.8 0.1 0.75 0.1 0.8 0.15 0.75 0.15 0.8 0.15 0.8 0.2 0.75 0.2 0.8 0.2 0.75 0.15 0.8 0.15 0.75 0.25 0.8 0.2 0.8 0.2 0.75 0.2 0.75 0.25 0.75 0.25 0.8 0.3 0.8 0.25 0.8 0.25 0.75 0.25 0.75 0.3 0.75 0.3 0.8 0.3 0.75 0.35 0.75 0.35 0.8 0.3 0.75 0.35 0.8 0.3 0.8 0.4 0.8 0.35 0.75 0.4 0.75 0.35 0.75 0.4 0.8 0.35 0.8 0.45 0.8 0.4 0.75 0.45 0.75 0.4 0.75 0.45 0.8 0.4 0.8 0.45 0.8 0.5 0.75 0.5 0.8 0.5 0.75 0.45 0.8 0.45 0.75 0.5 0.8 0.55 0.75 0.55 0.8 0.55 0.75 0.5 0.8 0.5 0.75 0.55 0.8 0.6 0.75 0.6 0.8 0.6 0.75 0.55 0.8 0.55 0.75 0.6 0.8 0.65 0.75 0.65 0.8 0.65 0.75 0.6 0.8 0.6 0.75 0.7 0.75 0.65 0.8 0.65 0.75 0.65 0.8 0.7 0.75 0.7 0.8 0.75 0.8 0.7 0.75 0.75 0.75 0.7 0.75 0.75 0.8 0.7 0.8 0.8 0.8 0.75 0.75 0.8 0.75 0.75 0.75 0.8 0.8 0.75 0.8 0.8 0.75 0.85 0.8 0.8 0.8 0.85 0.8 0.8 0.75 0.85 0.75 0.85 0.8 0.9 0.75 0.9 0.8 0.9 0.75 0.85 0.8 0.85 0.75 0.9 0.8 0.95 0.75 0.95 0.8 0.95 0.75 0.9 0.8 0.9 0.75 0.95 0.75 1 0.75 1 0.8 0.95 0.75 1 0.8 0.95 0.8 0.04999995 0.8 0 0.85 0 0.8 0 0.85 0.04999995 0.8 0.04999995 0.85 0.1 0.8 0.04999995 0.85 0.04999995 0.8 0.04999995 0.85 0.1 0.8 0.1 0.85 0.15 0.8 0.1 0.85 0.1 0.8 0.1 0.85 0.15 0.8 0.15 0.85 0.15 0.85 0.2 0.8 0.2 0.85 0.2 0.8 0.15 0.85 0.15 0.8 0.25 0.85 0.2 0.85 0.2 0.8 0.2 0.8 0.25 0.8 0.25 0.85 0.25 0.85 0.25 0.8 0.3 0.85 0.25 0.8 0.3 0.8 0.3 0.85 0.3 0.8 0.35 0.8 0.35 0.85 0.3 0.8 0.35 0.85 0.3 0.85 0.4 0.85 0.35 0.8 0.4 0.8 0.35 0.8 0.4 0.85 0.35 0.85 0.45 0.85 0.4 0.8 0.45 0.8 0.4 0.8 0.45 0.85 0.4 0.85 0.45 0.85 0.5 0.8 0.5 0.85 0.5 0.8 0.45 0.85 0.45 0.8 0.5 0.85 0.55 0.8 0.55 0.85 0.55 0.8 0.5 0.85 0.5 0.8 0.6 0.85 0.55 0.85 0.55 0.8 0.55 0.8 0.6 0.8 0.6 0.85 0.6 0.85 0.6 0.8 0.65 0.85 0.6 0.8 0.65 0.8 0.65 0.85 0.7 0.8 0.65 0.85 0.65 0.8 0.65 0.85 0.7 0.8 0.7 0.85 0.75 0.85 0.7 0.8 0.75 0.8 0.7 0.8 0.75 0.85 0.7 0.85 0.8 0.8 0.75 0.85 0.75 0.8 0.75 0.85 0.8 0.8 0.8 0.85 0.8 0.85 0.85 0.8 0.85 0.85 0.85 0.8 0.8 0.85 0.8 0.8 0.9 0.85 0.85 0.85 0.85 0.8 0.85 0.8 0.9 0.8 0.9 0.85 0.95 0.85 0.9 0.85 0.9 0.8 0.9 0.8 0.95 0.8 0.95 0.85 1 0.8 0.95 0.85 0.95 0.8 0.95 0.85 1 0.8 1 0.85 0.04999995 0.85 0.04999995 0.9 0 0.85 0 0.85 0.04999995 0.9 0 0.9 0.1 0.9 0.04999995 0.85 0.1 0.85 0.04999995 0.85 0.1 0.9 0.04999995 0.9 0.15 0.9 0.1 0.85 0.15 0.85 0.1 0.85 0.15 0.9 0.1 0.9 0.15 0.85 0.2 0.9 0.15 0.9 0.2 0.9 0.15 0.85 0.2 0.85 0.2 0.9 0.25 0.85 0.25 0.9 0.25 0.85 0.2 0.9 0.2 0.85 0.25 0.9 0.3 0.85 0.3 0.9 0.3 0.85 0.25 0.9 0.25 0.85 0.35 0.85 0.3 0.9 0.3 0.85 0.3 0.9 0.35 0.85 0.35 0.9 0.4 0.85 0.35 0.9 0.35 0.85 0.35 0.9 0.4 0.85 0.4 0.9 0.45 0.85 0.4 0.9 0.4 0.85 0.4 0.9 0.45 0.85 0.45 0.9 0.5 0.85 0.45 0.9 0.45 0.85 0.45 0.9 0.5 0.85 0.5 0.9 0.5 0.9 0.55 0.85 0.55 0.9 0.55 0.85 0.5 0.9 0.5 0.85 0.55 0.9 0.6 0.85 0.6 0.9 0.6 0.85 0.55 0.9 0.55 0.85 0.6 0.9 0.6 0.85 0.65 0.9 0.6 0.85 0.65 0.85 0.65 0.9 0.7 0.85 0.7 0.9 0.65 0.85 0.65 0.85 0.7 0.9 0.65 0.9 0.75 0.85 0.7 0.9 0.7 0.85 0.7 0.9 0.75 0.85 0.75 0.9 0.8 0.85 0.75 0.9 0.75 0.85 0.75 0.9 0.8 0.85 0.8 0.9 0.8 0.85 0.85 0.9 0.8 0.9 0.85 0.9 0.8 0.85 0.85 0.85 0.9 0.9 0.85 0.9 0.85 0.85 0.85 0.85 0.9 0.85 0.9 0.9 0.9 0.9 0.9 0.85 0.95 0.9 0.9 0.85 0.95 0.85 0.95 0.9 1 0.85 1 0.9 0.95 0.85 0.95 0.9 0.95 0.85 1 0.9 0.04999995 0.9 0 0.95 0 0.9 0 0.95 0.04999995 0.9 0.04999995 0.95 0.1 0.95 0.04999995 0.9 0.1 0.9 0.04999995 0.9 0.1 0.95 0.04999995 0.95 0.15 0.95 0.1 0.9 0.15 0.9 0.1 0.9 0.15 0.95 0.1 0.95 0.15 0.95 0.2 0.9 0.2 0.95 0.2 0.9 0.15 0.95 0.15 0.9 0.2 0.95 0.2 0.9 0.25 0.95 0.2 0.9 0.25 0.9 0.25 0.95 0.3 0.9 0.25 0.95 0.25 0.9 0.25 0.95 0.3 0.9 0.3 0.95 0.35 0.9 0.3 0.95 0.3 0.9 0.3 0.95 0.35 0.9 0.35 0.95 0.4 0.95 0.35 0.9 0.4 0.9 0.35 0.9 0.4 0.95 0.35 0.95 0.45 0.95 0.4 0.9 0.45 0.9 0.4 0.9 0.45 0.95 0.4 0.95 0.5 0.9 0.45 0.95 0.45 0.9 0.45 0.95 0.5 0.9 0.5 0.95 0.5 0.9 0.55 0.9 0.55 0.95 0.5 0.9 0.55 0.95 0.5 0.95 0.55 0.95 0.55 0.9 0.6 0.95 0.55 0.9 0.6 0.9 0.6 0.95 0.65 0.9 0.65 0.95 0.6 0.9 0.6 0.95 0.6 0.9 0.65 0.95 0.7 0.9 0.7 0.95 0.65 0.9 0.65 0.9 0.7 0.95 0.65 0.95 0.75 0.9 0.7 0.95 0.7 0.9 0.7 0.95 0.75 0.9 0.75 0.95 0.8 0.9 0.75 0.95 0.75 0.9 0.75 0.95 0.8 0.9 0.8 0.95 0.8 0.9 0.85 0.95 0.8 0.95 0.85 0.95 0.8 0.9 0.85 0.9 0.85 0.95 0.9 0.9 0.9 0.95 0.9 0.9 0.85 0.95 0.85 0.9 0.9 0.95 0.9 0.9 0.95 0.95 0.9 0.9 0.95 0.9 0.95 0.95 1 0.9 0.95 0.95 0.95 0.9 0.95 0.95 1 0.9 1 0.95 0.04999995 0.04999995 0 0.04999995 0.02499997 0 0.1 0.04999995 0.04999995 0.04999995 0.07499998 0 0.15 0.04999995 0.1 0.04999995 0.125 0 0.2 0.04999995 0.15 0.04999995 0.175 0 0.25 0.04999995 0.2 0.04999995 0.225 0 0.3 0.04999995 0.25 0.04999995 0.275 0 0.35 0.04999995 0.3 0.04999995 0.325 0 0.4 0.04999995 0.35 0.04999995 0.375 0 0.45 0.04999995 0.4 0.04999995 0.425 0 0.5 0.04999995 0.45 0.04999995 0.475 0 0.55 0.04999995 0.5 0.04999995 0.525 0 0.6 0.04999995 0.55 0.04999995 0.575 0 0.65 0.04999995 0.6 0.04999995 0.625 0 0.7 0.04999995 0.65 0.04999995 0.675 0 0.75 0.04999995 0.7 0.04999995 0.725 0 0.8 0.04999995 0.75 0.04999995 0.775 0 0.85 0.04999995 0.8 0.04999995 0.825 0 0.9 0.04999995 0.85 0.04999995 0.875 0 0.95 0.04999995 0.9 0.04999995 0.925 0 1 0.04999995 0.95 0.04999995 0.975 0 0 0.95 0.04999995 0.95 0.02499997 1 0.04999995 0.95 0.1 0.95 0.07499998 1 0.1 0.95 0.15 0.95 0.125 1 0.15 0.95 0.2 0.95 0.175 1 0.2 0.95 0.25 0.95 0.225 1 0.25 0.95 0.3 0.95 0.275 1 0.3 0.95 0.35 0.95 0.325 1 0.35 0.95 0.4 0.95 0.375 1 0.4 0.95 0.45 0.95 0.425 1 0.45 0.95 0.5 0.95 0.475 1 0.5 0.95 0.55 0.95 0.525 1 0.55 0.95 0.6 0.95 0.575 1 0.6 0.95 0.65 0.95 0.625 1 0.65 0.95 0.7 0.95 0.675 1 0.7 0.95 0.75 0.95 0.725 1 0.75 0.95 0.8 0.95 0.775 1 0.8 0.95 0.85 0.95 0.825 1 0.85 0.95 0.9 0.95 0.875 1 0.9 0.95 0.95 0.95 0.925 1 0.95 0.95 1 0.95 0.975 1</float_array>
          <technique_common>
            <accessor source="#Alpha_JointsMesh_286-mesh-map-0-array" count="2280" stride="2">
              <param name="S" type="float"/>
              <param name="T" type="float"/>
            </accessor>
          </technique_common>
        </source>
        <vertices id="Alpha_JointsMesh_286-mesh-vertices">
          <input semantic="POSITION" source="#Alpha_JointsMesh_286-mesh-positions"/>
        </vertices>
        <triangles material="Alpha_Joints_MAT_007-material" count="760">
          <input semantic="VERTEX" source="#Alpha_JointsMesh_286-mesh-vertices" offset="0"/>
          <input semantic="NORMAL" source="#Alpha_JointsMesh_286-mesh-normals" offset="1"/>
          <input semantic="TEXCOORD" source="#Alpha_JointsMesh_286-mesh-map-0" offset="2" set="0"/>
          <p>20 0 0 1 1 1 21 2 2 1 1 3 20 0 4 0 3 5 21 2 6 2 4 7 22 5 8 2 4 9 21 2 10 1 1 11 3 6 12 22 5 13 2 4 14 22 5 15 3 6 16 23 7 17 24 8 18 3 6 19 4 9 20 3 6 21 24 8 22 23 7 23 5 10 24 24 8 25 4 9 26 24 8 27 5 10 28 25 11 29 6 12 30 26 13 31 5 10 32 25 11 33 5 10 34 26 13 35 26 13 36 6 12 37 27 14 38 6 12 39 7 15 40 27 14 41 28 16 42 27 14 43 7 15 44 28 16 45 7 15 46 8 17 47 9 18 48 28 16 49 8 17 50 28 16 51 9 18 52 29 19 53 30 20 54 9 18 55 10 21 56 9 18 57 30 20 58 29 19 59 11 22 60 30 20 61 10 21 62 30 20 63 11 22 64 31 23 65 12 24 66 32 25 67 11 22 68 11 22 69 32 25 70 31 23 71 32 25 72 13 26 73 33 27 74 13 26 75 32 25 76 12 24 77 33 27 78 14 28 79 34 29 80 14 28 81 33 27 82 13 26 83 35 30 84 34 29 85 14 28 86 35 30 87 14 28 88 15 31 89 36 32 90 15 31 91 16 33 92 15 31 93 36 32 94 35 30 95 17 34 96 36 32 97 16 33 98 36 32 99 17 34 100 37 35 101 18 36 102 38 37 103 17 34 104 17 34 105 38 37 106 37 35 107 19 38 108 38 37 109 18 36 110 38 37 111 19 38 112 39 39 113 39 39 114 19 38 115 20 0 116 19 38 117 0 3 118 20 0 119 40 40 120 21 2 121 41 41 122 21 2 123 40 40 124 20 0 125 41 41 126 22 5 127 42 42 128 22 5 129 41 41 130 21 2 131 23 7 132 42 42 133 22 5 134 42 42 135 23 7 136 43 43 137 24 8 138 43 43 139 23 7 140 43 43 141 24 8 142 44 44 143 25 11 144 45 45 145 24 8 146 24 8 147 45 45 148 44 44 149 45 45 150 25 11 151 46 46 152 25 11 153 26 13 154 46 46 155 46 46 156 26 13 157 47 47 158 47 47 159 26 13 160 27 14 161 48 48 162 47 47 163 27 14 164 48 48 165 27 14 166 28 16 167 49 49 168 28 16 169 29 19 170 28 16 171 49 49 172 48 48 173 50 50 174 29 19 175 30 20 176 29 19 177 50 50 178 49 49 179 31 23 180 50 50 181 30 20 182 50 50 183 31 23 184 51 51 185 32 25 186 52 52 187 31 23 188 31 23 189 52 52 190 51 51 191 52 52 192 33 27 193 53 53 194 33 27 195 52 52 196 32 25 197 53 53 198 34 29 199 54 54 200 34 29 201 53 53 202 33 27 203 55 55 204 54 54 205 34 29 206 55 55 207 34 29 208 35 30 209 56 56 210 35 30 211 36 32 212 35 30 213 56 56 214 55 55 215 37 35 216 56 56 217 36 32 218 56 56 219 37 35 220 57 57 221 38 37 222 58 58 223 37 35 224 37 35 225 58 58 226 57 57 227 58 58 228 39 39 229 59 59 230 39 39 231 58 58 232 38 37 233 59 59 234 20 0 235 40 40 236 20 0 237 59 59 238 39 39 239 61 60 240 60 61 241 40 40 242 61 60 243 40 40 244 41 41 245 62 62 246 61 60 247 41 41 248 62 62 249 41 41 250 42 42 251 63 63 252 42 42 253 43 43 254 42 42 255 63 63 256 62 62 257 64 64 258 43 43 259 44 44 260 43 43 261 64 64 262 63 63 263 44 44 264 45 45 265 65 65 266 44 44 267 65 65 268 64 64 269 65 65 270 46 46 271 66 66 272 46 46 273 65 65 274 45 45 275 66 66 276 47 47 277 67 67 278 47 47 279 66 66 280 46 46 281 67 67 282 48 48 283 68 68 284 48 48 285 67 67 286 47 47 287 68 68 288 49 49 289 69 69 290 49 49 291 68 68 292 48 48 293 70 70 294 49 49 295 50 50 296 49 49 297 70 70 298 69 69 299 71 71 300 50 50 301 51 51 302 50 50 303 71 71 304 70 70 305 52 52 306 71 71 307 51 51 308 71 71 309 52 52 310 72 72 311 72 72 312 53 53 313 73 73 314 53 53 315 72 72 316 52 52 317 74 74 318 73 73 319 53 53 320 74 74 321 53 53 322 54 54 323 74 74 324 55 55 325 75 75 326 55 55 327 74 74 328 54 54 329 76 76 330 55 55 331 56 56 332 55 55 333 76 76 334 75 75 335 77 77 336 56 56 337 57 57 338 56 56 339 77 77 340 76 76 341 58 58 342 77 77 343 57 57 344 77 77 345 58 58 346 78 78 347 59 59 348 78 78 349 58 58 350 78 78 351 59 59 352 79 79 353 79 79 354 59 59 355 60 61 356 59 59 357 40 40 358 60 61 359 81 80 360 80 81 361 60 61 362 81 80 363 60 61 364 61 60 365 82 82 366 81 80 367 61 60 368 82 82 369 61 60 370 62 62 371 83 83 372 62 62 373 63 63 374 62 62 375 83 83 376 82 82 377 84 84 378 63 63 379 64 64 380 63 63 381 84 84 382 83 83 383 64 64 384 65 65 385 85 85 386 64 64 387 85 85 388 84 84 389 85 85 390 66 66 391 86 86 392 66 66 393 85 85 394 65 65 395 86 86 396 67 67 397 87 87 398 67 67 399 86 86 400 66 66 401 88 88 402 87 87 403 67 67 404 88 88 405 67 67 406 68 68 407 68 68 408 89 89 409 88 88 410 89 89 411 68 68 412 69 69 413 90 90 414 69 69 415 70 70 416 69 69 417 90 90 418 89 89 419 91 91 420 70 70 421 71 71 422 70 70 423 91 91 424 90 90 425 71 71 426 72 72 427 92 92 428 71 71 429 92 92 430 91 91 431 93 93 432 92 92 433 72 72 434 72 72 435 73 73 436 93 93 437 94 94 438 93 93 439 73 73 440 94 94 441 73 73 442 74 74 443 94 94 444 75 75 445 95 95 446 75 75 447 94 94 448 74 74 449 76 76 450 95 95 451 75 75 452 95 95 453 76 76 454 96 96 455 77 77 456 96 96 457 76 76 458 96 96 459 77 77 460 97 97 461 78 78 462 97 97 463 77 77 464 97 97 465 78 78 466 98 98 467 79 79 468 98 98 469 78 78 470 98 98 471 79 79 472 99 99 473 80 81 474 99 99 475 79 79 476 79 79 477 60 61 478 80 81 479 100 100 480 81 80 481 101 101 482 81 80 483 100 100 484 80 81 485 101 101 486 82 82 487 102 102 488 82 82 489 101 101 490 81 80 491 83 83 492 103 103 493 82 82 494 82 82 495 103 103 496 102 102 497 83 83 498 84 84 499 104 104 500 83 83 501 104 104 502 103 103 503 85 85 504 104 104 505 84 84 506 104 104 507 85 85 508 105 105 509 86 86 510 105 105 511 85 85 512 105 105 513 86 86 514 106 106 515 107 107 516 106 106 517 86 86 518 107 107 519 86 86 520 87 87 521 108 108 522 87 87 523 88 88 524 108 108 525 107 107 526 87 87 527 109 109 528 88 88 529 89 89 530 88 88 531 109 109 532 108 108 533 90 90 534 109 109 535 89 89 536 109 109 537 90 90 538 110 110 539 91 91 540 110 110 541 90 90 542 110 110 543 91 91 544 111 111 545 91 91 546 92 92 547 112 112 548 91 91 549 112 112 550 111 111 551 113 113 552 112 112 553 92 92 554 92 92 555 93 93 556 113 113 557 114 114 558 113 113 559 93 93 560 114 114 561 93 93 562 94 94 563 114 114 564 95 95 565 115 115 566 95 95 567 114 114 568 94 94 569 115 115 570 96 96 571 116 116 572 96 96 573 115 115 574 95 95 575 97 97 576 116 116 577 96 96 578 116 116 579 97 97 580 117 117 581 117 117 582 97 97 583 118 118 584 97 97 585 98 98 586 118 118 587 119 119 588 118 118 589 98 98 590 98 98 591 99 99 592 119 119 593 119 119 594 80 81 595 100 100 596 80 81 597 119 119 598 99 99 599 120 120 600 101 101 601 121 121 602 101 101 603 120 120 604 100 100 605 102 102 606 122 122 607 101 101 608 101 101 609 122 122 610 121 121 611 103 103 612 123 123 613 102 102 614 102 102 615 123 123 616 122 122 617 103 103 618 104 104 619 124 124 620 103 103 621 124 124 622 123 123 623 105 105 624 124 124 625 104 104 626 124 124 627 105 105 628 125 125 629 106 106 630 125 125 631 105 105 632 125 125 633 106 106 634 126 126 635 107 107 636 126 126 637 106 106 638 126 126 639 107 107 640 127 127 641 128 128 642 107 107 643 108 108 644 107 107 645 128 128 646 127 127 647 129 129 648 108 108 649 109 109 650 108 108 651 129 129 652 128 128 653 110 110 654 129 129 655 109 109 656 129 129 657 110 110 658 130 130 659 111 111 660 130 130 661 110 110 662 130 130 663 111 111 664 131 131 665 132 132 666 131 131 667 111 111 668 111 111 669 112 112 670 132 132 671 133 133 672 132 132 673 112 112 674 133 133 675 112 112 676 113 113 677 134 134 678 133 133 679 113 113 680 134 134 681 113 113 682 114 114 683 134 134 684 115 115 685 135 135 686 115 115 687 134 134 688 114 114 689 135 135 690 116 116 691 136 136 692 116 116 693 135 135 694 115 115 695 136 136 696 117 117 697 137 137 698 117 117 699 136 136 700 116 116 701 137 137 702 117 117 703 138 138 704 117 117 705 118 118 706 138 138 707 139 139 708 138 138 709 118 118 710 118 118 711 119 119 712 139 139 713 139 139 714 100 100 715 120 120 716 100 100 717 139 139 718 119 119 719 140 140 720 121 121 721 141 141 722 121 121 723 140 140 724 120 120 725 122 122 726 142 142 727 121 121 728 121 121 729 142 142 730 141 141 731 123 123 732 143 143 733 122 122 734 122 122 735 143 143 736 142 142 737 123 123 738 124 124 739 144 144 740 123 123 741 144 144 742 143 143 743 125 125 744 144 144 745 124 124 746 144 144 747 125 125 748 145 145 749 126 126 750 145 145 751 125 125 752 145 145 753 126 126 754 146 146 755 127 127 756 146 146 757 126 126 758 146 146 759 127 127 760 147 147 761 148 148 762 127 127 763 128 128 764 127 127 765 148 148 766 147 147 767 149 149 768 128 128 769 129 129 770 128 128 771 149 149 772 148 148 773 130 130 774 149 149 775 129 129 776 149 149 777 130 130 778 150 150 779 131 131 780 150 150 781 130 130 782 150 150 783 131 131 784 151 151 785 152 152 786 151 151 787 131 131 788 131 131 789 132 132 790 152 152 791 153 153 792 152 152 793 132 132 794 153 153 795 132 132 796 133 133 797 154 154 798 153 153 799 133 133 800 154 154 801 133 133 802 134 134 803 154 154 804 135 135 805 155 155 806 135 135 807 154 154 808 134 134 809 155 155 810 136 136 811 156 156 812 136 136 813 155 155 814 135 135 815 156 156 816 137 137 817 157 157 818 137 137 819 156 156 820 136 136 821 157 157 822 137 137 823 158 158 824 137 137 825 138 138 826 158 158 827 159 159 828 158 158 829 138 138 830 138 138 831 139 139 832 159 159 833 159 159 834 120 120 835 140 140 836 120 120 837 159 159 838 139 139 839 160 160 840 141 141 841 161 161 842 141 141 843 160 160 844 140 140 845 161 161 846 142 142 847 162 162 848 142 142 849 161 161 850 141 141 851 143 143 852 163 163 853 142 142 854 142 142 855 163 163 856 162 162 857 143 143 858 144 144 859 164 164 860 143 143 861 164 164 862 163 163 863 145 145 864 164 164 865 144 144 866 164 164 867 145 145 868 165 165 869 146 146 870 165 165 871 145 145 872 165 165 873 146 146 874 166 166 875 147 147 876 166 166 877 146 146 878 166 166 879 147 147 880 167 167 881 168 168 882 147 147 883 148 148 884 147 147 885 168 168 886 167 167 887 169 169 888 148 148 889 149 149 890 148 148 891 169 169 892 168 168 893 150 150 894 169 169 895 149 149 896 169 169 897 150 150 898 170 170 899 151 151 900 170 170 901 150 150 902 170 170 903 151 151 904 171 171 905 172 172 906 171 171 907 151 151 908 172 172 909 151 151 910 152 152 911 173 173 912 172 172 913 152 152 914 173 173 915 152 152 916 153 153 917 174 174 918 173 173 919 153 153 920 174 174 921 153 153 922 154 154 923 174 174 924 155 155 925 175 175 926 155 155 927 174 174 928 154 154 929 175 175 930 156 156 931 176 176 932 156 156 933 175 175 934 155 155 935 176 176 936 157 157 937 177 177 938 157 157 939 176 176 940 156 156 941 177 177 942 157 157 943 178 178 944 157 157 945 158 158 946 178 178 947 179 179 948 178 178 949 158 158 950 158 158 951 159 159 952 179 179 953 179 179 954 140 140 955 160 160 956 140 140 957 179 179 958 159 159 959 180 180 960 161 161 961 181 181 962 161 161 963 180 180 964 160 160 965 162 162 966 182 182 967 161 161 968 161 161 969 182 182 970 181 181 971 163 163 972 183 183 973 162 162 974 162 162 975 183 183 976 182 182 977 163 163 978 164 164 979 184 184 980 163 163 981 184 184 982 183 183 983 165 165 984 184 184 985 164 164 986 184 184 987 165 165 988 185 185 989 166 166 990 185 185 991 165 165 992 185 185 993 166 166 994 186 186 995 187 187 996 166 166 997 167 167 998 166 166 999 187 187 1000 186 186 1001 188 188 1002 167 167 1003 168 168 1004 167 167 1005 188 188 1006 187 187 1007 189 189 1008 168 168 1009 169 169 1010 168 168 1011 189 189 1012 188 188 1013 170 170 1014 189 189 1015 169 169 1016 189 189 1017 170 170 1018 190 190 1019 171 171 1020 190 190 1021 170 170 1022 190 190 1023 171 171 1024 191 191 1025 192 192 1026 191 191 1027 171 171 1028 192 192 1029 171 171 1030 172 172 1031 193 193 1032 192 192 1033 172 172 1034 193 193 1035 172 172 1036 173 173 1037 194 194 1038 193 193 1039 173 173 1040 194 194 1041 173 173 1042 174 174 1043 194 194 1044 175 175 1045 195 195 1046 175 175 1047 194 194 1048 174 174 1049 195 195 1050 176 176 1051 196 196 1052 176 176 1053 195 195 1054 175 175 1055 196 196 1056 177 177 1057 197 197 1058 177 177 1059 196 196 1060 176 176 1061 197 197 1062 177 177 1063 198 198 1064 177 177 1065 178 178 1066 198 198 1067 199 199 1068 198 198 1069 178 178 1070 178 178 1071 179 179 1072 199 199 1073 199 199 1074 160 160 1075 180 180 1076 160 160 1077 199 199 1078 179 179 1079 200 200 1080 180 180 1081 201 201 1082 180 180 1083 181 181 1084 201 201 1085 182 182 1086 201 201 1087 181 181 1088 201 201 1089 182 182 1090 202 202 1091 183 183 1092 202 202 1093 182 182 1094 202 202 1095 183 183 1096 203 203 1097 184 184 1098 203 203 1099 183 183 1100 203 203 1101 184 184 1102 204 204 1103 205 205 1104 184 184 1105 185 185 1106 184 184 1107 205 205 1108 204 204 1109 186 186 1110 206 206 1111 185 185 1112 185 185 1113 206 206 1114 205 205 1115 187 187 1116 206 206 1117 186 186 1118 206 206 1119 187 187 1120 207 207 1121 188 188 1122 207 207 1123 187 187 1124 207 207 1125 188 188 1126 208 208 1127 189 189 1128 208 208 1129 188 188 1130 208 208 1131 189 189 1132 209 209 1133 210 210 1134 189 189 1135 190 190 1136 189 189 1137 210 210 1138 209 209 1139 211 211 1140 190 190 1141 191 191 1142 190 190 1143 211 211 1144 210 210 1145 211 211 1146 192 192 1147 212 212 1148 192 192 1149 211 211 1150 191 191 1151 212 212 1152 193 193 1153 213 213 1154 193 193 1155 212 212 1156 192 192 1157 213 213 1158 194 194 1159 214 214 1160 194 194 1161 213 213 1162 193 193 1163 215 215 1164 214 214 1165 194 194 1166 215 215 1167 194 194 1168 195 195 1169 216 216 1170 215 215 1171 195 195 1172 216 216 1173 195 195 1174 196 196 1175 217 217 1176 216 216 1177 196 196 1178 217 217 1179 196 196 1180 197 197 1181 217 217 1182 198 198 1183 218 218 1184 198 198 1185 217 217 1186 197 197 1187 218 218 1188 199 199 1189 219 219 1190 199 199 1191 218 218 1192 198 198 1193 200 200 1194 219 219 1195 199 199 1196 199 199 1197 180 180 1198 200 200 1199 220 220 1200 200 200 1201 221 221 1202 200 200 1203 201 201 1204 221 221 1205 202 202 1206 221 221 1207 201 201 1208 221 221 1209 202 202 1210 222 222 1211 203 203 1212 222 222 1213 202 202 1214 222 222 1215 203 203 1216 223 223 1217 204 204 1218 223 223 1219 203 203 1220 223 223 1221 204 204 1222 224 224 1223 225 225 1224 204 204 1225 205 205 1226 204 204 1227 225 225 1228 224 224 1229 206 206 1230 226 226 1231 205 205 1232 205 205 1233 226 226 1234 225 225 1235 207 207 1236 226 226 1237 206 206 1238 226 226 1239 207 207 1240 227 227 1241 208 208 1242 227 227 1243 207 207 1244 227 227 1245 208 208 1246 228 228 1247 209 209 1248 228 228 1249 208 208 1250 228 228 1251 209 209 1252 229 229 1253 230 230 1254 209 209 1255 210 210 1256 209 209 1257 230 230 1258 229 229 1259 231 231 1260 210 210 1261 211 211 1262 210 210 1263 231 231 1264 230 230 1265 231 231 1266 212 212 1267 232 232 1268 212 212 1269 231 231 1270 211 211 1271 232 232 1272 213 213 1273 233 233 1274 213 213 1275 232 232 1276 212 212 1277 233 233 1278 214 214 1279 234 234 1280 214 214 1281 233 233 1282 213 213 1283 235 235 1284 234 234 1285 214 214 1286 235 235 1287 214 214 1288 215 215 1289 236 236 1290 235 235 1291 215 215 1292 236 236 1293 215 215 1294 216 216 1295 237 237 1296 236 236 1297 216 216 1298 216 216 1299 217 217 1300 237 237 1301 237 237 1302 218 218 1303 238 238 1304 218 218 1305 237 237 1306 217 217 1307 238 238 1308 219 219 1309 239 239 1310 219 219 1311 238 238 1312 218 218 1313 220 220 1314 239 239 1315 219 219 1316 219 219 1317 200 200 1318 220 220 1319 240 240 1320 220 220 1321 241 241 1322 220 220 1323 221 221 1324 241 241 1325 222 222 1326 241 241 1327 221 221 1328 241 241 1329 222 222 1330 242 242 1331 223 223 1332 242 242 1333 222 222 1334 242 242 1335 223 223 1336 243 243 1337 224 224 1338 243 243 1339 223 223 1340 243 243 1341 224 224 1342 244 244 1343 245 245 1344 224 224 1345 225 225 1346 224 224 1347 245 245 1348 244 244 1349 226 226 1350 246 246 1351 225 225 1352 225 225 1353 246 246 1354 245 245 1355 227 227 1356 247 247 1357 226 226 1358 226 226 1359 247 247 1360 246 246 1361 228 228 1362 247 247 1363 227 227 1364 247 247 1365 228 228 1366 248 248 1367 229 229 1368 248 248 1369 228 228 1370 248 248 1371 229 229 1372 249 249 1373 250 250 1374 229 229 1375 230 230 1376 229 229 1377 250 250 1378 249 249 1379 251 251 1380 230 230 1381 231 231 1382 230 230 1383 251 251 1384 250 250 1385 251 251 1386 232 232 1387 252 252 1388 232 232 1389 251 251 1390 231 231 1391 252 252 1392 233 233 1393 253 253 1394 233 233 1395 252 252 1396 232 232 1397 253 253 1398 234 234 1399 254 254 1400 234 234 1401 253 253 1402 233 233 1403 255 255 1404 254 254 1405 234 234 1406 255 255 1407 234 234 1408 235 235 1409 256 256 1410 255 255 1411 235 235 1412 235 235 1413 236 236 1414 256 256 1415 257 257 1416 256 256 1417 236 236 1418 236 236 1419 237 237 1420 257 257 1421 257 257 1422 238 238 1423 258 258 1424 238 238 1425 257 257 1426 237 237 1427 258 258 1428 239 239 1429 259 259 1430 239 239 1431 258 258 1432 238 238 1433 240 240 1434 259 259 1435 239 239 1436 239 239 1437 220 220 1438 240 240 1439 260 260 1440 240 240 1441 261 261 1442 240 240 1443 241 241 1444 261 261 1445 242 242 1446 261 261 1447 241 241 1448 261 261 1449 242 242 1450 262 262 1451 243 243 1452 262 262 1453 242 242 1454 262 262 1455 243 243 1456 263 263 1457 244 244 1458 263 263 1459 243 243 1460 263 263 1461 244 244 1462 264 264 1463 265 265 1464 244 244 1465 245 245 1466 244 244 1467 265 265 1468 264 264 1469 246 246 1470 266 266 1471 245 245 1472 245 245 1473 266 266 1474 265 265 1475 247 247 1476 267 267 1477 246 246 1478 246 246 1479 267 267 1480 266 266 1481 248 248 1482 267 267 1483 247 247 1484 267 267 1485 248 248 1486 268 268 1487 249 249 1488 268 268 1489 248 248 1490 268 268 1491 249 249 1492 269 269 1493 270 270 1494 249 249 1495 250 250 1496 249 249 1497 270 270 1498 269 269 1499 271 271 1500 250 250 1501 251 251 1502 250 250 1503 271 271 1504 270 270 1505 271 271 1506 252 252 1507 272 272 1508 252 252 1509 271 271 1510 251 251 1511 272 272 1512 253 253 1513 273 273 1514 253 253 1515 272 272 1516 252 252 1517 273 273 1518 254 254 1519 274 274 1520 254 254 1521 273 273 1522 253 253 1523 275 275 1524 274 274 1525 254 254 1526 275 275 1527 254 254 1528 255 255 1529 276 276 1530 275 275 1531 255 255 1532 255 255 1533 256 256 1534 276 276 1535 277 277 1536 276 276 1537 256 256 1538 256 256 1539 257 257 1540 277 277 1541 277 277 1542 258 258 1543 278 278 1544 258 258 1545 277 277 1546 257 257 1547 278 278 1548 259 259 1549 279 279 1550 259 259 1551 278 278 1552 258 258 1553 260 260 1554 279 279 1555 259 259 1556 259 259 1557 240 240 1558 260 260 1559 280 280 1560 260 260 1561 281 281 1562 260 260 1563 261 261 1564 281 281 1565 282 282 1566 261 261 1567 262 262 1568 261 261 1569 282 282 1570 281 281 1571 263 263 1572 282 282 1573 262 262 1574 282 282 1575 263 263 1576 283 283 1577 264 264 1578 283 283 1579 263 263 1580 283 283 1581 264 264 1582 284 284 1583 285 285 1584 264 264 1585 265 265 1586 264 264 1587 285 285 1588 284 284 1589 266 266 1590 286 286 1591 265 265 1592 265 265 1593 286 286 1594 285 285 1595 267 267 1596 286 286 1597 266 266 1598 286 286 1599 267 267 1600 287 287 1601 268 268 1602 287 287 1603 267 267 1604 287 287 1605 268 268 1606 288 288 1607 269 269 1608 288 288 1609 268 268 1610 288 288 1611 269 269 1612 289 289 1613 290 290 1614 269 269 1615 270 270 1616 269 269 1617 290 290 1618 289 289 1619 291 291 1620 270 270 1621 271 271 1622 270 270 1623 291 291 1624 290 290 1625 291 291 1626 272 272 1627 292 292 1628 272 272 1629 291 291 1630 271 271 1631 292 292 1632 273 273 1633 293 293 1634 273 273 1635 292 292 1636 272 272 1637 293 293 1638 274 274 1639 294 294 1640 274 274 1641 293 293 1642 273 273 1643 295 295 1644 294 294 1645 274 274 1646 274 274 1647 275 275 1648 295 295 1649 296 296 1650 295 295 1651 275 275 1652 275 275 1653 276 276 1654 296 296 1655 276 276 1656 297 297 1657 296 296 1658 297 297 1659 276 276 1660 277 277 1661 297 297 1662 278 278 1663 298 298 1664 278 278 1665 297 297 1666 277 277 1667 298 298 1668 279 279 1669 299 299 1670 279 279 1671 298 298 1672 278 278 1673 299 299 1674 279 279 1675 280 280 1676 279 279 1677 260 260 1678 280 280 1679 281 281 1680 300 300 1681 280 280 1682 300 300 1683 281 281 1684 301 301 1685 282 282 1686 301 301 1687 281 281 1688 301 301 1689 282 282 1690 302 302 1691 283 283 1692 302 302 1693 282 282 1694 302 302 1695 283 283 1696 303 303 1697 303 303 1698 284 284 1699 304 304 1700 284 284 1701 303 303 1702 283 283 1703 305 305 1704 304 304 1705 284 284 1706 284 284 1707 285 285 1708 305 305 1709 306 306 1710 305 305 1711 285 285 1712 285 285 1713 286 286 1714 306 306 1715 286 286 1716 287 287 1717 307 307 1718 286 286 1719 307 307 1720 306 306 1721 308 308 1722 287 287 1723 288 288 1724 287 287 1725 308 308 1726 307 307 1727 309 309 1728 288 288 1729 289 289 1730 288 288 1731 309 309 1732 308 308 1733 309 309 1734 290 290 1735 310 310 1736 290 290 1737 309 309 1738 289 289 1739 310 310 1740 291 291 1741 311 311 1742 291 291 1743 310 310 1744 290 290 1745 311 311 1746 292 292 1747 312 312 1748 292 292 1749 311 311 1750 291 291 1751 312 312 1752 293 293 1753 313 313 1754 293 293 1755 312 312 1756 292 292 1757 294 294 1758 313 313 1759 293 293 1760 313 313 1761 294 294 1762 314 314 1763 315 315 1764 294 294 1765 295 295 1766 294 294 1767 315 315 1768 314 314 1769 316 316 1770 295 295 1771 296 296 1772 295 295 1773 316 316 1774 315 315 1775 296 296 1776 317 317 1777 316 316 1778 317 317 1779 296 296 1780 297 297 1781 317 317 1782 298 298 1783 318 318 1784 298 298 1785 317 317 1786 297 297 1787 318 318 1788 299 299 1789 319 319 1790 299 299 1791 318 318 1792 298 298 1793 299 299 1794 280 280 1795 300 300 1796 299 299 1797 300 300 1798 319 319 1799 301 301 1800 320 320 1801 300 300 1802 320 320 1803 301 301 1804 321 321 1805 302 302 1806 321 321 1807 301 301 1808 321 321 1809 302 302 1810 322 322 1811 303 303 1812 322 322 1813 302 302 1814 322 322 1815 303 303 1816 323 323 1817 323 323 1818 304 304 1819 324 324 1820 304 304 1821 323 323 1822 303 303 1823 325 325 1824 324 324 1825 304 304 1826 304 304 1827 305 305 1828 325 325 1829 325 325 1830 305 305 1831 326 326 1832 305 305 1833 306 306 1834 326 326 1835 306 306 1836 307 307 1837 327 327 1838 306 306 1839 327 327 1840 326 326 1841 328 328 1842 307 307 1843 308 308 1844 307 307 1845 328 328 1846 327 327 1847 329 329 1848 308 308 1849 309 309 1850 308 308 1851 329 329 1852 328 328 1853 329 329 1854 310 310 1855 330 330 1856 310 310 1857 329 329 1858 309 309 1859 330 330 1860 311 311 1861 331 331 1862 311 311 1863 330 330 1864 310 310 1865 332 332 1866 331 331 1867 311 311 1868 311 311 1869 312 312 1870 332 332 1871 332 332 1872 312 312 1873 333 333 1874 312 312 1875 313 313 1876 333 333 1877 314 314 1878 333 333 1879 313 313 1880 333 333 1881 314 314 1882 334 334 1883 335 335 1884 314 314 1885 315 315 1886 314 314 1887 335 335 1888 334 334 1889 316 316 1890 335 335 1891 315 315 1892 335 335 1893 316 316 1894 336 336 1895 336 336 1896 317 317 1897 337 337 1898 317 317 1899 336 336 1900 316 316 1901 338 338 1902 337 337 1903 317 317 1904 317 317 1905 318 318 1906 338 338 1907 339 339 1908 338 338 1909 318 318 1910 318 318 1911 319 319 1912 339 339 1913 300 300 1914 339 339 1915 319 319 1916 339 339 1917 300 300 1918 320 320 1919 321 321 1920 341 340 1921 320 320 1922 320 320 1923 341 340 1924 340 341 1925 342 342 1926 321 321 1927 322 322 1928 321 321 1929 342 342 1930 341 340 1931 343 343 1932 322 322 1933 323 323 1934 322 322 1935 343 343 1936 342 342 1937 323 323 1938 344 344 1939 343 343 1940 344 344 1941 323 323 1942 324 324 1943 344 344 1944 325 325 1945 345 345 1946 325 325 1947 344 344 1948 324 324 1949 345 345 1950 326 326 1951 346 346 1952 326 326 1953 345 345 1954 325 325 1955 327 327 1956 346 346 1957 326 326 1958 346 346 1959 327 327 1960 347 347 1961 328 328 1962 347 347 1963 327 327 1964 347 347 1965 328 328 1966 348 348 1967 329 329 1968 348 348 1969 328 328 1970 348 348 1971 329 329 1972 349 349 1973 330 330 1974 349 349 1975 329 329 1976 349 349 1977 330 330 1978 350 350 1979 350 350 1980 331 331 1981 351 351 1982 331 331 1983 350 350 1984 330 330 1985 351 351 1986 332 332 1987 352 352 1988 332 332 1989 351 351 1990 331 331 1991 352 352 1992 332 332 1993 353 353 1994 332 332 1995 333 333 1996 353 353 1997 334 334 1998 354 354 1999 333 333 2000 333 333 2001 354 354 2002 353 353 2003 335 335 2004 354 354 2005 334 334 2006 354 354 2007 335 335 2008 355 355 2009 336 336 2010 355 355 2011 335 335 2012 355 355 2013 336 336 2014 356 356 2015 336 336 2016 357 357 2017 356 356 2018 357 357 2019 336 336 2020 337 337 2021 358 358 2022 357 357 2023 337 337 2024 337 337 2025 338 338 2026 358 358 2027 358 358 2028 338 338 2029 359 359 2030 338 338 2031 339 339 2032 359 359 2033 320 320 2034 340 341 2035 339 339 2036 359 359 2037 339 339 2038 340 341 2039 341 340 2040 360 360 2041 340 341 2042 360 360 2043 341 340 2044 361 361 2045 362 362 2046 341 340 2047 342 342 2048 341 340 2049 362 362 2050 361 361 2051 363 363 2052 342 342 2053 343 343 2054 342 342 2055 363 363 2056 362 362 2057 363 363 2058 344 344 2059 364 364 2060 344 344 2061 363 363 2062 343 343 2063 364 364 2064 344 344 2065 365 365 2066 344 344 2067 345 345 2068 365 365 2069 346 346 2070 365 365 2071 345 345 2072 365 365 2073 346 346 2074 366 366 2075 347 347 2076 366 366 2077 346 346 2078 366 366 2079 347 347 2080 367 367 2081 368 368 2082 347 347 2083 348 348 2084 347 347 2085 368 368 2086 367 367 2087 369 369 2088 348 348 2089 349 349 2090 348 348 2091 369 369 2092 368 368 2093 350 350 2094 369 369 2095 349 349 2096 369 369 2097 350 350 2098 370 370 2099 350 350 2100 351 351 2101 371 371 2102 350 350 2103 371 371 2104 370 370 2105 371 371 2106 351 351 2107 372 372 2108 351 351 2109 352 352 2110 372 372 2111 353 353 2112 373 373 2113 352 352 2114 372 372 2115 352 352 2116 373 373 2117 354 354 2118 374 374 2119 353 353 2120 353 353 2121 374 374 2122 373 373 2123 355 355 2124 374 374 2125 354 354 2126 374 374 2127 355 355 2128 375 375 2129 356 356 2130 375 375 2131 355 355 2132 375 375 2133 356 356 2134 376 376 2135 356 356 2136 377 377 2137 376 376 2138 377 377 2139 356 356 2140 357 357 2141 377 377 2142 358 358 2143 378 378 2144 358 358 2145 377 377 2146 357 357 2147 378 378 2148 358 358 2149 379 379 2150 358 358 2151 359 359 2152 379 379 2153 340 341 2154 379 379 2155 359 359 2156 379 379 2157 340 341 2158 360 360 2159 1 1 2160 0 3 2161 380 380 2162 2 4 2163 1 1 2164 380 380 2165 3 6 2166 2 4 2167 380 380 2168 4 9 2169 3 6 2170 380 380 2171 5 10 2172 4 9 2173 380 380 2174 6 12 2175 5 10 2176 380 380 2177 7 15 2178 6 12 2179 380 380 2180 8 17 2181 7 15 2182 380 380 2183 9 18 2184 8 17 2185 380 380 2186 10 21 2187 9 18 2188 380 380 2189 11 22 2190 10 21 2191 380 380 2192 12 24 2193 11 22 2194 380 380 2195 13 26 2196 12 24 2197 380 380 2198 14 28 2199 13 26 2200 380 380 2201 15 31 2202 14 28 2203 380 380 2204 16 33 2205 15 31 2206 380 380 2207 17 34 2208 16 33 2209 380 380 2210 18 36 2211 17 34 2212 380 380 2213 19 38 2214 18 36 2215 380 380 2216 0 3 2217 19 38 2218 380 380 2219 360 360 2220 361 361 2221 381 381 2222 361 361 2223 362 362 2224 381 381 2225 362 362 2226 363 363 2227 381 381 2228 363 363 2229 364 364 2230 381 381 2231 364 364 2232 365 365 2233 381 381 2234 365 365 2235 366 366 2236 381 381 2237 366 366 2238 367 367 2239 381 381 2240 367 367 2241 368 368 2242 381 381 2243 368 368 2244 369 369 2245 381 381 2246 369 369 2247 370 370 2248 381 381 2249 370 370 2250 371 371 2251 381 381 2252 371 371 2253 372 372 2254 381 381 2255 372 372 2256 373 373 2257 381 381 2258 373 373 2259 374 374 2260 381 381 2261 374 374 2262 375 375 2263 381 381 2264 375 375 2265 376 376 2266 381 381 2267 376 376 2268 377 377 2269 381 381 2270 377 377 2271 378 378 2272 381 381 2273 378 378 2274 379 379 2275 381 381 2276 379 379 2277 360 360 2278 381 381 2279</p>
        </triangles>
      </mesh>
    </geometry>
  </library_geometries>
  <library_controllers/>
  <library_visual_scenes>
    <visual_scene id="Scene" name="Scene">
      <node id="VIS_Alpha_Joints_003" name="VIS_Alpha_Joints_003" type="NODE">
        <instance_geometry url="#Alpha_JointsMesh_286-mesh" name="VIS_Alpha_Joints_003">
          <bind_material>
            <technique_common>
              <instance_material symbol="Alpha_Joints_MAT_007-material" target="#Alpha_Joints_MAT_007-material"/>
            </technique_common>
          </bind_material>
        </instance_geometry>
      </node>
    </visual_scene>
  </library_visual_scenes>
  <scene>
    <instance_visual_scene url="#Scene"/>
  </scene>
</COLLADA>