<?xml version="1.0" encoding="utf-8"?>
<COLLADA xmlns="http://www.collada.org/2005/11/COLLADASchema" version="1.4.1" xmlns:xsi="http://www.w3.org/2001/XMLSchema-instance">
  <asset>
    <contributor>
      <author>Blender User</author>
      <authoring_tool>Blender 2.79.0 commit date:2018-03-22, commit time:14:10, hash:f4dc9f9d68b</authoring_tool>
    </contributor>
    <created>2018-10-09T21:23:55</created>
    <modified>2018-10-09T21:23:55</modified>
    <unit name="meter" meter="1"/>
    <up_axis>Z_UP</up_axis>
  </asset>
  <library_images/>
  <library_effects>
    <effect id="Alpha_Joints_MAT_007-effect">
      <profile_COMMON>
        <technique sid="common">
          <phong>
            <emission>
              <color sid="emission">0 0 0 1</color>
            </emission>
            <ambient>
              <color sid="ambient">0 0 0 1</color>
            </ambient>
            <diffuse>
              <color sid="diffuse">0.122841 0.170315 0.177774 1</color>
            </diffuse>
            <specular>
              <color sid="specular">0.141024 0.141024 0.141024 1</color>
            </specular>
            <shininess>
              <float sid="shininess">2</float>
            </shininess>
            <transparent opaque="A_ONE">
              <color>1 1 1 1</color>
            </transparent>
            <index_of_refraction>
              <float sid="index_of_refraction">1</float>
            </index_of_refraction>
          </phong>
        </technique>
      </profile_COMMON>
    </effect>
  </library_effects>
  <library_materials>
    <material id="Alpha_Joints_MAT_007-material" name="Alpha_Joints_MAT_007">
      <instance_effect url="#Alpha_Joints_MAT_007-effect"/>
    </material>
  </library_materials>
  <library_geometries>
    <geometry id="Alpha_JointsMesh_296-mesh" name="Alpha_JointsMesh.296">
      <mesh>
        <source id="Alpha_JointsMesh_296-mesh-positions">
          <float_array id="Alpha_JointsMesh_296-mesh-positions-array" count="402">78.00985 139.2709 -3.766171 77.78604 139.3214 -3.951534 77.49617 139.3387 -4.003324 77.21792 139.3182 -3.907634 77.02584 139.2654 -3.690134 76.97139 139.1943 -3.40907 77.06917 139.1242 -3.139769 77.29296 139.0737 -2.954403 77.58283 139.0563 -2.902623 77.86109 139.0769 -2.998304 78.05319 139.1297 -3.215805 78.1076 139.2008 -3.496868 78.42292 139.548 -3.984806 78.00397 139.6425 -4.331795 77.4614 139.6749 -4.428724 76.94054 139.6365 -4.249611 76.58098 139.5375 -3.842466 76.47906 139.4046 -3.316363 76.66208 139.2733 -2.812278 77.08101 139.1787 -2.465289 77.6236 139.1463 -2.36836 78.14445 139.1847 -2.547463 78.50402 139.2837 -2.954619 78.60596 139.4167 -3.480713 78.79243 139.9477 -4.140059 78.19995 140.0814 -4.630792 77.43262 140.1272 -4.767878 76.69602 140.0729 -4.514579 76.18752 139.9329 -3.938771 76.04337 139.7449 -3.194748 76.30221 139.5592 -2.481873 76.89468 139.4255 -1.991151 77.66202 139.3797 -1.854064 78.39862 139.434 -2.107363 78.90713 139.574 -2.683161 79.05124 139.762 -3.427172 79.07854 140.4381 -4.212279 78.35291 140.6018 -4.8133 77.41312 140.658 -4.981196 76.51097 140.5914 -4.67097 75.8882 140.42 -3.965754 75.71164 140.1897 -3.054523 76.02867 139.9622 -2.181422 76.75429 139.7985 -1.580409 77.69407 139.7424 -1.412514 78.59625 139.8089 -1.722742 79.21902 139.9803 -2.427947 79.39555 140.2106 -3.339176 79.26177 140.9858 -4.196511 78.45243 141.1684 -4.866866 77.40422 141.231 -5.054127 76.39802 141.1568 -4.708118 75.70338 140.9656 -3.921556 75.50649 140.7087 -2.905209 75.86008 140.455 -1.931389 76.66941 140.2724 -1.261043 77.71759 140.2098 -1.073782 78.72383 140.284 -1.419792 79.41845 140.4752 -2.206353 79.61535 140.7321 -3.222701 79.32962 141.5535 -4.093849 78.49175 141.7425 -4.787847 77.40656 141.8073 -4.981704 76.36482 141.7305 -4.623495 75.6457 141.5325 -3.809184 75.44187 141.2666 -2.75698 75.80793 141.0039 -1.748822 76.6458 140.8149 -1.054824 77.73097 140.7501 -0.860966 78.7727 140.8269 -1.219174 79.49181 141.0248 -2.033484 79.69567 141.2908 -3.085681 79.27745 142.1023 -3.911289 78.46812 142.285 -4.581639 77.41992 142.3475 -4.76889 76.41371 142.2733 -4.42289 75.71908 142.0821 -3.636328 75.5222 141.8253 -2.619982 75.87578 141.5715 -1.646162 76.68511 141.3889 -0.975815 77.7333 141.3264 -0.788564 78.7395 141.4006 -1.134563 79.43415 141.5918 -1.921125 79.63105 141.8486 -2.937473 79.10887 142.5951 -3.661256 78.38322 142.7589 -4.262276 77.44345 142.815 -4.430173 76.5413 142.7484 -4.119947 75.91851 142.577 -3.41473 75.74197 142.3467 -2.5035 76.05899 142.1192 -1.630399 76.78462 141.9555 -1.029377 77.72441 141.8994 -0.861491 78.62656 141.966 -1.171718 79.24935 142.1374 -1.876925 79.42588 142.3677 -2.788163 78.83531 142.9982 -3.360799 78.24285 143.1319 -3.851534 77.4755 143.1777 -3.98862 76.73892 143.1234 -3.735321 76.2304 142.9834 -3.159513 76.08626 142.7954 -2.415489 76.34512 142.6096 -1.702616 76.93758 142.4759 -1.211892 77.70491 142.4301 -1.074805 78.44152 142.4845 -1.328105 78.95001 142.6244 -1.903902 79.09413 142.8125 -2.647924 78.47547 143.284 -3.03041 78.05651 143.3786 -3.377398 77.51391 143.411 -3.474335 76.99308 143.3725 -3.295223 76.63351 143.2736 -2.888077 76.53159 143.1406 -2.361984 76.71461 143.0093 -1.8579 77.13355 142.9147 -1.510901 77.67613 142.8824 -1.413972 78.19699 142.9208 -1.593075 78.55656 143.0197 -2.000231 78.65848 143.1527 -2.526334 78.06838 143.4332 -2.702912 77.84457 143.4837 -2.888275 77.5547 143.501 -2.940066 77.27647 143.4804 -2.844377 77.08437 143.4276 -2.626875 77.02993 143.3565 -2.345811 77.1277 143.2864 -2.07651 77.35148 143.2359 -1.891144 77.64135 143.2186 -1.839364 77.91962 143.2391 -1.935046 78.1117 143.292 -2.152556 78.16613 143.363 -2.433618 77.53833 139.1137 -3.474392 77.5992 143.4437 -2.368279</float_array>
          <technique_common>
            <accessor source="#Alpha_JointsMesh_296-mesh-positions-array" count="134" stride="3">
              <param name="X" type="float"/>
              <param name="Y" type="float"/>
              <param name="Z" type="float"/>
            </accessor>
          </technique_common>
        </source>
        <source id="Alpha_JointsMesh_296-mesh-normals">
          <float_array id="Alpha_JointsMesh_296-mesh-normals-array" count="402">0.219768 -0.7024886 -0.6769136 0.42974 -0.7498857 -0.502986 0.2346942 -0.8855205 -0.400964 0.1168283 -0.858908 -0.4986263 -0.05215686 -0.6862794 -0.7254657 -0.03579938 -0.8497852 -0.5259122 -0.1823528 -0.8606138 -0.4754908 -0.3132206 -0.705517 -0.6357191 -0.2834947 -0.8884502 -0.3609529 -0.4934354 -0.7551075 -0.4316644 -0.3121489 -0.9258566 -0.2129619 -0.5445231 -0.8217594 -0.167947 -0.2606613 -0.962808 -0.07110887 -0.4527828 -0.8875897 0.08469074 -0.1428287 -0.9893937 0.02645993 -0.2428097 -0.9349821 0.2585575 0.009765923 -0.9985088 0.05371278 0.0291149 -0.9512088 0.3071714 0.2902018 -0.931948 0.2173843 0.1563206 -0.9877008 0.003326594 0.4704226 -0.88234 0.01336735 0.2574906 -0.9598597 -0.111212 0.2861529 -0.9224587 -0.259204 0.5215046 -0.8157055 -0.2503148 0.3072361 -0.5013683 -0.8088486 0.5946019 -0.5662193 -0.5708277 -0.0649138 -0.479178 -0.875314 -0.4221801 -0.5055297 -0.7524651 -0.668801 -0.5733975 -0.4732025 -0.7387179 -0.6645867 -0.1123412 -0.6131696 -0.7546889 0.2333834 -0.3258212 -0.8195276 0.471397 0.04632866 -0.8417299 0.5379075 0.4035902 -0.8153901 0.415035 0.6502189 -0.7475152 0.1357814 0.7201363 -0.6563202 -0.2250502 0.374042 -0.2697583 -0.8873122 0.719502 -0.347711 -0.6011771 -0.07333701 -0.2430528 -0.9672368 -0.5028687 -0.2747359 -0.8195385 -0.7993332 -0.3563443 -0.4838237 -0.8833864 -0.4659715 -0.04999089 -0.7324621 -0.5742808 0.3656512 -0.3870102 -0.6522499 0.6517616 0.06036657 -0.6789561 0.7316929 0.4898923 -0.6472791 0.5839825 0.7863637 -0.5656777 0.2482755 0.8704156 -0.4560221 -0.1855279 0.4162245 -0.02563631 -0.9089004 0.7971246 -0.1116078 -0.5934106 -0.07705998 0.003784298 -0.9970194 -0.5506007 -0.03116029 -0.834187 -0.8775129 -0.1210994 -0.4640109 -0.9701746 -0.2419866 0.01428294 -0.8037629 -0.3614125 0.4725952 -0.4228753 -0.4473518 0.7880691 0.07040846 -0.4768061 0.8761842 0.5439468 -0.4418594 0.7133598 0.8708615 -0.3518848 0.3431869 0.9635269 -0.231001 -0.1351092 0.8254259 0.1287916 -0.5496226 0.4326662 0.2174165 -0.8749458 -0.07602232 0.2477821 -0.9658285 -0.5643651 0.2117742 -0.7978997 -0.9014611 0.1189923 -0.4161834 -0.997013 -0.00564593 0.07702898 -0.8254259 -0.1287916 0.5496226 -0.4326414 -0.2174193 0.8749574 0.07602232 -0.2477821 0.9658285 0.5643687 -0.2117451 0.7979048 0.9014555 -0.1189956 0.4161949 0.997013 0.00564593 -0.07702898 0.8037629 0.3614125 -0.4725952 0.4228753 0.4473518 -0.7880691 -0.07040846 0.4768061 -0.8761842 -0.5439394 0.441884 -0.7133502 -0.8708615 0.3518848 -0.3431869 -0.9635269 0.231001 0.1351092 -0.7971273 0.1115776 0.5934126 -0.4162245 0.02563631 0.9089004 0.07705998 -0.003784298 0.9970194 0.5506012 0.03112977 0.8341878 0.8775129 0.1210994 0.4640109 0.9701746 0.2419866 -0.01428294 0.3870102 0.6522195 -0.6517922 0.732454 0.5742745 -0.3656777 -0.06036645 0.6789245 -0.7317223 -0.4898931 0.6472498 -0.5840142 -0.786389 0.5656434 -0.2482739 -0.8704351 0.4559858 0.1855255 -0.719502 0.347711 0.6011771 -0.374042 0.2697583 0.8873122 0.07333701 0.2430528 0.9672368 0.5028687 0.2747359 0.8195385 0.7993332 0.3563443 0.4838237 0.8833738 0.4659953 0.04999017 0.3257905 0.8195576 -0.4713661 0.6131407 0.7547215 -0.2333536 -0.04632782 0.8417754 -0.5378365 -0.4035852 0.8154106 -0.4149994 -0.6501918 0.7475496 -0.1357211 -0.7201023 0.6563475 0.2250796 -0.594572 0.5662503 0.5708282 -0.3072343 0.5014263 0.8088132 0.06491458 0.4792144 0.8752941 0.4221485 0.5055589 0.7524633 0.6687724 0.5734297 0.4732039 0.7386741 0.6646357 0.1123392 0.2427809 0.934989 -0.2585594 0.4527474 0.8876107 -0.08465933 -0.02911514 0.9512177 -0.3071437 -0.2901777 0.9319686 -0.2173281 -0.4703629 0.8823729 -0.01330637 -0.521425 0.8157547 0.2503206 -0.4297466 0.7498973 0.5029632 -0.2197678 0.7025185 0.6768825 0.05215799 0.6862945 0.7254512 0.3131924 0.7055527 0.6356933 0.4934074 0.755142 0.4316362 0.5444852 0.8217787 0.1679753 0.1428285 0.9893929 -0.02649039 0.2606974 0.9627981 0.07111036 -0.009796738 0.998505 -0.05377525 -0.1563503 0.987696 -0.003357112 -0.2575485 0.9598478 0.1111801 -0.2862112 0.9224498 0.259171 -0.2347236 0.885486 0.4010232 -0.1168597 0.8588839 0.4986605 0.03579878 0.8497716 0.5259342 0.1823844 0.8605886 0.4755241 0.2835227 0.8884426 0.3609498 0.3121832 0.9258373 0.2129951 -0.01361149 -0.9687977 -0.2474792 0.01361149 0.9687977 0.2474792</float_array>
          <technique_common>
            <accessor source="#Alpha_JointsMesh_296-mesh-normals-array" count="134" stride="3">
              <param name="X" type="float"/>
              <param name="Y" type="float"/>
              <param name="Z" type="float"/>
            </accessor>
          </technique_common>
        </source>
        <source id="Alpha_JointsMesh_296-mesh-map-0">
          <float_array id="Alpha_JointsMesh_296-mesh-map-0-array" count="1584">0.08332997 0.16666 0 0.16666 0 0.08332997 0.08332997 0.16666 0 0.08332997 0.08332997 0.08332997 0.16666 0.16666 0.08332997 0.08332997 0.16666 0.08332997 0.08332997 0.08332997 0.16666 0.16666 0.08332997 0.16666 0.25 0.08332997 0.16666 0.16666 0.16666 0.08332997 0.16666 0.16666 0.25 0.08332997 0.25 0.16666 0.25 0.16666 0.33333 0.08332997 0.33333 0.16666 0.33333 0.08332997 0.25 0.16666 0.25 0.08332997 0.33333 0.16666 0.41666 0.08332997 0.41666 0.16666 0.41666 0.08332997 0.33333 0.16666 0.33333 0.08332997 0.5 0.08332997 0.41666 0.16666 0.41666 0.08332997 0.41666 0.16666 0.5 0.08332997 0.5 0.16666 0.58333 0.08332997 0.5 0.16666 0.5 0.08332997 0.5 0.16666 0.58333 0.08332997 0.58333 0.16666 0.58333 0.16666 0.66666 0.08332997 0.66666 0.16666 0.66666 0.08332997 0.58333 0.16666 0.58333 0.08332997 0.75 0.16666 0.66666 0.16666 0.66666 0.08332997 0.75 0.16666 0.66666 0.08332997 0.75 0.08332997 0.83333 0.16666 0.75 0.08332997 0.83333 0.08332997 0.75 0.08332997 0.83333 0.16666 0.75 0.16666 0.91666 0.08332997 0.91666 0.16666 0.83333 0.08332997 0.83333 0.08332997 0.91666 0.16666 0.83333 0.16666 0.91666 0.16666 0.91666 0.08332997 1 0.16666 1 0.16666 0.91666 0.08332997 1 0.08332997 0.08332997 0.25 0 0.16666 0.08332997 0.16666 0 0.16666 0.08332997 0.25 0 0.25 0.16666 0.25 0.08332997 0.16666 0.16666 0.16666 0.08332997 0.16666 0.16666 0.25 0.08332997 0.25 0.25 0.16666 0.16666 0.25 0.16666 0.16666 0.16666 0.25 0.25 0.16666 0.25 0.25 0.25 0.25 0.33333 0.16666 0.33333 0.25 0.33333 0.16666 0.25 0.25 0.25 0.16666 0.33333 0.25 0.41666 0.16666 0.41666 0.25 0.41666 0.16666 0.33333 0.25 0.33333 0.16666 0.5 0.16666 0.41666 0.25 0.41666 0.16666 0.41666 0.25 0.5 0.16666 0.5 0.25 0.58333 0.16666 0.5 0.25 0.5 0.16666 0.5 0.25 0.58333 0.16666 0.58333 0.25 0.58333 0.25 0.66666 0.16666 0.66666 0.25 0.66666 0.16666 0.58333 0.25 0.58333 0.16666 0.75 0.25 0.66666 0.25 0.66666 0.16666 0.75 0.25 0.66666 0.16666 0.75 0.16666 0.83333 0.25 0.75 0.16666 0.83333 0.16666 0.75 0.16666 0.83333 0.25 0.75 0.25 0.83333 0.16666 0.91666 0.16666 0.91666 0.25 0.83333 0.16666 0.91666 0.25 0.83333 0.25 1 0.25 0.91666 0.25 0.91666 0.16666 1 0.25 0.91666 0.16666 1 0.16666 0.08332997 0.33333 0 0.25 0.08332997 0.25 0 0.25 0.08332997 0.33333 0 0.33333 0.16666 0.33333 0.08332997 0.25 0.16666 0.25 0.08332997 0.25 0.16666 0.33333 0.08332997 0.33333 0.25 0.25 0.16666 0.33333 0.16666 0.25 0.16666 0.33333 0.25 0.25 0.25 0.33333 0.33333 0.25 0.25 0.33333 0.25 0.25 0.25 0.33333 0.33333 0.25 0.33333 0.33333 0.41666 0.33333 0.33333 0.25 0.41666 0.25 0.33333 0.25 0.41666 0.33333 0.33333 0.33333 0.5 0.25 0.41666 0.33333 0.41666 0.25 0.41666 0.33333 0.5 0.25 0.5 0.33333 0.58333 0.25 0.5 0.33333 0.5 0.25 0.5 0.33333 0.58333 0.25 0.58333 0.33333 0.58333 0.33333 0.66666 0.25 0.66666 0.33333 0.66666 0.25 0.58333 0.33333 0.58333 0.25 0.75 0.33333 0.66666 0.33333 0.66666 0.25 0.75 0.33333 0.66666 0.25 0.75 0.25 0.83333 0.33333 0.75 0.25 0.83333 0.25 0.75 0.25 0.83333 0.33333 0.75 0.33333 0.83333 0.25 0.91666 0.25 0.91666 0.33333 0.83333 0.25 0.91666 0.33333 0.83333 0.33333 1 0.25 0.91666 0.33333 0.91666 0.25 0.91666 0.33333 1 0.25 1 0.33333 0.08332997 0.41666 0 0.33333 0.08332997 0.33333 0 0.33333 0.08332997 0.41666 0 0.41666 0.16666 0.41666 0.08332997 0.33333 0.16666 0.33333 0.08332997 0.33333 0.16666 0.41666 0.08332997 0.41666 0.25 0.33333 0.16666 0.41666 0.16666 0.33333 0.16666 0.41666 0.25 0.33333 0.25 0.41666 0.33333 0.41666 0.25 0.33333 0.33333 0.33333 0.25 0.33333 0.33333 0.41666 0.25 0.41666 0.41666 0.41666 0.33333 0.33333 0.41666 0.33333 0.33333 0.33333 0.41666 0.41666 0.33333 0.41666 0.5 0.33333 0.41666 0.41666 0.41666 0.33333 0.41666 0.41666 0.5 0.33333 0.5 0.41666 0.58333 0.33333 0.5 0.41666 0.5 0.33333 0.5 0.41666 0.58333 0.33333 0.58333 0.41666 0.66666 0.41666 0.58333 0.41666 0.58333 0.33333 0.66666 0.41666 0.58333 0.33333 0.66666 0.33333 0.66666 0.41666 0.75 0.33333 0.75 0.41666 0.75 0.33333 0.66666 0.41666 0.66666 0.33333 0.75 0.33333 0.83333 0.33333 0.83333 0.41666 0.75 0.33333 0.83333 0.41666 0.75 0.41666 0.83333 0.33333 0.91666 0.33333 0.91666 0.41666 0.83333 0.33333 0.91666 0.41666 0.83333 0.41666 1 0.33333 0.91666 0.41666 0.91666 0.33333 0.91666 0.41666 1 0.33333 1 0.41666 0.08332997 0.41666 0 0.5 0 0.41666 0 0.5 0.08332997 0.41666 0.08332997 0.5 0.16666 0.41666 0.08332997 0.5 0.08332997 0.41666 0.08332997 0.5 0.16666 0.41666 0.16666 0.5 0.16666 0.41666 0.25 0.41666 0.25 0.5 0.16666 0.41666 0.25 0.5 0.16666 0.5 0.33333 0.5 0.25 0.41666 0.33333 0.41666 0.25 0.41666 0.33333 0.5 0.25 0.5 0.41666 0.5 0.33333 0.41666 0.41666 0.41666 0.33333 0.41666 0.41666 0.5 0.33333 0.5 0.5 0.41666 0.41666 0.5 0.41666 0.41666 0.41666 0.5 0.5 0.41666 0.5 0.5 0.58333 0.5 0.5 0.5 0.5 0.41666 0.58333 0.5 0.5 0.41666 0.58333 0.41666 0.66666 0.5 0.58333 0.5 0.58333 0.41666 0.66666 0.5 0.58333 0.41666 0.66666 0.41666 0.66666 0.5 0.75 0.41666 0.75 0.5 0.75 0.41666 0.66666 0.5 0.66666 0.41666 0.75 0.41666 0.83333 0.41666 0.83333 0.5 0.75 0.41666 0.83333 0.5 0.75 0.5 0.83333 0.41666 0.91666 0.41666 0.91666 0.5 0.83333 0.41666 0.91666 0.5 0.83333 0.5 1 0.41666 0.91666 0.5 0.91666 0.41666 0.91666 0.5 1 0.41666 1 0.5 0.08332997 0.5 0 0.58333 0 0.5 0 0.58333 0.08332997 0.5 0.08332997 0.58333 0.16666 0.5 0.08332997 0.58333 0.08332997 0.5 0.08332997 0.58333 0.16666 0.5 0.16666 0.58333 0.16666 0.5 0.25 0.5 0.25 0.58333 0.16666 0.5 0.25 0.58333 0.16666 0.58333 0.33333 0.5 0.25 0.58333 0.25 0.5 0.25 0.58333 0.33333 0.5 0.33333 0.58333 0.41666 0.5 0.33333 0.58333 0.33333 0.5 0.33333 0.58333 0.41666 0.5 0.41666 0.58333 0.5 0.58333 0.41666 0.5 0.5 0.5 0.41666 0.5 0.5 0.58333 0.41666 0.58333 0.58333 0.58333 0.5 0.58333 0.5 0.5 0.58333 0.58333 0.5 0.5 0.58333 0.5 0.66666 0.58333 0.58333 0.58333 0.58333 0.5 0.66666 0.58333 0.58333 0.5 0.66666 0.5 0.66666 0.58333 0.75 0.5 0.75 0.58333 0.75 0.5 0.66666 0.58333 0.66666 0.5 0.83333 0.5 0.75 0.58333 0.75 0.5 0.75 0.58333 0.83333 0.5 0.83333 0.58333 0.91666 0.5 0.83333 0.58333 0.83333 0.5 0.83333 0.58333 0.91666 0.5 0.91666 0.58333 0.91666 0.5 1 0.5 1 0.58333 0.91666 0.5 1 0.58333 0.91666 0.58333 0.08332997 0.58333 0.08332997 0.66666 0 0.58333 0 0.58333 0.08332997 0.66666 0 0.66666 0.16666 0.58333 0.08332997 0.66666 0.08332997 0.58333 0.08332997 0.66666 0.16666 0.58333 0.16666 0.66666 0.16666 0.58333 0.25 0.58333 0.25 0.66666 0.16666 0.58333 0.25 0.66666 0.16666 0.66666 0.33333 0.58333 0.25 0.66666 0.25 0.58333 0.25 0.66666 0.33333 0.58333 0.33333 0.66666 0.41666 0.58333 0.33333 0.66666 0.33333 0.58333 0.33333 0.66666 0.41666 0.58333 0.41666 0.66666 0.5 0.66666 0.41666 0.58333 0.5 0.58333 0.41666 0.58333 0.5 0.66666 0.41666 0.66666 0.5 0.66666 0.58333 0.58333 0.58333 0.66666 0.58333 0.58333 0.5 0.66666 0.5 0.58333 0.58333 0.66666 0.66666 0.58333 0.66666 0.66666 0.66666 0.58333 0.58333 0.66666 0.58333 0.58333 0.75 0.66666 0.66666 0.66666 0.66666 0.58333 0.66666 0.58333 0.75 0.58333 0.75 0.66666 0.83333 0.58333 0.75 0.66666 0.75 0.58333 0.75 0.66666 0.83333 0.58333 0.83333 0.66666 0.91666 0.58333 0.83333 0.66666 0.83333 0.58333 0.83333 0.66666 0.91666 0.58333 0.91666 0.66666 0.91666 0.58333 1 0.58333 1 0.66666 0.91666 0.58333 1 0.66666 0.91666 0.66666 0.08332997 0.75 0 0.66666 0.08332997 0.66666 0 0.66666 0.08332997 0.75 0 0.75 0.08332997 0.66666 0.16666 0.75 0.08332997 0.75 0.16666 0.75 0.08332997 0.66666 0.16666 0.66666 0.16666 0.75 0.25 0.66666 0.25 0.75 0.25 0.66666 0.16666 0.75 0.16666 0.66666 0.33333 0.66666 0.25 0.75 0.25 0.66666 0.25 0.75 0.33333 0.66666 0.33333 0.75 0.41666 0.66666 0.33333 0.75 0.33333 0.66666 0.33333 0.75 0.41666 0.66666 0.41666 0.75 0.5 0.75 0.41666 0.66666 0.5 0.66666 0.41666 0.66666 0.5 0.75 0.41666 0.75 0.5 0.75 0.58333 0.66666 0.58333 0.75 0.58333 0.66666 0.5 0.75 0.5 0.66666 0.58333 0.75 0.66666 0.66666 0.66666 0.75 0.66666 0.66666 0.58333 0.75 0.58333 0.66666 0.75 0.75 0.66666 0.75 0.66666 0.66666 0.66666 0.66666 0.75 0.66666 0.75 0.75 0.75 0.75 0.75 0.66666 0.83333 0.75 0.75 0.66666 0.83333 0.66666 0.83333 0.75 0.91666 0.66666 0.83333 0.75 0.83333 0.66666 0.83333 0.75 0.91666 0.66666 0.91666 0.75 0.91666 0.66666 1 0.66666 1 0.75 0.91666 0.66666 1 0.75 0.91666 0.75 0.08332997 0.83333 0 0.75 0.08332997 0.75 0 0.75 0.08332997 0.83333 0 0.83333 0.08332997 0.75 0.16666 0.83333 0.08332997 0.83333 0.16666 0.83333 0.08332997 0.75 0.16666 0.75 0.16666 0.83333 0.25 0.75 0.25 0.83333 0.25 0.75 0.16666 0.83333 0.16666 0.75 0.33333 0.75 0.25 0.83333 0.25 0.75 0.25 0.83333 0.33333 0.75 0.33333 0.83333 0.41666 0.75 0.33333 0.83333 0.33333 0.75 0.33333 0.83333 0.41666 0.75 0.41666 0.83333 0.41666 0.83333 0.5 0.75 0.5 0.83333 0.5 0.75 0.41666 0.83333 0.41666 0.75 0.5 0.83333 0.58333 0.75 0.58333 0.83333 0.58333 0.75 0.5 0.83333 0.5 0.75 0.58333 0.83333 0.66666 0.75 0.66666 0.83333 0.66666 0.75 0.58333 0.83333 0.58333 0.75 0.75 0.83333 0.66666 0.83333 0.66666 0.75 0.66666 0.75 0.75 0.75 0.75 0.83333 0.75 0.75 0.83333 0.75 0.83333 0.83333 0.75 0.75 0.83333 0.83333 0.75 0.83333 0.91666 0.83333 0.83333 0.83333 0.83333 0.75 0.83333 0.75 0.91666 0.75 0.91666 0.83333 1 0.75 1 0.83333 0.91666 0.75 0.91666 0.75 1 0.83333 0.91666 0.83333 0.08332997 0.91666 0 0.83333 0.08332997 0.83333 0 0.83333 0.08332997 0.91666 0 0.91666 0.08332997 0.83333 0.16666 0.91666 0.08332997 0.91666 0.16666 0.91666 0.08332997 0.83333 0.16666 0.83333 0.16666 0.91666 0.25 0.83333 0.25 0.91666 0.25 0.83333 0.16666 0.91666 0.16666 0.83333 0.33333 0.83333 0.25 0.91666 0.25 0.83333 0.25 0.91666 0.33333 0.83333 0.33333 0.91666 0.41666 0.83333 0.33333 0.91666 0.33333 0.83333 0.33333 0.91666 0.41666 0.83333 0.41666 0.91666 0.41666 0.91666 0.5 0.83333 0.5 0.91666 0.5 0.83333 0.41666 0.91666 0.41666 0.83333 0.5 0.91666 0.58333 0.83333 0.58333 0.91666 0.58333 0.83333 0.5 0.91666 0.5 0.83333 0.66666 0.83333 0.58333 0.91666 0.58333 0.83333 0.58333 0.91666 0.66666 0.83333 0.66666 0.91666 0.75 0.91666 0.66666 0.83333 0.75 0.83333 0.66666 0.83333 0.75 0.91666 0.66666 0.91666 0.75 0.83333 0.83333 0.83333 0.83333 0.91666 0.75 0.83333 0.83333 0.91666 0.75 0.91666 0.83333 0.91666 0.83333 0.83333 0.91666 0.91666 0.83333 0.83333 0.91666 0.83333 0.91666 0.91666 1 0.83333 1 0.91666 0.91666 0.83333 0.91666 0.83333 1 0.91666 0.91666 0.91666 0.08332997 0.08332997 0 0.08332997 0.04165995 0 0.16666 0.08332997 0.08332997 0.08332997 0.125 0 0.25 0.08332997 0.16666 0.08332997 0.20833 0 0.33333 0.08332997 0.25 0.08332997 0.29166 0 0.41666 0.08332997 0.33333 0.08332997 0.375 0 0.5 0.08332997 0.41666 0.08332997 0.45833 0 0.58333 0.08332997 0.5 0.08332997 0.54166 0 0.66666 0.08332997 0.58333 0.08332997 0.625 0 0.75 0.08332997 0.66666 0.08332997 0.70833 0 0.83333 0.08332997 0.75 0.08332997 0.79166 0 0.91666 0.08332997 0.83333 0.08332997 0.875 0 1 0.08332997 0.91666 0.08332997 0.95833 0 0 0.91666 0.08332997 0.91666 0.04165995 1 0.08332997 0.91666 0.16666 0.91666 0.125 1 0.16666 0.91666 0.25 0.91666 0.20833 1 0.25 0.91666 0.33333 0.91666 0.29166 1 0.33333 0.91666 0.41666 0.91666 0.375 1 0.41666 0.91666 0.5 0.91666 0.45833 1 0.5 0.91666 0.58333 0.91666 0.54166 1 0.58333 0.91666 0.66666 0.91666 0.625 1 0.66666 0.91666 0.75 0.91666 0.70833 1 0.75 0.91666 0.83333 0.91666 0.79166 1 0.83333 0.91666 0.91666 0.91666 0.875 1 0.91666 0.91666 1 0.91666 0.95833 1</float_array>
          <technique_common>
            <accessor source="#Alpha_JointsMesh_296-mesh-map-0-array" count="792" stride="2">
              <param name="S" type="float"/>
              <param name="T" type="float"/>
            </accessor>
          </technique_common>
        </source>
        <vertices id="Alpha_JointsMesh_296-mesh-vertices">
          <input semantic="POSITION" source="#Alpha_JointsMesh_296-mesh-positions"/>
        </vertices>
        <triangles material="Alpha_Joints_MAT_007-material" count="264">
          <input semantic="VERTEX" source="#Alpha_JointsMesh_296-mesh-vertices" offset="0"/>
          <input semantic="NORMAL" source="#Alpha_JointsMesh_296-mesh-normals" offset="1"/>
          <input semantic="TEXCOORD" source="#Alpha_JointsMesh_296-mesh-map-0" offset="2" set="0"/>
          <p>13 0 0 12 1 1 0 2 2 13 0 3 0 2 4 1 3 5 14 4 6 1 3 7 2 5 8 1 3 9 14 4 10 13 0 11 3 6 12 14 4 13 2 5 14 14 4 15 3 6 16 15 7 17 15 7 18 4 8 19 16 9 20 4 8 21 15 7 22 3 6 23 16 9 24 5 10 25 17 11 26 5 10 27 16 9 28 4 8 29 6 12 30 17 11 31 5 10 32 17 11 33 6 12 34 18 13 35 7 14 36 18 13 37 6 12 38 18 13 39 7 14 40 19 15 41 19 15 42 8 16 43 20 17 44 8 16 45 19 15 46 7 14 47 21 18 48 20 17 49 8 16 50 21 18 51 8 16 52 9 19 53 22 20 54 9 19 55 10 21 56 9 19 57 22 20 58 21 18 59 11 22 60 23 23 61 10 21 62 10 21 63 23 23 64 22 20 65 23 23 66 11 22 67 12 1 68 12 1 69 11 22 70 0 2 71 25 24 72 12 1 73 13 0 74 12 1 75 25 24 76 24 25 77 26 26 78 13 0 79 14 4 80 13 0 81 26 26 82 25 24 83 15 7 84 26 26 85 14 4 86 26 26 87 15 7 88 27 27 89 27 27 90 16 9 91 28 28 92 16 9 93 27 27 94 15 7 95 28 28 96 17 11 97 29 29 98 17 11 99 28 28 100 16 9 101 18 13 102 29 29 103 17 11 104 29 29 105 18 13 106 30 30 107 19 15 108 30 30 109 18 13 110 30 30 111 19 15 112 31 31 113 31 31 114 20 17 115 32 32 116 20 17 117 31 31 118 19 15 119 33 33 120 32 32 121 20 17 122 33 33 123 20 17 124 21 18 125 34 34 126 21 18 127 22 20 128 21 18 129 34 34 130 33 33 131 22 20 132 23 23 133 35 35 134 22 20 135 35 35 136 34 34 137 24 25 138 35 35 139 23 23 140 24 25 141 23 23 142 12 1 143 37 36 144 24 25 145 25 24 146 24 25 147 37 36 148 36 37 149 38 38 150 25 24 151 26 26 152 25 24 153 38 38 154 37 36 155 27 27 156 38 38 157 26 26 158 38 38 159 27 27 160 39 39 161 28 28 162 39 39 163 27 27 164 39 39 165 28 28 166 40 40 167 41 41 168 28 28 169 29 29 170 28 28 171 41 41 172 40 40 173 30 30 174 41 41 175 29 29 176 41 41 177 30 30 178 42 42 179 31 31 180 42 42 181 30 30 182 42 42 183 31 31 184 43 43 185 43 43 186 32 32 187 44 44 188 32 32 189 43 43 190 31 31 191 45 45 192 44 44 193 32 32 194 45 45 195 32 32 196 33 33 197 46 46 198 33 33 199 34 34 200 33 33 201 46 46 202 45 45 203 34 34 204 35 35 205 47 47 206 34 34 207 47 47 208 46 46 209 24 25 210 47 47 211 35 35 212 47 47 213 24 25 214 36 37 215 49 48 216 36 37 217 37 36 218 36 37 219 49 48 220 48 49 221 50 50 222 37 36 223 38 38 224 37 36 225 50 50 226 49 48 227 39 39 228 50 50 229 38 38 230 50 50 231 39 39 232 51 51 233 52 52 234 39 39 235 40 40 236 39 39 237 52 52 238 51 51 239 53 53 240 40 40 241 41 41 242 40 40 243 53 53 244 52 52 245 42 42 246 53 53 247 41 41 248 53 53 249 42 42 250 54 54 251 43 43 252 54 54 253 42 42 254 54 54 255 43 43 256 55 55 257 56 56 258 55 55 259 43 43 260 56 56 261 43 43 262 44 44 263 56 56 264 45 45 265 57 57 266 45 45 267 56 56 268 44 44 269 45 45 270 46 46 271 58 58 272 45 45 273 58 58 274 57 57 275 46 46 276 47 47 277 59 59 278 46 46 279 59 59 280 58 58 281 36 37 282 59 59 283 47 47 284 59 59 285 36 37 286 48 49 287 49 48 288 60 60 289 48 49 290 60 60 291 49 48 292 61 61 293 50 50 294 61 61 295 49 48 296 61 61 297 50 50 298 62 62 299 50 50 300 51 51 301 63 63 302 50 50 303 63 63 304 62 62 305 64 64 306 51 51 307 52 52 308 51 51 309 64 64 310 63 63 311 65 65 312 52 52 313 53 53 314 52 52 315 65 65 316 64 64 317 54 54 318 65 65 319 53 53 320 65 65 321 54 54 322 66 66 323 67 67 324 66 66 325 54 54 326 67 67 327 54 54 328 55 55 329 68 68 330 67 67 331 55 55 332 68 68 333 55 55 334 56 56 335 68 68 336 57 57 337 69 69 338 57 57 339 68 68 340 56 56 341 57 57 342 58 58 343 70 70 344 57 57 345 70 70 346 69 69 347 58 58 348 59 59 349 71 71 350 58 58 351 71 71 352 70 70 353 48 49 354 71 71 355 59 59 356 71 71 357 48 49 358 60 60 359 61 61 360 72 72 361 60 60 362 72 72 363 61 61 364 73 73 365 62 62 366 73 73 367 61 61 368 73 73 369 62 62 370 74 74 371 62 62 372 63 63 373 75 75 374 62 62 375 75 75 376 74 74 377 64 64 378 75 75 379 63 63 380 75 75 381 64 64 382 76 76 383 65 65 384 76 76 385 64 64 386 76 76 387 65 65 388 77 77 389 78 78 390 65 65 391 66 66 392 65 65 393 78 78 394 77 77 395 79 79 396 78 78 397 66 66 398 79 79 399 66 66 400 67 67 401 80 80 402 79 79 403 67 67 404 80 80 405 67 67 406 68 68 407 80 80 408 69 69 409 81 81 410 69 69 411 80 80 412 68 68 413 70 70 414 81 81 415 69 69 416 81 81 417 70 70 418 82 82 419 71 71 420 82 82 421 70 70 422 82 82 423 71 71 424 83 83 425 71 71 426 60 60 427 72 72 428 71 71 429 72 72 430 83 83 431 73 73 432 85 84 433 72 72 434 72 72 435 85 84 436 84 85 437 74 74 438 85 84 439 73 73 440 85 84 441 74 74 442 86 86 443 74 74 444 75 75 445 87 87 446 74 74 447 87 87 448 86 86 449 76 76 450 87 87 451 75 75 452 87 87 453 76 76 454 88 88 455 77 77 456 88 88 457 76 76 458 88 88 459 77 77 460 89 89 461 90 90 462 77 77 463 78 78 464 77 77 465 90 90 466 89 89 467 90 90 468 79 79 469 91 91 470 79 79 471 90 90 472 78 78 473 91 91 474 80 80 475 92 92 476 80 80 477 91 91 478 79 79 479 93 93 480 92 92 481 80 80 482 80 80 483 81 81 484 93 93 485 82 82 486 93 93 487 81 81 488 93 93 489 82 82 490 94 94 491 83 83 492 94 94 493 82 82 494 94 94 495 83 83 496 95 95 497 83 83 498 72 72 499 84 85 500 83 83 501 84 85 502 95 95 503 97 96 504 84 85 505 85 84 506 84 85 507 97 96 508 96 97 509 85 84 510 98 98 511 97 96 512 98 98 513 85 84 514 86 86 515 98 98 516 87 87 517 99 99 518 87 87 519 98 98 520 86 86 521 88 88 522 99 99 523 87 87 524 99 99 525 88 88 526 100 100 527 89 89 528 100 100 529 88 88 530 100 100 531 89 89 532 101 101 533 102 102 534 89 89 535 90 90 536 89 89 537 102 102 538 101 101 539 102 102 540 91 91 541 103 103 542 91 91 543 102 102 544 90 90 545 103 103 546 92 92 547 104 104 548 92 92 549 103 103 550 91 91 551 105 105 552 104 104 553 92 92 554 92 92 555 93 93 556 105 105 557 105 105 558 93 93 559 106 106 560 93 93 561 94 94 562 106 106 563 95 95 564 106 106 565 94 94 566 106 106 567 95 95 568 107 107 569 95 95 570 84 85 571 96 97 572 95 95 573 96 97 574 107 107 575 109 108 576 96 97 577 97 96 578 96 97 579 109 108 580 108 109 581 97 96 582 110 110 583 109 108 584 110 110 585 97 96 586 98 98 587 110 110 588 99 99 589 111 111 590 99 99 591 110 110 592 98 98 593 100 100 594 111 111 595 99 99 596 111 111 597 100 100 598 112 112 599 101 101 600 112 112 601 100 100 602 112 112 603 101 101 604 113 113 605 113 113 606 102 102 607 114 114 608 102 102 609 113 113 610 101 101 611 114 114 612 103 103 613 115 115 614 103 103 615 114 114 616 102 102 617 115 115 618 104 104 619 116 116 620 104 104 621 115 115 622 103 103 623 117 117 624 116 116 625 104 104 626 104 104 627 105 105 628 117 117 629 105 105 630 106 106 631 118 118 632 105 105 633 118 118 634 117 117 635 119 119 636 118 118 637 106 106 638 106 106 639 107 107 640 119 119 641 96 97 642 108 109 643 107 107 644 107 107 645 108 109 646 119 119 647 121 120 648 108 109 649 109 108 650 108 109 651 121 120 652 120 121 653 109 108 654 122 122 655 121 120 656 122 122 657 109 108 658 110 110 659 122 122 660 111 111 661 123 123 662 111 111 663 122 122 664 110 110 665 112 112 666 123 123 667 111 111 668 123 123 669 112 112 670 124 124 671 113 113 672 124 124 673 112 112 674 124 124 675 113 113 676 125 125 677 125 125 678 114 114 679 126 126 680 114 114 681 125 125 682 113 113 683 126 126 684 115 115 685 127 127 686 115 115 687 126 126 688 114 114 689 116 116 690 127 127 691 115 115 692 127 127 693 116 116 694 128 128 695 129 129 696 116 116 697 117 117 698 116 116 699 129 129 700 128 128 701 117 117 702 118 118 703 130 130 704 117 117 705 130 130 706 129 129 707 130 130 708 118 118 709 131 131 710 118 118 711 119 119 712 131 131 713 108 109 714 120 121 715 119 119 716 119 119 717 120 121 718 131 131 719 1 3 720 0 2 721 132 132 722 2 5 723 1 3 724 132 132 725 3 6 726 2 5 727 132 132 728 4 8 729 3 6 730 132 132 731 5 10 732 4 8 733 132 132 734 6 12 735 5 10 736 132 132 737 7 14 738 6 12 739 132 132 740 8 16 741 7 14 742 132 132 743 9 19 744 8 16 745 132 132 746 10 21 747 9 19 748 132 132 749 11 22 750 10 21 751 132 132 752 0 2 753 11 22 754 132 132 755 120 121 756 121 120 757 133 133 758 121 120 759 122 122 760 133 133 761 122 122 762 123 123 763 133 133 764 123 123 765 124 124 766 133 133 767 124 124 768 125 125 769 133 133 770 125 125 771 126 126 772 133 133 773 126 126 774 127 127 775 133 133 776 127 127 777 128 128 778 133 133 779 128 128 780 129 129 781 133 133 782 129 129 783 130 130 784 133 133 785 130 130 786 131 131 787 133 133 788 131 131 789 120 121 790 133 133 791</p>
        </triangles>
      </mesh>
    </geometry>
  </library_geometries>
  <library_controllers/>
  <library_visual_scenes>
    <visual_scene id="Scene" name="Scene">
      <node id="VIS_Alpha_Joints_013" name="VIS_Alpha_Joints_013" type="NODE">
        <instance_geometry url="#Alpha_JointsMesh_296-mesh" name="VIS_Alpha_Joints_013">
          <bind_material>
            <technique_common>
              <instance_material symbol="Alpha_Joints_MAT_007-material" target="#Alpha_Joints_MAT_007-material"/>
            </technique_common>
          </bind_material>
        </instance_geometry>
      </node>
    </visual_scene>
  </library_visual_scenes>
  <scene>
    <instance_visual_scene url="#Scene"/>
  </scene>
</COLLADA>