<?xml version="1.0" encoding="utf-8"?>
<COLLADA xmlns="http://www.collada.org/2005/11/COLLADASchema" version="1.4.1" xmlns:xsi="http://www.w3.org/2001/XMLSchema-instance">
  <asset>
    <contributor>
      <author>Blender User</author>
      <authoring_tool>Blender 2.79.0 commit date:2018-03-22, commit time:14:10, hash:f4dc9f9d68b</authoring_tool>
    </contributor>
    <created>2018-10-09T21:23:56</created>
    <modified>2018-10-09T21:23:56</modified>
    <unit name="meter" meter="1"/>
    <up_axis>Z_UP</up_axis>
  </asset>
  <library_images/>
  <library_effects>
    <effect id="Alpha_Body_MAT_007-effect">
      <profile_COMMON>
        <technique sid="common">
          <phong>
            <emission>
              <color sid="emission">0 0 0 1</color>
            </emission>
            <ambient>
              <color sid="ambient">0 0 0 1</color>
            </ambient>
            <diffuse>
              <color sid="diffuse">0.077256 0.337296 0.4176 1</color>
            </diffuse>
            <specular>
              <color sid="specular">0.239315 0.239315 0.239315 1</color>
            </specular>
            <shininess>
              <float sid="shininess">3</float>
            </shininess>
            <transparent opaque="A_ONE">
              <color>1 1 1 1</color>
            </transparent>
            <index_of_refraction>
              <float sid="index_of_refraction">1</float>
            </index_of_refraction>
          </phong>
        </technique>
      </profile_COMMON>
    </effect>
  </library_effects>
  <library_materials>
    <material id="Alpha_Body_MAT_007-material" name="Alpha_Body_MAT_007">
      <instance_effect url="#Alpha_Body_MAT_007-effect"/>
    </material>
  </library_materials>
  <library_geometries>
    <geometry id="Alpha_SurfaceMesh_324-mesh" name="Alpha_SurfaceMesh.324">
      <mesh>
        <source id="Alpha_SurfaceMesh_324-mesh-positions">
          <float_array id="Alpha_SurfaceMesh_324-mesh-positions-array" count="516">-76.7603 139.3096 -1.709181 -79.71133 138.2216 -0.661012 -77.91208 142.1024 -0.506719 -80.21906 140.8525 0.01276898 -78.60237 142.234 -2.523058 -81.02563 141.0501 -1.761972 -77.8162 139.6683 -3.997956 -80.42633 138.956 -2.535595 -76.85193 140.8036 -0.718541 -80.17354 139.5032 0.1562359 -78.13183 141.2544 -3.474453 -81.10002 139.9943 -2.142727 -77.13946 141.3425 -0.460956 -76.75265 140.256 -1.125927 -80.01525 138.8834 -0.06556695 -80.26899 140.0926 0.246972 -78.27025 141.7254 -3.08006 -81.20118 140.4424 -2.001913 -80.91078 139.5571 -2.302893 -78.01148 140.7378 -3.784359 -77.52884 141.8451 -0.383472 -77.55049 141.1144 -0.189739 -78.27465 142.0516 -0.394791 -77.93702 141.6151 -0.208829 -77.26201 140.5853 -0.376528 -78.01058 140.3728 -0.2452329 -78.24966 140.8911 -0.115917 -78.76461 141.7544 -0.394567 -78.54226 141.3554 -0.189124 -77.12819 139.0882 -1.51193 -77.16581 140.064 -0.746989 -76.69302 139.7122 -1.47998 -77.15613 139.5554 -1.142852 -77.90724 138.9591 -1.30015 -77.90181 139.8478 -0.530599 -77.88571 139.3734 -0.887729 -79.8534 138.4474 -0.38595 -79.4673 139.0814 -0.004970967 -79.28488 138.3395 -0.777025 -79.32533 138.6408 -0.376113 -79.61818 139.7059 0.209083 -78.87063 140.0749 -0.076783 -78.73907 139.5233 -0.288648 -78.66779 138.6977 -1.046124 -78.68474 139.0687 -0.634182 -79.86882 141.0448 -0.072896 -79.73348 140.2866 0.300075 -80.28701 140.5586 0.171428 -79.83902 140.7274 0.205184 -79.31414 141.3751 -0.289184 -79.03993 140.5963 0.005504965 -79.1929 141.0229 -0.06829398 -77.98613 142.2611 -0.869053 -78.47293 142.2861 -0.797203 -78.94151 142.0258 -0.750087 -79.09908 142.2097 -1.156167 -78.11854 142.3449 -1.365893 -78.62132 142.3974 -1.257646 -80.38938 140.9674 -0.248032 -79.95632 141.2501 -0.443607 -80.58554 141.0445 -0.636779 -80.0969 141.4092 -0.856643 -79.5753 141.8106 -1.048609 -79.43531 141.629 -0.646358 -80.69525 141.2928 -1.951521 -80.98348 141.0291 -1.484099 -80.56736 141.3873 -1.648972 -80.08073 141.7716 -2.219448 -79.9429 141.8856 -1.861141 -79.75737 141.9236 -1.44927 -80.79569 141.0785 -1.069149 -80.32151 141.4554 -1.257547 -78.44756 142.3031 -2.264892 -78.9557 142.2296 -2.482258 -78.87567 142.3493 -2.120658 -78.28511 142.3521 -1.859527 -78.75608 142.4111 -1.703018 -79.24638 142.2698 -1.574662 -79.48034 142.1141 -2.394614 -79.37808 142.223 -2.000893 -78.76866 141.6673 -3.182312 -78.45616 142.057 -2.762465 -78.90748 142.0145 -2.821984 -79.50352 141.5731 -3.075965 -79.51444 141.8985 -2.760912 -79.4653 141.0933 -3.390978 -78.67627 141.1798 -3.574522 -81.18876 140.8146 -1.865449 -80.80477 140.7678 -2.409957 -80.79522 141.0746 -2.200059 -80.69767 140.3502 -2.601768 -80.15209 140.8109 -3.043208 -80.19451 141.2533 -2.800183 -80.18341 141.5781 -2.538837 -80.07575 139.0623 -2.833002 -80.51643 139.9008 -2.794687 -80.67528 139.1969 -2.453827 -80.30274 139.4391 -2.897687 -79.56461 139.2374 -3.239991 -80.01206 140.2637 -3.276471 -79.81024 139.7248 -3.387005 -77.87755 140.1562 -3.994452 -78.62604 140.6478 -3.887916 -78.30751 139.5231 -4.002607 -78.48593 140.0862 -4.069544 -79.39553 140.5462 -3.664696 -78.98994 139.3974 -3.688037 -79.25948 139.9763 -3.797673 -77.46792 139.5283 -3.707113 -77.96183 139.1797 -3.696261 -78.651 139.0386 -3.306454 -78.34457 138.7695 -2.820845 -77.14849 139.393 -3.221335 -77.65604 138.9829 -3.126165 -80.41921 138.7008 -2.264574 -79.90616 138.7165 -2.563382 -80.32603 138.4144 -1.857591 -79.72872 138.4151 -2.16004 -79.05373 138.5837 -2.479102 -79.30472 138.8627 -2.919357 -79.90759 138.1488 -0.955009 -79.37654 138.1912 -1.205037 -78.73241 138.4931 -1.512818 -78.85639 138.4539 -1.993221 -80.13665 138.2096 -1.394961 -79.53839 138.2201 -1.684694 -76.7638 139.2599 -2.130559 -77.22956 138.863 -2.015046 -76.89984 139.2888 -2.679545 -77.40139 138.8396 -2.572043 -78.12035 138.6358 -2.298663 -77.98763 138.7042 -1.790244 -81.12425 139.3314 -1.818573 -80.85749 138.9204 -2.035109 -81.3096 139.7861 -1.657237 -81.27918 139.6433 -1.065009 -81.13481 139.1038 -1.271326 -80.85076 138.6284 -1.562501 -81.38032 140.2559 -1.536345 -81.27905 140.6882 -1.468627 -81.29374 140.1483 -0.971529 -81.14851 140.6625 -0.968128 -80.6967 140.0469 -0.001817941 -80.63748 140.5682 -0.07753396 -80.62401 139.4597 -0.100663 -80.99879 139.5416 -0.524768 -81.04024 140.0982 -0.440578 -80.92182 140.5975 -0.484134 -80.47647 138.8269 -0.347601 -80.25804 138.3626 -0.654234 -80.86949 138.9256 -0.775879 -80.60645 138.4239 -1.082961 -76.65055 140.4128 -1.677535 -76.65956 139.7973 -1.980965 -76.71118 141.0113 -1.237101 -76.98613 141.1331 -1.914289 -76.87288 140.5478 -2.301443 -76.80093 139.8922 -2.546106 -77.00683 141.5864 -0.933782 -77.47066 142.0053 -0.858855 -77.2247 141.6918 -1.595523 -77.61995 142.1041 -1.456691 -77.89501 141.7608 -2.788353 -78.1226 142.1 -2.502295 -77.70583 141.2783 -3.158843 -77.35336 141.2467 -2.581529 -77.5505 141.7369 -2.259111 -77.86063 142.1173 -2.043998 -77.49678 140.7276 -3.431332 -77.38609 140.0971 -3.640863 -77.15361 140.6445 -2.889169 -77.0512 140.0063 -3.106393</float_array>
          <technique_common>
            <accessor source="#Alpha_SurfaceMesh_324-mesh-positions-array" count="172" stride="3">
              <param name="X" type="float"/>
              <param name="Y" type="float"/>
              <param name="Z" type="float"/>
            </accessor>
          </technique_common>
        </source>
        <source id="Alpha_SurfaceMesh_324-mesh-normals">
          <float_array id="Alpha_SurfaceMesh_324-mesh-normals-array" count="516">0.08133357 0.2961275 0.9516793 0.2184862 0.7942902 0.5668923 -0.09601306 0.6553673 0.7491831 0.4485689 0.5705231 0.6879604 0.3267954 0.02230924 0.9448318 0.701059 0.2283759 0.6755449 0.1176501 0.008148491 0.9930218 -0.05530017 0.2868774 0.9563698 -0.2639008 0.5443736 0.7962499 0.493072 -0.251999 0.8326923 0.8391882 -0.01785373 0.5435481 0.2669228 -0.2957027 0.9172307 0.3483117 -0.1710581 0.9216388 0.2383235 0.09204554 0.9668142 0.0677821 0.3958587 0.9158065 -0.1984978 0.6267759 0.7534922 0.5233114 -0.4983468 0.6912277 0.8201925 -0.5000199 0.2779651 0.882945 -0.267621 0.3857296 0.4795741 -0.7179268 0.5045691 0.3991867 -0.5891362 0.7025443 0.3492973 -0.7744664 0.5274404 0.3764187 -0.4579344 0.8053602 0.5498039 -0.4511963 0.7029494 0.8835636 -0.1992908 0.4237907 0.5139188 -0.5502371 0.6581237 0.5033243 -0.7434502 0.4403935 0.4512286 -0.3644621 0.8145921 0.4183872 -0.5902712 0.6903131 -0.04004108 -0.6880536 0.7245544 0.09638059 -0.8846081 0.4562667 0.4711305 -0.7910061 0.3903147 -0.1590039 -0.5067066 0.847329 0.2953373 -0.4085341 0.8636411 -0.2369496 -0.2879468 0.9278694 0.2074419 -0.1933113 0.9589571 -0.3897293 0.3127601 0.8661941 -0.007141411 0.4221377 0.9065036 -0.3926008 0.6181693 0.6809782 -0.1738073 0.7291059 0.6619635 0.125584 0.05304127 0.9906642 -0.3093096 -0.02920663 0.9505128 0.2588059 0.9395142 0.2243493 -0.1571119 0.8954889 0.416432 -0.3733428 0.7377739 0.5624099 0.2733311 0.9618777 0.009033679 -0.1113338 0.9766122 0.1839388 -0.4052311 0.7285493 0.5522716 -0.3940603 0.8417423 0.3690347 -0.463253 0.7649061 0.447566 -0.09994858 0.9949389 -0.01034581 -0.3948022 0.9057623 0.1540327 0.2556304 0.9566609 -0.1394736 -0.3465166 0.802445 0.4858068 -0.4702435 0.7211133 0.5087895 -0.4401513 0.7971067 0.4133858 -0.5490676 0.7377972 0.3926576 -0.5320392 0.798532 0.2815691 -0.6212133 0.7316614 0.2806523 -0.5050964 0.8156924 0.2819994 -0.5919244 0.7977169 0.1152108 -0.7395456 0.6719452 -0.03952258 -0.6941627 0.6984355 0.1741434 -0.646285 0.7448636 -0.1658135 -0.5927107 0.7896502 -0.158577 -0.5548032 0.8298701 0.05923718 -0.3964496 0.8713955 -0.2889596 -0.3967148 0.9159629 -0.06024426 -0.1356249 0.9738808 -0.1821048 0.1930967 0.9443641 -0.2662519 0.07416182 0.8957405 -0.4383482 -0.1661472 0.9017549 -0.3990404 -0.1095954 0.7620104 -0.6382234 0.1749655 0.7820802 -0.5981116 -0.3669946 0.7325547 -0.5733051 -0.3519133 0.5701235 -0.7423721 -0.06744718 0.6501787 -0.7567818 0.2449171 0.6947712 -0.676246 -0.618718 0.6459107 -0.4471995 -0.6077612 0.4327635 -0.6658394 -0.3887181 0.4392573 -0.8099082 -0.08231097 0.5570717 -0.8263754 -0.6217652 0.2537966 -0.7409422 0.267562 0.5986344 -0.7550149 -0.7091186 0.5420248 -0.4509548 -0.8719566 0.4069395 -0.2721984 -0.7313315 0.2629229 -0.6293058 -0.8788666 0.09341979 -0.4678316 -0.725738 0.06711089 -0.6846901 -0.8353114 -0.07819026 -0.5441885 -0.6082139 -0.2904801 -0.7387133 -0.4111599 -0.5631781 -0.7167832 -0.5120552 -0.5504792 -0.6593726 -0.7043806 -0.324418 -0.6313484 -0.5380297 -0.2637807 -0.8005897 -0.3657699 -0.5849878 -0.7238796 -0.7042327 -0.07608455 -0.7058807 -0.629343 0.05072343 -0.7754705 -0.7898826 -0.1974325 -0.5806084 -0.4224189 -0.1155158 -0.8990097 -0.3066852 -0.559596 -0.7699329 -0.433561 0.2299039 -0.8713032 -0.09918761 -0.4334346 -0.89571 0.3362247 0.2055741 -0.9190714 0.3383975 -0.2150691 -0.9160964 -0.1240592 0.05417096 -0.9907951 0.296957 0.4600545 -0.8367596 -0.1160625 0.3702222 -0.9216642 0.6446934 -0.3630292 -0.6727408 0.1605305 -0.7679828 -0.6200261 -0.1043769 -0.8324211 -0.5442249 0.7491255 -0.4151839 -0.5161721 0.3263087 -0.847359 -0.4189338 -0.1488752 -0.8045002 -0.5749918 0.0228281 -0.9125157 -0.4084042 0.06891185 -0.9233214 -0.3777945 0.1930934 -0.9722118 -0.1323606 0.4087817 -0.879366 -0.2441581 0.825846 -0.4493932 -0.3406233 -0.2345092 -0.7693883 -0.5941777 -0.4481731 -0.7271788 -0.519954 -0.09332686 -0.8889247 -0.448445 -0.3679701 -0.8545988 -0.3664135 0.07852602 -0.9688334 -0.2349371 -0.2591058 -0.9555784 -0.1404786 0.2043577 -0.965755 -0.1598604 0.2914932 -0.9558144 0.0380885 -0.1275395 -0.9845176 0.1202455 0.3856707 -0.911638 0.1420361 0.2892274 -0.9314974 0.2205905 0.4603793 -0.8841359 0.07971566 0.8640738 -0.4908921 -0.1113624 -0.7428756 -0.5004591 -0.4446083 -0.8892105 -0.3108086 -0.3357124 -0.7193958 -0.6763638 -0.1581193 -0.9048397 -0.4183907 0.07883161 -0.956124 -0.1755137 -0.2345676 -0.9502481 -0.2080193 0.2318549 -0.7732136 -0.4840101 0.4097254 -0.8181325 -0.2523646 0.5166928 -0.6087074 -0.7759532 0.1654451 -0.9084219 0.4114847 0.07382488 -0.8261238 0.4577572 0.3286 -0.9935194 0.07150626 -0.08835279 -0.947034 0.07840317 0.3114155 -0.7616661 0.4352028 0.480066 -0.8477345 0.03634846 0.5291741 -0.6343137 0.386222 0.6696856 -0.6554502 -0.02224808 0.7549106 -0.6091631 -0.3078776 0.7308431 -0.4248865 -0.777626 0.4634321 -0.5535913 -0.5235297 0.6476522 0.9921236 -0.03799659 -0.1193612 0.9885641 0.1242114 -0.08551359 0.9458097 0.06787389 -0.3175486 0.8997905 0.297865 -0.3188316 0.9608542 0.2755848 0.02850455 0.8414407 0.4407866 -0.3125455 0.7696689 0.5065306 -0.3886342 0.8364072 0.3712652 -0.4032187 0.8828365 0.1181103 -0.4545873 0.5796163 0.8010619 0.1494819 0.5665673 0.8172253 -0.1055675 0.7490537 0.6240791 -0.22236 0.8205727 0.5511482 0.1513147 0.5274334 0.808424 -0.2612752 0.6945477 0.6264907 -0.3537133 0.423115 0.8062197 -0.4135015 0.5421822 0.6754616 -0.4997903 0.603949 0.573277 -0.553714 0.740978 0.1607146 -0.6520143 0.6768967 0.4315182 -0.5963246</float_array>
          <technique_common>
            <accessor source="#Alpha_SurfaceMesh_324-mesh-normals-array" count="172" stride="3">
              <param name="X" type="float"/>
              <param name="Y" type="float"/>
              <param name="Z" type="float"/>
            </accessor>
          </technique_common>
        </source>
        <source id="Alpha_SurfaceMesh_324-mesh-map-0">
          <float_array id="Alpha_SurfaceMesh_324-mesh-map-0-array" count="2040">0.05664598 0.01271098 0.05500495 0.01750296 0.05823498 0.01808899 0.05664598 0.01271098 0.052818 0.01464897 0.05500495 0.01750296 0.05222296 0.008060991 0.052818 0.01464897 0.05664598 0.01271098 0.052818 0.01464897 0.05222296 0.008060991 0.04918098 0.01194399 0.315261 0.03070998 0.311573 0.03517997 0.316392 0.03456997 0.311573 0.03517997 0.315261 0.03070998 0.309904 0.03082197 0.316392 0.03456997 0.31307 0.03923195 0.3172 0.03818899 0.31307 0.03923195 0.316392 0.03456997 0.311573 0.03517997 0.04651099 0.005952 0.04463398 0.01035594 0.05222296 0.008060991 0.05222296 0.008060991 0.04463398 0.01035594 0.04918098 0.01194399 0.314567 0.02658694 0.309904 0.03082197 0.315261 0.03070998 0.309904 0.03082197 0.314567 0.02658694 0.308929 0.026317 0.320849 0.02644395 0.315261 0.03070998 0.321197 0.03010296 0.315261 0.03070998 0.320849 0.02644395 0.314567 0.02658694 0.321197 0.03010296 0.316392 0.03456997 0.321535 0.03320896 0.316392 0.03456997 0.321197 0.03010296 0.315261 0.03070998 0.321796 0.03627896 0.316392 0.03456997 0.3172 0.03818899 0.316392 0.03456997 0.321796 0.03627896 0.321535 0.03320896 0.03518199 0.005023956 0.03105998 0.009501993 0.03465497 0.009902 0.03518199 0.005023956 0.02985799 0.005765974 0.03105998 0.009501993 0.315401 0.01824694 0.310531 0.012923 0.309917 0.01710098 0.310531 0.012923 0.315401 0.01824694 0.316199 0.01422196 0.314745 0.02232396 0.309917 0.01710098 0.309126 0.02165597 0.309917 0.01710098 0.314745 0.02232396 0.315401 0.01824694 0.03968298 0.01003199 0.03518199 0.005023956 0.03465497 0.009902 0.03518199 0.005023956 0.03968298 0.01003199 0.04088896 0.005273997 0.315401 0.01824694 0.321365 0.01889896 0.321906 0.015302 0.315401 0.01824694 0.321906 0.015302 0.316199 0.01422196 0.320975 0.02255594 0.315401 0.01824694 0.314745 0.02232396 0.315401 0.01824694 0.320975 0.02255594 0.321365 0.01889896 0.309126 0.02165597 0.314567 0.02658694 0.314745 0.02232396 0.314567 0.02658694 0.309126 0.02165597 0.308929 0.026317 0.320849 0.02644395 0.314745 0.02232396 0.314567 0.02658694 0.314745 0.02232396 0.320849 0.02644395 0.320975 0.02255594 0.04088896 0.005273997 0.04463398 0.01035594 0.04651099 0.005952 0.04463398 0.01035594 0.04088896 0.005273997 0.03968298 0.01003199 0.326173 0.01901698 0.329147 0.018902 0.328803 0.01692998 0.326173 0.01901698 0.328803 0.01692998 0.326442 0.01627397 0.329325 0.02183198 0.326173 0.01901698 0.32626 0.02218496 0.326173 0.01901698 0.329325 0.02183198 0.329147 0.018902 0.32626 0.02218496 0.321365 0.01889896 0.320975 0.02255594 0.321365 0.01889896 0.32626 0.02218496 0.326173 0.01901698 0.321906 0.015302 0.326173 0.01901698 0.326442 0.01627397 0.326173 0.01901698 0.321906 0.015302 0.321365 0.01889896 0.32626 0.02218496 0.329363 0.02543097 0.329325 0.02183198 0.329363 0.02543097 0.32626 0.02218496 0.326158 0.02582997 0.326158 0.02582997 0.320975 0.02255594 0.320849 0.02644395 0.320975 0.02255594 0.326158 0.02582997 0.32626 0.02218496 0.328735 0.031219 0.326109 0.031672 0.328213 0.03310096 0.325967 0.03419494 0.328213 0.03310096 0.326109 0.031672 0.325967 0.03419494 0.321535 0.03320896 0.321796 0.03627896 0.321535 0.03320896 0.325967 0.03419494 0.326109 0.031672 0.326109 0.031672 0.321197 0.03010296 0.321535 0.03320896 0.321197 0.03010296 0.326109 0.031672 0.326002 0.029091 0.329061 0.02865999 0.326002 0.029091 0.328735 0.031219 0.328735 0.031219 0.326002 0.029091 0.326109 0.031672 0.326158 0.02582997 0.320849 0.02644395 0.326002 0.029091 0.326002 0.029091 0.320849 0.02644395 0.321197 0.03010296 0.329061 0.02865999 0.329363 0.02543097 0.326158 0.02582997 0.329061 0.02865999 0.326158 0.02582997 0.326002 0.029091 0.05373197 0.02036595 0.05823498 0.01808899 0.05500495 0.01750296 0.05823498 0.01808899 0.05373197 0.02036595 0.05721396 0.022686 0.3172 0.03818899 0.31307 0.03923195 0.314316 0.04277598 0.314316 0.04277598 0.318139 0.041637 0.3172 0.03818899 0.05177098 0.02361595 0.05721396 0.022686 0.05373197 0.02036595 0.05721396 0.022686 0.05177098 0.02361595 0.05491495 0.02672398 0.321796 0.03627896 0.3172 0.03818899 0.318139 0.041637 0.318139 0.041637 0.322414 0.03957396 0.321796 0.03627896 0.322414 0.03957396 0.318139 0.041637 0.319252 0.04497295 0.319252 0.04497295 0.32345 0.04285699 0.322414 0.03957396 0.315573 0.04625099 0.318139 0.041637 0.314316 0.04277598 0.318139 0.041637 0.315573 0.04625099 0.319252 0.04497295 0.05697596 0.03167295 0.05491495 0.02672398 0.05165797 0.02898395 0.05165797 0.02898395 0.05294799 0.03270995 0.05697596 0.03167295 0.04941797 0.02632194 0.05491495 0.02672398 0.05177098 0.02361595 0.05491495 0.02672398 0.04941797 0.02632194 0.05165797 0.02898395 0.326576 0.03701597 0.328213 0.03310096 0.325967 0.03419494 0.328213 0.03310096 0.326576 0.03701597 0.329454 0.03470295 0.32781 0.04012298 0.331552 0.03701394 0.326576 0.03701597 0.326576 0.03701597 0.331552 0.03701394 0.329454 0.03470295 0.322414 0.03957396 0.32781 0.04012298 0.326576 0.03701597 0.32781 0.04012298 0.322414 0.03957396 0.32345 0.04285699 0.322414 0.03957396 0.326576 0.03701597 0.321796 0.03627896 0.321796 0.03627896 0.326576 0.03701597 0.325967 0.03419494 0.052163 0.04354399 0.05382299 0.05035495 0.05629497 0.04458498 0.05382299 0.05035495 0.052163 0.04354399 0.05021095 0.04813897 0.05726796 0.03802698 0.05332696 0.03768199 0.05629497 0.04458498 0.05332696 0.03768199 0.052163 0.04354399 0.05629497 0.04458498 0.05294799 0.03270995 0.05726796 0.03802698 0.05697596 0.03167295 0.05726796 0.03802698 0.05294799 0.03270995 0.05332696 0.03768199 0.04871398 0.04334598 0.04596799 0.04570198 0.04728096 0.04680299 0.04871398 0.04334598 0.04651898 0.043078 0.04596799 0.04570198 0.04738098 0.03824096 0.04871398 0.04334598 0.04987597 0.03795194 0.04871398 0.04334598 0.04738098 0.03824096 0.04651898 0.043078 0.04871398 0.04334598 0.05021095 0.04813897 0.052163 0.04354399 0.05021095 0.04813897 0.04871398 0.04334598 0.04728096 0.04680299 0.04741895 0.03415298 0.04987597 0.03795194 0.04988795 0.033571 0.04987597 0.03795194 0.04741895 0.03415298 0.04738098 0.03824096 0.04988795 0.033571 0.05332696 0.03768199 0.05294799 0.03270995 0.05332696 0.03768199 0.04988795 0.033571 0.04987597 0.03795194 0.04987597 0.03795194 0.052163 0.04354399 0.05332696 0.03768199 0.052163 0.04354399 0.04987597 0.03795194 0.04871398 0.04334598 0.04903495 0.03036296 0.04746598 0.02816897 0.04632598 0.02940797 0.04632598 0.02940797 0.04692494 0.03122299 0.04903495 0.03036296 0.04746598 0.02816897 0.05165797 0.02898395 0.04941797 0.02632194 0.05165797 0.02898395 0.04746598 0.02816897 0.04903495 0.03036296 0.05294799 0.03270995 0.05165797 0.02898395 0.04903495 0.03036296 0.04903495 0.03036296 0.04988795 0.033571 0.05294799 0.03270995 0.04988795 0.033571 0.04903495 0.03036296 0.04692494 0.03122299 0.04692494 0.03122299 0.04741895 0.03415298 0.04988795 0.033571 0.04692494 0.03122299 0.04632598 0.02940797 0.044806 0.03136998 0.04632598 0.02940797 0.04463499 0.02906697 0.044806 0.03136998 0.04692494 0.03122299 0.04515999 0.03448796 0.04741895 0.03415298 0.04515999 0.03448796 0.04692494 0.03122299 0.044806 0.03136998 0.04290795 0.03476297 0.044806 0.03136998 0.04225695 0.03121495 0.044806 0.03136998 0.04290795 0.03476297 0.04515999 0.03448796 0.044806 0.03136998 0.04463499 0.02906697 0.04225695 0.03121495 0.04463499 0.02906697 0.04219597 0.02876198 0.04225695 0.03121495 0.04741895 0.03415298 0.04517894 0.03852295 0.04738098 0.03824096 0.04517894 0.03852295 0.04741895 0.03415298 0.04515999 0.03448796 0.04515999 0.03448796 0.04290795 0.03476297 0.04517894 0.03852295 0.04290795 0.03476297 0.04301196 0.03880196 0.04517894 0.03852295 0.040187 0.03509896 0.04225695 0.03121495 0.03932595 0.03143298 0.04225695 0.03121495 0.040187 0.03509896 0.04290795 0.03476297 0.04290795 0.03476297 0.040187 0.03509896 0.04301196 0.03880196 0.040187 0.03509896 0.04045897 0.03907096 0.04301196 0.03880196 0.03932595 0.03143298 0.04219597 0.02876198 0.03920799 0.02889895 0.04219597 0.02876198 0.03932595 0.03143298 0.04225695 0.03121495 0.04453897 0.04328298 0.04443097 0.04645699 0.04596799 0.04570198 0.04453897 0.04328298 0.04596799 0.04570198 0.04651898 0.043078 0.04246896 0.04342198 0.04233199 0.04697299 0.04443097 0.04645699 0.04246896 0.04342198 0.04443097 0.04645699 0.04453897 0.04328298 0.04301196 0.03880196 0.04453897 0.04328298 0.04517894 0.03852295 0.04301196 0.03880196 0.04246896 0.04342198 0.04453897 0.04328298 0.04517894 0.03852295 0.04453897 0.04328298 0.04738098 0.03824096 0.04738098 0.03824096 0.04453897 0.04328298 0.04651898 0.043078 0.03990799 0.04342395 0.04233199 0.04697299 0.04246896 0.04342198 0.04233199 0.04697299 0.03990799 0.04342395 0.03966897 0.04732596 0.04045897 0.03907096 0.04246896 0.04342198 0.04301196 0.03880196 0.04246896 0.04342198 0.04045897 0.03907096 0.03990799 0.04342395 0.03423297 0.04297995 0.031663 0.04310196 0.03214997 0.04592299 0.03423297 0.04297995 0.03214997 0.04592299 0.03418195 0.04660797 0.03443396 0.03894698 0.031663 0.04310196 0.03423297 0.04297995 0.031663 0.04310196 0.03443396 0.03894698 0.03138798 0.03915399 0.03443396 0.03894698 0.03709697 0.04315996 0.03740298 0.03905099 0.03709697 0.04315996 0.03443396 0.03894698 0.03423297 0.04297995 0.03680497 0.047158 0.03423297 0.04297995 0.03418195 0.04660797 0.03423297 0.04297995 0.03680497 0.047158 0.03709697 0.04315996 0.03462696 0.03541594 0.03138798 0.03915399 0.03443396 0.03894698 0.03138798 0.03915399 0.03462696 0.03541594 0.03159195 0.03521698 0.03462696 0.03541594 0.03740298 0.03905099 0.03734499 0.03532195 0.03740298 0.03905099 0.03462696 0.03541594 0.03443396 0.03894698 0.03740298 0.03905099 0.03990799 0.04342395 0.04045897 0.03907096 0.03990799 0.04342395 0.03740298 0.03905099 0.03709697 0.04315996 0.03734499 0.03532195 0.04045897 0.03907096 0.040187 0.03509896 0.04045897 0.03907096 0.03734499 0.03532195 0.03740298 0.03905099 0.03709697 0.04315996 0.03966897 0.04732596 0.03990799 0.04342395 0.03966897 0.04732596 0.03709697 0.04315996 0.03680497 0.047158 0.03176999 0.03179198 0.03384697 0.02941095 0.03184598 0.02970796 0.03384697 0.02941095 0.03176999 0.03179198 0.03417098 0.03187996 0.03417098 0.03187996 0.03646898 0.02916496 0.03384697 0.02941095 0.03646898 0.02916496 0.03417098 0.03187996 0.03667396 0.03183197 0.03462696 0.03541594 0.03667396 0.03183197 0.03417098 0.03187996 0.03667396 0.03183197 0.03462696 0.03541594 0.03734499 0.03532195 0.03159195 0.03521698 0.03417098 0.03187996 0.03176999 0.03179198 0.03417098 0.03187996 0.03159195 0.03521698 0.03462696 0.03541594 0.03646898 0.02916496 0.03667396 0.03183197 0.03920799 0.02889895 0.03667396 0.03183197 0.03932595 0.03143298 0.03920799 0.02889895 0.03667396 0.03183197 0.03734499 0.03532195 0.040187 0.03509896 0.03667396 0.03183197 0.040187 0.03509896 0.03932595 0.03143298 0.03052896 0.02805 0.02937197 0.030743 0.03184598 0.02970796 0.03184598 0.02970796 0.02937197 0.030743 0.03176999 0.03179198 0.03176999 0.03179198 0.02832996 0.03476697 0.03159195 0.03521698 0.02832996 0.03476697 0.03176999 0.03179198 0.02937197 0.030743 0.02846795 0.02523398 0.02587795 0.02889299 0.03052896 0.02805 0.03052896 0.02805 0.02587795 0.02889299 0.02937197 0.030743 0.03159195 0.03521698 0.02807599 0.03957694 0.03138798 0.03915399 0.02807599 0.03957694 0.03159195 0.03521698 0.02832996 0.03476697 0.02832996 0.03476697 0.02397096 0.04030299 0.02807599 0.03957694 0.02397096 0.04030299 0.02832996 0.03476697 0.02396899 0.03411698 0.02396899 0.03411698 0.02937197 0.030743 0.02587795 0.02889299 0.02937197 0.030743 0.02396899 0.03411698 0.02832996 0.03476697 0.02587795 0.02889299 0.01911497 0.033638 0.02396899 0.03411698 0.01911497 0.033638 0.02587795 0.02889299 0.02111297 0.02618199 0.02111297 0.02618199 0.02846795 0.02523398 0.02572494 0.02123498 0.02846795 0.02523398 0.02111297 0.02618199 0.02587795 0.02889299 0.02882695 0.04423797 0.03214997 0.04592299 0.031663 0.04310196 0.02882695 0.04423797 0.03069996 0.047746 0.03214997 0.04592299 0.02545499 0.04610997 0.03069996 0.047746 0.02882695 0.04423797 0.03069996 0.047746 0.02545499 0.04610997 0.02826696 0.05042099 0.02397096 0.04030299 0.02882695 0.04423797 0.02807599 0.03957694 0.02882695 0.04423797 0.02397096 0.04030299 0.02545499 0.04610997 0.02807599 0.03957694 0.02882695 0.04423797 0.03138798 0.03915399 0.03138798 0.03915399 0.02882695 0.04423797 0.031663 0.04310196 0.02144396 0.04858499 0.02826696 0.05042099 0.02545499 0.04610997 0.02826696 0.05042099 0.02144396 0.04858499 0.02486896 0.05386298 0.02397096 0.04030299 0.01924699 0.04140198 0.02545499 0.04610997 0.01924699 0.04140198 0.02144396 0.04858499 0.02545499 0.04610997 0.01911497 0.033638 0.02397096 0.04030299 0.02396899 0.03411698 0.02397096 0.04030299 0.01911497 0.033638 0.01924699 0.04140198 0.326442 0.01627397 0.328803 0.01692998 0.327253 0.01368296 0.327253 0.01368296 0.328803 0.01692998 0.330177 0.01552098 0.321906 0.015302 0.327253 0.01368296 0.322589 0.01188695 0.327253 0.01368296 0.321906 0.015302 0.326442 0.01627397 0.327253 0.01368296 0.33244 0.01323395 0.328533 0.01054698 0.33244 0.01323395 0.327253 0.01368296 0.330177 0.01552098 0.316199 0.01422196 0.321906 0.015302 0.322589 0.01188695 0.316199 0.01422196 0.322589 0.01188695 0.317022 0.01033997 0.323362 0.008442997 0.317022 0.01033997 0.322589 0.01188695 0.317022 0.01033997 0.323362 0.008442997 0.317827 0.006644964 0.322589 0.01188695 0.328533 0.01054698 0.323362 0.008442997 0.328533 0.01054698 0.322589 0.01188695 0.327253 0.01368296 0.02985799 0.005765974 0.02513599 0.007966995 0.03105998 0.009501993 0.03105998 0.009501993 0.02513599 0.007966995 0.02877199 0.011949 0.02564495 0.01587396 0.02877199 0.011949 0.02513599 0.007966995 0.02513599 0.007966995 0.02106595 0.01152294 0.02564495 0.01587396 0.311423 0.009055972 0.317022 0.01033997 0.317827 0.006644964 0.311423 0.009055972 0.317827 0.006644964 0.312404 0.005023956 0.310531 0.012923 0.317022 0.01033997 0.311423 0.009055972 0.317022 0.01033997 0.310531 0.012923 0.316199 0.01422196 0.03214997 0.04592299 0.03069996 0.047746 0.03347498 0.04981994 0.03214997 0.04592299 0.03347498 0.04981994 0.03418195 0.04660797 0.03347498 0.04981994 0.03676998 0.05063694 0.03418195 0.04660797 0.03418195 0.04660797 0.03676998 0.05063694 0.03680497 0.047158 0.03205096 0.05333596 0.03676998 0.05063694 0.03347498 0.04981994 0.03676998 0.05063694 0.03205096 0.05333596 0.03639197 0.05465197 0.03069996 0.047746 0.02826696 0.05042099 0.03347498 0.04981994 0.02826696 0.05042099 0.03205096 0.05333596 0.03347498 0.04981994 0.03999298 0.05066996 0.03680497 0.047158 0.03676998 0.05063694 0.03680497 0.047158 0.03999298 0.05066996 0.03966897 0.04732596 0.04078197 0.05472397 0.03999298 0.05066996 0.03639197 0.05465197 0.03639197 0.05465197 0.03999298 0.05066996 0.03676998 0.05063694 0.03529399 0.059668 0.04176199 0.059668 0.04078197 0.05472397 0.03529399 0.059668 0.04078197 0.05472397 0.03639197 0.05465197 0.02951699 0.05739098 0.03639197 0.05465197 0.03205096 0.05333596 0.03639197 0.05465197 0.02951699 0.05739098 0.03529399 0.059668 0.02826696 0.05042099 0.02486896 0.05386298 0.03205096 0.05333596 0.02486896 0.05386298 0.02951699 0.05739098 0.03205096 0.05333596 0.04443097 0.04645699 0.04728096 0.04680299 0.04596799 0.04570198 0.04728096 0.04680299 0.04443097 0.04645699 0.04529094 0.04873496 0.05021095 0.04813897 0.04529094 0.04873496 0.04751199 0.051319 0.04529094 0.04873496 0.05021095 0.04813897 0.04728096 0.04680299 0.04751199 0.051319 0.04290395 0.05001795 0.04431599 0.053496 0.04290395 0.05001795 0.04751199 0.051319 0.04529094 0.04873496 0.04529094 0.04873496 0.04233199 0.04697299 0.04290395 0.05001795 0.04233199 0.04697299 0.04529094 0.04873496 0.04443097 0.04645699 0.05382299 0.05035495 0.04751199 0.051319 0.05047798 0.05479598 0.04751199 0.051319 0.05382299 0.05035495 0.05021095 0.04813897 0.05047798 0.05479598 0.04431599 0.053496 0.04665595 0.05779898 0.04431599 0.053496 0.05047798 0.05479598 0.04751199 0.051319 0.04290395 0.05001795 0.04078197 0.05472397 0.04431599 0.053496 0.04078197 0.05472397 0.04290395 0.05001795 0.03999298 0.05066996 0.04176199 0.059668 0.04431599 0.053496 0.04078197 0.05472397 0.04431599 0.053496 0.04176199 0.059668 0.04665595 0.05779898 0.04290395 0.05001795 0.03966897 0.04732596 0.03999298 0.05066996 0.03966897 0.04732596 0.04290395 0.05001795 0.04233199 0.04697299 0.329454 0.03470295 0.328735 0.031219 0.328213 0.03310096 0.328735 0.031219 0.329454 0.03470295 0.331107 0.03205496 0.331107 0.03205496 0.329061 0.02865999 0.328735 0.031219 0.329061 0.02865999 0.331107 0.03205496 0.331854 0.02896398 0.331854 0.02896398 0.331107 0.03205496 0.335544 0.02997398 0.331107 0.03205496 0.334083 0.03353697 0.335544 0.02997398 0.329454 0.03470295 0.334083 0.03353697 0.331107 0.03205496 0.334083 0.03353697 0.329454 0.03470295 0.331552 0.03701394 0.332295 0.02544099 0.329061 0.02865999 0.331854 0.02896398 0.329061 0.02865999 0.332295 0.02544099 0.329363 0.02543097 0.332295 0.02544099 0.331854 0.02896398 0.335544 0.02997398 0.332295 0.02544099 0.335544 0.02997398 0.336034 0.02586996 0.331684 0.017991 0.330177 0.01552098 0.328803 0.01692998 0.331684 0.017991 0.328803 0.01692998 0.329147 0.018902 0.330177 0.01552098 0.334971 0.01669496 0.33244 0.01323395 0.334971 0.01669496 0.330177 0.01552098 0.331684 0.017991 0.331684 0.017991 0.336034 0.02107995 0.334971 0.01669496 0.336034 0.02107995 0.331684 0.017991 0.332351 0.02138894 0.331684 0.017991 0.329325 0.02183198 0.332351 0.02138894 0.329325 0.02183198 0.331684 0.017991 0.329147 0.018902 0.332351 0.02138894 0.332295 0.02544099 0.336034 0.02586996 0.332351 0.02138894 0.336034 0.02586996 0.336034 0.02107995 0.332351 0.02138894 0.329363 0.02543097 0.332295 0.02544099 0.329363 0.02543097 0.332351 0.02138894 0.329325 0.02183198 0.02877199 0.011949 0.03299599 0.01354497 0.03105998 0.009501993 0.03105998 0.009501993 0.03299599 0.01354497 0.03465497 0.009902 0.03299599 0.01354497 0.03816097 0.01400899 0.03465497 0.009902 0.03465497 0.009902 0.03816097 0.01400899 0.03968298 0.01003199 0.03092098 0.01819097 0.03682798 0.01857197 0.03299599 0.01354497 0.03299599 0.01354497 0.03682798 0.01857197 0.03816097 0.01400899 0.02877199 0.011949 0.03092098 0.01819097 0.03299599 0.01354497 0.03092098 0.01819097 0.02877199 0.011949 0.02564495 0.01587396 0.03968298 0.01003199 0.04315698 0.01403599 0.04463398 0.01035594 0.04315698 0.01403599 0.03968298 0.01003199 0.03816097 0.01400899 0.03816097 0.01400899 0.04157197 0.01839798 0.04315698 0.01403599 0.04157197 0.01839798 0.03816097 0.01400899 0.03682798 0.01857197 0.03682798 0.01857197 0.04045295 0.022915 0.04157197 0.01839798 0.04045295 0.022915 0.03682798 0.01857197 0.03626596 0.02276396 0.03215998 0.02336096 0.03626596 0.02276396 0.03092098 0.01819097 0.03092098 0.01819097 0.03626596 0.02276396 0.03682798 0.01857197 0.02572494 0.02123498 0.03215998 0.02336096 0.03092098 0.01819097 0.03215998 0.02336096 0.02572494 0.02123498 0.02846795 0.02523398 0.052818 0.01464897 0.05086499 0.01751297 0.05500495 0.01750296 0.05500495 0.01750296 0.05086499 0.01751297 0.05373197 0.02036595 0.04888898 0.02108299 0.05373197 0.02036595 0.05086499 0.01751297 0.05373197 0.02036595 0.04888898 0.02108299 0.05177098 0.02361595 0.04574495 0.01919394 0.05086499 0.01751297 0.04751795 0.01519298 0.05086499 0.01751297 0.04574495 0.01919394 0.04888898 0.02108299 0.04751795 0.01519298 0.052818 0.01464897 0.04918098 0.01194399 0.052818 0.01464897 0.04751795 0.01519298 0.05086499 0.01751297 0.04681199 0.02441799 0.05177098 0.02361595 0.04888898 0.02108299 0.05177098 0.02361595 0.04681199 0.02441799 0.04941797 0.02632194 0.04574495 0.01919394 0.04393798 0.02319097 0.04681199 0.02441799 0.04574495 0.01919394 0.04681199 0.02441799 0.04888898 0.02108299 0.04315698 0.01403599 0.04574495 0.01919394 0.04751795 0.01519298 0.04574495 0.01919394 0.04315698 0.01403599 0.04157197 0.01839798 0.04157197 0.01839798 0.04393798 0.02319097 0.04574495 0.01919394 0.04157197 0.01839798 0.04045295 0.022915 0.04393798 0.02319097 0.04315698 0.01403599 0.04751795 0.01519298 0.04463398 0.01035594 0.04463398 0.01035594 0.04751795 0.01519298 0.04918098 0.01194399 0.04530698 0.02695298 0.04463499 0.02906697 0.04632598 0.02940797 0.04530698 0.02695298 0.04632598 0.02940797 0.04746598 0.02816897 0.04219597 0.02876198 0.04463499 0.02906697 0.04274797 0.02644199 0.04463499 0.02906697 0.04530698 0.02695298 0.04274797 0.02644199 0.04393798 0.02319097 0.04274797 0.02644199 0.04530698 0.02695298 0.04393798 0.02319097 0.04530698 0.02695298 0.04681199 0.02441799 0.04681199 0.02441799 0.04746598 0.02816897 0.04941797 0.02632194 0.04746598 0.02816897 0.04681199 0.02441799 0.04530698 0.02695298 0.04219597 0.02876198 0.03951197 0.02639299 0.03920799 0.02889895 0.03951197 0.02639299 0.04219597 0.02876198 0.04274797 0.02644199 0.04045295 0.022915 0.04274797 0.02644199 0.04393798 0.02319097 0.04274797 0.02644199 0.04045295 0.022915 0.03951197 0.02639299 0.03184598 0.02970796 0.03384697 0.02941095 0.03305 0.02680295 0.03184598 0.02970796 0.03305 0.02680295 0.03052896 0.02805 0.03052896 0.02805 0.03215998 0.02336096 0.02846795 0.02523398 0.03215998 0.02336096 0.03052896 0.02805 0.03305 0.02680295 0.03215998 0.02336096 0.03626495 0.02622795 0.03626596 0.02276396 0.03626495 0.02622795 0.03215998 0.02336096 0.03305 0.02680295 0.03305 0.02680295 0.03384697 0.02941095 0.03626495 0.02622795 0.03384697 0.02941095 0.03646898 0.02916496 0.03626495 0.02622795 0.03626596 0.02276396 0.03951197 0.02639299 0.04045295 0.022915 0.03951197 0.02639299 0.03626596 0.02276396 0.03626495 0.02622795 0.03646898 0.02916496 0.03951197 0.02639299 0.03626495 0.02622795 0.03951197 0.02639299 0.03646898 0.02916496 0.03920799 0.02889895</float_array>
          <technique_common>
            <accessor source="#Alpha_SurfaceMesh_324-mesh-map-0-array" count="1020" stride="2">
              <param name="S" type="float"/>
              <param name="T" type="float"/>
            </accessor>
          </technique_common>
        </source>
        <vertices id="Alpha_SurfaceMesh_324-mesh-vertices">
          <input semantic="POSITION" source="#Alpha_SurfaceMesh_324-mesh-positions"/>
        </vertices>
        <triangles material="Alpha_Body_MAT_007-material" count="340">
          <input semantic="VERTEX" source="#Alpha_SurfaceMesh_324-mesh-vertices" offset="0"/>
          <input semantic="NORMAL" source="#Alpha_SurfaceMesh_324-mesh-normals" offset="1"/>
          <input semantic="TEXCOORD" source="#Alpha_SurfaceMesh_324-mesh-map-0" offset="2" set="0"/>
          <p>23 0 0 2 1 1 22 2 2 23 0 3 20 3 4 2 1 5 21 4 6 20 3 7 23 0 8 20 3 9 21 4 10 12 5 11 26 6 12 23 0 13 28 7 14 23 0 15 26 6 16 21 4 17 28 7 18 22 2 19 27 8 20 22 2 21 28 7 22 23 0 23 24 9 24 8 10 25 21 4 26 21 4 27 8 10 28 12 5 29 25 11 30 21 4 31 26 6 32 21 4 33 25 11 34 24 9 35 41 12 36 26 6 37 50 13 38 26 6 39 41 12 40 25 11 41 50 13 42 28 7 43 51 14 44 28 7 45 50 13 46 26 6 47 49 15 48 28 7 49 27 8 50 28 7 51 49 15 52 51 14 53 32 16 54 0 17 55 31 18 56 32 16 57 29 19 58 0 17 59 35 20 60 29 19 61 32 16 62 29 19 63 35 20 64 33 21 65 34 22 66 32 16 67 30 23 68 32 16 69 34 22 70 35 20 71 13 24 72 32 16 73 31 18 74 32 16 75 13 24 76 30 23 77 35 20 78 44 25 79 43 26 80 35 20 81 43 26 82 33 21 83 42 27 84 35 20 85 34 22 86 35 20 87 42 27 88 44 25 89 30 23 90 25 11 91 34 22 92 25 11 93 30 23 94 24 9 95 41 12 96 34 22 97 25 11 98 34 22 99 41 12 100 42 27 101 30 23 102 8 10 103 24 9 104 8 10 105 30 23 106 13 24 107 39 28 108 36 29 109 1 30 110 39 28 111 1 30 112 38 31 113 14 32 114 39 28 115 37 33 116 39 28 117 14 32 118 36 29 119 37 33 120 44 25 121 42 27 122 44 25 123 37 33 124 39 28 125 43 26 126 39 28 127 38 31 128 39 28 129 43 26 130 44 25 131 37 33 132 9 34 133 14 32 134 9 34 135 37 33 136 40 35 137 40 35 138 42 27 139 41 12 140 42 27 141 40 35 142 37 33 143 47 36 144 48 37 145 3 38 146 45 39 147 3 38 148 48 37 149 45 39 150 51 14 151 49 15 152 51 14 153 45 39 154 48 37 155 48 37 156 50 13 157 51 14 158 50 13 159 48 37 160 46 40 161 15 41 162 46 40 163 47 36 164 47 36 165 46 40 166 48 37 167 40 35 168 41 12 169 46 40 170 46 40 171 41 12 172 50 13 173 15 41 174 9 34 175 40 35 176 15 41 177 40 35 178 46 40 179 52 42 180 22 2 181 2 1 182 22 2 183 52 42 184 53 43 185 27 8 186 22 2 187 53 43 188 53 43 189 54 44 190 27 8 191 56 45 192 53 43 193 52 42 194 53 43 195 56 45 196 57 46 197 49 15 198 27 8 199 54 44 200 54 44 201 63 47 202 49 15 203 63 47 204 54 44 205 55 48 206 55 48 207 62 49 208 63 47 209 57 46 210 54 44 211 53 43 212 54 44 213 57 46 214 55 48 215 55 48 216 57 46 217 76 50 218 76 50 219 77 51 220 55 48 221 75 52 222 57 46 223 56 45 224 57 46 225 75 52 226 76 50 227 59 53 228 3 38 229 45 39 230 3 38 231 59 53 232 58 54 233 61 55 234 60 56 235 59 53 236 59 53 237 60 56 238 58 54 239 63 47 240 61 55 241 59 53 242 61 55 243 63 47 244 62 49 245 63 47 246 59 53 247 49 15 248 49 15 249 59 53 250 45 39 251 71 57 252 60 56 253 61 55 254 60 56 255 71 57 256 70 58 257 62 49 258 69 59 259 61 55 260 69 59 261 71 57 262 61 55 263 77 51 264 62 49 265 55 48 266 62 49 267 77 51 268 69 59 269 66 60 270 5 61 271 65 62 272 66 60 273 64 63 274 5 61 275 67 64 276 66 60 277 68 65 278 66 60 279 67 64 280 64 63 281 66 60 282 70 58 283 71 57 284 70 58 285 66 60 286 65 62 287 78 66 288 68 65 289 79 67 290 68 65 291 78 66 292 67 64 293 79 67 294 69 59 295 77 51 296 69 59 297 79 67 298 68 65 299 68 65 300 71 57 301 69 59 302 71 57 303 68 65 304 66 60 305 74 68 306 72 69 307 4 70 308 4 70 309 73 71 310 74 68 311 72 69 312 76 50 313 75 52 314 76 50 315 72 69 316 74 68 317 77 51 318 76 50 319 74 68 320 74 68 321 79 67 322 77 51 323 79 67 324 74 68 325 73 71 326 73 71 327 78 66 328 79 67 329 73 71 330 4 70 331 82 72 332 4 70 333 81 73 334 82 72 335 73 71 336 84 74 337 78 66 338 84 74 339 73 71 340 82 72 341 83 75 342 82 72 343 80 76 344 82 72 345 83 75 346 84 74 347 82 72 348 81 73 349 80 76 350 81 73 351 16 77 352 80 76 353 78 66 354 93 78 355 67 64 356 93 78 357 78 66 358 84 74 359 84 74 360 83 75 361 93 78 362 83 75 363 92 79 364 93 78 365 85 80 366 80 76 367 86 81 368 80 76 369 85 80 370 83 75 371 83 75 372 85 80 373 92 79 374 85 80 375 91 82 376 92 79 377 86 81 378 16 77 379 10 83 380 16 77 381 86 81 382 80 76 383 89 84 384 87 85 385 5 61 386 89 84 387 5 61 388 64 63 389 88 86 390 17 87 391 87 85 392 88 86 393 87 85 394 89 84 395 92 79 396 89 84 397 93 78 398 92 79 399 88 86 400 89 84 401 93 78 402 89 84 403 67 64 404 67 64 405 89 84 406 64 63 407 90 88 408 17 87 409 88 86 410 17 87 411 90 88 412 11 89 413 91 82 414 88 86 415 92 79 416 88 86 417 91 82 418 90 88 419 97 90 420 94 91 421 7 92 422 97 90 423 7 92 424 96 93 425 100 94 426 94 91 427 97 90 428 94 91 429 100 94 430 98 95 431 100 94 432 95 96 433 99 97 434 95 96 435 100 94 436 97 90 437 18 98 438 97 90 439 96 93 440 97 90 441 18 98 442 95 96 443 107 99 444 98 95 445 100 94 446 98 95 447 107 99 448 106 100 449 107 99 450 99 97 451 105 101 452 99 97 453 107 99 454 100 94 455 99 97 456 90 88 457 91 82 458 90 88 459 99 97 460 95 96 461 105 101 462 91 82 463 85 80 464 91 82 465 105 101 466 99 97 467 95 96 468 11 89 469 90 88 470 11 89 471 95 96 472 18 98 473 103 102 474 101 103 475 6 104 476 101 103 477 103 102 478 104 105 479 104 105 480 19 106 481 101 103 482 19 106 483 104 105 484 102 107 485 107 99 486 102 107 487 104 105 488 102 107 489 107 99 490 105 101 491 106 100 492 104 105 493 103 102 494 104 105 495 106 100 496 107 99 497 19 106 498 102 107 499 10 83 500 102 107 501 86 81 502 10 83 503 102 107 504 105 101 505 85 80 506 102 107 507 85 80 508 86 81 509 108 108 510 109 109 511 6 104 512 6 104 513 109 109 514 103 102 515 103 102 516 110 110 517 106 100 518 110 110 519 103 102 520 109 109 521 112 111 522 113 112 523 108 108 524 108 108 525 113 112 526 109 109 527 106 100 528 119 113 529 98 95 530 119 113 531 106 100 532 110 110 533 110 110 534 118 114 535 119 113 536 118 114 537 110 110 538 111 115 539 111 115 540 109 109 541 113 112 542 109 109 543 111 115 544 110 110 545 113 112 546 130 116 547 111 115 548 130 116 549 113 112 550 129 117 551 129 117 552 112 111 553 128 118 554 112 111 555 129 117 556 113 112 557 115 119 558 7 92 559 94 91 560 115 119 561 114 120 562 7 92 563 117 121 564 114 120 565 115 119 566 114 120 567 117 121 568 116 122 569 118 114 570 115 119 571 119 113 572 115 119 573 118 114 574 117 121 575 119 113 576 115 119 577 98 95 578 98 95 579 115 119 580 94 91 581 125 123 582 116 122 583 117 121 584 116 122 585 125 123 586 124 124 587 118 114 588 123 125 589 117 121 590 123 125 591 125 123 592 117 121 593 130 116 594 118 114 595 111 115 596 118 114 597 130 116 598 123 125 599 38 31 600 1 30 601 121 126 602 121 126 603 1 30 604 120 127 605 43 26 606 121 126 607 122 128 608 121 126 609 43 26 610 38 31 611 121 126 612 124 124 613 125 123 614 124 124 615 121 126 616 120 127 617 33 21 618 43 26 619 122 128 620 33 21 621 122 128 622 131 129 623 123 125 624 131 129 625 122 128 626 131 129 627 123 125 628 130 116 629 122 128 630 125 123 631 123 125 632 125 123 633 122 128 634 121 126 635 29 19 636 127 130 637 0 17 638 0 17 639 127 130 640 126 131 641 128 118 642 126 131 643 127 130 644 127 130 645 129 117 646 128 118 647 127 130 648 131 129 649 130 116 650 127 130 651 130 116 652 129 117 653 29 19 654 131 129 655 127 130 656 131 129 657 29 19 658 33 21 659 7 92 660 114 120 661 133 132 662 7 92 663 133 132 664 96 93 665 133 132 666 132 133 667 96 93 668 96 93 669 132 133 670 18 98 671 137 134 672 132 133 673 133 132 674 132 133 675 137 134 676 136 135 677 114 120 678 116 122 679 133 132 680 116 122 681 137 134 682 133 132 683 134 136 684 18 98 685 132 133 686 18 98 687 134 136 688 11 89 689 135 137 690 134 136 691 136 135 692 136 135 693 134 136 694 132 133 695 150 138 696 145 139 697 135 137 698 150 138 699 135 137 700 136 135 701 151 140 702 136 135 703 137 134 704 136 135 705 151 140 706 150 138 707 116 122 708 124 124 709 137 134 710 124 124 711 151 140 712 137 134 713 87 85 714 65 62 715 5 61 716 65 62 717 87 85 718 139 141 719 70 58 720 139 141 721 141 142 722 139 141 723 70 58 724 65 62 725 141 142 726 138 143 727 140 144 728 138 143 729 141 142 730 139 141 731 139 141 732 17 87 733 138 143 734 17 87 735 139 141 736 87 85 737 60 56 738 141 142 739 147 145 740 141 142 741 60 56 742 70 58 743 147 145 744 140 144 745 146 146 746 140 144 747 147 145 748 141 142 749 138 143 750 135 137 751 140 144 752 135 137 753 138 143 754 134 136 755 145 139 756 140 144 757 135 137 758 140 144 759 145 139 760 146 146 761 138 143 762 11 89 763 134 136 764 11 89 765 138 143 766 17 87 767 58 54 768 47 36 769 3 38 770 47 36 771 58 54 772 143 147 773 143 147 774 15 41 775 47 36 776 15 41 777 143 147 778 142 148 779 142 148 780 143 147 781 146 146 782 143 147 783 147 145 784 146 146 785 58 54 786 147 145 787 143 147 788 147 145 789 58 54 790 60 56 791 144 149 792 15 41 793 142 148 794 15 41 795 144 149 796 9 34 797 144 149 798 142 148 799 146 146 800 144 149 801 146 146 802 145 139 803 149 150 804 120 127 805 1 30 806 149 150 807 1 30 808 36 29 809 120 127 810 151 140 811 124 124 812 151 140 813 120 127 814 149 150 815 149 150 816 150 138 817 151 140 818 150 138 819 149 150 820 148 151 821 149 150 822 14 32 823 148 151 824 14 32 825 149 150 826 36 29 827 148 151 828 144 149 829 145 139 830 148 151 831 145 139 832 150 138 833 148 151 834 9 34 835 144 149 836 9 34 837 148 151 838 14 32 839 126 131 840 153 152 841 0 17 842 0 17 843 153 152 844 31 18 845 153 152 846 152 153 847 31 18 848 31 18 849 152 153 850 13 24 851 157 154 852 156 155 853 153 152 854 153 152 855 156 155 856 152 153 857 126 131 858 157 154 859 153 152 860 157 154 861 126 131 862 128 118 863 13 24 864 154 156 865 8 10 866 154 156 867 13 24 868 152 153 869 152 153 870 155 157 871 154 156 872 155 157 873 152 153 874 156 155 875 156 155 876 165 158 877 155 157 878 165 158 879 156 155 880 170 159 881 171 160 882 170 159 883 157 154 884 157 154 885 170 159 886 156 155 887 128 118 888 171 160 889 157 154 890 171 160 891 128 118 892 112 111 893 20 3 894 159 161 895 2 1 896 2 1 897 159 161 898 52 42 899 161 162 900 52 42 901 159 161 902 52 42 903 161 162 904 56 45 905 160 163 906 159 161 907 158 164 908 159 161 909 160 163 910 161 162 911 158 164 912 20 3 913 12 5 914 20 3 915 158 164 916 159 161 917 167 165 918 56 45 919 161 162 920 56 45 921 167 165 922 75 52 923 160 163 924 166 166 925 167 165 926 160 163 927 167 165 928 161 162 929 154 156 930 160 163 931 158 164 932 160 163 933 154 156 934 155 157 935 155 157 936 166 166 937 160 163 938 155 157 939 165 158 940 166 166 941 154 156 942 158 164 943 8 10 944 8 10 945 158 164 946 12 5 947 163 167 948 81 73 949 4 70 950 163 167 951 4 70 952 72 69 953 16 77 954 81 73 955 162 168 956 81 73 957 163 167 958 162 168 959 166 166 960 162 168 961 163 167 962 166 166 963 163 167 964 167 165 965 167 165 966 72 69 967 75 52 968 72 69 969 167 165 970 163 167 971 16 77 972 164 169 973 10 83 974 164 169 975 16 77 976 162 168 977 165 158 978 162 168 979 166 166 980 162 168 981 165 158 982 164 169 983 6 104 984 101 103 985 169 170 986 6 104 987 169 170 988 108 108 989 108 108 990 171 160 991 112 111 992 171 160 993 108 108 994 169 170 995 171 160 996 168 171 997 170 159 998 168 171 999 171 160 1000 169 170 1001 169 170 1002 101 103 1003 168 171 1004 101 103 1005 19 106 1006 168 171 1007 170 159 1008 164 169 1009 165 158 1010 164 169 1011 170 159 1012 168 171 1013 19 106 1014 164 169 1015 168 171 1016 164 169 1017 19 106 1018 10 83 1019</p>
        </triangles>
      </mesh>
    </geometry>
  </library_geometries>
  <library_controllers/>
  <library_visual_scenes>
    <visual_scene id="Scene" name="Scene">
      <node id="VIS_Alpha_Surface_034" name="VIS_Alpha_Surface_034" type="NODE">
        <instance_geometry url="#Alpha_SurfaceMesh_324-mesh" name="VIS_Alpha_Surface_034">
          <bind_material>
            <technique_common>
              <instance_material symbol="Alpha_Body_MAT_007-material" target="#Alpha_Body_MAT_007-material"/>
            </technique_common>
          </bind_material>
        </instance_geometry>
      </node>
    </visual_scene>
  </library_visual_scenes>
  <scene>
    <instance_visual_scene url="#Scene"/>
  </scene>
</COLLADA>