<?xml version="1.0" encoding="utf-8"?>
<COLLADA xmlns="http://www.collada.org/2005/11/COLLADASchema" version="1.4.1">
  <asset>
    <contributor>
      <author>Blender User</author>
      <authoring_tool>Blender 2.76.0 commit date:2015-11-03, commit time:10:56, hash:f337fea</authoring_tool>
    </contributor>
    <created>2016-11-13T17:55:48</created>
    <modified>2016-11-13T17:55:48</modified>
    <unit name="meter" meter="1"/>
    <up_axis>Z_UP</up_axis>
  </asset>
  <library_images/>
  <library_geometries>
    <geometry id="shape0_050-mesh" name="shape0.050">
      <mesh>
        <source id="shape0_050-mesh-positions">
          <float_array id="shape0_050-mesh-positions-array" count="735">5.334456 49.787 -1.401592 5.553799 49.6496 -21.33269 -13.4909 49.4661 -2.292742 5.696379 49.6496 18.56701 27.7699 49.9545 -0.6602119 27.692 49.8109 -21.82929 -12.3799 49.3475 -19.75359 -12.2546 49.3473 15.30601 27.8433 49.8109 20.51281 33.75048 -74.9223 -4.101882 31.9257 -74.5018 -13.17341 42.54206 -75 -3.971172 31.9911 -74.70081 5.135288 23.6525 -74.5213 -4.205832 24.0865 -74.2705 -12.26671 41.5111 -74.5786 -13.55941 41.58028 -74.7849 5.806078 24.1443 -74.44811 3.900928 -40.67656 46.393 -3.795852 -37.7914 46.4007 -22.10759 -42.31208 42.5954 -3.830363 -37.65929 46.40069 14.85221 -36.28339 48.2227 -3.574182 -33.64999 48.187 -20.1639 -39.33789 42.6168 -22.87739 -39.2005 42.61679 15.56221 -33.53038 48.187 13.32431 -43.5 13.0286 -3.507488 -40.49216 13.0476 -23.8979 -43.1366 -1.044459 -3.44419 -40.34518 13.0427 17.2254 -43.20006 25.7572 -3.625626 -40.20018 25.7758 -23.5105 -40.14159 -1.020616 -24.1598 -39.99237 -1.040113 17.6054 -40.0569 25.7758 16.60461 4.464289 13.26129 56.3563 27.5845 13.33529 60.6117 4.608949 26.02729 54.9718 -15.5892 13.17129 48.2146 4.64924 -0.8656583 57.1419 27.6818 -0.80325 61.3862 27.6562 26.11119 59.198 -15.3809 25.92489 46.9409 -15.3284 -0.9405779 48.9651 5.28588 46.71119 50.42021 27.9203 46.81669 54.43661 5.759438 48.53769 45.23711 -14.0317 46.57199 42.91621 5.044178 42.90659 52.6038 27.8758 43.00329 56.76071 27.9269 48.66219 48.87231 -12.2115 48.34389 38.56611 -14.7583 42.78859 44.78191 4.05415 13.27381 -58.4164 -15.9478 13.18261 -52.1463 4.208046 26.02731 -57.22579 27.1493 13.34821 -61.1681 4.2335 -0.8153903 -59.1998 -15.6922 -0.8952014 -52.8474 -15.7312 25.92491 -51.08259 27.2305 26.11121 -59.9351 27.241 -0.7513089 -61.9787 4.915729 46.71131 -53.15909 -14.3547 46.57201 -47.49279 5.426369 48.53771 -47.97219 27.5269 46.81671 -55.67439 4.65878 42.90671 -55.26539 -15.0946 42.7886 -49.33209 -12.5029 48.34401 -42.98599 27.5731 48.6621 -50.15719 27.4661 43.00331 -57.90439 -32.70766 -40.6654 -3.901006 -30.042 -40.5824 -22.62511 -25.7407 -51.0551 -4.152608 -29.9072 -40.7351 15.07069 -38.718 -28.6384 -3.678385 -35.8633 -28.5807 -23.7885 -23.2938 -50.9481 -21.20771 -23.1711 -51.153 13.10719 -35.71849 -28.6779 16.72019 -7.925848 -69.69881 -4.651561 -6.072319 -69.53881 -17.34171 1.88281 -72.5059 -4.578242 -5.981186 -69.80561 8.157659 -16.0981 -65.54891 -4.623421 -13.9538 -65.4078 -19.31421 3.34134 -72.303 -14.69281 3.41399 -72.5246 5.632988 -13.8483 -65.68671 10.21259 21.8128 -70.04361 31.61459 36.44688 -70.06351 33.99639 18.1027 -65.88361 37.52939 9.305911 -69.97651 26.90299 25.7813 -72.83541 24.06229 38.36528 -72.88891 25.92299 34.5886 -65.88721 40.31659 3.80393 -65.85841 32.00869 15.528 -72.6711 20.42229 9.841519 -40.76611 50.28919 30.3492 -40.74251 53.95609 6.851387 -28.63201 54.71799 -7.946106 -40.78371 43.10669 13.307 -51.25401 45.04739 32.1277 -51.24221 48.34699 28.8144 -28.59501 58.7089 -12.1986 -28.66991 46.9379 -3.01729 -51.25331 38.55629 9.466958 -40.37149 -54.51171 29.9523 -40.33519 -57.09781 12.9659 -50.72479 -50.39271 -8.274176 -40.42729 -48.67991 6.448935 -28.38069 -57.9023 28.3879 -28.33579 -60.6305 31.7662 -50.69589 -52.80151 -3.31603 -50.77529 -45.018 -12.5511 -28.44299 -51.6974 21.5596 -69.3523 -39.23121 36.17847 -69.34949 -41.10351 25.5811 -72.2544 -31.94301 9.084056 -69.35269 -35.15311 17.8089 -65.1631 -44.67951 34.277 -65.1436 -46.84031 38.15327 -72.2882 -33.39931 15.3521 -72.1492 -28.77811 3.54667 -65.20769 -39.94861 -25.6131 48.8709 -18.79599 -27.6992 48.9564 -3.096152 -25.5 48.87089 12.85141 12.4113 -73.48351 -13.00331 11.4025 -73.7292 -4.430842 12.4728 -73.6728 4.217197 -11.0388 48.97779 29.95491 6.038446 49.23429 35.22811 27.8998 49.38009 38.19021 -11.2682 48.978 -34.25769 5.776957 49.23441 -37.94879 27.6222 49.38011 -39.49479 19.8542 -73.7656 13.20779 28.6278 -74.013 15.73179 39.76419 -74.095 17.04859 19.7298 -73.3877 -21.57661 28.4868 -73.5903 -23.72461 39.61486 -73.6573 -24.70431 52.0858 49.8562 21.13211 52.00909 50 -0.3518089 51.9323 49.8563 -21.83179 52.03989 -74.78471 5.989898 52.0051 -74.9999 -3.921762 51.96975 -74.5785 -13.63301 -38.58707 -15.3283 17.5138 -41.68436 -15.3155 -3.484792 -38.73608 -15.2797 -24.1666 -14.2983 -15.26831 48.7028 5.37469 -15.21091 56.77899 28.0559 -15.16101 60.94419 -14.6611 -15.15489 -52.8198 4.960319 -15.08529 -59.16521 27.6168 -15.03129 -61.9414 -25.4776 48.1905 28.16121 -28.7681 46.451 31.27641 -30.0128 42.6812 32.64981 -30.7194 -1.006016 36.0537 -31.0382 13.09009 35.4249 -30.7805 25.83169 34.3902 -25.7 48.1905 -34.08709 -29.014 46.45111 -37.52569 -30.2685 42.68121 -38.92819 -30.997 -0.9703623 -41.6061 -31.3115 13.09901 -41.06959 -31.0472 25.83171 -40.25949 52.18869 48.70709 49.90611 52.209 46.86099 55.54811 52.21767 43.04619 57.89791 52.23756 -0.7750592 62.5 52.23376 13.36819 61.7426 52.22776 26.14839 60.3348 51.8297 48.70711 -50.57419 51.80986 46.86101 -56.16929 51.80206 43.04621 -58.42529 51.791 -0.7232388 -62.5 51.79277 13.38121 -61.68949 51.79616 26.14841 -60.45639 -39.53828 36.0153 15.97331 -42.6623 35.9949 -3.749604 -39.678 36.0153 -23.12709 -15.0038 36.17809 45.63341 4.872519 36.28999 53.53771 27.7892 36.38159 57.72201 -15.3456 36.17811 -50.02249 4.480978 36.29 -56.03859 27.3732 36.38161 -58.70529 7.955509 -72.5246 14.46009 -0.23751 -69.8883 19.27849 -7.211789 -65.79761 23.11589 -26.8754 -28.69111 34.5461 -21.6502 -40.7788 31.62749 -15.5938 -51.2248 28.15069 7.820679 -72.1172 -23.24711 -0.4069579 -69.399 -28.10971 -7.408059 -65.2863 -31.78191 -27.1445 -28.51279 -40.7486 -21.9006 -40.49869 -38.43901 -15.8218 -50.84909 -35.63661 52.11285 -72.8879 26.39439 52.14228 -70.06161 34.58879 52.16526 -65.88372 41.00879 52.22998 -28.57681 59.73299 52.21339 -40.72921 54.88809 52.1935 -51.23321 49.17839 51.89809 -72.2873 -33.71451 51.87038 -69.3477 -41.50441 51.84967 -65.14009 -47.29601 51.798 -28.31759 -61.1495 51.81136 -40.32189 -57.6019 51.82727 -50.68679 -53.28491 -18.6738 -59.5891 11.61319 -21.0889 -59.4658 -4.44359 -18.7879 -59.3367 -20.32841 0.273012 -59.73391 35.24079 15.6201 -59.74931 41.24399 33.31438 -59.74661 44.28409 -0.005170404 -59.14479 -42.58001 15.3024 -59.09709 -47.64691 32.9776 -59.07339 -49.94211 -21.3103 48.6976 -29.51779 -21.1188 48.6976 24.07491 14.5043 -73.1128 -18.90711 14.6087 -73.43111 10.27629 52.14999 49.42529 39.06851 51.86826 49.42531 -39.75639 52.08066 -74.09451 17.39269 51.9295 -73.65689 -24.91461 -29.4549 -15.31391 35.88959 -29.7318 -15.22479 -41.5915 52.23706 -15.13791 62.02429 51.79219 -15.00819 -62.46191 -30.3156 36.0763 33.33621 -30.5757 36.07631 -39.45329 52.22166 36.42229 58.85911 51.79977 36.42231 -59.22639 -11.5504 -59.68531 25.59149 -11.7627 -59.2226 -33.79071 52.17936 -59.74071 45.04409 51.83818 -59.06749 -50.41601</float_array>
          <technique_common>
            <accessor source="#shape0_050-mesh-positions-array" count="245" stride="3">
              <param name="X" type="float"/>
              <param name="Y" type="float"/>
              <param name="Z" type="float"/>
            </accessor>
          </technique_common>
        </source>
        <source id="shape0_050-mesh-normals">
          <float_array id="shape0_050-mesh-normals-array" count="1344">-0.007242023 0.999951 -0.006756007 -0.008390247 0.9996684 -0.02434432 -0.001792073 0.9999761 -0.006683051 -0.002122938 0.9997091 -0.02402967 -0.01746606 0.9998224 -0.007085144 -0.0366497 0.9992867 -0.009119033 -0.02050262 0.999471 -0.02525001 -0.04139417 0.9987331 -0.02861601 -0.01742064 0.9998165 0.007973074 -0.02173745 0.9993987 0.02701395 -0.03643476 0.9992821 0.01038265 -0.04179948 0.998622 0.03173565 -0.007881045 0.9999458 0.006808757 -0.00203967 0.9999755 0.006700456 -0.009972274 0.9996528 0.02439385 -0.002733528 0.9997076 0.02402687 -0.03327524 -0.9989057 -0.03286993 -0.04146528 -0.9963158 -0.07507061 -0.06382471 -0.9973083 -0.03609281 -0.1023644 -0.9898637 -0.09844583 -0.009789049 -0.9989687 -0.0443353 -2.99281e-4 -0.9990371 -0.0438736 -0.01320016 -0.9965624 -0.08178901 -0.001370191 -0.9966188 -0.08215349 -0.009149849 -0.9997357 0.02109563 -0.0128923 -0.9981648 0.05916947 -1.02859e-4 -0.9997644 0.02170711 -0.001043677 -0.9981724 0.06042337 -0.0349031 -0.9992408 0.01731121 -0.0659247 -0.9977399 0.01300656 -0.04342144 -0.9976423 0.05314582 -0.08295506 -0.9959456 0.03479796 -0.3810345 0.922448 -0.06246906 -0.3168234 0.9311184 -0.1806693 -0.08201789 0.9964972 -0.01632487 -0.0693798 0.9966217 -0.04395186 -0.9060434 0.398994 -0.1410297 -0.986773 0.05658495 -0.1519118 -0.7879229 0.4271879 -0.4434951 -0.8708159 0.0790764 -0.4852078 -0.9065313 0.396448 0.1450176 -0.799882 0.4202118 0.4284984 -0.9859069 0.06016832 0.1561011 -0.8797796 0.08886539 0.4670021 -0.3764556 0.9242709 0.06328201 -0.08385425 0.9963346 0.0169056 -0.3265013 0.929061 0.1739044 -0.07429397 0.9962483 0.04438352 -0.9885765 0.02191054 -0.149119 -0.8770375 0.03470265 -0.4791672 -0.9871187 0.05001145 -0.1519721 -0.871809 0.06265056 -0.4858232 -0.9894669 -0.02199244 -0.1430799 -0.9852945 -0.09705293 -0.1406263 -0.8857011 -0.002094626 -0.4642515 -0.8855137 -0.07906627 -0.4578364 -0.988813 -0.02078634 0.1477057 -0.8934793 -1.73648e-4 0.4491045 -0.9845655 -0.09776622 0.145164 -0.8923235 -0.08394926 0.4435216 -0.9881871 0.02970224 0.1503472 -0.9864075 0.0594049 0.1532034 -0.889051 0.05489051 0.4545058 -0.8833622 0.08745968 0.4604588 -0.1811096 0.05255025 0.982058 -0.04530805 0.05340838 0.9975444 -0.1804354 -0.03496253 0.9829653 -0.04456722 -0.03306835 0.9984589 -0.1802705 0.1091796 0.977539 -0.1790316 0.1422248 0.9735091 -0.04570204 0.1093569 0.9929514 -0.04625505 0.1419965 0.9887859 -0.3714183 0.09827113 0.9232503 -0.6302317 0.07549703 0.7727278 -0.3669821 0.1309391 0.9209665 -0.6229519 0.1079799 0.7747718 -0.3760038 0.0422793 0.9256531 -0.3782861 -0.04412466 0.9246365 -0.6376311 0.01993095 0.7700841 -0.6411544 -0.06543391 0.7646173 -0.1556115 0.5154047 0.8427 -0.04066973 0.5239585 0.8507725 -0.1783104 0.1436492 0.9734323 -0.0462445 0.1441065 0.9884811 -0.06016445 0.9474585 0.3141697 -0.01660436 0.997609 0.06708735 -0.01596504 0.9502776 0.3109944 -0.004664719 0.9977995 0.06613945 -0.1312478 0.9360855 0.3263708 -0.229286 0.9326398 0.2785874 -0.03611856 0.996999 0.06847298 -0.06153726 0.9964177 0.05800938 -0.3229691 0.4677442 0.8227432 -0.3648287 0.1322643 0.9216324 -0.5586876 0.4404841 0.702739 -0.6192039 0.1091977 0.7776004 -0.3035553 0.0490449 -0.9515508 -0.5918108 0.02937239 -0.8055416 -0.3075947 -0.01797306 -0.9513478 -0.5967216 -0.04469877 -0.8012025 -0.2937819 0.08447653 -0.9521324 -0.2931884 0.1092274 -0.9497947 -0.5761865 0.063802 -0.8148242 -0.5681998 0.09051543 -0.8178973 -0.1166781 0.09623843 -0.9884961 -0.02126276 0.09611999 -0.9951427 -0.1153472 0.1196799 -0.9860892 -0.02137482 0.1188521 -0.9926819 -0.1198751 0.05620551 -0.9911967 -0.121609 -0.005792915 -0.9925612 -0.0212599 0.05736005 -0.9981272 -0.02152305 -0.002667546 -0.9997648 -0.2547717 0.481478 -0.8386122 -0.5057016 0.4551749 -0.7328586 -0.2891615 0.1102919 -0.9509056 -0.5673512 0.1068192 -0.8165185 -0.1012862 0.9393325 -0.3277127 -0.02977466 0.9972258 -0.06822192 -0.200621 0.9384048 -0.281332 -0.0550754 0.9968129 -0.05771327 -0.03771901 0.9437202 -0.3285871 -0.007211804 0.9483504 -0.3171428 -0.01153177 0.9975546 -0.06893491 -0.002584755 0.9977378 -0.06717628 -0.1014195 0.5034041 -0.8580784 -0.1146045 0.1208689 -0.9860307 -0.01931726 0.508965 -0.8605704 -0.0214563 0.1200453 -0.9925366 -0.8881785 -0.4414993 -0.1273468 -0.8024967 -0.4293999 -0.4142644 -0.9671505 -0.213329 -0.1382411 -0.8700592 -0.2007154 -0.4502338 -0.8241339 -0.5531639 -0.1217093 -0.8677975 -0.4797191 -0.1296039 -0.7444021 -0.5425682 -0.3892113 -0.7811644 -0.4694132 -0.411623 -0.8232698 -0.554947 0.1194186 -0.7439091 -0.5551366 0.372052 -0.8661761 -0.4834452 0.1265695 -0.7777602 -0.4905721 0.3929734 -0.8862055 -0.4448397 0.1294507 -0.965955 -0.216028 0.1423469 -0.8026156 -0.4433134 0.3991006 -0.8754474 -0.2124115 0.4341353 -0.4517176 -0.8890473 -0.07447314 -0.4082018 -0.885251 -0.2229396 -0.7695193 -0.6278941 -0.1165723 -0.6962512 -0.6159564 -0.3685538 -0.2680586 -0.9620369 -0.05128091 -0.1211279 -0.9917193 -0.04267519 -0.2332391 -0.961844 -0.1430239 -0.08722424 -0.9918194 -0.09320056 -0.2682393 -0.9625843 0.03846079 -0.238014 -0.9635111 0.1224573 -0.1223883 -0.9922468 0.02161854 -0.0903902 -0.9933375 0.07148599 -0.4504281 -0.8907293 0.06095719 -0.7668638 -0.6322403 0.110419 -0.4090102 -0.8892899 0.2046322 -0.691115 -0.6323316 0.3500244 -0.0511955 -0.9463617 0.3190275 -0.01111167 -0.9452797 0.3260721 -0.02280002 -0.9911066 0.1311033 -0.003672063 -0.9911274 0.132865 -0.08759015 -0.8427534 0.531126 -0.1385006 -0.5575748 0.8184913 -0.02048301 -0.8379429 0.5453734 -0.03279036 -0.5486834 0.835387 -0.1888242 -0.8537929 0.4851631 -0.3071262 -0.8749005 0.3744634 -0.2986926 -0.5744042 0.7621304 -0.5040923 -0.6067445 0.6146154 -0.1131719 -0.951262 0.286867 -0.05713248 -0.9915845 0.1161729 -0.1815618 -0.9593281 0.2161597 -0.08376014 -0.9931081 0.08197927 -0.1506666 -0.485549 0.8611283 -0.03616654 -0.4772129 0.8780433 -0.1517235 -0.4432404 0.8834693 -0.03607523 -0.4367492 0.8988597 -0.1625872 -0.3772615 0.9117232 -0.1758634 -0.1712297 0.9694083 -0.03934061 -0.3699994 0.9281988 -0.04294353 -0.167895 0.9848691 -0.3472542 -0.3914185 0.8521774 -0.5850036 -0.4203529 0.6935952 -0.3732305 -0.1783733 0.9104297 -0.6325781 -0.1971989 0.748971 -0.3235796 -0.5011586 0.8025812 -0.3296228 -0.4519503 0.8289088 -0.5440318 -0.5315127 0.6492487 -0.5620517 -0.4737035 0.6780139 -0.1172193 -0.29743 -0.9475206 -0.021025 -0.2848795 -0.9583328 -0.1206713 -0.1072532 -0.9868816 -0.02132451 -0.09925752 -0.9948334 -0.1160018 -0.3977206 -0.9101439 -0.1208312 -0.3362596 -0.9339857 -0.02206373 -0.3844203 -0.9228945 -0.02366346 -0.3238083 -0.9458268 -0.2809974 -0.4352535 -0.8553332 -0.5194361 -0.4952957 -0.696325 -0.2908374 -0.370473 -0.8821358 -0.5401082 -0.4252191 -0.7262727 -0.292045 -0.3302248 -0.8975864 -0.3047554 -0.128109 -0.9437756 -0.552859 -0.3843441 -0.739342 -0.5887877 -0.1648374 -0.7913013 -0.0744968 -0.8146734 -0.5751153 -0.0150851 -0.808765 -0.5879386 -0.1127743 -0.4738345 -0.873363 -0.02217727 -0.4586727 -0.8883285 -0.04265737 -0.9370768 -0.3465073 -0.01936024 -0.9881395 -0.1523345 -0.008034288 -0.9355801 -0.3530234 -0.002593636 -0.9881024 -0.1537756 -0.1074796 -0.9426366 -0.316045 -0.1807548 -0.9536426 -0.2406107 -0.05730962 -0.9884337 -0.1404087 -0.1059724 -0.9887437 -0.1056215 -0.1711171 -0.8345207 -0.523731 -0.2685694 -0.5115752 -0.816187 -0.2957561 -0.8651363 -0.4050526 -0.4894825 -0.5701121 -0.6598327 -0.007442116 0.9999481 -0.006975769 -0.007846176 0.9996546 -0.02508455 -0.001873612 0.9999754 -0.00677669 -0.001874923 0.9997013 -0.02437096 -0.01667177 0.9998303 -0.00785166 -0.03527647 0.9993264 -0.01012945 -0.01920753 0.9994528 -0.02693355 -0.03825026 0.9987719 -0.03149396 -0.01814657 0.9998093 0.007208168 -0.0228486 0.9994167 0.02538132 -0.0376814 0.9992457 0.009392678 -0.0446105 0.9985866 0.02889162 -0.007697224 0.9999458 0.007020056 -0.001963496 0.999975 0.006788909 -0.009486913 0.9996397 0.02511316 -0.00249058 0.9996999 0.02437144 -0.03925514 -0.9984917 -0.03838801 -0.03793156 -0.9965568 -0.07372826 -0.06504577 -0.9972847 -0.03453296 -0.06303381 -0.9958967 -0.06493604 -0.008190393 -0.9990404 -0.04302793 2.3683e-4 -0.9990598 -0.04335367 -0.01122635 -0.9966927 -0.08048337 -5.63474e-4 -0.9966799 -0.08141911 -0.01030629 -0.9997047 0.02200657 -0.01446652 -0.9980819 0.06019294 -3.67682e-4 -0.9997588 0.02195811 -0.001663506 -0.9981376 0.06098145 -0.0397939 -0.9991425 0.01143759 -0.06478583 -0.9977935 0.01452535 -0.04031038 -0.9978346 0.05197393 -0.06446689 -0.9959637 0.06245404 -0.372207 0.9263199 -0.05825465 -0.3103776 0.9346202 -0.1736405 -0.08429205 0.9963202 -0.01552343 -0.07728898 0.9960427 -0.04388105 -0.9085361 0.392579 -0.1429827 -0.9867765 0.05047404 -0.1540284 -0.7913362 0.4147946 -0.4491465 -0.8689889 0.06333309 -0.490762 -0.9089643 0.3901299 0.1469103 -0.8032091 0.408507 0.4335633 -0.9859265 0.05424684 0.1581339 -0.8784371 0.0743432 0.4720396 -0.3864012 0.9202352 0.06214106 -0.08604067 0.9961613 0.01612102 -0.3334259 0.9252876 0.1807484 -0.08217716 0.9956297 0.0443679 -0.9889342 0.02712577 -0.1458548 -0.8809076 0.04824036 -0.4708236 -0.9872713 0.05592149 -0.1488902 -0.8749616 0.0778774 -0.4778886 -0.9889515 -0.02619355 -0.145907 -0.9847519 -0.09980452 -0.1424878 -0.8817809 -0.01319622 -0.4714745 -0.8822641 -0.08674353 -0.4626941 -0.9883125 -0.02484351 0.1504034 -0.8902801 -0.01001846 0.4553033 -0.9840116 -0.1005527 0.147005 -0.8897557 -0.09037876 0.4473996 -0.9878463 0.02470225 0.1534588 -0.9862703 0.05369806 0.1561651 -0.8858977 0.0425772 0.4619226 -0.8808662 0.07344609 0.467633 -0.1809301 0.05224615 0.9821073 -0.04583615 0.05432546 0.9974707 -0.1810294 -0.03402024 0.9828891 -0.04525148 -0.03191745 0.9984657 -0.1796885 0.1080774 0.9777686 -0.1783757 0.1406657 0.9738559 -0.04610013 0.1101208 0.9928485 -0.04595828 0.1426846 0.9887006 -0.3745321 0.104166 0.9213443 -0.6355496 0.0869947 0.7671433 -0.3698356 0.1378906 0.9188079 -0.6275467 0.1211556 0.7690945 -0.3785369 0.04645109 0.92442 -0.3793158 -0.04256522 0.9242877 -0.6424994 0.02884989 0.765743 -0.6443215 -0.06028068 0.7623754 -0.1536461 0.4991891 0.8527621 -0.03998494 0.5203446 0.8530198 -0.1778889 0.1420555 0.9737432 -0.04643696 0.1434246 0.9885713 -0.0589202 0.9431885 0.3269922 -0.0159986 0.99749 0.06897687 -0.01516801 0.949052 0.3147544 -0.004288673 0.9977395 0.0670647 -0.1306333 0.93875 0.3188782 -0.2308796 0.9310306 0.2826249 -0.03613573 0.9970046 0.06838148 -0.06235766 0.9959465 0.06482386 -0.3234966 0.4863859 0.8116519 -0.366599 0.1393494 0.9198842 -0.5575551 0.4508185 0.6970617 -0.6219396 0.1227174 0.7733898 -0.2990322 0.0420475 -0.9533163 -0.5847913 0.01785337 -0.8109873 -0.3035697 -0.02379429 -0.9525121 -0.5909616 -0.05327737 -0.8049385 -0.2982283 0.09228849 -0.9500226 -0.2889564 0.1175923 -0.9500927 -0.5833432 0.07741105 -0.8085285 -0.5743088 0.1055332 -0.8118081 -0.1180868 0.09371346 -0.9885714 -0.02118319 0.09627175 -0.9951297 -0.1164907 0.1171889 -0.9862539 -0.02124488 0.1191578 -0.992648 -0.1183094 0.05362588 -0.9915277 -0.119883 -0.008512556 -0.9927515 -0.02119469 0.05724626 -0.9981351 -0.02122569 -0.003170013 -0.9997698 -0.2531793 0.4625741 -0.8496621 -0.5064119 0.4436057 -0.7394329 -0.2862864 0.1187939 -0.9507514 -0.5635589 0.09148198 -0.8209948 -0.1013476 0.9414609 -0.3215277 -0.02976059 0.9972227 -0.06827366 -0.2018112 0.9369037 -0.2854534 -0.05513346 0.9963886 -0.06457626 -0.0396431 0.9477108 -0.3166587 -0.008117496 0.9496203 -0.3132978 -0.01222622 0.9976695 -0.06712728 -0.002990126 0.9977996 -0.06623411 -0.0988003 0.4870776 -0.8677521 -0.1153606 0.118349 -0.9862482 -0.01850849 0.5049351 -0.8629589 -0.02137345 0.1203439 -0.9925022 -0.8873715 -0.4428462 -0.1282935 -0.8015077 -0.4306155 -0.4149166 -0.9673036 -0.2128406 -0.1379228 -0.8714083 -0.1981375 -0.4487642 -0.8258917 -0.5509068 -0.1200202 -0.8697675 -0.4766317 -0.1277763 -0.7473976 -0.5395699 -0.3876354 -0.785025 -0.4646196 -0.4097127 -0.8233134 -0.5548663 0.1194927 -0.7464597 -0.5525401 0.3708066 -0.8659368 -0.4839773 0.1261732 -0.7815043 -0.4859228 0.3913185 -0.8860703 -0.4451936 0.1291595 -0.9658247 -0.2171 0.1415994 -0.8037486 -0.4418917 0.3983966 -0.8747344 -0.2138168 0.434882 -0.4477601 -0.890864 -0.076631 -0.4036676 -0.8870862 -0.2238984 -0.7671288 -0.6305417 -0.1180282 -0.6924037 -0.6196786 -0.3695614 -0.2742571 -0.9598568 -0.05880486 -0.1267796 -0.9911965 -0.03816586 -0.242483 -0.9599949 -0.1400428 -0.1137749 -0.9901923 -0.08108448 -0.2752159 -0.9607892 0.03377151 -0.2461091 -0.9617903 0.1199582 -0.1276986 -0.9916616 0.01733362 -0.1163083 -0.991409 0.05983918 -0.4517837 -0.8900913 0.06024199 -0.7667671 -0.632348 0.1104733 -0.411695 -0.88817 0.2041116 -0.6940406 -0.6294923 0.3493525 -0.05358552 -0.9454471 0.3213387 -0.01225429 -0.9447026 0.3276996 -0.02372694 -0.990969 0.1319761 -0.004521012 -0.9909753 0.1339688 -0.09051746 -0.8404269 0.5343121 -0.140899 -0.553913 0.8205656 -0.02136766 -0.8369958 0.5467922 -0.0335192 -0.5472828 0.8362763 -0.18692 -0.8548702 0.4840019 -0.3072767 -0.8748364 0.3744895 -0.2944559 -0.5793868 0.7600044 -0.4989807 -0.611658 0.613916 -0.1178985 -0.9499754 0.2892175 -0.06213527 -0.9909664 0.1188488 -0.1891129 -0.9577561 0.2166555 -0.1101886 -0.9903406 0.08416742 -0.153689 -0.4819213 0.8626306 -0.03717076 -0.4757589 0.87879 -0.1549273 -0.438523 0.8852657 -0.03708171 -0.4349853 0.8996738 -0.1652117 -0.3738243 0.9126667 -0.177681 -0.1684405 0.9695655 -0.04033368 -0.3684808 0.92876 -0.04384171 -0.1663843 0.9850859 -0.3435479 -0.3955456 0.8517738 -0.5817103 -0.4237844 0.6942765 -0.3715544 -0.1807247 0.9106514 -0.6322208 -0.1977095 0.7491381 -0.3187382 -0.5059199 0.8015305 -0.3241041 -0.4586748 0.82739 -0.5388492 -0.5360986 0.6498 -0.5555983 -0.4807671 0.678361 -0.1191717 -0.2946736 -0.9481381 -0.02193778 -0.2833647 -0.9587613 -0.1225199 -0.1043475 -0.9869654 -0.02198117 -0.09811776 -0.9949321 -0.1140766 -0.4002957 -0.9092579 -0.1190373 -0.3392528 -0.9331333 -0.02103197 -0.3861004 -0.9222171 -0.02262651 -0.3258679 -0.9451445 -0.2797026 -0.4366049 -0.8550689 -0.5206216 -0.4942543 -0.6961796 -0.2899783 -0.3716152 -0.881938 -0.5421867 -0.4228895 -0.7260841 -0.2940837 -0.3278809 -0.8977801 -0.3076722 -0.1240577 -0.9433704 -0.5535286 -0.3836619 -0.7391954 -0.5918401 -0.1606954 -0.7898749 -0.07332593 -0.8157411 -0.5737506 -0.0149216 -0.8089672 -0.5876644 -0.1141916 -0.4713213 -0.8745379 -0.02296829 -0.4569079 -0.8892175 -0.04443085 -0.9363226 -0.348319 -0.02042251 -0.9879575 -0.1533715 -0.008947372 -0.9350596 -0.3543776 -0.003489077 -0.9879133 -0.1549686 -0.1024253 -0.9440726 -0.3134267 -0.1735829 -0.9550814 -0.2401843 -0.05285632 -0.9890266 -0.1379589 -0.08035242 -0.99136 -0.1036776 -0.1711902 -0.8344757 -0.5237788 -0.26925 -0.5106845 -0.8165206 -0.2964708 -0.8648307 -0.4051826 -0.487632 -0.5719528 -0.6596098</float_array>
          <technique_common>
            <accessor source="#shape0_050-mesh-normals-array" count="448" stride="3">
              <param name="X" type="float"/>
              <param name="Y" type="float"/>
              <param name="Z" type="float"/>
            </accessor>
          </technique_common>
        </source>
        <source id="shape0_050-mesh-colors-shape0-lib-vcolor" name="shape0-lib-vcolor">
          <float_array id="shape0_050-mesh-colors-shape0-lib-vcolor-array" count="4032">0.654902 0.5019608 0.3137255 0.654902 0.5019608 0.3137255 0.654902 0.5019608 0.3137255 0.654902 0.5019608 0.3137255 0.654902 0.5019608 0.3137255 0.654902 0.5019608 0.3137255 0.654902 0.5019608 0.3137255 0.654902 0.5019608 0.3137255 0.654902 0.5019608 0.3137255 0.654902 0.5019608 0.3137255 0.654902 0.5019608 0.3137255 0.654902 0.5019608 0.3137255 0.654902 0.5019608 0.3137255 0.654902 0.5019608 0.3137255 0.654902 0.5019608 0.3137255 0.654902 0.5019608 0.3137255 0.654902 0.5019608 0.3137255 0.654902 0.5019608 0.3137255 0.654902 0.5019608 0.3137255 0.654902 0.5019608 0.3137255 0.654902 0.5019608 0.3137255 0.654902 0.5019608 0.3137255 0.654902 0.5019608 0.3137255 0.654902 0.5019608 0.3137255 0.654902 0.5019608 0.3137255 0.654902 0.5019608 0.3137255 0.654902 0.5019608 0.3137255 0.654902 0.5019608 0.3137255 0.654902 0.5019608 0.3137255 0.654902 0.5019608 0.3137255 0.654902 0.5019608 0.3137255 0.654902 0.5019608 0.3137255 0.654902 0.5019608 0.3137255 0.654902 0.5019608 0.3137255 0.654902 0.5019608 0.3137255 0.654902 0.5019608 0.3137255 0.654902 0.5019608 0.3137255 0.654902 0.5019608 0.3137255 0.654902 0.5019608 0.3137255 0.654902 0.5019608 0.3137255 0.654902 0.5019608 0.3137255 0.654902 0.5019608 0.3137255 0.654902 0.5019608 0.3137255 0.654902 0.5019608 0.3137255 0.654902 0.5019608 0.3137255 0.654902 0.5019608 0.3137255 0.654902 0.5019608 0.3137255 0.654902 0.5019608 0.3137255 0.654902 0.5019608 0.3137255 0.654902 0.5019608 0.3137255 0.654902 0.5019608 0.3137255 0.654902 0.5019608 0.3137255 0.654902 0.5019608 0.3137255 0.654902 0.5019608 0.3137255 0.654902 0.5019608 0.3137255 0.654902 0.5019608 0.3137255 0.654902 0.5019608 0.3137255 0.654902 0.5019608 0.3137255 0.654902 0.5019608 0.3137255 0.654902 0.5019608 0.3137255 0.654902 0.5019608 0.3137255 0.654902 0.5019608 0.3137255 0.654902 0.5019608 0.3137255 0.654902 0.5019608 0.3137255 0.654902 0.5019608 0.3137255 0.654902 0.5019608 0.3137255 0.654902 0.5019608 0.3137255 0.654902 0.5019608 0.3137255 0.654902 0.5019608 0.3137255 0.654902 0.5019608 0.3137255 0.654902 0.5019608 0.3137255 0.654902 0.5019608 0.3137255 0.654902 0.5019608 0.3137255 0.654902 0.5019608 0.3137255 0.654902 0.5019608 0.3137255 0.654902 0.5019608 0.3137255 0.654902 0.5019608 0.3137255 0.654902 0.5019608 0.3137255 0.654902 0.5019608 0.3137255 0.654902 0.5019608 0.3137255 0.654902 0.5019608 0.3137255 0.654902 0.5019608 0.3137255 0.654902 0.5019608 0.3137255 0.654902 0.5019608 0.3137255 0.654902 0.5019608 0.3137255 0.654902 0.5019608 0.3137255 0.654902 0.5019608 0.3137255 0.654902 0.5019608 0.3137255 0.654902 0.5019608 0.3137255 0.654902 0.5019608 0.3137255 0.654902 0.5019608 0.3137255 0.654902 0.5019608 0.3137255 0.654902 0.5019608 0.3137255 0.654902 0.5019608 0.3137255 0.654902 0.5019608 0.3137255 0.654902 0.5019608 0.3137255 0.654902 0.5019608 0.3137255 0.654902 0.5019608 0.3137255 0.654902 0.5019608 0.3137255 0.654902 0.5019608 0.3137255 0.654902 0.5019608 0.3137255 0.654902 0.5019608 0.3137255 0.654902 0.5019608 0.3137255 0.654902 0.5019608 0.3137255 0.654902 0.5019608 0.3137255 0.654902 0.5019608 0.3137255 0.654902 0.5019608 0.3137255 0.654902 0.5019608 0.3137255 0.654902 0.5019608 0.3137255 0.654902 0.5019608 0.3137255 0.654902 0.5019608 0.3137255 0.654902 0.5019608 0.3137255 0.654902 0.5019608 0.3137255 0.654902 0.5019608 0.3137255 0.654902 0.5019608 0.3137255 0.654902 0.5019608 0.3137255 0.654902 0.5019608 0.3137255 0.654902 0.5019608 0.3137255 0.654902 0.5019608 0.3137255 0.654902 0.5019608 0.3137255 0.654902 0.5019608 0.3137255 0.654902 0.5019608 0.3137255 0.654902 0.5019608 0.3137255 0.654902 0.5019608 0.3137255 0.654902 0.5019608 0.3137255 0.654902 0.5019608 0.3137255 0.654902 0.5019608 0.3137255 0.654902 0.5019608 0.3137255 0.654902 0.5019608 0.3137255 0.654902 0.5019608 0.3137255 0.654902 0.5019608 0.3137255 0.654902 0.5019608 0.3137255 0.654902 0.5019608 0.3137255 0.654902 0.5019608 0.3137255 0.654902 0.5019608 0.3137255 0.654902 0.5019608 0.3137255 0.654902 0.5019608 0.3137255 0.654902 0.5019608 0.3137255 0.654902 0.5019608 0.3137255 0.654902 0.5019608 0.3137255 0.654902 0.5019608 0.3137255 0.654902 0.5019608 0.3137255 0.654902 0.5019608 0.3137255 0.654902 0.5019608 0.3137255 0.654902 0.5019608 0.3137255 0.654902 0.5019608 0.3137255 0.654902 0.5019608 0.3137255 0.654902 0.5019608 0.3137255 0.654902 0.5019608 0.3137255 0.654902 0.5019608 0.3137255 0.654902 0.5019608 0.3137255 0.654902 0.5019608 0.3137255 0.654902 0.5019608 0.3137255 0.654902 0.5019608 0.3137255 0.654902 0.5019608 0.3137255 0.654902 0.5019608 0.3137255 0.654902 0.5019608 0.3137255 0.654902 0.5019608 0.3137255 0.654902 0.5019608 0.3137255 0.654902 0.5019608 0.3137255 0.654902 0.5019608 0.3137255 0.654902 0.5019608 0.3137255 0.654902 0.5019608 0.3137255 0.654902 0.5019608 0.3137255 0.654902 0.5019608 0.3137255 0.654902 0.5019608 0.3137255 0.654902 0.5019608 0.3137255 0.654902 0.5019608 0.3137255 0.654902 0.5019608 0.3137255 0.654902 0.5019608 0.3137255 0.654902 0.5019608 0.3137255 0.654902 0.5019608 0.3137255 0.654902 0.5019608 0.3137255 0.654902 0.5019608 0.3137255 0.654902 0.5019608 0.3137255 0.654902 0.5019608 0.3137255 0.654902 0.5019608 0.3137255 0.654902 0.5019608 0.3137255 0.654902 0.5019608 0.3137255 0.654902 0.5019608 0.3137255 0.654902 0.5019608 0.3137255 0.654902 0.5019608 0.3137255 0.654902 0.5019608 0.3137255 0.654902 0.5019608 0.3137255 0.654902 0.5019608 0.3137255 0.654902 0.5019608 0.3137255 0.654902 0.5019608 0.3137255 0.654902 0.5019608 0.3137255 0.654902 0.5019608 0.3137255 0.654902 0.5019608 0.3137255 0.654902 0.5019608 0.3137255 0.654902 0.5019608 0.3137255 0.654902 0.5019608 0.3137255 0.654902 0.5019608 0.3137255 0.654902 0.5019608 0.3137255 0.654902 0.5019608 0.3137255 0.654902 0.5019608 0.3137255 0.654902 0.5019608 0.3137255 0.654902 0.5019608 0.3137255 0.654902 0.5019608 0.3137255 0.654902 0.5019608 0.3137255 0.654902 0.5019608 0.3137255 0.654902 0.5019608 0.3137255 0.654902 0.5019608 0.3137255 0.654902 0.5019608 0.3137255 0.654902 0.5019608 0.3137255 0.654902 0.5019608 0.3137255 0.654902 0.5019608 0.3137255 0.654902 0.5019608 0.3137255 0.654902 0.5019608 0.3137255 0.654902 0.5019608 0.3137255 0.654902 0.5019608 0.3137255 0.654902 0.5019608 0.3137255 0.654902 0.5019608 0.3137255 0.654902 0.5019608 0.3137255 0.654902 0.5019608 0.3137255 0.654902 0.5019608 0.3137255 0.654902 0.5019608 0.3137255 0.654902 0.5019608 0.3137255 0.654902 0.5019608 0.3137255 0.654902 0.5019608 0.3137255 0.654902 0.5019608 0.3137255 0.654902 0.5019608 0.3137255 0.654902 0.5019608 0.3137255 0.654902 0.5019608 0.3137255 0.654902 0.5019608 0.3137255 0.654902 0.5019608 0.3137255 0.654902 0.5019608 0.3137255 0.654902 0.5019608 0.3137255 0.654902 0.5019608 0.3137255 0.654902 0.5019608 0.3137255 0.654902 0.5019608 0.3137255 0.654902 0.5019608 0.3137255 0.654902 0.5019608 0.3137255 0.654902 0.5019608 0.3137255 0.654902 0.5019608 0.3137255 0.654902 0.5019608 0.3137255 0.654902 0.5019608 0.3137255 0.654902 0.5019608 0.3137255 0.654902 0.5019608 0.3137255 0.654902 0.5019608 0.3137255 0.654902 0.5019608 0.3137255 0.654902 0.5019608 0.3137255 0.654902 0.5019608 0.3137255 0.654902 0.5019608 0.3137255 0.654902 0.5019608 0.3137255 0.654902 0.5019608 0.3137255 0.654902 0.5019608 0.3137255 0.654902 0.5019608 0.3137255 0.654902 0.5019608 0.3137255 0.654902 0.5019608 0.3137255 0.654902 0.5019608 0.3137255 0.654902 0.5019608 0.3137255 0.654902 0.5019608 0.3137255 0.654902 0.5019608 0.3137255 0.654902 0.5019608 0.3137255 0.654902 0.5019608 0.3137255 0.654902 0.5019608 0.3137255 0.654902 0.5019608 0.3137255 0.654902 0.5019608 0.3137255 0.654902 0.5019608 0.3137255 0.654902 0.5019608 0.3137255 0.654902 0.5019608 0.3137255 0.654902 0.5019608 0.3137255 0.654902 0.5019608 0.3137255 0.654902 0.5019608 0.3137255 0.654902 0.5019608 0.3137255 0.654902 0.5019608 0.3137255 0.654902 0.5019608 0.3137255 0.654902 0.5019608 0.3137255 0.654902 0.5019608 0.3137255 0.654902 0.5019608 0.3137255 0.654902 0.5019608 0.3137255 0.654902 0.5019608 0.3137255 0.654902 0.5019608 0.3137255 0.654902 0.5019608 0.3137255 0.654902 0.5019608 0.3137255 0.654902 0.5019608 0.3137255 0.654902 0.5019608 0.3137255 0.654902 0.5019608 0.3137255 0.654902 0.5019608 0.3137255 0.654902 0.5019608 0.3137255 0.654902 0.5019608 0.3137255 0.654902 0.5019608 0.3137255 0.654902 0.5019608 0.3137255 0.654902 0.5019608 0.3137255 0.654902 0.5019608 0.3137255 0.654902 0.5019608 0.3137255 0.654902 0.5019608 0.3137255 0.654902 0.5019608 0.3137255 0.654902 0.5019608 0.3137255 0.654902 0.5019608 0.3137255 0.654902 0.5019608 0.3137255 0.654902 0.5019608 0.3137255 0.654902 0.5019608 0.3137255 0.654902 0.5019608 0.3137255 0.654902 0.5019608 0.3137255 0.654902 0.5019608 0.3137255 0.654902 0.5019608 0.3137255 0.654902 0.5019608 0.3137255 0.654902 0.5019608 0.3137255 0.654902 0.5019608 0.3137255 0.654902 0.5019608 0.3137255 0.654902 0.5019608 0.3137255 0.654902 0.5019608 0.3137255 0.654902 0.5019608 0.3137255 0.654902 0.5019608 0.3137255 0.654902 0.5019608 0.3137255 0.654902 0.5019608 0.3137255 0.654902 0.5019608 0.3137255 0.654902 0.5019608 0.3137255 0.654902 0.5019608 0.3137255 0.654902 0.5019608 0.3137255 0.654902 0.5019608 0.3137255 0.654902 0.5019608 0.3137255 0.654902 0.5019608 0.3137255 0.654902 0.5019608 0.3137255 0.654902 0.5019608 0.3137255 0.654902 0.5019608 0.3137255 0.654902 0.5019608 0.3137255 0.654902 0.5019608 0.3137255 0.654902 0.5019608 0.3137255 0.654902 0.5019608 0.3137255 0.654902 0.5019608 0.3137255 0.654902 0.5019608 0.3137255 0.654902 0.5019608 0.3137255 0.654902 0.5019608 0.3137255 0.654902 0.5019608 0.3137255 0.654902 0.5019608 0.3137255 0.654902 0.5019608 0.3137255 0.654902 0.5019608 0.3137255 0.654902 0.5019608 0.3137255 0.654902 0.5019608 0.3137255 0.654902 0.5019608 0.3137255 0.654902 0.5019608 0.3137255 0.654902 0.5019608 0.3137255 0.654902 0.5019608 0.3137255 0.654902 0.5019608 0.3137255 0.654902 0.5019608 0.3137255 0.654902 0.5019608 0.3137255 0.654902 0.5019608 0.3137255 0.654902 0.5019608 0.3137255 0.654902 0.5019608 0.3137255 0.654902 0.5019608 0.3137255 0.654902 0.5019608 0.3137255 0.654902 0.5019608 0.3137255 0.654902 0.5019608 0.3137255 0.654902 0.5019608 0.3137255 0.654902 0.5019608 0.3137255 0.654902 0.5019608 0.3137255 0.654902 0.5019608 0.3137255 0.654902 0.5019608 0.3137255 0.654902 0.5019608 0.3137255 0.654902 0.5019608 0.3137255 0.654902 0.5019608 0.3137255 0.654902 0.5019608 0.3137255 0.654902 0.5019608 0.3137255 0.654902 0.5019608 0.3137255 0.654902 0.5019608 0.3137255 0.654902 0.5019608 0.3137255 0.654902 0.5019608 0.3137255 0.654902 0.5019608 0.3137255 0.654902 0.5019608 0.3137255 0.654902 0.5019608 0.3137255 0.654902 0.5019608 0.3137255 0.654902 0.5019608 0.3137255 0.654902 0.5019608 0.3137255 0.654902 0.5019608 0.3137255 0.654902 0.5019608 0.3137255 0.654902 0.5019608 0.3137255 0.654902 0.5019608 0.3137255 0.654902 0.5019608 0.3137255 0.654902 0.5019608 0.3137255 0.654902 0.5019608 0.3137255 0.654902 0.5019608 0.3137255 0.654902 0.5019608 0.3137255 0.654902 0.5019608 0.3137255 0.654902 0.5019608 0.3137255 0.654902 0.5019608 0.3137255 0.654902 0.5019608 0.3137255 0.654902 0.5019608 0.3137255 0.654902 0.5019608 0.3137255 0.654902 0.5019608 0.3137255 0.654902 0.5019608 0.3137255 0.654902 0.5019608 0.3137255 0.654902 0.5019608 0.3137255 0.654902 0.5019608 0.3137255 0.654902 0.5019608 0.3137255 0.654902 0.5019608 0.3137255 0.654902 0.5019608 0.3137255 0.654902 0.5019608 0.3137255 0.654902 0.5019608 0.3137255 0.654902 0.5019608 0.3137255 0.654902 0.5019608 0.3137255 0.654902 0.5019608 0.3137255 0.654902 0.5019608 0.3137255 0.654902 0.5019608 0.3137255 0.654902 0.5019608 0.3137255 0.654902 0.5019608 0.3137255 0.654902 0.5019608 0.3137255 0.654902 0.5019608 0.3137255 0.654902 0.5019608 0.3137255 0.654902 0.5019608 0.3137255 0.654902 0.5019608 0.3137255 0.654902 0.5019608 0.3137255 0.654902 0.5019608 0.3137255 0.654902 0.5019608 0.3137255 0.654902 0.5019608 0.3137255 0.654902 0.5019608 0.3137255 0.654902 0.5019608 0.3137255 0.654902 0.5019608 0.3137255 0.654902 0.5019608 0.3137255 0.654902 0.5019608 0.3137255 0.654902 0.5019608 0.3137255 0.654902 0.5019608 0.3137255 0.654902 0.5019608 0.3137255 0.654902 0.5019608 0.3137255 0.654902 0.5019608 0.3137255 0.654902 0.5019608 0.3137255 0.654902 0.5019608 0.3137255 0.654902 0.5019608 0.3137255 0.654902 0.5019608 0.3137255 0.654902 0.5019608 0.3137255 0.654902 0.5019608 0.3137255 0.654902 0.5019608 0.3137255 0.654902 0.5019608 0.3137255 0.654902 0.5019608 0.3137255 0.654902 0.5019608 0.3137255 0.654902 0.5019608 0.3137255 0.654902 0.5019608 0.3137255 0.654902 0.5019608 0.3137255 0.654902 0.5019608 0.3137255 0.654902 0.5019608 0.3137255 0.654902 0.5019608 0.3137255 0.654902 0.5019608 0.3137255 0.654902 0.5019608 0.3137255 0.654902 0.5019608 0.3137255 0.654902 0.5019608 0.3137255 0.654902 0.5019608 0.3137255 0.654902 0.5019608 0.3137255 0.654902 0.5019608 0.3137255 0.654902 0.5019608 0.3137255 0.654902 0.5019608 0.3137255 0.654902 0.5019608 0.3137255 0.654902 0.5019608 0.3137255 0.654902 0.5019608 0.3137255 0.654902 0.5019608 0.3137255 0.654902 0.5019608 0.3137255 0.654902 0.5019608 0.3137255 0.654902 0.5019608 0.3137255 0.654902 0.5019608 0.3137255 0.654902 0.5019608 0.3137255 0.654902 0.5019608 0.3137255 0.654902 0.5019608 0.3137255 0.654902 0.5019608 0.3137255 0.654902 0.5019608 0.3137255 0.654902 0.5019608 0.3137255 0.654902 0.5019608 0.3137255 0.654902 0.5019608 0.3137255 0.654902 0.5019608 0.3137255 0.654902 0.5019608 0.3137255 0.654902 0.5019608 0.3137255 0.654902 0.5019608 0.3137255 0.654902 0.5019608 0.3137255 0.654902 0.5019608 0.3137255 0.654902 0.5019608 0.3137255 0.654902 0.5019608 0.3137255 0.654902 0.5019608 0.3137255 0.654902 0.5019608 0.3137255 0.654902 0.5019608 0.3137255 0.654902 0.5019608 0.3137255 0.654902 0.5019608 0.3137255 0.654902 0.5019608 0.3137255 0.654902 0.5019608 0.3137255 0.654902 0.5019608 0.3137255 0.654902 0.5019608 0.3137255 0.654902 0.5019608 0.3137255 0.654902 0.5019608 0.3137255 0.654902 0.5019608 0.3137255 0.654902 0.5019608 0.3137255 0.654902 0.5019608 0.3137255 0.654902 0.5019608 0.3137255 0.654902 0.5019608 0.3137255 0.654902 0.5019608 0.3137255 0.654902 0.5019608 0.3137255 0.654902 0.5019608 0.3137255 0.654902 0.5019608 0.3137255 0.654902 0.5019608 0.3137255 0.654902 0.5019608 0.3137255 0.654902 0.5019608 0.3137255 0.654902 0.5019608 0.3137255 0.654902 0.5019608 0.3137255 0.654902 0.5019608 0.3137255 0.654902 0.5019608 0.3137255 0.654902 0.5019608 0.3137255 0.654902 0.5019608 0.3137255 0.654902 0.5019608 0.3137255 0.654902 0.5019608 0.3137255 0.654902 0.5019608 0.3137255 0.654902 0.5019608 0.3137255 0.654902 0.5019608 0.3137255 0.654902 0.5019608 0.3137255 0.654902 0.5019608 0.3137255 0.654902 0.5019608 0.3137255 0.654902 0.5019608 0.3137255 0.654902 0.5019608 0.3137255 0.654902 0.5019608 0.3137255 0.654902 0.5019608 0.3137255 0.654902 0.5019608 0.3137255 0.654902 0.5019608 0.3137255 0.654902 0.5019608 0.3137255 0.654902 0.5019608 0.3137255 0.654902 0.5019608 0.3137255 0.654902 0.5019608 0.3137255 0.654902 0.5019608 0.3137255 0.654902 0.5019608 0.3137255 0.654902 0.5019608 0.3137255 0.654902 0.5019608 0.3137255 0.654902 0.5019608 0.3137255 0.654902 0.5019608 0.3137255 0.654902 0.5019608 0.3137255 0.654902 0.5019608 0.3137255 0.654902 0.5019608 0.3137255 0.654902 0.5019608 0.3137255 0.654902 0.5019608 0.3137255 0.654902 0.5019608 0.3137255 0.654902 0.5019608 0.3137255 0.654902 0.5019608 0.3137255 0.654902 0.5019608 0.3137255 0.654902 0.5019608 0.3137255 0.654902 0.5019608 0.3137255 0.654902 0.5019608 0.3137255 0.654902 0.5019608 0.3137255 0.654902 0.5019608 0.3137255 0.654902 0.5019608 0.3137255 0.654902 0.5019608 0.3137255 0.654902 0.5019608 0.3137255 0.654902 0.5019608 0.3137255 0.654902 0.5019608 0.3137255 0.654902 0.5019608 0.3137255 0.654902 0.5019608 0.3137255 0.654902 0.5019608 0.3137255 0.654902 0.5019608 0.3137255 0.654902 0.5019608 0.3137255 0.654902 0.5019608 0.3137255 0.654902 0.5019608 0.3137255 0.654902 0.5019608 0.3137255 0.654902 0.5019608 0.3137255 0.654902 0.5019608 0.3137255 0.654902 0.5019608 0.3137255 0.654902 0.5019608 0.3137255 0.654902 0.5019608 0.3137255 0.654902 0.5019608 0.3137255 0.654902 0.5019608 0.3137255 0.654902 0.5019608 0.3137255 0.654902 0.5019608 0.3137255 0.654902 0.5019608 0.3137255 0.654902 0.5019608 0.3137255 0.654902 0.5019608 0.3137255 0.654902 0.5019608 0.3137255 0.654902 0.5019608 0.3137255 0.654902 0.5019608 0.3137255 0.654902 0.5019608 0.3137255 0.654902 0.5019608 0.3137255 0.654902 0.5019608 0.3137255 0.654902 0.5019608 0.3137255 0.654902 0.5019608 0.3137255 0.654902 0.5019608 0.3137255 0.654902 0.5019608 0.3137255 0.654902 0.5019608 0.3137255 0.654902 0.5019608 0.3137255 0.654902 0.5019608 0.3137255 0.654902 0.5019608 0.3137255 0.654902 0.5019608 0.3137255 0.654902 0.5019608 0.3137255 0.654902 0.5019608 0.3137255 0.654902 0.5019608 0.3137255 0.654902 0.5019608 0.3137255 0.654902 0.5019608 0.3137255 0.654902 0.5019608 0.3137255 0.654902 0.5019608 0.3137255 0.654902 0.5019608 0.3137255 0.654902 0.5019608 0.3137255 0.654902 0.5019608 0.3137255 0.654902 0.5019608 0.3137255 0.654902 0.5019608 0.3137255 0.654902 0.5019608 0.3137255 0.654902 0.5019608 0.3137255 0.654902 0.5019608 0.3137255 0.654902 0.5019608 0.3137255 0.654902 0.5019608 0.3137255 0.654902 0.5019608 0.3137255 0.654902 0.5019608 0.3137255 0.654902 0.5019608 0.3137255 0.654902 0.5019608 0.3137255 0.654902 0.5019608 0.3137255 0.654902 0.5019608 0.3137255 0.654902 0.5019608 0.3137255 0.654902 0.5019608 0.3137255 0.654902 0.5019608 0.3137255 0.654902 0.5019608 0.3137255 0.654902 0.5019608 0.3137255 0.654902 0.5019608 0.3137255 0.654902 0.5019608 0.3137255 0.654902 0.5019608 0.3137255 0.654902 0.5019608 0.3137255 0.654902 0.5019608 0.3137255 0.654902 0.5019608 0.3137255 0.654902 0.5019608 0.3137255 0.654902 0.5019608 0.3137255 0.654902 0.5019608 0.3137255 0.654902 0.5019608 0.3137255 0.654902 0.5019608 0.3137255 0.654902 0.5019608 0.3137255 0.654902 0.5019608 0.3137255 0.654902 0.5019608 0.3137255 0.654902 0.5019608 0.3137255 0.654902 0.5019608 0.3137255 0.654902 0.5019608 0.3137255 0.654902 0.5019608 0.3137255 0.654902 0.5019608 0.3137255 0.654902 0.5019608 0.3137255 0.654902 0.5019608 0.3137255 0.654902 0.5019608 0.3137255 0.654902 0.5019608 0.3137255 0.654902 0.5019608 0.3137255 0.654902 0.5019608 0.3137255 0.654902 0.5019608 0.3137255 0.654902 0.5019608 0.3137255 0.654902 0.5019608 0.3137255 0.654902 0.5019608 0.3137255 0.654902 0.5019608 0.3137255 0.654902 0.5019608 0.3137255 0.654902 0.5019608 0.3137255 0.654902 0.5019608 0.3137255 0.654902 0.5019608 0.3137255 0.654902 0.5019608 0.3137255 0.654902 0.5019608 0.3137255 0.654902 0.5019608 0.3137255 0.654902 0.5019608 0.3137255 0.654902 0.5019608 0.3137255 0.654902 0.5019608 0.3137255 0.654902 0.5019608 0.3137255 0.654902 0.5019608 0.3137255 0.654902 0.5019608 0.3137255 0.654902 0.5019608 0.3137255 0.654902 0.5019608 0.3137255 0.654902 0.5019608 0.3137255 0.654902 0.5019608 0.3137255 0.654902 0.5019608 0.3137255 0.654902 0.5019608 0.3137255 0.654902 0.5019608 0.3137255 0.654902 0.5019608 0.3137255 0.654902 0.5019608 0.3137255 0.654902 0.5019608 0.3137255 0.654902 0.5019608 0.3137255 0.654902 0.5019608 0.3137255 0.654902 0.5019608 0.3137255 0.654902 0.5019608 0.3137255 0.654902 0.5019608 0.3137255 0.654902 0.5019608 0.3137255 0.654902 0.5019608 0.3137255 0.654902 0.5019608 0.3137255 0.654902 0.5019608 0.3137255 0.654902 0.5019608 0.3137255 0.654902 0.5019608 0.3137255 0.654902 0.5019608 0.3137255 0.654902 0.5019608 0.3137255 0.654902 0.5019608 0.3137255 0.654902 0.5019608 0.3137255 0.654902 0.5019608 0.3137255 0.654902 0.5019608 0.3137255 0.654902 0.5019608 0.3137255 0.654902 0.5019608 0.3137255 0.654902 0.5019608 0.3137255 0.654902 0.5019608 0.3137255 0.654902 0.5019608 0.3137255 0.654902 0.5019608 0.3137255 0.654902 0.5019608 0.3137255 0.654902 0.5019608 0.3137255 0.654902 0.5019608 0.3137255 0.654902 0.5019608 0.3137255 0.654902 0.5019608 0.3137255 0.654902 0.5019608 0.3137255 0.654902 0.5019608 0.3137255 0.654902 0.5019608 0.3137255 0.654902 0.5019608 0.3137255 0.654902 0.5019608 0.3137255 0.654902 0.5019608 0.3137255 0.654902 0.5019608 0.3137255 0.654902 0.5019608 0.3137255 0.654902 0.5019608 0.3137255 0.654902 0.5019608 0.3137255 0.654902 0.5019608 0.3137255 0.654902 0.5019608 0.3137255 0.654902 0.5019608 0.3137255 0.654902 0.5019608 0.3137255 0.654902 0.5019608 0.3137255 0.654902 0.5019608 0.3137255 0.654902 0.5019608 0.3137255 0.654902 0.5019608 0.3137255 0.654902 0.5019608 0.3137255 0.654902 0.5019608 0.3137255 0.654902 0.5019608 0.3137255 0.654902 0.5019608 0.3137255 0.654902 0.5019608 0.3137255 0.654902 0.5019608 0.3137255 0.654902 0.5019608 0.3137255 0.654902 0.5019608 0.3137255 0.654902 0.5019608 0.3137255 0.654902 0.5019608 0.3137255 0.654902 0.5019608 0.3137255 0.654902 0.5019608 0.3137255 0.654902 0.5019608 0.3137255 0.654902 0.5019608 0.3137255 0.654902 0.5019608 0.3137255 0.654902 0.5019608 0.3137255 0.654902 0.5019608 0.3137255 0.654902 0.5019608 0.3137255 0.654902 0.5019608 0.3137255 0.654902 0.5019608 0.3137255 0.654902 0.5019608 0.3137255 0.654902 0.5019608 0.3137255 0.654902 0.5019608 0.3137255 0.654902 0.5019608 0.3137255 0.654902 0.5019608 0.3137255 0.654902 0.5019608 0.3137255 0.654902 0.5019608 0.3137255 0.654902 0.5019608 0.3137255 0.654902 0.5019608 0.3137255 0.654902 0.5019608 0.3137255 0.654902 0.5019608 0.3137255 0.654902 0.5019608 0.3137255 0.654902 0.5019608 0.3137255 0.654902 0.5019608 0.3137255 0.654902 0.5019608 0.3137255 0.654902 0.5019608 0.3137255 0.654902 0.5019608 0.3137255 0.654902 0.5019608 0.3137255 0.654902 0.5019608 0.3137255 0.654902 0.5019608 0.3137255 0.654902 0.5019608 0.3137255 0.654902 0.5019608 0.3137255 0.654902 0.5019608 0.3137255 0.654902 0.5019608 0.3137255 0.654902 0.5019608 0.3137255 0.654902 0.5019608 0.3137255 0.654902 0.5019608 0.3137255 0.654902 0.5019608 0.3137255 0.654902 0.5019608 0.3137255 0.654902 0.5019608 0.3137255 0.654902 0.5019608 0.3137255 0.654902 0.5019608 0.3137255 0.654902 0.5019608 0.3137255 0.654902 0.5019608 0.3137255 0.654902 0.5019608 0.3137255 0.654902 0.5019608 0.3137255 0.654902 0.5019608 0.3137255 0.654902 0.5019608 0.3137255 0.654902 0.5019608 0.3137255 0.654902 0.5019608 0.3137255 0.654902 0.5019608 0.3137255 0.654902 0.5019608 0.3137255 0.654902 0.5019608 0.3137255 0.654902 0.5019608 0.3137255 0.654902 0.5019608 0.3137255 0.654902 0.5019608 0.3137255 0.654902 0.5019608 0.3137255 0.654902 0.5019608 0.3137255 0.654902 0.5019608 0.3137255 0.654902 0.5019608 0.3137255 0.654902 0.5019608 0.3137255 0.654902 0.5019608 0.3137255 0.654902 0.5019608 0.3137255 0.654902 0.5019608 0.3137255 0.654902 0.5019608 0.3137255 0.654902 0.5019608 0.3137255 0.654902 0.5019608 0.3137255 0.654902 0.5019608 0.3137255 0.654902 0.5019608 0.3137255 0.654902 0.5019608 0.3137255 0.654902 0.5019608 0.3137255 0.654902 0.5019608 0.3137255 0.654902 0.5019608 0.3137255 0.654902 0.5019608 0.3137255 0.654902 0.5019608 0.3137255 0.654902 0.5019608 0.3137255 0.654902 0.5019608 0.3137255 0.654902 0.5019608 0.3137255 0.654902 0.5019608 0.3137255 0.654902 0.5019608 0.3137255 0.654902 0.5019608 0.3137255 0.654902 0.5019608 0.3137255 0.654902 0.5019608 0.3137255 0.654902 0.5019608 0.3137255 0.654902 0.5019608 0.3137255 0.654902 0.5019608 0.3137255 0.654902 0.5019608 0.3137255 0.654902 0.5019608 0.3137255 0.654902 0.5019608 0.3137255 0.654902 0.5019608 0.3137255 0.654902 0.5019608 0.3137255 0.654902 0.5019608 0.3137255 0.654902 0.5019608 0.3137255 0.654902 0.5019608 0.3137255 0.654902 0.5019608 0.3137255 0.654902 0.5019608 0.3137255 0.654902 0.5019608 0.3137255 0.654902 0.5019608 0.3137255 0.654902 0.5019608 0.3137255 0.654902 0.5019608 0.3137255 0.654902 0.5019608 0.3137255 0.654902 0.5019608 0.3137255 0.654902 0.5019608 0.3137255 0.654902 0.5019608 0.3137255 0.654902 0.5019608 0.3137255 0.654902 0.5019608 0.3137255 0.654902 0.5019608 0.3137255 0.654902 0.5019608 0.3137255 0.654902 0.5019608 0.3137255 0.654902 0.5019608 0.3137255 0.654902 0.5019608 0.3137255 0.654902 0.5019608 0.3137255 0.654902 0.5019608 0.3137255 0.654902 0.5019608 0.3137255 0.654902 0.5019608 0.3137255 0.654902 0.5019608 0.3137255 0.654902 0.5019608 0.3137255 0.654902 0.5019608 0.3137255 0.654902 0.5019608 0.3137255 0.654902 0.5019608 0.3137255 0.654902 0.5019608 0.3137255 0.654902 0.5019608 0.3137255 0.654902 0.5019608 0.3137255 0.654902 0.5019608 0.3137255 0.654902 0.5019608 0.3137255 0.654902 0.5019608 0.3137255 0.654902 0.5019608 0.3137255 0.654902 0.5019608 0.3137255 0.654902 0.5019608 0.3137255 0.654902 0.5019608 0.3137255 0.654902 0.5019608 0.3137255 0.654902 0.5019608 0.3137255 0.654902 0.5019608 0.3137255 0.654902 0.5019608 0.3137255 0.654902 0.5019608 0.3137255 0.654902 0.5019608 0.3137255 0.654902 0.5019608 0.3137255 0.654902 0.5019608 0.3137255 0.654902 0.5019608 0.3137255 0.654902 0.5019608 0.3137255 0.654902 0.5019608 0.3137255 0.654902 0.5019608 0.3137255 0.654902 0.5019608 0.3137255 0.654902 0.5019608 0.3137255 0.654902 0.5019608 0.3137255 0.654902 0.5019608 0.3137255 0.654902 0.5019608 0.3137255 0.654902 0.5019608 0.3137255 0.654902 0.5019608 0.3137255 0.654902 0.5019608 0.3137255 0.654902 0.5019608 0.3137255 0.654902 0.5019608 0.3137255 0.654902 0.5019608 0.3137255 0.654902 0.5019608 0.3137255 0.654902 0.5019608 0.3137255 0.654902 0.5019608 0.3137255 0.654902 0.5019608 0.3137255 0.654902 0.5019608 0.3137255 0.654902 0.5019608 0.3137255 0.654902 0.5019608 0.3137255 0.654902 0.5019608 0.3137255 0.654902 0.5019608 0.3137255 0.654902 0.5019608 0.3137255 0.654902 0.5019608 0.3137255 0.654902 0.5019608 0.3137255 0.654902 0.5019608 0.3137255 0.654902 0.5019608 0.3137255 0.654902 0.5019608 0.3137255 0.654902 0.5019608 0.3137255 0.654902 0.5019608 0.3137255 0.654902 0.5019608 0.3137255 0.654902 0.5019608 0.3137255 0.654902 0.5019608 0.3137255 0.654902 0.5019608 0.3137255 0.654902 0.5019608 0.3137255 0.654902 0.5019608 0.3137255 0.654902 0.5019608 0.3137255 0.654902 0.5019608 0.3137255 0.654902 0.5019608 0.3137255 0.654902 0.5019608 0.3137255 0.654902 0.5019608 0.3137255 0.654902 0.5019608 0.3137255 0.654902 0.5019608 0.3137255 0.654902 0.5019608 0.3137255 0.654902 0.5019608 0.3137255 0.654902 0.5019608 0.3137255 0.654902 0.5019608 0.3137255 0.654902 0.5019608 0.3137255 0.654902 0.5019608 0.3137255 0.654902 0.5019608 0.3137255 0.654902 0.5019608 0.3137255 0.654902 0.5019608 0.3137255 0.654902 0.5019608 0.3137255 0.654902 0.5019608 0.3137255 0.654902 0.5019608 0.3137255 0.654902 0.5019608 0.3137255 0.654902 0.5019608 0.3137255 0.654902 0.5019608 0.3137255 0.654902 0.5019608 0.3137255 0.654902 0.5019608 0.3137255 0.654902 0.5019608 0.3137255 0.654902 0.5019608 0.3137255 0.654902 0.5019608 0.3137255 0.654902 0.5019608 0.3137255 0.654902 0.5019608 0.3137255 0.654902 0.5019608 0.3137255 0.654902 0.5019608 0.3137255 0.654902 0.5019608 0.3137255 0.654902 0.5019608 0.3137255 0.654902 0.5019608 0.3137255 0.654902 0.5019608 0.3137255 0.654902 0.5019608 0.3137255 0.654902 0.5019608 0.3137255 0.654902 0.5019608 0.3137255 0.654902 0.5019608 0.3137255 0.654902 0.5019608 0.3137255 0.654902 0.5019608 0.3137255 0.654902 0.5019608 0.3137255 0.654902 0.5019608 0.3137255 0.654902 0.5019608 0.3137255 0.654902 0.5019608 0.3137255 0.654902 0.5019608 0.3137255 0.654902 0.5019608 0.3137255 0.654902 0.5019608 0.3137255 0.654902 0.5019608 0.3137255 0.654902 0.5019608 0.3137255 0.654902 0.5019608 0.3137255 0.654902 0.5019608 0.3137255 0.654902 0.5019608 0.3137255 0.654902 0.5019608 0.3137255 0.654902 0.5019608 0.3137255 0.654902 0.5019608 0.3137255 0.654902 0.5019608 0.3137255 0.654902 0.5019608 0.3137255 0.654902 0.5019608 0.3137255 0.654902 0.5019608 0.3137255 0.654902 0.5019608 0.3137255 0.654902 0.5019608 0.3137255 0.654902 0.5019608 0.3137255 0.654902 0.5019608 0.3137255 0.654902 0.5019608 0.3137255 0.654902 0.5019608 0.3137255 0.654902 0.5019608 0.3137255 0.654902 0.5019608 0.3137255 0.654902 0.5019608 0.3137255 0.654902 0.5019608 0.3137255 0.654902 0.5019608 0.3137255 0.654902 0.5019608 0.3137255 0.654902 0.5019608 0.3137255 0.654902 0.5019608 0.3137255 0.654902 0.5019608 0.3137255 0.654902 0.5019608 0.3137255 0.654902 0.5019608 0.3137255 0.654902 0.5019608 0.3137255 0.654902 0.5019608 0.3137255 0.654902 0.5019608 0.3137255 0.654902 0.5019608 0.3137255 0.654902 0.5019608 0.3137255 0.654902 0.5019608 0.3137255 0.654902 0.5019608 0.3137255 0.654902 0.5019608 0.3137255 0.654902 0.5019608 0.3137255 0.654902 0.5019608 0.3137255 0.654902 0.5019608 0.3137255 0.654902 0.5019608 0.3137255 0.654902 0.5019608 0.3137255 0.654902 0.5019608 0.3137255 0.654902 0.5019608 0.3137255 0.654902 0.5019608 0.3137255 0.654902 0.5019608 0.3137255 0.654902 0.5019608 0.3137255 0.654902 0.5019608 0.3137255 0.654902 0.5019608 0.3137255 0.654902 0.5019608 0.3137255 0.654902 0.5019608 0.3137255 0.654902 0.5019608 0.3137255 0.654902 0.5019608 0.3137255 0.654902 0.5019608 0.3137255 0.654902 0.5019608 0.3137255 0.654902 0.5019608 0.3137255 0.654902 0.5019608 0.3137255 0.654902 0.5019608 0.3137255 0.654902 0.5019608 0.3137255 0.654902 0.5019608 0.3137255 0.654902 0.5019608 0.3137255 0.654902 0.5019608 0.3137255 0.654902 0.5019608 0.3137255 0.654902 0.5019608 0.3137255 0.654902 0.5019608 0.3137255 0.654902 0.5019608 0.3137255 0.654902 0.5019608 0.3137255 0.654902 0.5019608 0.3137255 0.654902 0.5019608 0.3137255 0.654902 0.5019608 0.3137255 0.654902 0.5019608 0.3137255 0.654902 0.5019608 0.3137255 0.654902 0.5019608 0.3137255 0.654902 0.5019608 0.3137255 0.654902 0.5019608 0.3137255 0.654902 0.5019608 0.3137255 0.654902 0.5019608 0.3137255 0.654902 0.5019608 0.3137255 0.654902 0.5019608 0.3137255 0.654902 0.5019608 0.3137255 0.654902 0.5019608 0.3137255 0.654902 0.5019608 0.3137255 0.654902 0.5019608 0.3137255 0.654902 0.5019608 0.3137255 0.654902 0.5019608 0.3137255 0.654902 0.5019608 0.3137255 0.654902 0.5019608 0.3137255 0.654902 0.5019608 0.3137255 0.654902 0.5019608 0.3137255 0.654902 0.5019608 0.3137255 0.654902 0.5019608 0.3137255 0.654902 0.5019608 0.3137255 0.654902 0.5019608 0.3137255 0.654902 0.5019608 0.3137255 0.654902 0.5019608 0.3137255 0.654902 0.5019608 0.3137255 0.654902 0.5019608 0.3137255 0.654902 0.5019608 0.3137255 0.654902 0.5019608 0.3137255 0.654902 0.5019608 0.3137255 0.654902 0.5019608 0.3137255 0.654902 0.5019608 0.3137255 0.654902 0.5019608 0.3137255 0.654902 0.5019608 0.3137255 0.654902 0.5019608 0.3137255 0.654902 0.5019608 0.3137255 0.654902 0.5019608 0.3137255 0.654902 0.5019608 0.3137255 0.654902 0.5019608 0.3137255 0.654902 0.5019608 0.3137255 0.654902 0.5019608 0.3137255 0.654902 0.5019608 0.3137255 0.654902 0.5019608 0.3137255 0.654902 0.5019608 0.3137255 0.654902 0.5019608 0.3137255 0.654902 0.5019608 0.3137255 0.654902 0.5019608 0.3137255 0.654902 0.5019608 0.3137255 0.654902 0.5019608 0.3137255 0.654902 0.5019608 0.3137255 0.654902 0.5019608 0.3137255 0.654902 0.5019608 0.3137255 0.654902 0.5019608 0.3137255 0.654902 0.5019608 0.3137255 0.654902 0.5019608 0.3137255 0.654902 0.5019608 0.3137255 0.654902 0.5019608 0.3137255 0.654902 0.5019608 0.3137255 0.654902 0.5019608 0.3137255 0.654902 0.5019608 0.3137255 0.654902 0.5019608 0.3137255 0.654902 0.5019608 0.3137255 0.654902 0.5019608 0.3137255 0.654902 0.5019608 0.3137255 0.654902 0.5019608 0.3137255 0.654902 0.5019608 0.3137255 0.654902 0.5019608 0.3137255 0.654902 0.5019608 0.3137255 0.654902 0.5019608 0.3137255 0.654902 0.5019608 0.3137255 0.654902 0.5019608 0.3137255 0.654902 0.5019608 0.3137255 0.654902 0.5019608 0.3137255 0.654902 0.5019608 0.3137255 0.654902 0.5019608 0.3137255 0.654902 0.5019608 0.3137255 0.654902 0.5019608 0.3137255 0.654902 0.5019608 0.3137255 0.654902 0.5019608 0.3137255 0.654902 0.5019608 0.3137255 0.654902 0.5019608 0.3137255 0.654902 0.5019608 0.3137255 0.654902 0.5019608 0.3137255 0.654902 0.5019608 0.3137255 0.654902 0.5019608 0.3137255 0.654902 0.5019608 0.3137255 0.654902 0.5019608 0.3137255 0.654902 0.5019608 0.3137255 0.654902 0.5019608 0.3137255 0.654902 0.5019608 0.3137255 0.654902 0.5019608 0.3137255 0.654902 0.5019608 0.3137255 0.654902 0.5019608 0.3137255 0.654902 0.5019608 0.3137255 0.654902 0.5019608 0.3137255 0.654902 0.5019608 0.3137255 0.654902 0.5019608 0.3137255 0.654902 0.5019608 0.3137255 0.654902 0.5019608 0.3137255 0.654902 0.5019608 0.3137255 0.654902 0.5019608 0.3137255 0.654902 0.5019608 0.3137255 0.654902 0.5019608 0.3137255 0.654902 0.5019608 0.3137255 0.654902 0.5019608 0.3137255 0.654902 0.5019608 0.3137255 0.654902 0.5019608 0.3137255 0.654902 0.5019608 0.3137255 0.654902 0.5019608 0.3137255 0.654902 0.5019608 0.3137255 0.654902 0.5019608 0.3137255 0.654902 0.5019608 0.3137255 0.654902 0.5019608 0.3137255 0.654902 0.5019608 0.3137255 0.654902 0.5019608 0.3137255 0.654902 0.5019608 0.3137255 0.654902 0.5019608 0.3137255 0.654902 0.5019608 0.3137255 0.654902 0.5019608 0.3137255 0.654902 0.5019608 0.3137255 0.654902 0.5019608 0.3137255 0.654902 0.5019608 0.3137255 0.654902 0.5019608 0.3137255 0.654902 0.5019608 0.3137255 0.654902 0.5019608 0.3137255 0.654902 0.5019608 0.3137255 0.654902 0.5019608 0.3137255 0.654902 0.5019608 0.3137255 0.654902 0.5019608 0.3137255 0.654902 0.5019608 0.3137255 0.654902 0.5019608 0.3137255 0.654902 0.5019608 0.3137255 0.654902 0.5019608 0.3137255 0.654902 0.5019608 0.3137255 0.654902 0.5019608 0.3137255 0.654902 0.5019608 0.3137255 0.654902 0.5019608 0.3137255 0.654902 0.5019608 0.3137255 0.654902 0.5019608 0.3137255 0.654902 0.5019608 0.3137255 0.654902 0.5019608 0.3137255 0.654902 0.5019608 0.3137255 0.654902 0.5019608 0.3137255 0.654902 0.5019608 0.3137255 0.654902 0.5019608 0.3137255 0.654902 0.5019608 0.3137255 0.654902 0.5019608 0.3137255 0.654902 0.5019608 0.3137255 0.654902 0.5019608 0.3137255 0.654902 0.5019608 0.3137255 0.654902 0.5019608 0.3137255 0.654902 0.5019608 0.3137255 0.654902 0.5019608 0.3137255 0.654902 0.5019608 0.3137255 0.654902 0.5019608 0.3137255 0.654902 0.5019608 0.3137255 0.654902 0.5019608 0.3137255 0.654902 0.5019608 0.3137255 0.654902 0.5019608 0.3137255 0.654902 0.5019608 0.3137255 0.654902 0.5019608 0.3137255 0.654902 0.5019608 0.3137255 0.654902 0.5019608 0.3137255 0.654902 0.5019608 0.3137255 0.654902 0.5019608 0.3137255 0.654902 0.5019608 0.3137255 0.654902 0.5019608 0.3137255 0.654902 0.5019608 0.3137255 0.654902 0.5019608 0.3137255 0.654902 0.5019608 0.3137255 0.654902 0.5019608 0.3137255 0.654902 0.5019608 0.3137255 0.654902 0.5019608 0.3137255 0.654902 0.5019608 0.3137255 0.654902 0.5019608 0.3137255 0.654902 0.5019608 0.3137255 0.654902 0.5019608 0.3137255 0.654902 0.5019608 0.3137255 0.654902 0.5019608 0.3137255 0.654902 0.5019608 0.3137255 0.654902 0.5019608 0.3137255 0.654902 0.5019608 0.3137255 0.654902 0.5019608 0.3137255 0.654902 0.5019608 0.3137255 0.654902 0.5019608 0.3137255 0.654902 0.5019608 0.3137255 0.654902 0.5019608 0.3137255 0.654902 0.5019608 0.3137255 0.654902 0.5019608 0.3137255 0.654902 0.5019608 0.3137255 0.654902 0.5019608 0.3137255 0.654902 0.5019608 0.3137255 0.654902 0.5019608 0.3137255 0.654902 0.5019608 0.3137255 0.654902 0.5019608 0.3137255 0.654902 0.5019608 0.3137255 0.654902 0.5019608 0.3137255 0.654902 0.5019608 0.3137255 0.654902 0.5019608 0.3137255 0.654902 0.5019608 0.3137255 0.654902 0.5019608 0.3137255 0.654902 0.5019608 0.3137255 0.654902 0.5019608 0.3137255 0.654902 0.5019608 0.3137255 0.654902 0.5019608 0.3137255 0.654902 0.5019608 0.3137255 0.654902 0.5019608 0.3137255 0.654902 0.5019608 0.3137255 0.654902 0.5019608 0.3137255 0.654902 0.5019608 0.3137255 0.654902 0.5019608 0.3137255 0.654902 0.5019608 0.3137255 0.654902 0.5019608 0.3137255 0.654902 0.5019608 0.3137255 0.654902 0.5019608 0.3137255 0.654902 0.5019608 0.3137255 0.654902 0.5019608 0.3137255 0.654902 0.5019608 0.3137255 0.654902 0.5019608 0.3137255 0.654902 0.5019608 0.3137255 0.654902 0.5019608 0.3137255 0.654902 0.5019608 0.3137255 0.654902 0.5019608 0.3137255 0.654902 0.5019608 0.3137255 0.654902 0.5019608 0.3137255 0.654902 0.5019608 0.3137255 0.654902 0.5019608 0.3137255 0.654902 0.5019608 0.3137255 0.654902 0.5019608 0.3137255 0.654902 0.5019608 0.3137255 0.654902 0.5019608 0.3137255 0.654902 0.5019608 0.3137255 0.654902 0.5019608 0.3137255 0.654902 0.5019608 0.3137255 0.654902 0.5019608 0.3137255 0.654902 0.5019608 0.3137255 0.654902 0.5019608 0.3137255 0.654902 0.5019608 0.3137255 0.654902 0.5019608 0.3137255 0.654902 0.5019608 0.3137255 0.654902 0.5019608 0.3137255 0.654902 0.5019608 0.3137255 0.654902 0.5019608 0.3137255 0.654902 0.5019608 0.3137255 0.654902 0.5019608 0.3137255 0.654902 0.5019608 0.3137255 0.654902 0.5019608 0.3137255 0.654902 0.5019608 0.3137255 0.654902 0.5019608 0.3137255 0.654902 0.5019608 0.3137255 0.654902 0.5019608 0.3137255 0.654902 0.5019608 0.3137255 0.654902 0.5019608 0.3137255 0.654902 0.5019608 0.3137255 0.654902 0.5019608 0.3137255 0.654902 0.5019608 0.3137255 0.654902 0.5019608 0.3137255 0.654902 0.5019608 0.3137255 0.654902 0.5019608 0.3137255 0.654902 0.5019608 0.3137255 0.654902 0.5019608 0.3137255 0.654902 0.5019608 0.3137255 0.654902 0.5019608 0.3137255 0.654902 0.5019608 0.3137255 0.654902 0.5019608 0.3137255 0.654902 0.5019608 0.3137255 0.654902 0.5019608 0.3137255 0.654902 0.5019608 0.3137255 0.654902 0.5019608 0.3137255 0.654902 0.5019608 0.3137255 0.654902 0.5019608 0.3137255 0.654902 0.5019608 0.3137255 0.654902 0.5019608 0.3137255 0.654902 0.5019608 0.3137255 0.654902 0.5019608 0.3137255 0.654902 0.5019608 0.3137255 0.654902 0.5019608 0.3137255 0.654902 0.5019608 0.3137255 0.654902 0.5019608 0.3137255 0.654902 0.5019608 0.3137255 0.654902 0.5019608 0.3137255 0.654902 0.5019608 0.3137255 0.654902 0.5019608 0.3137255 0.654902 0.5019608 0.3137255 0.654902 0.5019608 0.3137255 0.654902 0.5019608 0.3137255 0.654902 0.5019608 0.3137255 0.654902 0.5019608 0.3137255 0.654902 0.5019608 0.3137255 0.654902 0.5019608 0.3137255 0.654902 0.5019608 0.3137255 0.654902 0.5019608 0.3137255 0.654902 0.5019608 0.3137255 0.654902 0.5019608 0.3137255 0.654902 0.5019608 0.3137255 0.654902 0.5019608 0.3137255 0.654902 0.5019608 0.3137255 0.654902 0.5019608 0.3137255 0.654902 0.5019608 0.3137255 0.654902 0.5019608 0.3137255 0.654902 0.5019608 0.3137255 0.654902 0.5019608 0.3137255 0.654902 0.5019608 0.3137255 0.654902 0.5019608 0.3137255 0.654902 0.5019608 0.3137255 0.654902 0.5019608 0.3137255 0.654902 0.5019608 0.3137255 0.654902 0.5019608 0.3137255 0.654902 0.5019608 0.3137255 0.654902 0.5019608 0.3137255 0.654902 0.5019608 0.3137255 0.654902 0.5019608 0.3137255 0.654902 0.5019608 0.3137255 0.654902 0.5019608 0.3137255 0.654902 0.5019608 0.3137255 0.654902 0.5019608 0.3137255 0.654902 0.5019608 0.3137255 0.654902 0.5019608 0.3137255 0.654902 0.5019608 0.3137255 0.654902 0.5019608 0.3137255 0.654902 0.5019608 0.3137255 0.654902 0.5019608 0.3137255 0.654902 0.5019608 0.3137255 0.654902 0.5019608 0.3137255 0.654902 0.5019608 0.3137255 0.654902 0.5019608 0.3137255 0.654902 0.5019608 0.3137255 0.654902 0.5019608 0.3137255 0.654902 0.5019608 0.3137255 0.654902 0.5019608 0.3137255 0.654902 0.5019608 0.3137255 0.654902 0.5019608 0.3137255 0.654902 0.5019608 0.3137255 0.654902 0.5019608 0.3137255 0.654902 0.5019608 0.3137255 0.654902 0.5019608 0.3137255 0.654902 0.5019608 0.3137255 0.654902 0.5019608 0.3137255 0.654902 0.5019608 0.3137255</float_array>
          <technique_common>
            <accessor source="#shape0_050-mesh-colors-shape0-lib-vcolor-array" count="1344" stride="3">
              <param name="R" type="float"/>
              <param name="G" type="float"/>
              <param name="B" type="float"/>
            </accessor>
          </technique_common>
        </source>
        <vertices id="shape0_050-mesh-vertices">
          <input semantic="POSITION" source="#shape0_050-mesh-positions"/>
        </vertices>
        <polylist count="448">
          <input semantic="VERTEX" source="#shape0_050-mesh-vertices" offset="0"/>
          <input semantic="NORMAL" source="#shape0_050-mesh-normals" offset="1"/>
          <input semantic="COLOR" source="#shape0_050-mesh-colors-shape0-lib-vcolor" offset="2" set="0"/>
          <vcount>3 3 3 3 3 3 3 3 3 3 3 3 3 3 3 3 3 3 3 3 3 3 3 3 3 3 3 3 3 3 3 3 3 3 3 3 3 3 3 3 3 3 3 3 3 3 3 3 3 3 3 3 3 3 3 3 3 3 3 3 3 3 3 3 3 3 3 3 3 3 3 3 3 3 3 3 3 3 3 3 3 3 3 3 3 3 3 3 3 3 3 3 3 3 3 3 3 3 3 3 3 3 3 3 3 3 3 3 3 3 3 3 3 3 3 3 3 3 3 3 3 3 3 3 3 3 3 3 3 3 3 3 3 3 3 3 3 3 3 3 3 3 3 3 3 3 3 3 3 3 3 3 3 3 3 3 3 3 3 3 3 3 3 3 3 3 3 3 3 3 3 3 3 3 3 3 3 3 3 3 3 3 3 3 3 3 3 3 3 3 3 3 3 3 3 3 3 3 3 3 3 3 3 3 3 3 3 3 3 3 3 3 3 3 3 3 3 3 3 3 3 3 3 3 3 3 3 3 3 3 3 3 3 3 3 3 3 3 3 3 3 3 3 3 3 3 3 3 3 3 3 3 3 3 3 3 3 3 3 3 3 3 3 3 3 3 3 3 3 3 3 3 3 3 3 3 3 3 3 3 3 3 3 3 3 3 3 3 3 3 3 3 3 3 3 3 3 3 3 3 3 3 3 3 3 3 3 3 3 3 3 3 3 3 3 3 3 3 3 3 3 3 3 3 3 3 3 3 3 3 3 3 3 3 3 3 3 3 3 3 3 3 3 3 3 3 3 3 3 3 3 3 3 3 3 3 3 3 3 3 3 3 3 3 3 3 3 3 3 3 3 3 3 3 3 3 3 3 3 3 3 3 3 3 3 3 3 3 3 3 3 3 3 3 3 3 3 3 3 3 3 3 3 3 3 3 3 3 3 3 3 3 3 3 3 3 3 3 3 3 3 3 3 3 3 3 3 3 3 3 3 3 3 3 3 3 3 3 3 3 3 3 3 3 3 3 3 3 </vcount>
          <p>0 0 0 4 0 1 5 0 2 5 1 3 137 1 4 136 1 5 4 2 6 145 2 7 146 2 8 146 3 9 230 3 10 137 3 11 0 4 12 1 4 13 6 4 14 2 5 15 6 5 16 126 5 17 1 6 18 136 6 19 135 6 20 6 7 21 135 7 22 225 7 23 0 8 24 2 8 25 7 8 26 3 9 27 7 9 28 132 9 29 2 10 30 127 10 31 128 10 32 7 11 33 128 11 34 226 11 35 3 12 36 8 12 37 4 12 38 8 13 39 144 13 40 145 13 41 133 14 42 134 14 43 8 14 44 134 15 45 229 15 46 144 15 47 13 16 48 14 16 49 10 16 50 14 17 51 141 17 52 142 17 53 13 18 54 130 18 55 129 18 56 129 19 57 227 19 58 141 19 59 9 20 60 10 20 61 15 20 62 11 21 63 15 21 64 149 21 65 10 22 66 142 22 67 143 22 68 15 23 69 143 23 70 232 23 71 9 24 72 11 24 73 16 24 74 12 25 75 16 25 76 140 25 77 11 26 78 148 26 79 147 26 80 16 27 81 147 27 82 231 27 83 9 28 84 12 28 85 17 28 86 13 29 87 17 29 88 131 29 89 139 30 90 138 30 91 17 30 92 17 31 93 138 31 94 228 31 95 18 32 96 22 32 97 23 32 98 19 33 99 23 33 100 165 33 101 127 34 102 126 34 103 23 34 104 126 35 105 225 35 106 165 35 107 19 36 108 24 36 109 20 36 110 24 37 111 185 37 112 184 37 113 166 38 114 167 38 115 24 38 116 167 39 117 238 39 118 185 39 119 20 40 120 25 40 121 21 40 122 25 41 123 161 41 124 160 41 125 184 42 126 183 42 127 25 42 128 183 43 129 237 43 130 161 43 131 21 44 132 26 44 133 22 44 134 26 45 135 128 45 136 127 45 137 21 46 138 160 46 139 159 46 140 159 47 141 226 47 142 128 47 143 27 48 144 31 48 145 32 48 146 28 49 147 32 49 148 170 49 149 31 50 150 184 50 151 185 50 152 32 51 153 185 51 154 238 51 155 28 52 156 33 52 157 29 52 158 33 53 159 152 53 160 151 53 161 169 54 162 168 54 163 33 54 164 168 55 165 234 55 166 152 55 167 29 56 168 34 56 169 30 56 170 34 57 171 162 57 172 163 57 173 151 58 174 150 58 175 34 58 176 150 59 177 233 59 178 162 59 179 27 60 180 30 60 181 35 60 182 31 61 183 35 61 184 183 61 185 30 62 186 163 62 187 164 62 188 35 63 189 164 63 190 237 63 191 40 64 192 41 64 193 37 64 194 41 65 195 174 65 196 175 65 197 154 66 198 155 66 199 41 66 200 155 67 201 235 67 202 174 67 203 36 68 204 37 68 205 42 68 206 38 69 207 42 69 208 188 69 209 37 70 210 175 70 211 176 70 212 176 71 213 239 71 214 188 71 215 38 72 216 43 72 217 39 72 218 43 73 219 164 73 220 163 73 221 187 74 222 186 74 223 43 74 224 186 75 225 237 75 226 164 75 227 36 76 228 39 76 229 44 76 230 40 77 231 44 77 232 153 77 233 39 78 234 163 78 235 162 78 236 44 79 237 162 79 238 233 79 239 49 80 240 50 80 241 46 80 242 50 81 243 173 81 244 172 81 245 187 82 246 188 82 247 50 82 248 50 83 249 188 83 250 239 83 251 45 84 252 46 84 253 51 84 254 47 85 255 51 85 256 134 85 257 46 86 258 172 86 259 171 86 260 51 87 261 171 87 262 229 87 263 47 88 264 52 88 265 48 88 266 52 89 267 159 89 268 160 89 269 133 90 270 132 90 271 52 90 272 132 91 273 226 91 274 159 91 275 45 92 276 48 92 277 53 92 278 49 93 279 53 93 280 186 93 281 48 94 282 160 94 283 161 94 284 53 95 285 161 95 286 237 95 287 54 96 288 58 96 289 59 96 290 55 97 291 59 97 292 168 97 293 58 98 294 157 98 295 156 98 296 59 99 297 156 99 298 234 99 299 55 100 300 60 100 301 56 100 302 56 101 303 60 101 304 189 101 305 169 102 306 170 102 307 60 102 308 170 103 309 238 103 310 189 103 311 56 104 312 61 104 313 57 104 314 61 105 315 182 105 316 181 105 317 190 106 318 191 106 319 61 106 320 191 107 321 240 107 322 182 107 323 57 108 324 62 108 325 58 108 326 62 109 327 158 109 328 157 109 329 181 110 330 180 110 331 62 110 332 180 111 333 236 111 334 158 111 335 63 112 336 67 112 337 68 112 338 64 113 339 68 113 340 167 113 341 190 114 342 189 114 343 68 114 344 68 115 345 189 115 346 238 115 347 64 116 348 69 116 349 65 116 350 69 117 351 135 117 352 136 117 353 166 118 354 165 118 355 69 118 356 165 119 357 225 119 358 135 119 359 63 120 360 65 120 361 70 120 362 66 121 363 70 121 364 177 121 365 65 122 366 136 122 367 137 122 368 70 123 369 137 123 370 230 123 371 66 124 372 71 124 373 67 124 374 67 125 375 71 125 376 191 125 377 178 126 378 179 126 379 71 126 380 71 127 381 179 127 382 240 127 383 72 128 384 76 128 385 77 128 386 73 129 387 77 129 388 201 129 389 76 130 390 151 130 391 152 130 392 77 131 393 152 131 394 234 131 395 73 132 396 78 132 397 74 132 398 78 133 399 218 133 400 217 133 401 202 134 402 203 134 403 78 134 404 203 135 405 242 135 406 218 135 407 72 136 408 74 136 409 79 136 410 79 137 411 197 137 412 196 137 413 74 138 414 217 138 415 216 138 416 216 139 417 241 139 418 197 139 419 75 140 420 80 140 421 76 140 422 80 141 423 150 141 424 151 141 425 75 142 426 196 142 427 195 142 428 80 143 429 195 143 430 233 143 431 81 144 432 85 144 433 86 144 434 82 145 435 86 145 436 200 145 437 85 146 438 217 146 439 218 146 440 86 147 441 218 147 442 242 147 443 81 148 444 82 148 445 87 148 446 87 149 447 129 149 448 130 149 449 199 150 450 198 150 451 87 150 452 198 151 453 227 151 454 129 151 455 83 152 456 88 152 457 84 152 458 88 153 459 192 153 460 193 153 461 130 154 462 131 154 463 88 154 464 131 155 465 228 155 466 192 155 467 81 156 468 84 156 469 89 156 470 85 157 471 89 157 472 216 157 473 84 158 474 193 158 475 194 158 476 89 159 477 194 159 478 241 159 479 94 160 480 95 160 481 91 160 482 95 161 483 204 161 484 205 161 485 139 162 486 140 162 487 95 162 488 140 163 489 231 163 490 204 163 491 90 164 492 91 164 493 96 164 494 92 165 495 96 165 496 221 165 497 91 166 498 205 166 499 206 166 500 96 167 501 206 167 502 243 167 503 92 168 504 97 168 505 93 168 506 97 169 507 194 169 508 193 169 509 220 170 510 219 170 511 97 170 512 219 171 513 241 171 514 194 171 515 90 172 516 93 172 517 98 172 518 94 173 519 98 173 520 138 173 521 93 174 522 193 174 523 192 174 524 98 175 525 192 175 526 228 175 527 103 176 528 104 176 529 100 176 530 104 177 531 209 177 532 208 177 533 220 178 534 221 178 535 104 178 536 221 179 537 243 179 538 209 179 539 99 180 540 100 180 541 105 180 542 101 181 543 105 181 544 155 181 545 100 182 546 208 182 547 207 182 548 105 183 549 207 183 550 235 183 551 101 184 552 106 184 553 102 184 554 106 185 555 195 185 556 196 185 557 154 186 558 153 186 559 106 186 560 153 187 561 233 187 562 195 187 563 99 188 564 102 188 565 107 188 566 103 189 567 107 189 568 219 189 569 102 190 570 196 190 571 197 190 572 107 191 573 197 191 574 241 191 575 108 192 576 112 192 577 113 192 578 109 193 579 113 193 580 213 193 581 112 194 582 157 194 583 158 194 584 113 195 585 158 195 586 236 195 587 109 196 588 114 196 589 110 196 590 114 197 591 224 197 592 223 197 593 214 198 594 215 198 595 114 198 596 215 199 597 244 199 598 224 199 599 108 200 600 110 200 601 115 200 602 111 201 603 115 201 604 203 201 605 110 202 606 223 202 607 222 202 608 115 203 609 222 203 610 242 203 611 111 204 612 116 204 613 112 204 614 116 205 615 156 205 616 157 205 617 202 206 618 201 206 619 116 206 620 201 207 621 234 207 622 156 207 623 117 208 624 121 208 625 122 208 626 118 209 627 122 209 628 212 209 629 121 210 630 223 210 631 224 210 632 122 211 633 224 211 634 244 211 635 118 212 636 123 212 637 119 212 638 123 213 639 143 213 640 142 213 641 211 214 642 210 214 643 123 214 644 210 215 645 232 215 646 143 215 647 117 216 648 119 216 649 124 216 650 120 217 651 124 217 652 198 217 653 119 218 654 142 218 655 141 218 656 124 219 657 141 219 658 227 219 659 120 220 660 125 220 661 121 220 662 125 221 663 222 221 664 223 221 665 199 222 666 200 222 667 125 222 668 200 223 669 242 223 670 222 223 671 1 224 672 0 224 673 5 224 674 1 225 675 5 225 676 136 225 677 5 226 678 4 226 679 146 226 680 5 227 681 146 227 682 137 227 683 2 228 684 0 228 685 6 228 686 127 229 687 2 229 688 126 229 689 6 230 690 1 230 691 135 230 692 126 231 693 6 231 694 225 231 695 3 232 696 0 232 697 7 232 698 133 233 699 3 233 700 132 233 701 7 234 702 2 234 703 128 234 704 132 235 705 7 235 706 226 235 707 0 236 708 3 236 709 4 236 710 4 237 711 8 237 712 145 237 713 3 238 714 133 238 715 8 238 716 8 239 717 134 239 718 144 239 719 9 240 720 13 240 721 10 240 722 10 241 723 14 241 724 142 241 725 14 242 726 13 242 727 129 242 728 14 243 729 129 243 730 141 243 731 11 244 732 9 244 733 15 244 734 148 245 735 11 245 736 149 245 737 15 246 738 10 246 739 143 246 740 149 247 741 15 247 742 232 247 743 12 248 744 9 248 745 16 248 746 139 249 747 12 249 748 140 249 749 16 250 750 11 250 751 147 250 752 140 251 753 16 251 754 231 251 755 13 252 756 9 252 757 17 252 758 130 253 759 13 253 760 131 253 761 12 254 762 139 254 763 17 254 764 131 255 765 17 255 766 228 255 767 19 256 768 18 256 769 23 256 770 166 257 771 19 257 772 165 257 773 22 258 774 127 258 775 23 258 776 23 259 777 126 259 778 165 259 779 18 260 780 19 260 781 20 260 782 20 261 783 24 261 784 184 261 785 19 262 786 166 262 787 24 262 788 24 263 789 167 263 790 185 263 791 18 264 792 20 264 793 21 264 794 21 265 795 25 265 796 160 265 797 20 266 798 184 266 799 25 266 800 25 267 801 183 267 802 161 267 803 18 268 804 21 268 805 22 268 806 22 269 807 26 269 808 127 269 809 26 270 810 21 270 811 159 270 812 26 271 813 159 271 814 128 271 815 28 272 816 27 272 817 32 272 818 169 273 819 28 273 820 170 273 821 32 274 822 31 274 823 185 274 824 170 275 825 32 275 826 238 275 827 27 276 828 28 276 829 29 276 830 29 277 831 33 277 832 151 277 833 28 278 834 169 278 835 33 278 836 33 279 837 168 279 838 152 279 839 27 280 840 29 280 841 30 280 842 30 281 843 34 281 844 163 281 845 29 282 846 151 282 847 34 282 848 34 283 849 150 283 850 162 283 851 31 284 852 27 284 853 35 284 854 184 285 855 31 285 856 183 285 857 35 286 858 30 286 859 164 286 860 183 287 861 35 287 862 237 287 863 36 288 864 40 288 865 37 288 866 37 289 867 41 289 868 175 289 869 40 290 870 154 290 871 41 290 872 41 291 873 155 291 874 174 291 875 38 292 876 36 292 877 42 292 878 187 293 879 38 293 880 188 293 881 42 294 882 37 294 883 176 294 884 42 295 885 176 295 886 188 295 887 36 296 888 38 296 889 39 296 890 39 297 891 43 297 892 163 297 893 38 298 894 187 298 895 43 298 896 43 299 897 186 299 898 164 299 899 40 300 900 36 300 901 44 300 902 154 301 903 40 301 904 153 301 905 44 302 906 39 302 907 162 302 908 153 303 909 44 303 910 233 303 911 45 304 912 49 304 913 46 304 914 46 305 915 50 305 916 172 305 917 49 306 918 187 306 919 50 306 920 173 307 921 50 307 922 239 307 923 47 308 924 45 308 925 51 308 926 133 309 927 47 309 928 134 309 929 51 310 930 46 310 931 171 310 932 134 311 933 51 311 934 229 311 935 45 312 936 47 312 937 48 312 938 48 313 939 52 313 940 160 313 941 47 314 942 133 314 943 52 314 944 52 315 945 132 315 946 159 315 947 49 316 948 45 316 949 53 316 950 187 317 951 49 317 952 186 317 953 53 318 954 48 318 955 161 318 956 186 319 957 53 319 958 237 319 959 55 320 960 54 320 961 59 320 962 169 321 963 55 321 964 168 321 965 59 322 966 58 322 967 156 322 968 168 323 969 59 323 970 234 323 971 54 324 972 55 324 973 56 324 974 190 325 975 56 325 976 189 325 977 55 326 978 169 326 979 60 326 980 60 327 981 170 327 982 189 327 983 54 328 984 56 328 985 57 328 986 57 329 987 61 329 988 181 329 989 56 330 990 190 330 991 61 330 992 61 331 993 191 331 994 182 331 995 54 332 996 57 332 997 58 332 998 58 333 999 62 333 1000 157 333 1001 57 334 1002 181 334 1003 62 334 1004 62 335 1005 180 335 1006 158 335 1007 64 336 1008 63 336 1009 68 336 1010 166 337 1011 64 337 1012 167 337 1013 67 338 1014 190 338 1015 68 338 1016 167 339 1017 68 339 1018 238 339 1019 63 340 1020 64 340 1021 65 340 1022 65 341 1023 69 341 1024 136 341 1025 64 342 1026 166 342 1027 69 342 1028 69 343 1029 165 343 1030 135 343 1031 66 344 1032 63 344 1033 70 344 1034 178 345 1035 66 345 1036 177 345 1037 70 346 1038 65 346 1039 137 346 1040 177 347 1041 70 347 1042 230 347 1043 63 348 1044 66 348 1045 67 348 1046 190 349 1047 67 349 1048 191 349 1049 66 350 1050 178 350 1051 71 350 1052 191 351 1053 71 351 1054 240 351 1055 73 352 1056 72 352 1057 77 352 1058 202 353 1059 73 353 1060 201 353 1061 77 354 1062 76 354 1063 152 354 1064 201 355 1065 77 355 1066 234 355 1067 72 356 1068 73 356 1069 74 356 1070 74 357 1071 78 357 1072 217 357 1073 73 358 1074 202 358 1075 78 358 1076 78 359 1077 203 359 1078 218 359 1079 75 360 1080 72 360 1081 79 360 1082 75 361 1083 79 361 1084 196 361 1085 79 362 1086 74 362 1087 216 362 1088 79 363 1089 216 363 1090 197 363 1091 72 364 1092 75 364 1093 76 364 1094 76 365 1095 80 365 1096 151 365 1097 80 366 1098 75 366 1099 195 366 1100 150 367 1101 80 367 1102 233 367 1103 82 368 1104 81 368 1105 86 368 1106 199 369 1107 82 369 1108 200 369 1109 86 370 1110 85 370 1111 218 370 1112 200 371 1113 86 371 1114 242 371 1115 83 372 1116 81 372 1117 87 372 1118 83 373 1119 87 373 1120 130 373 1121 82 374 1122 199 374 1123 87 374 1124 87 375 1125 198 375 1126 129 375 1127 81 376 1128 83 376 1129 84 376 1130 84 377 1131 88 377 1132 193 377 1133 83 378 1134 130 378 1135 88 378 1136 88 379 1137 131 379 1138 192 379 1139 85 380 1140 81 380 1141 89 380 1142 217 381 1143 85 381 1144 216 381 1145 89 382 1146 84 382 1147 194 382 1148 216 383 1149 89 383 1150 241 383 1151 90 384 1152 94 384 1153 91 384 1154 91 385 1155 95 385 1156 205 385 1157 94 386 1158 139 386 1159 95 386 1160 95 387 1161 140 387 1162 204 387 1163 92 388 1164 90 388 1165 96 388 1166 220 389 1167 92 389 1168 221 389 1169 96 390 1170 91 390 1171 206 390 1172 221 391 1173 96 391 1174 243 391 1175 90 392 1176 92 392 1177 93 392 1178 93 393 1179 97 393 1180 193 393 1181 92 394 1182 220 394 1183 97 394 1184 97 395 1185 219 395 1186 194 395 1187 94 396 1188 90 396 1189 98 396 1190 139 397 1191 94 397 1192 138 397 1193 98 398 1194 93 398 1195 192 398 1196 138 399 1197 98 399 1198 228 399 1199 99 400 1200 103 400 1201 100 400 1202 100 401 1203 104 401 1204 208 401 1205 103 402 1206 220 402 1207 104 402 1208 104 403 1209 221 403 1210 209 403 1211 101 404 1212 99 404 1213 105 404 1214 154 405 1215 101 405 1216 155 405 1217 105 406 1218 100 406 1219 207 406 1220 155 407 1221 105 407 1222 235 407 1223 99 408 1224 101 408 1225 102 408 1226 102 409 1227 106 409 1228 196 409 1229 101 410 1230 154 410 1231 106 410 1232 106 411 1233 153 411 1234 195 411 1235 103 412 1236 99 412 1237 107 412 1238 220 413 1239 103 413 1240 219 413 1241 107 414 1242 102 414 1243 197 414 1244 219 415 1245 107 415 1246 241 415 1247 109 416 1248 108 416 1249 113 416 1250 214 417 1251 109 417 1252 213 417 1253 113 418 1254 112 418 1255 158 418 1256 213 419 1257 113 419 1258 236 419 1259 108 420 1260 109 420 1261 110 420 1262 110 421 1263 114 421 1264 223 421 1265 109 422 1266 214 422 1267 114 422 1268 114 423 1269 215 423 1270 224 423 1271 111 424 1272 108 424 1273 115 424 1274 202 425 1275 111 425 1276 203 425 1277 115 426 1278 110 426 1279 222 426 1280 203 427 1281 115 427 1282 242 427 1283 108 428 1284 111 428 1285 112 428 1286 112 429 1287 116 429 1288 157 429 1289 111 430 1290 202 430 1291 116 430 1292 116 431 1293 201 431 1294 156 431 1295 118 432 1296 117 432 1297 122 432 1298 211 433 1299 118 433 1300 212 433 1301 122 434 1302 121 434 1303 224 434 1304 212 435 1305 122 435 1306 244 435 1307 117 436 1308 118 436 1309 119 436 1310 119 437 1311 123 437 1312 142 437 1313 118 438 1314 211 438 1315 123 438 1316 123 439 1317 210 439 1318 143 439 1319 120 440 1320 117 440 1321 124 440 1322 199 441 1323 120 441 1324 198 441 1325 124 442 1326 119 442 1327 141 442 1328 198 443 1329 124 443 1330 227 443 1331 117 444 1332 120 444 1333 121 444 1334 121 445 1335 125 445 1336 223 445 1337 120 446 1338 199 446 1339 125 446 1340 125 447 1341 200 447 1342 222 447 1343</p>
        </polylist>
      </mesh>
    </geometry>
  </library_geometries>
  <library_controllers/>
  <library_visual_scenes>
    <visual_scene id="Scene" name="Scene">
      <node id="VIZ_LHsegment_link_0" name="VIZ_LHsegment_link_0" type="NODE">
        <instance_geometry url="#shape0_050-mesh" name="VIZ_LHsegment_link_0"/>
      </node>
    </visual_scene>
  </library_visual_scenes>
  <scene>
    <instance_visual_scene url="#Scene"/>
  </scene>
</COLLADA>