<?xml version="1.0" encoding="utf-8"?>
<COLLADA xmlns="http://www.collada.org/2005/11/COLLADASchema" version="1.4.1">
  <asset>
    <contributor>
      <author>Blender User</author>
      <authoring_tool>Blender 2.76.0 commit date:2015-11-03, commit time:10:56, hash:f337fea</authoring_tool>
    </contributor>
    <created>2016-11-13T17:55:47</created>
    <modified>2016-11-13T17:55:47</modified>
    <unit name="meter" meter="1"/>
    <up_axis>Z_UP</up_axis>
  </asset>
  <library_images/>
  <library_geometries>
    <geometry id="shape0_027-mesh" name="shape0.027">
      <mesh>
        <source id="shape0_027-mesh-positions">
          <float_array id="shape0_027-mesh-positions-array" count="294">-2.759779 -2.763429 -3.684008 -3.848568 -1.033051 3.644199 3.912788 -1.033881 3.644199 2.843059 -2.764029 -3.684008 -2.780429 -9.188329 -2.35346 -2.860799 -10.9837 3.630307 2.922879 -10.9843 3.480457 2.823479 -9.188928 -2.35346 -3.111809 -6.123078 -3.76406 -4.320828 -6.189219 4.006887 4.383948 -6.190159 4.006887 3.174989 -6.123758 -3.76406 0.03098303 -11.528 3.840656 0.03217303 -0.4402185 4.006888 0.02641469 -9.372448 -2.537641 0.03675872 -2.546349 -4.025548 0.03155589 -6.189689 4.006887 0.0315659 -6.118528 -4.3473 -3.269259 -10.3556 -0.1010416 -3.356749 -1.95679 -0.2877402 3.328319 -10.3563 -0.1010425 3.423989 -1.95752 -0.2877422 -4.050108 -6.177958 -0.2981759 4.113277 -6.178829 -0.2981709 0.03248327 -1.45159 -0.3291791 0.03064417 -10.8634 -0.1181808 -3.033079 -7.894048 -3.05161 -3.796748 -9.153889 4.006887 3.859228 -9.15471 4.006887 3.083189 -7.894698 -3.05161 0.03123772 -9.154239 4.006887 0.02847903 -7.908797 -3.53178 -3.923999 -8.534158 -0.1963313 3.984638 -8.535009 -0.1963333 -4.320508 -3.182039 4.006888 4.384268 -3.182981 4.006888 3.095209 -4.202078 -3.85854 -3.018909 -4.201418 -3.85854 0.03187865 -3.182509 4.006888 0.03469973 -4.157399 -4.466859 -3.978148 -3.790279 -0.2977545 4.043797 -3.791149 -0.2977605 -3.117539 -2.369699 -2.23783 3.172999 -9.746628 -1.427381 -3.820688 -6.150578 -2.22543 0.03485709 -1.87651 -2.380699 0.02828884 -10.2166 -1.445922 -3.123399 -9.745949 -1.427381 3.194229 -2.370379 -2.23783 3.883808 -6.151408 -2.22549 3.765748 -8.182899 -1.81535 -3.711408 -8.182099 -1.81535 3.777878 -4.026968 -2.27246 -3.705958 -4.026168 -2.2724 -3.115349 -10.8269 1.849677 3.630279 -1.47254 1.835489 4.209068 -6.183519 1.832568 -3.565849 -1.47177 1.835489 3.177169 -10.8276 1.817547 -4.145948 -6.182619 1.832568 0.03211557 -0.9808922 1.830839 0.03100353 -11.342 1.825357 -3.872048 -8.818181 1.841398 3.934428 -8.819022 1.841398 -4.122838 -3.53302 1.834118 4.186638 -3.533909 1.834118 -2.143989 -0.4399846 4.006888 -1.487139 -9.300518 -2.452641 -2.144609 -6.189459 4.006887 -1.43171 -11.4593 3.923737 -1.471589 -2.625759 -3.89281 -1.603749 -6.119638 -4.178669 -1.694009 -10.7448 -0.1063516 -1.740709 -1.56924 -0.3089242 -1.560479 -7.882817 -3.38885 -1.882729 -9.154089 4.006887 -1.550189 -4.189359 -4.28906 -2.144289 -3.182269 4.006888 -1.616569 -10.0993 -1.411471 -1.610339 -1.998049 -2.312089 -1.602149 -11.2346 1.837517 -1.849369 -1.07785 1.833169 1.49369 -11.4597 3.795297 1.550069 -2.626079 -3.89281 1.666879 -6.119988 -4.178669 2.208339 -0.4404515 4.006888 1.535049 -9.300849 -2.452641 2.207719 -6.189929 4.006887 1.806839 -1.56962 -0.3089242 1.754119 -10.7452 -0.1063497 1.945199 -9.1545 4.006887 1.613999 -7.883158 -3.38885 2.208039 -3.182739 4.006888 1.623099 -4.189699 -4.28906 1.683589 -1.998399 -2.312089 1.669609 -10.0997 -1.411471 1.913759 -1.07825 1.833169 1.664059 -11.2349 1.821487</float_array>
          <technique_common>
            <accessor source="#shape0_027-mesh-positions-array" count="98" stride="3">
              <param name="X" type="float"/>
              <param name="Y" type="float"/>
              <param name="Z" type="float"/>
            </accessor>
          </technique_common>
        </source>
        <source id="shape0_027-mesh-normals">
          <float_array id="shape0_027-mesh-normals-array" count="564">-0.964488 0.1790383 -0.1941863 1.80965e-5 0.1664144 0.9860559 0.8905052 0.2054129 -0.4059634 -0.2786803 0.1650481 -0.9460954 0.2549375 0.9179634 -0.3038916 -0.3003866 -0.9506354 -0.07784765 -0.9847062 -0.1740719 0.007255136 0 0 1 0.8862079 -0.2117187 -0.412081 -0.2044019 -0.3731518 -0.9049739 -3.40389e-7 0 1 0.09803932 0.2628054 -0.9598551 1.03134e-4 0.9595441 -0.2815586 0.04360592 -0.9948208 -0.09181505 0 0 1 0.09305828 -0.4128788 -0.9060194 -0.9310989 0.3165544 -0.181241 0.9422683 0.319063 -0.1016333 0.2299537 0.9462548 -0.2274277 -0.2164335 -0.8699482 -0.4431102 -0.9880214 -0.05904376 -0.1425749 0.9973954 -0.05639725 -0.04496365 -0.06710654 0.9747394 -0.2130255 0.0642929 -0.8928433 -0.4457551 -0.8799325 -0.4675017 0.08462262 -3.03652e-5 -0.2764989 0.9610142 0.746515 -0.4256645 -0.5113953 -0.190429 -0.4945961 -0.8480044 0.05330359 -0.06976377 0.9961385 0.07307898 -0.5604355 -0.8249677 -0.905525 -0.3388609 -0.2553387 0.9400984 -0.3400411 -0.0242294 -0.9958857 1.06111e-4 -0.09061884 2.91452e-7 -3.17133e-7 1 0.9176265 0.01857674 -0.3970094 -0.2648608 -0.0345751 -0.9636666 2.9146e-7 -3.17133e-7 1 0.1098188 -0.06065857 -0.9920991 -0.989703 0.02985256 -0.1399892 0.9985719 0.02906537 -0.04482841 0.9292197 0.3308244 -0.1646387 0.9895444 -0.08152723 -0.1189762 -0.8940247 0.3240364 -0.3093872 0.2416889 0.9198188 -0.3090633 -0.1841661 -0.8104032 -0.5561739 -0.8522912 -0.1471672 -0.501938 -0.08383178 0.9235846 -0.3741173 0.06892818 -0.7871696 -0.6128728 0.8968914 -0.3911688 -0.2063316 -0.7464531 -0.4105821 -0.52367 0.9919738 0.04686558 -0.1174388 -0.9077925 0.03979444 -0.4175277 -0.9540045 0.2578917 -0.1528638 0.2177778 0.9466866 -0.2373971 -0.2551727 -0.9403784 -0.2248897 -0.9945873 -0.1033256 0.01095491 -0.05041468 0.9728837 -0.2257338 0.06298881 -0.9690617 -0.2386459 0.9573872 0.2584818 -0.1288296 0.9913944 -0.1035794 -0.08005392 -0.9357273 -0.3525419 -0.01134717 0.935566 -0.3524568 -0.02214771 -0.9975949 0.008741319 -0.06876152 0.9967474 0.008485138 -0.08014225 -0.1129271 0.2494149 -0.9617899 -0.05191987 -0.994425 -0.09177929 -0.08838552 -0.4090155 -0.908237 -0.2081229 2.27497e-5 0.9781028 -0.2547354 0.9180128 -0.3039118 -3.36138e-7 0 1 -0.06446254 -0.8929685 -0.4454793 -0.2298641 0.946017 -0.2285046 -0.08364737 -0.552136 -0.8295474 -0.2257192 -0.07918602 0.9709689 -0.1023874 -0.05396336 -0.9932799 2.91452e-7 -3.17131e-7 1 -0.06897968 -0.7873545 -0.6126294 -0.2419828 0.9193701 -0.310166 -0.06549477 -0.9689105 -0.2385855 -0.2175737 0.9466631 -0.237678 0 0 1 1.02819e-4 0.9595445 -0.2815572 0 0 1 0.1802682 0.2495317 -0.9514396 0.2981296 -0.9509472 -0.0825724 0.2417026 -0.4027187 -0.882835 0.06727129 0.9747793 -0.2127912 0.2163039 -0.8694997 -0.4440531 -1.24354e-5 -0.09140187 0.9958141 0.111559 -0.5519397 -0.8263881 0 -3.17131e-7 1 0.2799886 -0.04848074 -0.9587785 0.08384519 0.9236861 -0.3738638 0.1842626 -0.8097032 -0.5571607 0.05061709 0.9728825 -0.2256937 0.2525846 -0.9405431 -0.2271116 -0.957302 0.2587665 -0.1288915 0.2081227 -2.27996e-5 0.9781028 0.896131 0.3221063 -0.3052814 -0.1809046 0.2501382 -0.9511595 0.2163947 0.940522 -0.2619004 -0.2602133 -0.964371 -0.04772382 -0.9914234 -0.1033015 -0.0800535 0.8500154 -0.1512673 -0.5045713 -0.2419242 -0.4016049 -0.8832815 3.19614e-7 0 1 0.1127364 0.2490316 -0.9619116 -0.05024701 0.9692663 -0.240828 0.06481093 -0.9921016 -0.107397 0.0884782 -0.4094171 -0.9080469 -0.9278607 0.3330987 -0.1676902 0.9542743 0.2576577 -0.1515689 0.2434425 0.9452574 -0.2173113 -0.202136 -0.8812314 -0.427285 -0.989892 -0.07725697 -0.118934 0.9945673 -0.1036078 0.01006567 -0.08053779 0.9760167 -0.20225 0.07302469 -0.8965513 -0.4368788 -0.9355441 -0.352517 -0.02211833 0.2566578 -0.1380743 0.9565889 0.7420824 -0.4124009 -0.528431 -0.1112466 -0.5516386 -0.8266313 -2.59215e-6 -0.03604793 0.9993501 0.08369904 -0.5523687 -0.8293874 -0.8990277 -0.3882669 -0.2024796 0.9356814 -0.3526102 -0.01290404 -0.9967452 0.008740246 -0.08014142 -2.9145e-7 -3.17131e-7 1 0.9079051 0.03603702 -0.4176241 -0.2806244 -0.04703825 -0.9586644 -2.91459e-7 -3.17131e-7 1 0.1023736 -0.05448061 -0.9932531 -0.9917834 0.05096769 -0.1173375 0.9976581 0.008485078 -0.0678693 0.9321361 0.3160484 -0.1767362 0.987361 -0.06024211 -0.1465923 -0.8885619 0.2096477 -0.4080513 0.1581212 0.9130621 -0.3759192 -0.1148253 -0.7812108 -0.6136164 -0.8874721 -0.2054191 -0.4125486 -0.08168131 0.9230205 -0.3759806 0.0718249 -0.78899 -0.6101936 0.9035267 -0.3392899 -0.2617669 -0.7500702 -0.4213774 -0.509741 0.9901811 0.0288369 -0.1367844 -0.9163392 0.02465021 -0.3996433 -0.9419247 0.3197934 -0.1025189 0.2299093 0.9460121 -0.2284794 -0.2351443 -0.9488496 -0.2106932 -0.9974542 -0.05533045 -0.04498606 -0.06710827 0.9748653 -0.2124481 0.06803435 -0.9677281 -0.2426391 0.9645511 0.1788617 -0.1940354 0.9846692 -0.1742847 0.007177114 -0.9404038 -0.3392598 -0.02331143 0.8759843 -0.4740034 0.08928799 -0.9985403 0.03010183 -0.04484802 0.9958905 -1.06111e-4 -0.09056669 -0.09831005 0.2630318 -0.9597653 -0.06603473 -0.9926396 -0.1015189 -0.0931583 -0.412609 -0.9061321 1.76945e-5 0.166415 0.9860558 -0.2162048 0.940556 -0.2619353 -0.07308852 -0.8966499 -0.4366657 -0.2437645 0.9449806 -0.2181526 -0.07296311 -0.5603004 -0.8250696 -2.10712e-5 -0.2015887 0.9794703 -0.1100818 -0.06030666 -0.9920913 -2.91453e-7 -3.17133e-7 1 -0.07176119 -0.7891121 -0.6100431 -0.1585596 0.9127919 -0.3763909 -0.06823104 -0.9681903 -0.240733 -0.2298573 0.9459799 -0.2286649 3.19614e-7 0 1 0.05044823 0.9692559 -0.2408282 0.2781774 0.163648 -0.9464865 0.2594631 -0.9643948 -0.05120104 0.2046527 -0.3744423 -0.9043839 0.08056735 0.9760515 -0.2020709 0.2022792 -0.8806199 -0.4284761 0.034177 -0.06982022 0.996974 0.1906402 -0.4954137 -0.8474795 0 -3.17132e-7 1 0.2648246 -0.03638178 -0.9636101 0.08159852 0.923093 -0.3758207 0.1150957 -0.7808661 -0.6140042 0.06727242 0.9748592 -0.2124239 0.234941 -0.9480729 -0.2143841</float_array>
          <technique_common>
            <accessor source="#shape0_027-mesh-normals-array" count="188" stride="3">
              <param name="X" type="float"/>
              <param name="Y" type="float"/>
              <param name="Z" type="float"/>
            </accessor>
          </technique_common>
        </source>
        <source id="shape0_027-mesh-colors-shape0-lib-vcolor" name="shape0-lib-vcolor">
          <float_array id="shape0_027-mesh-colors-shape0-lib-vcolor-array" count="1728">0.654902 0.5019608 0.3137255 0.654902 0.5019608 0.3137255 0.654902 0.5019608 0.3137255 0.654902 0.5019608 0.3137255 0.654902 0.5019608 0.3137255 0.654902 0.5019608 0.3137255 0.654902 0.5019608 0.3137255 0.654902 0.5019608 0.3137255 0.654902 0.5019608 0.3137255 0.654902 0.5019608 0.3137255 0.654902 0.5019608 0.3137255 0.654902 0.5019608 0.3137255 0.654902 0.5019608 0.3137255 0.654902 0.5019608 0.3137255 0.654902 0.5019608 0.3137255 0.654902 0.5019608 0.3137255 0.654902 0.5019608 0.3137255 0.654902 0.5019608 0.3137255 0.654902 0.5019608 0.3137255 0.654902 0.5019608 0.3137255 0.654902 0.5019608 0.3137255 0.654902 0.5019608 0.3137255 0.654902 0.5019608 0.3137255 0.654902 0.5019608 0.3137255 0.654902 0.5019608 0.3137255 0.654902 0.5019608 0.3137255 0.654902 0.5019608 0.3137255 0.654902 0.5019608 0.3137255 0.654902 0.5019608 0.3137255 0.654902 0.5019608 0.3137255 0.654902 0.5019608 0.3137255 0.654902 0.5019608 0.3137255 0.654902 0.5019608 0.3137255 0.654902 0.5019608 0.3137255 0.654902 0.5019608 0.3137255 0.654902 0.5019608 0.3137255 0.654902 0.5019608 0.3137255 0.654902 0.5019608 0.3137255 0.654902 0.5019608 0.3137255 0.654902 0.5019608 0.3137255 0.654902 0.5019608 0.3137255 0.654902 0.5019608 0.3137255 0.654902 0.5019608 0.3137255 0.654902 0.5019608 0.3137255 0.654902 0.5019608 0.3137255 0.654902 0.5019608 0.3137255 0.654902 0.5019608 0.3137255 0.654902 0.5019608 0.3137255 0.654902 0.5019608 0.3137255 0.654902 0.5019608 0.3137255 0.654902 0.5019608 0.3137255 0.654902 0.5019608 0.3137255 0.654902 0.5019608 0.3137255 0.654902 0.5019608 0.3137255 0.654902 0.5019608 0.3137255 0.654902 0.5019608 0.3137255 0.654902 0.5019608 0.3137255 0.654902 0.5019608 0.3137255 0.654902 0.5019608 0.3137255 0.654902 0.5019608 0.3137255 0.654902 0.5019608 0.3137255 0.654902 0.5019608 0.3137255 0.654902 0.5019608 0.3137255 0.654902 0.5019608 0.3137255 0.654902 0.5019608 0.3137255 0.654902 0.5019608 0.3137255 0.654902 0.5019608 0.3137255 0.654902 0.5019608 0.3137255 0.654902 0.5019608 0.3137255 0.654902 0.5019608 0.3137255 0.654902 0.5019608 0.3137255 0.654902 0.5019608 0.3137255 0.654902 0.5019608 0.3137255 0.654902 0.5019608 0.3137255 0.654902 0.5019608 0.3137255 0.654902 0.5019608 0.3137255 0.654902 0.5019608 0.3137255 0.654902 0.5019608 0.3137255 0.654902 0.5019608 0.3137255 0.654902 0.5019608 0.3137255 0.654902 0.5019608 0.3137255 0.654902 0.5019608 0.3137255 0.654902 0.5019608 0.3137255 0.654902 0.5019608 0.3137255 0.654902 0.5019608 0.3137255 0.654902 0.5019608 0.3137255 0.654902 0.5019608 0.3137255 0.654902 0.5019608 0.3137255 0.654902 0.5019608 0.3137255 0.654902 0.5019608 0.3137255 0.654902 0.5019608 0.3137255 0.654902 0.5019608 0.3137255 0.654902 0.5019608 0.3137255 0.654902 0.5019608 0.3137255 0.654902 0.5019608 0.3137255 0.654902 0.5019608 0.3137255 0.654902 0.5019608 0.3137255 0.654902 0.5019608 0.3137255 0.654902 0.5019608 0.3137255 0.654902 0.5019608 0.3137255 0.654902 0.5019608 0.3137255 0.654902 0.5019608 0.3137255 0.654902 0.5019608 0.3137255 0.654902 0.5019608 0.3137255 0.654902 0.5019608 0.3137255 0.654902 0.5019608 0.3137255 0.654902 0.5019608 0.3137255 0.654902 0.5019608 0.3137255 0.654902 0.5019608 0.3137255 0.654902 0.5019608 0.3137255 0.654902 0.5019608 0.3137255 0.654902 0.5019608 0.3137255 0.654902 0.5019608 0.3137255 0.654902 0.5019608 0.3137255 0.654902 0.5019608 0.3137255 0.654902 0.5019608 0.3137255 0.654902 0.5019608 0.3137255 0.654902 0.5019608 0.3137255 0.654902 0.5019608 0.3137255 0.654902 0.5019608 0.3137255 0.654902 0.5019608 0.3137255 0.654902 0.5019608 0.3137255 0.654902 0.5019608 0.3137255 0.654902 0.5019608 0.3137255 0.654902 0.5019608 0.3137255 0.654902 0.5019608 0.3137255 0.654902 0.5019608 0.3137255 0.654902 0.5019608 0.3137255 0.654902 0.5019608 0.3137255 0.654902 0.5019608 0.3137255 0.654902 0.5019608 0.3137255 0.654902 0.5019608 0.3137255 0.654902 0.5019608 0.3137255 0.654902 0.5019608 0.3137255 0.654902 0.5019608 0.3137255 0.654902 0.5019608 0.3137255 0.654902 0.5019608 0.3137255 0.654902 0.5019608 0.3137255 0.654902 0.5019608 0.3137255 0.654902 0.5019608 0.3137255 0.654902 0.5019608 0.3137255 0.654902 0.5019608 0.3137255 0.654902 0.5019608 0.3137255 0.654902 0.5019608 0.3137255 0.654902 0.5019608 0.3137255 0.654902 0.5019608 0.3137255 0.654902 0.5019608 0.3137255 0.654902 0.5019608 0.3137255 0.654902 0.5019608 0.3137255 0.654902 0.5019608 0.3137255 0.654902 0.5019608 0.3137255 0.654902 0.5019608 0.3137255 0.654902 0.5019608 0.3137255 0.654902 0.5019608 0.3137255 0.654902 0.5019608 0.3137255 0.654902 0.5019608 0.3137255 0.654902 0.5019608 0.3137255 0.654902 0.5019608 0.3137255 0.654902 0.5019608 0.3137255 0.654902 0.5019608 0.3137255 0.654902 0.5019608 0.3137255 0.654902 0.5019608 0.3137255 0.654902 0.5019608 0.3137255 0.654902 0.5019608 0.3137255 0.654902 0.5019608 0.3137255 0.654902 0.5019608 0.3137255 0.654902 0.5019608 0.3137255 0.654902 0.5019608 0.3137255 0.654902 0.5019608 0.3137255 0.654902 0.5019608 0.3137255 0.654902 0.5019608 0.3137255 0.654902 0.5019608 0.3137255 0.654902 0.5019608 0.3137255 0.654902 0.5019608 0.3137255 0.654902 0.5019608 0.3137255 0.654902 0.5019608 0.3137255 0.654902 0.5019608 0.3137255 0.654902 0.5019608 0.3137255 0.654902 0.5019608 0.3137255 0.654902 0.5019608 0.3137255 0.654902 0.5019608 0.3137255 0.654902 0.5019608 0.3137255 0.654902 0.5019608 0.3137255 0.654902 0.5019608 0.3137255 0.654902 0.5019608 0.3137255 0.654902 0.5019608 0.3137255 0.654902 0.5019608 0.3137255 0.654902 0.5019608 0.3137255 0.654902 0.5019608 0.3137255 0.654902 0.5019608 0.3137255 0.654902 0.5019608 0.3137255 0.654902 0.5019608 0.3137255 0.654902 0.5019608 0.3137255 0.654902 0.5019608 0.3137255 0.654902 0.5019608 0.3137255 0.654902 0.5019608 0.3137255 0.654902 0.5019608 0.3137255 0.654902 0.5019608 0.3137255 0.654902 0.5019608 0.3137255 0.654902 0.5019608 0.3137255 0.654902 0.5019608 0.3137255 0.654902 0.5019608 0.3137255 0.654902 0.5019608 0.3137255 0.654902 0.5019608 0.3137255 0.654902 0.5019608 0.3137255 0.654902 0.5019608 0.3137255 0.654902 0.5019608 0.3137255 0.654902 0.5019608 0.3137255 0.654902 0.5019608 0.3137255 0.654902 0.5019608 0.3137255 0.654902 0.5019608 0.3137255 0.654902 0.5019608 0.3137255 0.654902 0.5019608 0.3137255 0.654902 0.5019608 0.3137255 0.654902 0.5019608 0.3137255 0.654902 0.5019608 0.3137255 0.654902 0.5019608 0.3137255 0.654902 0.5019608 0.3137255 0.654902 0.5019608 0.3137255 0.654902 0.5019608 0.3137255 0.654902 0.5019608 0.3137255 0.654902 0.5019608 0.3137255 0.654902 0.5019608 0.3137255 0.654902 0.5019608 0.3137255 0.654902 0.5019608 0.3137255 0.654902 0.5019608 0.3137255 0.654902 0.5019608 0.3137255 0.654902 0.5019608 0.3137255 0.654902 0.5019608 0.3137255 0.654902 0.5019608 0.3137255 0.654902 0.5019608 0.3137255 0.654902 0.5019608 0.3137255 0.654902 0.5019608 0.3137255 0.654902 0.5019608 0.3137255 0.654902 0.5019608 0.3137255 0.654902 0.5019608 0.3137255 0.654902 0.5019608 0.3137255 0.654902 0.5019608 0.3137255 0.654902 0.5019608 0.3137255 0.654902 0.5019608 0.3137255 0.654902 0.5019608 0.3137255 0.654902 0.5019608 0.3137255 0.654902 0.5019608 0.3137255 0.654902 0.5019608 0.3137255 0.654902 0.5019608 0.3137255 0.654902 0.5019608 0.3137255 0.654902 0.5019608 0.3137255 0.654902 0.5019608 0.3137255 0.654902 0.5019608 0.3137255 0.654902 0.5019608 0.3137255 0.654902 0.5019608 0.3137255 0.654902 0.5019608 0.3137255 0.654902 0.5019608 0.3137255 0.654902 0.5019608 0.3137255 0.654902 0.5019608 0.3137255 0.654902 0.5019608 0.3137255 0.654902 0.5019608 0.3137255 0.654902 0.5019608 0.3137255 0.654902 0.5019608 0.3137255 0.654902 0.5019608 0.3137255 0.654902 0.5019608 0.3137255 0.654902 0.5019608 0.3137255 0.654902 0.5019608 0.3137255 0.654902 0.5019608 0.3137255 0.654902 0.5019608 0.3137255 0.654902 0.5019608 0.3137255 0.654902 0.5019608 0.3137255 0.654902 0.5019608 0.3137255 0.654902 0.5019608 0.3137255 0.654902 0.5019608 0.3137255 0.654902 0.5019608 0.3137255 0.654902 0.5019608 0.3137255 0.654902 0.5019608 0.3137255 0.654902 0.5019608 0.3137255 0.654902 0.5019608 0.3137255 0.654902 0.5019608 0.3137255 0.654902 0.5019608 0.3137255 0.654902 0.5019608 0.3137255 0.654902 0.5019608 0.3137255 0.654902 0.5019608 0.3137255 0.654902 0.5019608 0.3137255 0.654902 0.5019608 0.3137255 0.654902 0.5019608 0.3137255 0.654902 0.5019608 0.3137255 0.654902 0.5019608 0.3137255 0.654902 0.5019608 0.3137255 0.654902 0.5019608 0.3137255 0.654902 0.5019608 0.3137255 0.654902 0.5019608 0.3137255 0.654902 0.5019608 0.3137255 0.654902 0.5019608 0.3137255 0.654902 0.5019608 0.3137255 0.654902 0.5019608 0.3137255 0.654902 0.5019608 0.3137255 0.654902 0.5019608 0.3137255 0.654902 0.5019608 0.3137255 0.654902 0.5019608 0.3137255 0.654902 0.5019608 0.3137255 0.654902 0.5019608 0.3137255 0.654902 0.5019608 0.3137255 0.654902 0.5019608 0.3137255 0.654902 0.5019608 0.3137255 0.654902 0.5019608 0.3137255 0.654902 0.5019608 0.3137255 0.654902 0.5019608 0.3137255 0.654902 0.5019608 0.3137255 0.654902 0.5019608 0.3137255 0.654902 0.5019608 0.3137255 0.654902 0.5019608 0.3137255 0.654902 0.5019608 0.3137255 0.654902 0.5019608 0.3137255 0.654902 0.5019608 0.3137255 0.654902 0.5019608 0.3137255 0.654902 0.5019608 0.3137255 0.654902 0.5019608 0.3137255 0.654902 0.5019608 0.3137255 0.654902 0.5019608 0.3137255 0.654902 0.5019608 0.3137255 0.654902 0.5019608 0.3137255 0.654902 0.5019608 0.3137255 0.654902 0.5019608 0.3137255 0.654902 0.5019608 0.3137255 0.654902 0.5019608 0.3137255 0.654902 0.5019608 0.3137255 0.654902 0.5019608 0.3137255 0.654902 0.5019608 0.3137255 0.654902 0.5019608 0.3137255 0.654902 0.5019608 0.3137255 0.654902 0.5019608 0.3137255 0.654902 0.5019608 0.3137255 0.654902 0.5019608 0.3137255 0.654902 0.5019608 0.3137255 0.654902 0.5019608 0.3137255 0.654902 0.5019608 0.3137255 0.654902 0.5019608 0.3137255 0.654902 0.5019608 0.3137255 0.654902 0.5019608 0.3137255 0.654902 0.5019608 0.3137255 0.654902 0.5019608 0.3137255 0.654902 0.5019608 0.3137255 0.654902 0.5019608 0.3137255 0.654902 0.5019608 0.3137255 0.654902 0.5019608 0.3137255 0.654902 0.5019608 0.3137255 0.654902 0.5019608 0.3137255 0.654902 0.5019608 0.3137255 0.654902 0.5019608 0.3137255 0.654902 0.5019608 0.3137255 0.654902 0.5019608 0.3137255 0.654902 0.5019608 0.3137255 0.654902 0.5019608 0.3137255 0.654902 0.5019608 0.3137255 0.654902 0.5019608 0.3137255 0.654902 0.5019608 0.3137255 0.654902 0.5019608 0.3137255 0.654902 0.5019608 0.3137255 0.654902 0.5019608 0.3137255 0.654902 0.5019608 0.3137255 0.654902 0.5019608 0.3137255 0.654902 0.5019608 0.3137255 0.654902 0.5019608 0.3137255 0.654902 0.5019608 0.3137255 0.654902 0.5019608 0.3137255 0.654902 0.5019608 0.3137255 0.654902 0.5019608 0.3137255 0.654902 0.5019608 0.3137255 0.654902 0.5019608 0.3137255 0.654902 0.5019608 0.3137255 0.654902 0.5019608 0.3137255 0.654902 0.5019608 0.3137255 0.654902 0.5019608 0.3137255 0.654902 0.5019608 0.3137255 0.654902 0.5019608 0.3137255 0.654902 0.5019608 0.3137255 0.654902 0.5019608 0.3137255 0.654902 0.5019608 0.3137255 0.654902 0.5019608 0.3137255 0.654902 0.5019608 0.3137255 0.654902 0.5019608 0.3137255 0.654902 0.5019608 0.3137255 0.654902 0.5019608 0.3137255 0.654902 0.5019608 0.3137255 0.654902 0.5019608 0.3137255 0.654902 0.5019608 0.3137255 0.654902 0.5019608 0.3137255 0.654902 0.5019608 0.3137255 0.654902 0.5019608 0.3137255 0.654902 0.5019608 0.3137255 0.654902 0.5019608 0.3137255 0.654902 0.5019608 0.3137255 0.654902 0.5019608 0.3137255 0.654902 0.5019608 0.3137255 0.654902 0.5019608 0.3137255 0.654902 0.5019608 0.3137255 0.654902 0.5019608 0.3137255 0.654902 0.5019608 0.3137255 0.654902 0.5019608 0.3137255 0.654902 0.5019608 0.3137255 0.654902 0.5019608 0.3137255 0.654902 0.5019608 0.3137255 0.654902 0.5019608 0.3137255 0.654902 0.5019608 0.3137255 0.654902 0.5019608 0.3137255 0.654902 0.5019608 0.3137255 0.654902 0.5019608 0.3137255 0.654902 0.5019608 0.3137255 0.654902 0.5019608 0.3137255 0.654902 0.5019608 0.3137255 0.654902 0.5019608 0.3137255 0.654902 0.5019608 0.3137255 0.654902 0.5019608 0.3137255 0.654902 0.5019608 0.3137255 0.654902 0.5019608 0.3137255 0.654902 0.5019608 0.3137255 0.654902 0.5019608 0.3137255 0.654902 0.5019608 0.3137255 0.654902 0.5019608 0.3137255 0.654902 0.5019608 0.3137255 0.654902 0.5019608 0.3137255 0.654902 0.5019608 0.3137255 0.654902 0.5019608 0.3137255 0.654902 0.5019608 0.3137255 0.654902 0.5019608 0.3137255 0.654902 0.5019608 0.3137255 0.654902 0.5019608 0.3137255 0.654902 0.5019608 0.3137255 0.654902 0.5019608 0.3137255 0.654902 0.5019608 0.3137255 0.654902 0.5019608 0.3137255 0.654902 0.5019608 0.3137255 0.654902 0.5019608 0.3137255 0.654902 0.5019608 0.3137255 0.654902 0.5019608 0.3137255 0.654902 0.5019608 0.3137255 0.654902 0.5019608 0.3137255 0.654902 0.5019608 0.3137255 0.654902 0.5019608 0.3137255 0.654902 0.5019608 0.3137255 0.654902 0.5019608 0.3137255 0.654902 0.5019608 0.3137255 0.654902 0.5019608 0.3137255 0.654902 0.5019608 0.3137255 0.654902 0.5019608 0.3137255 0.654902 0.5019608 0.3137255 0.654902 0.5019608 0.3137255 0.654902 0.5019608 0.3137255 0.654902 0.5019608 0.3137255 0.654902 0.5019608 0.3137255 0.654902 0.5019608 0.3137255 0.654902 0.5019608 0.3137255 0.654902 0.5019608 0.3137255 0.654902 0.5019608 0.3137255 0.654902 0.5019608 0.3137255 0.654902 0.5019608 0.3137255 0.654902 0.5019608 0.3137255 0.654902 0.5019608 0.3137255 0.654902 0.5019608 0.3137255 0.654902 0.5019608 0.3137255 0.654902 0.5019608 0.3137255 0.654902 0.5019608 0.3137255 0.654902 0.5019608 0.3137255 0.654902 0.5019608 0.3137255 0.654902 0.5019608 0.3137255 0.654902 0.5019608 0.3137255 0.654902 0.5019608 0.3137255 0.654902 0.5019608 0.3137255 0.654902 0.5019608 0.3137255 0.654902 0.5019608 0.3137255 0.654902 0.5019608 0.3137255 0.654902 0.5019608 0.3137255 0.654902 0.5019608 0.3137255 0.654902 0.5019608 0.3137255 0.654902 0.5019608 0.3137255 0.654902 0.5019608 0.3137255 0.654902 0.5019608 0.3137255 0.654902 0.5019608 0.3137255 0.654902 0.5019608 0.3137255 0.654902 0.5019608 0.3137255 0.654902 0.5019608 0.3137255 0.654902 0.5019608 0.3137255 0.654902 0.5019608 0.3137255 0.654902 0.5019608 0.3137255 0.654902 0.5019608 0.3137255 0.654902 0.5019608 0.3137255 0.654902 0.5019608 0.3137255 0.654902 0.5019608 0.3137255 0.654902 0.5019608 0.3137255 0.654902 0.5019608 0.3137255 0.654902 0.5019608 0.3137255 0.654902 0.5019608 0.3137255 0.654902 0.5019608 0.3137255 0.654902 0.5019608 0.3137255 0.654902 0.5019608 0.3137255 0.654902 0.5019608 0.3137255 0.654902 0.5019608 0.3137255 0.654902 0.5019608 0.3137255 0.654902 0.5019608 0.3137255 0.654902 0.5019608 0.3137255 0.654902 0.5019608 0.3137255 0.654902 0.5019608 0.3137255 0.654902 0.5019608 0.3137255 0.654902 0.5019608 0.3137255 0.654902 0.5019608 0.3137255 0.654902 0.5019608 0.3137255 0.654902 0.5019608 0.3137255 0.654902 0.5019608 0.3137255 0.654902 0.5019608 0.3137255 0.654902 0.5019608 0.3137255 0.654902 0.5019608 0.3137255 0.654902 0.5019608 0.3137255 0.654902 0.5019608 0.3137255 0.654902 0.5019608 0.3137255 0.654902 0.5019608 0.3137255 0.654902 0.5019608 0.3137255 0.654902 0.5019608 0.3137255 0.654902 0.5019608 0.3137255 0.654902 0.5019608 0.3137255 0.654902 0.5019608 0.3137255 0.654902 0.5019608 0.3137255 0.654902 0.5019608 0.3137255 0.654902 0.5019608 0.3137255 0.654902 0.5019608 0.3137255 0.654902 0.5019608 0.3137255 0.654902 0.5019608 0.3137255 0.654902 0.5019608 0.3137255 0.654902 0.5019608 0.3137255 0.654902 0.5019608 0.3137255 0.654902 0.5019608 0.3137255 0.654902 0.5019608 0.3137255 0.654902 0.5019608 0.3137255 0.654902 0.5019608 0.3137255 0.654902 0.5019608 0.3137255 0.654902 0.5019608 0.3137255 0.654902 0.5019608 0.3137255 0.654902 0.5019608 0.3137255 0.654902 0.5019608 0.3137255 0.654902 0.5019608 0.3137255 0.654902 0.5019608 0.3137255 0.654902 0.5019608 0.3137255 0.654902 0.5019608 0.3137255 0.654902 0.5019608 0.3137255 0.654902 0.5019608 0.3137255 0.654902 0.5019608 0.3137255 0.654902 0.5019608 0.3137255 0.654902 0.5019608 0.3137255 0.654902 0.5019608 0.3137255 0.654902 0.5019608 0.3137255 0.654902 0.5019608 0.3137255 0.654902 0.5019608 0.3137255 0.654902 0.5019608 0.3137255 0.654902 0.5019608 0.3137255 0.654902 0.5019608 0.3137255 0.654902 0.5019608 0.3137255 0.654902 0.5019608 0.3137255 0.654902 0.5019608 0.3137255 0.654902 0.5019608 0.3137255 0.654902 0.5019608 0.3137255 0.654902 0.5019608 0.3137255 0.654902 0.5019608 0.3137255 0.654902 0.5019608 0.3137255 0.654902 0.5019608 0.3137255 0.654902 0.5019608 0.3137255 0.654902 0.5019608 0.3137255 0.654902 0.5019608 0.3137255 0.654902 0.5019608 0.3137255 0.654902 0.5019608 0.3137255 0.654902 0.5019608 0.3137255 0.654902 0.5019608 0.3137255 0.654902 0.5019608 0.3137255 0.654902 0.5019608 0.3137255 0.654902 0.5019608 0.3137255 0.654902 0.5019608 0.3137255 0.654902 0.5019608 0.3137255 0.654902 0.5019608 0.3137255 0.654902 0.5019608 0.3137255 0.654902 0.5019608 0.3137255</float_array>
          <technique_common>
            <accessor source="#shape0_027-mesh-colors-shape0-lib-vcolor-array" count="576" stride="3">
              <param name="R" type="float"/>
              <param name="G" type="float"/>
              <param name="B" type="float"/>
            </accessor>
          </technique_common>
        </source>
        <vertices id="shape0_027-mesh-vertices">
          <input semantic="POSITION" source="#shape0_027-mesh-positions"/>
        </vertices>
        <polylist count="192">
          <input semantic="VERTEX" source="#shape0_027-mesh-vertices" offset="0"/>
          <input semantic="NORMAL" source="#shape0_027-mesh-normals" offset="1"/>
          <input semantic="COLOR" source="#shape0_027-mesh-colors-shape0-lib-vcolor" offset="2" set="0"/>
          <vcount>3 3 3 3 3 3 3 3 3 3 3 3 3 3 3 3 3 3 3 3 3 3 3 3 3 3 3 3 3 3 3 3 3 3 3 3 3 3 3 3 3 3 3 3 3 3 3 3 3 3 3 3 3 3 3 3 3 3 3 3 3 3 3 3 3 3 3 3 3 3 3 3 3 3 3 3 3 3 3 3 3 3 3 3 3 3 3 3 3 3 3 3 3 3 3 3 3 3 3 3 3 3 3 3 3 3 3 3 3 3 3 3 3 3 3 3 3 3 3 3 3 3 3 3 3 3 3 3 3 3 3 3 3 3 3 3 3 3 3 3 3 3 3 3 3 3 3 3 3 3 3 3 3 3 3 3 3 3 3 3 3 3 3 3 3 3 3 3 3 3 3 3 3 3 3 3 3 3 3 3 3 3 3 3 3 3 3 3 3 3 3 3 </vcount>
          <p>34 0 0 1 0 1 57 0 2 92 1 3 35 1 4 2 1 5 52 2 6 36 2 7 3 2 8 76 3 9 37 3 10 0 3 11 96 4 12 85 4 13 2 4 14 80 5 15 69 5 16 5 5 17 62 6 18 27 6 19 9 6 20 28 7 21 10 7 22 87 7 23 29 8 24 11 8 25 49 8 26 74 9 27 26 9 28 8 9 29 38 10 30 13 10 31 66 10 32 39 11 33 15 11 34 83 11 35 81 12 36 66 12 37 13 12 38 82 13 39 12 13 40 61 13 41 75 14 42 30 14 43 16 14 44 31 15 45 17 15 46 84 15 47 40 16 48 19 16 49 42 16 50 65 17 51 41 17 52 21 17 53 88 18 54 21 18 55 48 18 56 78 19 57 72 19 58 18 19 59 51 20 60 32 20 61 22 20 62 33 21 63 23 21 64 56 21 65 79 22 66 73 22 67 24 22 68 95 23 69 89 23 70 25 23 71 54 24 72 5 24 73 27 24 74 6 25 75 28 25 76 90 25 77 7 26 78 29 26 79 50 26 80 4 27 81 26 27 82 74 27 83 69 28 84 12 28 85 30 28 86 86 29 87 14 29 88 31 29 89 47 30 90 18 30 91 32 30 92 20 31 93 33 31 94 63 31 95 9 32 96 34 32 97 64 32 98 87 33 99 10 33 100 35 33 101 11 34 102 36 34 103 52 34 104 71 35 105 8 35 106 37 35 107 68 36 108 16 36 109 38 36 110 17 37 111 39 37 112 93 37 113 22 38 114 40 38 115 53 38 116 56 39 117 23 39 118 41 39 119 41 40 120 52 40 121 48 40 122 50 41 123 49 41 124 23 41 125 53 42 126 42 42 127 0 42 128 94 43 129 48 43 130 3 43 131 78 44 132 47 44 133 4 44 134 26 45 135 51 45 136 44 45 137 70 46 138 79 46 139 45 46 140 86 47 141 95 47 142 46 47 143 43 48 144 50 48 145 33 48 146 4 49 147 47 49 148 51 49 149 23 50 150 49 50 151 52 50 152 8 51 153 44 51 154 53 51 155 64 52 156 57 52 157 19 52 158 96 53 159 55 53 160 21 53 161 72 54 162 80 54 163 54 54 164 32 55 165 62 55 166 59 55 167 73 56 168 81 56 169 60 56 170 97 57 171 61 57 172 25 57 173 35 58 174 65 58 175 55 58 176 63 59 177 56 59 178 10 59 179 18 60 180 54 60 181 62 60 182 58 61 183 63 61 184 28 61 185 59 62 186 64 62 187 40 62 188 10 63 189 56 63 190 65 63 191 39 64 192 76 64 193 70 64 194 61 65 195 12 65 196 69 65 197 31 66 198 74 66 199 71 66 200 77 67 201 66 67 202 1 67 203 1 68 204 66 68 205 81 68 206 27 69 207 75 69 208 68 69 209 25 70 210 72 70 211 78 70 212 42 71 213 19 71 214 73 71 215 67 72 216 74 72 217 31 72 218 5 73 219 69 73 220 75 73 221 17 74 222 71 74 223 76 74 224 9 75 225 68 75 226 77 75 227 46 76 228 78 76 229 67 76 230 0 77 231 42 77 232 79 77 233 25 78 234 61 78 235 80 78 236 19 79 237 57 79 238 81 79 239 92 80 240 85 80 241 13 80 242 13 81 243 85 81 244 96 81 245 90 82 246 87 82 247 16 82 248 93 83 249 83 83 250 3 83 251 6 84 252 82 84 253 97 84 254 91 85 255 84 85 256 11 85 257 24 86 258 88 86 259 94 86 260 20 87 261 89 87 262 95 87 263 82 88 264 90 88 265 30 88 266 7 89 267 86 89 268 91 89 269 87 90 270 92 90 271 38 90 272 84 91 273 93 91 274 36 91 275 45 92 276 94 92 277 83 92 278 7 93 279 43 93 280 95 93 281 60 94 282 96 94 283 88 94 284 58 95 285 97 95 286 89 95 287 64 96 288 34 96 289 57 96 290 85 97 291 92 97 292 2 97 293 48 98 294 52 98 295 3 98 296 70 99 297 76 99 298 0 99 299 55 100 300 96 100 301 2 100 302 54 101 303 80 101 304 5 101 305 59 102 306 62 102 307 9 102 308 90 14 309 28 14 310 87 14 311 50 103 312 29 103 313 49 103 314 71 104 315 74 104 316 8 104 317 77 105 318 38 105 319 66 105 320 93 106 321 39 106 322 83 106 323 60 107 324 81 107 325 13 107 326 97 108 327 82 108 328 61 108 329 68 14 330 75 14 331 16 14 332 91 109 333 31 109 334 84 109 335 53 110 336 40 110 337 42 110 338 55 111 339 65 111 340 21 111 341 94 112 342 88 112 343 48 112 344 47 113 345 78 113 346 18 113 347 44 114 348 51 114 349 22 114 350 63 115 351 33 115 352 56 115 353 45 116 354 79 116 355 24 116 356 46 117 357 95 117 358 25 117 359 62 118 360 54 118 361 27 118 362 82 119 363 6 119 364 90 119 365 43 120 366 7 120 367 50 120 368 67 121 369 4 121 370 74 121 371 75 122 372 69 122 373 30 122 374 91 123 375 86 123 376 31 123 377 51 124 378 47 124 379 32 124 380 58 125 381 20 125 382 63 125 383 59 126 384 9 126 385 64 126 386 92 127 387 87 127 388 35 127 389 49 128 390 11 128 391 52 128 392 76 129 393 71 129 394 37 129 395 77 130 396 68 130 397 38 130 398 84 131 399 17 131 400 93 131 401 44 132 402 22 132 403 53 132 404 65 133 405 56 133 406 41 133 407 21 134 408 41 134 409 48 134 410 33 135 411 50 135 412 23 135 413 37 136 414 53 136 415 0 136 416 83 137 417 94 137 418 3 137 419 67 138 420 78 138 421 4 138 422 8 139 423 26 139 424 44 139 425 15 140 426 70 140 427 45 140 428 14 141 429 86 141 430 46 141 431 20 142 432 43 142 433 33 142 434 26 143 435 4 143 436 51 143 437 41 144 438 23 144 439 52 144 440 37 145 441 8 145 442 53 145 443 40 146 444 64 146 445 19 146 446 88 147 447 96 147 448 21 147 449 18 148 450 72 148 451 54 148 452 22 149 453 32 149 454 59 149 455 24 150 456 73 150 457 60 150 458 89 151 459 97 151 460 25 151 461 2 152 462 35 152 463 55 152 464 28 153 465 63 153 466 10 153 467 32 154 468 18 154 469 62 154 470 6 155 471 58 155 472 28 155 473 22 156 474 59 156 475 40 156 476 35 157 477 10 157 478 65 157 479 15 158 480 39 158 481 70 158 482 80 159 483 61 159 484 69 159 485 17 160 486 31 160 487 71 160 488 34 161 489 77 161 490 1 161 491 57 162 492 1 162 493 81 162 494 9 14 495 27 14 496 68 14 497 46 163 498 25 163 499 78 163 500 79 164 501 42 164 502 73 164 503 14 165 504 67 165 505 31 165 506 27 166 507 5 166 508 75 166 509 39 167 510 17 167 511 76 167 512 34 168 513 9 168 514 77 168 515 14 169 516 46 169 517 67 169 518 70 170 519 0 170 520 79 170 521 72 171 522 25 171 523 80 171 524 73 172 525 19 172 526 81 172 527 38 173 528 92 173 529 13 173 530 60 174 531 13 174 532 96 174 533 30 14 534 90 14 535 16 14 536 36 175 537 93 175 538 3 175 539 58 176 540 6 176 541 97 176 542 29 177 543 91 177 544 11 177 545 45 178 546 24 178 547 94 178 548 43 179 549 20 179 550 95 179 551 12 180 552 82 180 553 30 180 554 29 181 555 7 181 556 91 181 557 16 182 558 87 182 559 38 182 560 11 183 561 84 183 562 36 183 563 15 184 564 45 184 565 83 184 566 86 185 567 7 185 568 95 185 569 24 186 570 60 186 571 88 186 572 20 187 573 58 187 574 89 187 575</p>
        </polylist>
      </mesh>
    </geometry>
  </library_geometries>
  <library_controllers/>
  <library_visual_scenes>
    <visual_scene id="Scene" name="Scene">
      <node id="VIZ_LeftFingerJoint53y_link_0" name="VIZ_LeftFingerJoint53y_link_0" type="NODE">
        <instance_geometry url="#shape0_027-mesh" name="VIZ_LeftFingerJoint53y_link_0"/>
      </node>
    </visual_scene>
  </library_visual_scenes>
  <scene>
    <instance_visual_scene url="#Scene"/>
  </scene>
</COLLADA>