<?xml version="1.0" encoding="utf-8"?>
<COLLADA xmlns="http://www.collada.org/2005/11/COLLADASchema" version="1.4.1">
  <asset>
    <contributor>
      <author>Blender User</author>
      <authoring_tool>Blender 2.77.0 commit date:2016-04-05, commit time:18:12, hash:abf6f08</authoring_tool>
    </contributor>
    <created>2017-05-11T17:01:46</created>
    <modified>2017-05-11T17:01:46</modified>
    <unit name="meter" meter="1"/>
    <up_axis>Z_UP</up_axis>
  </asset>
  <library_images>
    <image id="PBRFULL_Hip-material_Base_Color_jpg" name="PBRFULL_Hip-material_Base_Color_jpg">
      <init_from>PBRFULL_Hip-material_Base_Color.jpg</init_from>
    </image>
  </library_images>
  <library_effects>
    <effect id="PBRFULL_Shoulder1-effect">
      <profile_COMMON>
        <newparam sid="PBRFULL_Hip-material_Base_Color_jpg-surface">
          <surface type="2D">
            <init_from>PBRFULL_Hip-material_Base_Color_jpg</init_from>
          </surface>
        </newparam>
        <newparam sid="PBRFULL_Hip-material_Base_Color_jpg-sampler">
          <sampler2D>
            <source>PBRFULL_Hip-material_Base_Color_jpg-surface</source>
          </sampler2D>
        </newparam>
        <technique sid="common">
          <phong>
            <emission>
              <color sid="emission">0 0 0 1</color>
            </emission>
            <ambient>
              <color sid="ambient">0 0 0 1</color>
            </ambient>
            <diffuse>
              <texture texture="PBRFULL_Hip-material_Base_Color_jpg-sampler"/>
            </diffuse>
            <specular>
              <color sid="specular">0.5 0.5 0.5 1</color>
            </specular>
            <shininess>
              <float sid="shininess">50</float>
            </shininess>
            <index_of_refraction>
              <float sid="index_of_refraction">1</float>
            </index_of_refraction>
          </phong>
        </technique>
      </profile_COMMON>
    </effect>
  </library_effects>
  <library_materials>
    <material id="PBRFULL_Shoulder1-material" name="PBRFULL_Shoulder1">
      <instance_effect url="#PBRFULL_Shoulder1-effect"/>
    </material>
  </library_materials>
  <library_geometries>
    <geometry id="Cylinder_002-mesh" name="Cylinder.002">
      <mesh>
        <source id="Cylinder_002-mesh-positions">
          <float_array id="Cylinder_002-mesh-positions-array" count="198">0 0 -0.005499899 0.01186317 0.02864021 -0.005499899 0 0.03099983 -0.005499899 -0.01186317 0.02864027 -0.005499899 -0.02192026 0.02192026 -0.005499899 -0.02864027 0.01186317 -0.005499899 -0.03099983 0 -0.005499899 -0.02864021 -0.01186317 -0.005499899 -0.02192026 -0.02192026 -0.005499899 -0.01186317 -0.02864027 -0.005499899 0 -0.03099983 -0.005499899 0.01186317 -0.02864027 -0.005499899 0.02192026 -0.02192026 -0.005499899 0.02864027 -0.01186317 -0.005499899 0.03099983 0 -0.005499899 0.02864027 0.01186317 -0.005499899 0.02192026 0.02192026 -0.005499899 0 0 0.005499899 0.01186323 0.02864021 0.005499899 0 0.03099983 0.005499899 -0.01186305 0.02864027 0.005499899 -0.0219202 0.02192032 0.005499899 -0.02864021 0.01186323 0.005499899 -0.03099983 0 0.005499899 -0.02864027 -0.01186311 0.005499899 -0.02192032 -0.02192026 0.005499899 -0.01186323 -0.02864021 0.005499899 0 -0.03099983 0.005499899 0.01186311 -0.02864027 0.005499899 0.02192026 -0.02192032 0.005499899 0.02864021 -0.01186317 0.005499899 0.03099983 0 0.005499899 0.02864027 0.01186311 0.005499899 0.02192032 0.02192026 0.005499899 0.02192026 0.02192026 -0.005499899 0.02864027 0.01186317 -0.005499899 0.03099983 0 -0.005499899 0.02864027 -0.01186317 -0.005499899 0.02192026 -0.02192026 -0.005499899 0.01186317 -0.02864027 -0.005499899 0 -0.03099983 -0.005499899 -0.01186317 -0.02864027 -0.005499899 -0.02192026 -0.02192026 -0.005499899 -0.02864021 -0.01186317 -0.005499899 -0.03099983 0 -0.005499899 -0.02864027 0.01186317 -0.005499899 -0.02192026 0.02192026 -0.005499899 -0.01186317 0.02864027 -0.005499899 0 0.03099983 -0.005499899 0.01186317 0.02864021 -0.005499899 0.02192032 0.02192026 0.005499899 0.02864027 0.01186311 0.005499899 0.03099983 0 0.005499899 0.02864021 -0.01186317 0.005499899 0.02192026 -0.02192032 0.005499899 0.01186311 -0.02864027 0.005499899 0 -0.03099983 0.005499899 -0.01186323 -0.02864021 0.005499899 -0.02192032 -0.02192026 0.005499899 -0.02864027 -0.01186311 0.005499899 -0.03099983 0 0.005499899 -0.02864021 0.01186323 0.005499899 -0.0219202 0.02192032 0.005499899 -0.01186305 0.02864027 0.005499899 0 0.03099983 0.005499899 0.01186323 0.02864021 0.005499899</float_array>
          <technique_common>
            <accessor source="#Cylinder_002-mesh-positions-array" count="66" stride="3">
              <param name="X" type="float"/>
              <param name="Y" type="float"/>
              <param name="Z" type="float"/>
            </accessor>
          </technique_common>
        </source>
        <source id="Cylinder_002-mesh-normals">
          <float_array id="Cylinder_002-mesh-normals-array" count="105">0 0 -1 0 0 -1 0 0 -1 0 0 -1 0 0 -1 0 0 -1 0 0 -1 0 0 -1 0.7071068 0.7071068 0 0.9238803 0.3826816 0 1 0 0 0.9238803 -0.3826816 0 0.7071068 -0.7071068 0 0.3826816 -0.9238803 0 0 -1 0 -0.3826816 -0.9238803 0 -0.7071068 -0.7071068 0 -0.9238803 -0.3826816 0 -1 0 0 -0.9238803 0.3826816 0 -0.7071068 0.7071068 0 -0.3826816 0.9238803 0 0 1 0 0.3826816 0.9238803 0 0 0 1 0 0 1 0 0 1 0 0 1 0 0 1 0 0 1 0 0 1 0 0 1 0 0 1 0 0 1 0 0 1</float_array>
          <technique_common>
            <accessor source="#Cylinder_002-mesh-normals-array" count="35" stride="3">
              <param name="X" type="float"/>
              <param name="Y" type="float"/>
              <param name="Z" type="float"/>
            </accessor>
          </technique_common>
        </source>
        <source id="Cylinder_002-mesh-map-0">
          <float_array id="Cylinder_002-mesh-map-0-array" count="384">0.4459023 0.7317716 0.2285014 0.7750142 0.4128056 0.6518675 0.2285014 0.7750142 0.3516498 0.5907116 0.4128056 0.6518675 0.2285014 0.7750142 0.2717464 0.5576132 0.3516498 0.5907116 0.2285014 0.7750142 0.1852589 0.5576132 0.2717464 0.5576132 0.2285014 0.7750142 0.1053544 0.5907098 0.1852589 0.5576132 0.2285014 0.7750142 0.04419887 0.6518657 0.1053544 0.5907098 0.2285014 0.7750142 0.01110082 0.7317694 0.04419887 0.6518657 0.2285014 0.7750142 0.01110053 0.8182568 0.01110082 0.7317694 0.2285014 0.7750142 0.04419708 0.8981612 0.01110053 0.8182568 0.2285014 0.7750142 0.1053531 0.9593167 0.04419708 0.8981612 0.2285014 0.7750142 0.1852564 0.9924151 0.1053531 0.9593167 0.2285014 0.7750142 0.271744 0.9924151 0.1852564 0.9924151 0.2285014 0.7750142 0.3516485 0.9593186 0.271744 0.9924151 0.2285014 0.7750142 0.412804 0.8981626 0.3516485 0.9593186 0.2285014 0.7750142 0.4459023 0.8182591 0.412804 0.8981626 0.2285014 0.7750142 0.4459023 0.7317716 0.4459023 0.8182591 0.3204748 0.6177019 0.3243023 0.7077534 0.2844169 0.6692364 0.3771245 0.674012 0.3462895 0.7582471 0.3243023 0.7077534 0.4076783 0.7474733 0.3470813 0.8128693 0.3462895 0.7582471 0.4074611 0.8265738 0.3271596 0.8626691 0.3470813 0.8128693 0.3766611 0.8987991 0.2889639 0.9000056 0.3271596 0.8626691 0.3200003 0.9525427 0.2385168 0.9191792 0.2889639 0.9000056 0.2472189 0.9797227 0.1825729 0.9173646 0.2385168 0.9191792 0.1698151 0.9785032 0.1302626 0.9000379 0.1825729 0.9173646 0.09665721 0.9515417 0.09020054 0.8638404 0.1302626 0.9000379 0.03913533 0.898189 0.06794434 0.8147481 0.09020054 0.8638404 0.007255315 0.826204 0.06689423 0.7605635 0.06794434 0.8147481 0.006307899 0.7472295 0.08727806 0.7098914 0.06689423 0.7605635 0.03638112 0.6738908 0.1259798 0.6707241 0.08727806 0.7098914 0.09268569 0.6176715 0.1770613 0.6491941 0.1259798 0.6707241 0.1664849 0.5872341 0.2327061 0.6486624 0.1770613 0.6491941 0.2844169 0.6692364 0.2464825 0.587234 0.3204748 0.6177019 0.217545 0.7824552 0.4349461 0.825699 0.4018487 0.9056029 0.217545 0.7824552 0.4018487 0.9056029 0.3406921 0.9667587 0.217545 0.7824552 0.3406921 0.9667587 0.2607892 0.999856 0.217545 0.7824552 0.2607892 0.999856 0.1743015 0.9998559 0.217545 0.7824552 0.1743015 0.9998559 0.0943973 0.9667588 0.217545 0.7824552 0.0943973 0.9667588 0.03324162 0.9056022 0.217545 0.7824552 0.03324162 0.9056022 1.44058e-4 0.825699 0.217545 0.7824552 1.44058e-4 0.825699 1.44109e-4 0.7392113 0.217545 0.7824552 1.44109e-4 0.7392113 0.03324145 0.6593074 0.217545 0.7824552 0.03324145 0.6593074 0.09439796 0.5981518 0.217545 0.7824552 0.09439796 0.5981518 0.1743012 0.5650541 0.217545 0.7824552 0.1743012 0.5650541 0.260789 0.5650541 0.217545 0.7824552 0.260789 0.5650541 0.3406931 0.5981519 0.217545 0.7824552 0.3406931 0.5981519 0.4018486 0.6593081 0.217545 0.7824552 0.4018486 0.6593081 0.4349461 0.7392113 0.217545 0.7824552 0.4349461 0.7392113 0.4349461 0.825699 0.3204748 0.6177019 0.3771245 0.674012 0.3243023 0.7077534 0.3771245 0.674012 0.4076783 0.7474733 0.3462895 0.7582471 0.4076783 0.7474733 0.4074611 0.8265738 0.3470813 0.8128693 0.4074611 0.8265738 0.3766611 0.8987991 0.3271596 0.8626691 0.3766611 0.8987991 0.3200003 0.9525427 0.2889639 0.9000056 0.3200003 0.9525427 0.2472189 0.9797227 0.2385168 0.9191792 0.2472189 0.9797227 0.1698151 0.9785032 0.1825729 0.9173646 0.1698151 0.9785032 0.09665721 0.9515417 0.1302626 0.9000379 0.09665721 0.9515417 0.03913533 0.898189 0.09020054 0.8638404 0.03913533 0.898189 0.007255315 0.826204 0.06794434 0.8147481 0.007255315 0.826204 0.006307899 0.7472295 0.06689423 0.7605635 0.006307899 0.7472295 0.03638112 0.6738908 0.08727806 0.7098914 0.03638112 0.6738908 0.09268569 0.6176715 0.1259798 0.6707241 0.09268569 0.6176715 0.1664849 0.5872341 0.1770613 0.6491941 0.1664849 0.5872341 0.2464825 0.587234 0.2327061 0.6486624 0.2844169 0.6692364 0.2327061 0.6486624 0.2464825 0.587234</float_array>
          <technique_common>
            <accessor source="#Cylinder_002-mesh-map-0-array" count="192" stride="2">
              <param name="S" type="float"/>
              <param name="T" type="float"/>
            </accessor>
          </technique_common>
        </source>
        <vertices id="Cylinder_002-mesh-vertices">
          <input semantic="POSITION" source="#Cylinder_002-mesh-positions"/>
        </vertices>
        <polylist material="PBRFULL_Shoulder1-material" count="64">
          <input semantic="VERTEX" source="#Cylinder_002-mesh-vertices" offset="0"/>
          <input semantic="NORMAL" source="#Cylinder_002-mesh-normals" offset="1"/>
          <input semantic="TEXCOORD" source="#Cylinder_002-mesh-map-0" offset="2" set="0"/>
          <vcount>3 3 3 3 3 3 3 3 3 3 3 3 3 3 3 3 3 3 3 3 3 3 3 3 3 3 3 3 3 3 3 3 3 3 3 3 3 3 3 3 3 3 3 3 3 3 3 3 3 3 3 3 3 3 3 3 3 3 3 3 3 3 3 3 </vcount>
          <p>16 0 0 0 0 1 1 0 2 0 1 3 2 1 4 1 1 5 0 2 6 3 2 7 2 2 8 0 3 9 4 3 10 3 3 11 0 4 12 5 4 13 4 4 14 0 3 15 6 3 16 5 3 17 0 3 18 7 3 19 6 3 20 0 5 21 8 5 22 7 5 23 0 3 24 9 3 25 8 3 26 0 2 27 10 2 28 9 2 29 0 6 30 11 6 31 10 6 32 0 3 33 12 3 34 11 3 35 0 7 36 13 7 37 12 7 38 0 3 39 14 3 40 13 3 41 0 3 42 15 3 43 14 3 44 0 7 45 16 7 46 15 7 47 50 8 48 35 9 49 34 8 50 51 9 51 36 10 52 35 9 53 52 10 54 37 11 55 36 10 56 53 11 57 38 12 58 37 11 59 54 12 60 39 13 61 38 12 62 55 13 63 40 14 64 39 13 65 56 14 66 41 15 67 40 14 68 57 15 69 42 16 70 41 15 71 58 16 72 43 17 73 42 16 74 59 17 75 44 18 76 43 17 77 60 18 78 45 19 79 44 18 80 61 19 81 46 20 82 45 19 83 62 20 84 47 21 85 46 20 86 63 21 87 48 22 88 47 21 89 64 22 90 49 23 91 48 22 92 34 8 93 65 23 94 50 8 95 17 24 96 33 24 97 18 24 98 17 25 99 18 25 100 19 25 101 17 26 102 19 26 103 20 26 104 17 27 105 20 27 106 21 27 107 17 28 108 21 28 109 22 28 110 17 27 111 22 27 112 23 27 113 17 27 114 23 27 115 24 27 116 17 29 117 24 29 118 25 29 119 17 30 120 25 30 121 26 30 122 17 31 123 26 31 124 27 31 125 17 32 126 27 32 127 28 32 128 17 27 129 28 27 130 29 27 131 17 33 132 29 33 133 30 33 134 17 27 135 30 27 136 31 27 137 17 27 138 31 27 139 32 27 140 17 34 141 32 34 142 33 34 143 50 8 144 51 9 145 35 9 146 51 9 147 52 10 148 36 10 149 52 10 150 53 11 151 37 11 152 53 11 153 54 12 154 38 12 155 54 12 156 55 13 157 39 13 158 55 13 159 56 14 160 40 14 161 56 14 162 57 15 163 41 15 164 57 15 165 58 16 166 42 16 167 58 16 168 59 17 169 43 17 170 59 17 171 60 18 172 44 18 173 60 18 174 61 19 175 45 19 176 61 19 177 62 20 178 46 20 179 62 20 180 63 21 181 47 21 182 63 21 183 64 22 184 48 22 185 64 22 186 65 23 187 49 23 188 34 8 189 49 23 190 65 23 191</p>
        </polylist>
      </mesh>
    </geometry>
  </library_geometries>
  <library_controllers/>
  <library_visual_scenes>
    <visual_scene id="Scene" name="Scene">
      <node id="l_shoulder_1" name="l_shoulder_1" type="NODE">
        <matrix sid="transform">1 0 0 0 0 1 0 0 0 0 1 0 0 0 0 1</matrix>
        <node id="l_shoulder_1_mesh" name="l_shoulder_1_mesh" type="NODE">
          <matrix sid="transform">1 0 0 0 0 1 0 0 0 0 1 0.07224 0 0 0 1</matrix>
          <instance_geometry url="#Cylinder_002-mesh" name="l_shoulder_1_mesh">
            <bind_material>
              <technique_common>
                <instance_material symbol="PBRFULL_Shoulder1-material" target="#PBRFULL_Shoulder1-material"/>
              </technique_common>
            </bind_material>
          </instance_geometry>
        </node>
      </node>
    </visual_scene>
  </library_visual_scenes>
  <scene>
    <instance_visual_scene url="#Scene"/>
  </scene>
</COLLADA>