<?xml version="1.0" encoding="utf-8"?>
<COLLADA xmlns="http://www.collada.org/2005/11/COLLADASchema" version="1.4.1">
  <asset>
    <contributor>
      <author>Blender User</author>
      <authoring_tool>Blender 2.77.0 commit date:2016-04-05, commit time:18:12, hash:abf6f08</authoring_tool>
    </contributor>
    <created>2017-05-11T15:02:08</created>
    <modified>2017-05-11T15:02:08</modified>
    <unit name="meter" meter="1"/>
    <up_axis>Z_UP</up_axis>
  </asset>
  <library_images>
    <image id="PBRFULL_Hip-material_Base_Color_jpg" name="PBRFULL_Hip-material_Base_Color_jpg">
      <init_from>PBRFULL_Hip-material_Base_Color.jpg</init_from>
    </image>
  </library_images>
  <library_effects>
    <effect id="PBRFULL_Hip-effect">
      <profile_COMMON>
        <newparam sid="PBRFULL_Hip-material_Base_Color_jpg-surface">
          <surface type="2D">
            <init_from>PBRFULL_Hip-material_Base_Color_jpg</init_from>
          </surface>
        </newparam>
        <newparam sid="PBRFULL_Hip-material_Base_Color_jpg-sampler">
          <sampler2D>
            <source>PBRFULL_Hip-material_Base_Color_jpg-surface</source>
          </sampler2D>
        </newparam>
        <technique sid="common">
          <phong>
            <emission>
              <color sid="emission">0 0 0 1</color>
            </emission>
            <ambient>
              <color sid="ambient">0 0 0 1</color>
            </ambient>
            <diffuse>
              <texture texture="PBRFULL_Hip-material_Base_Color_jpg-sampler"/>
            </diffuse>
            <specular>
              <color sid="specular">0.5 0.5 0.5 1</color>
            </specular>
            <shininess>
              <float sid="shininess">50</float>
            </shininess>
            <index_of_refraction>
              <float sid="index_of_refraction">1</float>
            </index_of_refraction>
          </phong>
        </technique>
      </profile_COMMON>
    </effect>
  </library_effects>
  <library_materials>
    <material id="PBRFULL_Hip-material" name="PBRFULL_Hip">
      <instance_effect url="#PBRFULL_Hip-effect"/>
    </material>
  </library_materials>
  <library_geometries>
    <geometry id="Cylinder_016-mesh" name="Cylinder.016">
      <mesh>
        <source id="Cylinder_016-mesh-positions">
          <float_array id="Cylinder_016-mesh-positions-array" count="198">0 0 -0.006499946 0.01454198 0.03515344 -0.006499946 0 0.03804987 -0.006499946 -0.01454192 0.03515344 -0.006499946 -0.02687001 0.02690529 -0.006499946 -0.03510737 0.01456093 -0.006499946 -0.03799986 0 -0.006499946 -0.03510737 -0.01456099 -0.006499946 -0.02687001 -0.02690529 -0.006499946 -0.01454192 -0.03515344 -0.006499946 0 -0.03804987 -0.006499946 0.01454192 -0.03515344 -0.006499946 0.02687001 -0.02690529 -0.006499946 0.03510737 -0.01456093 -0.006499946 0.03799986 0 -0.006499946 0.03510737 0.01456093 -0.006499946 0.02687001 0.02690529 -0.006499946 0 0 0.006499946 0.01454204 0.03515344 0.006499946 0 0.03804987 0.006499946 -0.01454186 0.0351535 0.006499946 -0.02686995 0.02690535 0.006499946 -0.03510737 0.01456105 0.006499946 -0.03799986 0 0.006499946 -0.03510743 -0.01456087 0.006499946 -0.02687007 -0.02690523 0.006499946 -0.01454204 -0.03515344 0.006499946 0 -0.03804987 0.006499946 0.01454186 -0.0351535 0.006499946 0.02687001 -0.02690529 0.006499946 0.03510737 -0.01456099 0.006499946 0.03799986 0 0.006499946 0.03510743 0.01456093 0.006499946 0.02687007 0.02690523 0.006499946 0.02687001 0.02690529 -0.006499946 0.03510737 0.01456093 -0.006499946 0.03799986 0 -0.006499946 0.03510737 -0.01456093 -0.006499946 0.02687001 -0.02690529 -0.006499946 0.01454192 -0.03515344 -0.006499946 0 -0.03804987 -0.006499946 -0.01454192 -0.03515344 -0.006499946 -0.02687001 -0.02690529 -0.006499946 -0.03510737 -0.01456099 -0.006499946 -0.03799986 0 -0.006499946 -0.03510737 0.01456093 -0.006499946 -0.02687001 0.02690529 -0.006499946 -0.01454192 0.03515344 -0.006499946 0 0.03804987 -0.006499946 0.01454198 0.03515344 -0.006499946 0.02687007 0.02690523 0.006499946 0.03510743 0.01456093 0.006499946 0.03799986 0 0.006499946 0.03510737 -0.01456099 0.006499946 0.02687001 -0.02690529 0.006499946 0.01454186 -0.0351535 0.006499946 0 -0.03804987 0.006499946 -0.01454204 -0.03515344 0.006499946 -0.02687007 -0.02690523 0.006499946 -0.03510743 -0.01456087 0.006499946 -0.03799986 0 0.006499946 -0.03510737 0.01456105 0.006499946 -0.02686995 0.02690535 0.006499946 -0.01454186 0.0351535 0.006499946 0 0.03804987 0.006499946 0.01454204 0.03515344 0.006499946</float_array>
          <technique_common>
            <accessor source="#Cylinder_016-mesh-positions-array" count="66" stride="3">
              <param name="X" type="float"/>
              <param name="Y" type="float"/>
              <param name="Z" type="float"/>
            </accessor>
          </technique_common>
        </source>
        <source id="Cylinder_016-mesh-normals">
          <float_array id="Cylinder_016-mesh-normals-array" count="108">0 0 1 0 0 1 0 0 1 0 0 1 0 0 1 0 0 1 0 0 1 0 0 1 0 0 1 0 0 1 0 0 1 0.707534 0.7066794 0 0.9240474 0.3822781 0 1 0 0 0.9240474 -0.3822781 0 0.707534 -0.7066794 0 0.3830741 -0.9237177 0 0 -1 0 -0.3830741 -0.9237177 0 -0.707534 -0.7066794 0 -0.9240474 -0.3822781 0 -1 0 0 -0.9240474 0.3822781 0 -0.707534 0.7066794 0 -0.3830741 0.9237177 0 0 1 0 0.3830741 0.9237177 0 0 0 -1 0 0 -1 0 0 -1 0 0 -1 0 0 -1 0 0 -1 0 0 -1 0 0 -1 0 0 -1</float_array>
          <technique_common>
            <accessor source="#Cylinder_016-mesh-normals-array" count="36" stride="3">
              <param name="X" type="float"/>
              <param name="Y" type="float"/>
              <param name="Z" type="float"/>
            </accessor>
          </technique_common>
        </source>
        <source id="Cylinder_016-mesh-map-0">
          <float_array id="Cylinder_016-mesh-map-0-array" count="384">0.2192752 0.7810127 0.4049638 0.6570476 0.4383618 0.7374814 0.2192752 0.7810127 0.4383618 0.7374814 0.4384059 0.8245429 0.2192752 0.7810127 0.4384059 0.8245429 0.4050893 0.9049764 0.2192752 0.7810127 0.4050893 0.9049764 0.3434843 0.9665381 0.2192752 0.7810127 0.3434843 0.9665381 0.2629693 0.9998553 0.2192752 0.7810127 0.2629693 0.9998553 0.1758021 0.9998553 0.2192752 0.7810127 0.1758021 0.9998553 0.09525442 0.9665392 0.2192752 0.7810127 0.09525442 0.9665392 0.03358674 0.9049777 0.2192752 0.7810127 0.03358674 0.9049777 1.88726e-4 0.8245441 0.2192752 0.7810127 1.88726e-4 0.8245441 1.44652e-4 0.7374824 0.2192752 0.7810127 1.44652e-4 0.7374824 0.03346121 0.657049 0.2192752 0.7810127 0.03346121 0.657049 0.09506666 0.595487 0.2192752 0.7810127 0.09506666 0.595487 0.1755816 0.56217 0.2192752 0.7810127 0.1755816 0.56217 0.2627484 0.56217 0.2192752 0.7810127 0.2627484 0.56217 0.3432964 0.5954862 0.2192752 0.7810127 0.3432964 0.5954862 0.4049638 0.6570476 0.5334541 0.4459135 0.4080512 0.4488066 0.4647288 0.3946787 0.4510158 0.5226439 0.3331376 0.4759206 0.4080512 0.4488066 0.3461712 0.561648 0.2510714 0.4768391 0.3331376 0.4759206 0.2331268 0.5618807 0.1750761 0.448799 0.2510714 0.4768391 0.1273702 0.5210768 0.1164517 0.3959442 0.1750761 0.448799 0.04507619 0.4436239 0.0843172 0.3250109 0.1164517 0.3959442 1.44652e-4 0.3402434 0.08366131 0.2471342 0.0843172 0.3250109 1.44652e-4 0.2276074 0.1142104 0.1744396 0.08366131 0.2471342 0.04451572 0.1236329 0.1715054 0.1185538 0.1142104 0.1744396 0.1258931 0.04442769 0.2466302 0.08748137 0.1715054 0.1185538 0.2316622 0.001100838 0.32817 0.08595943 0.2466302 0.08748137 0.3465662 1.44652e-4 0.4038451 0.1150776 0.32817 0.08595943 0.453387 0.04281497 0.4621832 0.1704394 0.4038451 0.1150776 0.5354534 0.123057 0.4942194 0.2433922 0.4621832 0.1704394 0.5796998 0.228462 0.4950554 0.3223538 0.4942194 0.2433922 0.4647288 0.3946787 0.5789765 0.3422397 0.5334541 0.4459135 0.8435146 0.9049772 0.6578258 0.7810126 0.8769123 0.8245435 0.6578258 0.7810126 0.8769564 0.7374822 0.8769123 0.8245435 0.6578258 0.7810126 0.8436393 0.6570485 0.8769564 0.7374822 0.6578258 0.7810126 0.7820343 0.5954868 0.8436393 0.6570485 0.6578258 0.7810126 0.701519 0.56217 0.7820343 0.5954868 0.6578258 0.7810126 0.6143527 0.56217 0.701519 0.56217 0.6578258 0.7810126 0.5338042 0.5954867 0.6143527 0.56217 0.6578258 0.7810126 0.4721369 0.6570481 0.5338042 0.5954867 0.6578258 0.7810126 0.4387394 0.7374821 0.4721369 0.6570481 0.6578258 0.7810126 0.4386952 0.8245431 0.4387394 0.7374821 0.6578258 0.7810126 0.4720123 0.9049768 0.4386952 0.8245431 0.6578258 0.7810126 0.5336174 0.9665384 0.4720123 0.9049768 0.6578258 0.7810126 0.6141327 0.9998552 0.5336174 0.9665384 0.6578258 0.7810126 0.701299 0.9998552 0.6141327 0.9998552 0.6578258 0.7810126 0.7818471 0.9665386 0.701299 0.9998552 0.6578258 0.7810126 0.8435146 0.9049772 0.7818471 0.9665386 0.5334541 0.4459135 0.4510158 0.5226439 0.4080512 0.4488066 0.4510158 0.5226439 0.3461712 0.561648 0.3331376 0.4759206 0.3461712 0.561648 0.2331268 0.5618807 0.2510714 0.4768391 0.2331268 0.5618807 0.1273702 0.5210768 0.1750761 0.448799 0.1273702 0.5210768 0.04507619 0.4436239 0.1164517 0.3959442 0.04507619 0.4436239 1.44652e-4 0.3402434 0.0843172 0.3250109 1.44652e-4 0.3402434 1.44652e-4 0.2276074 0.08366131 0.2471342 1.44652e-4 0.2276074 0.04451572 0.1236329 0.1142104 0.1744396 0.04451572 0.1236329 0.1258931 0.04442769 0.1715054 0.1185538 0.1258931 0.04442769 0.2316622 0.001100838 0.2466302 0.08748137 0.2316622 0.001100838 0.3465662 1.44652e-4 0.32817 0.08595943 0.3465662 1.44652e-4 0.453387 0.04281497 0.4038451 0.1150776 0.453387 0.04281497 0.5354534 0.123057 0.4621832 0.1704394 0.5354534 0.123057 0.5796998 0.228462 0.4942194 0.2433922 0.5796998 0.228462 0.5789765 0.3422397 0.4950554 0.3223538 0.4647288 0.3946787 0.4950554 0.3223538 0.5789765 0.3422397</float_array>
          <technique_common>
            <accessor source="#Cylinder_016-mesh-map-0-array" count="192" stride="2">
              <param name="S" type="float"/>
              <param name="T" type="float"/>
            </accessor>
          </technique_common>
        </source>
        <vertices id="Cylinder_016-mesh-vertices">
          <input semantic="POSITION" source="#Cylinder_016-mesh-positions"/>
        </vertices>
        <polylist material="PBRFULL_Hip-material" count="64">
          <input semantic="VERTEX" source="#Cylinder_016-mesh-vertices" offset="0"/>
          <input semantic="NORMAL" source="#Cylinder_016-mesh-normals" offset="1"/>
          <input semantic="TEXCOORD" source="#Cylinder_016-mesh-map-0" offset="2" set="0"/>
          <vcount>3 3 3 3 3 3 3 3 3 3 3 3 3 3 3 3 3 3 3 3 3 3 3 3 3 3 3 3 3 3 3 3 3 3 3 3 3 3 3 3 3 3 3 3 3 3 3 3 3 3 3 3 3 3 3 3 3 3 3 3 3 3 3 3 </vcount>
          <p>17 0 0 33 0 1 18 0 2 17 1 3 18 1 4 19 1 5 17 2 6 19 2 7 20 2 8 17 3 9 20 3 10 21 3 11 17 4 12 21 4 13 22 4 14 17 5 15 22 5 16 23 5 17 17 5 18 23 5 19 24 5 20 17 5 21 24 5 22 25 5 23 17 6 24 25 6 25 26 6 26 17 7 27 26 7 28 27 7 29 17 8 30 27 8 31 28 8 32 17 9 33 28 9 34 29 9 35 17 10 36 29 10 37 30 10 38 17 5 39 30 5 40 31 5 41 17 5 42 31 5 43 32 5 44 17 5 45 32 5 46 33 5 47 50 11 48 35 12 49 34 11 50 51 12 51 36 13 52 35 12 53 52 13 54 37 14 55 36 13 56 53 14 57 38 15 58 37 14 59 54 15 60 39 16 61 38 15 62 55 16 63 40 17 64 39 16 65 56 17 66 41 18 67 40 17 68 57 18 69 42 19 70 41 18 71 58 19 72 43 20 73 42 19 74 59 20 75 44 21 76 43 20 77 60 21 78 45 22 79 44 21 80 61 22 81 46 23 82 45 22 83 62 23 84 47 24 85 46 23 86 63 24 87 48 25 88 47 24 89 64 25 90 49 26 91 48 25 92 34 11 93 65 26 94 50 11 95 16 27 96 0 27 97 1 27 98 0 28 99 2 28 100 1 28 101 0 29 102 3 29 103 2 29 104 0 30 105 4 30 106 3 30 107 0 31 108 5 31 109 4 31 110 0 27 111 6 27 112 5 27 113 0 27 114 7 27 115 6 27 116 0 32 117 8 32 118 7 32 119 0 30 120 9 30 121 8 30 122 0 29 123 10 29 124 9 29 125 0 33 126 11 33 127 10 33 128 0 34 129 12 34 130 11 34 131 0 35 132 13 35 133 12 35 134 0 27 135 14 27 136 13 27 137 0 27 138 15 27 139 14 27 140 0 35 141 16 35 142 15 35 143 50 11 144 51 12 145 35 12 146 51 12 147 52 13 148 36 13 149 52 13 150 53 14 151 37 14 152 53 14 153 54 15 154 38 15 155 54 15 156 55 16 157 39 16 158 55 16 159 56 17 160 40 17 161 56 17 162 57 18 163 41 18 164 57 18 165 58 19 166 42 19 167 58 19 168 59 20 169 43 20 170 59 20 171 60 21 172 44 21 173 60 21 174 61 22 175 45 22 176 61 22 177 62 23 178 46 23 179 62 23 180 63 24 181 47 24 182 63 24 183 64 25 184 48 25 185 64 25 186 65 26 187 49 26 188 34 11 189 49 26 190 65 26 191</p>
        </polylist>
      </mesh>
    </geometry>
  </library_geometries>
  <library_controllers/>
  <library_visual_scenes>
    <visual_scene id="Scene" name="Scene">
      <node id="l_hip_1" name="l_hip_1" type="NODE">
        <matrix sid="transform">1 0 0 0 0 1 0 0 0 0 1 0 0 0 0 1</matrix>
        <node id="l_hip_1_mesh" name="l_hip_1_mesh" type="NODE">
          <matrix sid="transform">1 0 0 0 0 1 0 0 0 0 1 -0.0375 0 0 0 1</matrix>
          <instance_geometry url="#Cylinder_016-mesh" name="l_hip_1_mesh">
            <bind_material>
              <technique_common>
                <instance_material symbol="PBRFULL_Hip-material" target="#PBRFULL_Hip-material"/>
              </technique_common>
            </bind_material>
          </instance_geometry>
        </node>
      </node>
    </visual_scene>
  </library_visual_scenes>
  <scene>
    <instance_visual_scene url="#Scene"/>
  </scene>
</COLLADA>