<?xml version="1.0" encoding="utf-8"?>
<COLLADA xmlns="http://www.collada.org/2005/11/COLLADASchema" version="1.4.1">
  <asset>
    <contributor>
      <author>Blender User</author>
      <authoring_tool>Blender 2.78.0</authoring_tool>
    </contributor>
    <created>2017-08-31T08:22:53</created>
    <modified>2017-08-31T08:22:53</modified>
    <unit name="meter" meter="1"/>
    <up_axis>Z_UP</up_axis>
  </asset>
  <library_images>
    <image id="PBRFULL_LeftHubCap-material_Base_Color_jpg" name="PBRFULL_LeftHubCap-material_Base_Color_jpg">
      <init_from>PBRFULL_LeftHubCap-material_Base_Color.jpg</init_from>
    </image>
  </library_images>
  <library_effects>
    <effect id="PBRFULL_Swivel-effect">
      <profile_COMMON>
        <newparam sid="PBRFULL_LeftHubCap-material_Base_Color_jpg-surface">
          <surface type="2D">
            <init_from>PBRFULL_LeftHubCap-material_Base_Color_jpg</init_from>
          </surface>
        </newparam>
        <newparam sid="PBRFULL_LeftHubCap-material_Base_Color_jpg-sampler">
          <sampler2D>
            <source>PBRFULL_LeftHubCap-material_Base_Color_jpg-surface</source>
          </sampler2D>
        </newparam>
        <technique sid="common">
          <phong>
            <emission>
              <color sid="emission">0 0 0 1</color>
            </emission>
            <ambient>
              <color sid="ambient">0 0 0 1</color>
            </ambient>
            <diffuse>
              <texture texture="PBRFULL_LeftHubCap-material_Base_Color_jpg-sampler"/>
            </diffuse>
            <specular>
              <color sid="specular">0.5 0.5 0.5 1</color>
            </specular>
            <shininess>
              <float sid="shininess">50</float>
            </shininess>
            <index_of_refraction>
              <float sid="index_of_refraction">1</float>
            </index_of_refraction>
          </phong>
        </technique>
      </profile_COMMON>
    </effect>
  </library_effects>
  <library_materials>
    <material id="PBRFULL_Swivel-material" name="PBRFULL_Swivel">
      <instance_effect url="#PBRFULL_Swivel-effect"/>
    </material>
  </library_materials>
  <library_geometries>
    <geometry id="Swivel-mesh" name="Swivel">
      <mesh>
        <source id="Swivel-mesh-positions">
          <float_array id="Swivel-mesh-positions-array" count="657">0.02724349 -0.02287095 0.02510488 0.004372179 2.50615e-7 0.02510488 0.03451234 -0.01249068 0.02510488 0.03671699 2.51757e-7 0.02510488 -0.02797263 2.49473e-7 0.02510488 -0.02579987 -0.01249068 0.02510488 -0.01849907 -0.02287095 0.02510488 -0.008134782 -0.03015577 0.02510488 0.004372179 -0.03234457 0.02510488 0.01684731 -0.03015577 0.02510488 0.02724343 0.02287095 0.02510488 0.03451234 0.01249068 0.02510488 -0.02579987 0.01249068 0.02510488 -0.01849907 0.02287095 0.02510488 -0.008134782 0.03015577 0.02510488 0.004372179 0.03234457 0.02510488 0.01684731 0.03015577 0.02510488 0.03451234 0.01249074 0.02774477 0.03671699 2.30057e-7 0.02774477 0.02724343 0.02287095 0.02774477 0.01684731 0.03015577 0.02774477 0.004372179 0.03234457 0.02774477 -0.008134782 0.03015577 0.02774477 -0.01849907 0.02287095 0.02774477 -0.02579981 0.01249074 0.02774477 -0.02797263 2.28914e-7 0.02774477 0.03451234 -0.01249074 0.02774477 0.02724343 -0.02287095 0.02774477 0.01684731 -0.03015577 0.02774477 0.004372239 -0.03234457 0.02774477 -0.008134722 -0.03015577 0.02774477 -0.01849907 -0.02287095 0.02774477 -0.02579981 -0.01249074 0.02774477 0.02350831 -0.01978784 0.003950953 0.02957463 -0.01070892 0.003996372 0.02957463 -0.01070892 0.02580082 0.02350831 -0.01978784 0.02580082 0.03170484 -2.02644e-7 0.004390776 0.03170484 -2.37561e-7 0.02580082 -0.004609704 -0.02653408 -0.008855998 0.003720045 -0.02798444 -0.001652956 0.003720164 -0.02798444 0.02580082 -0.004609644 -0.02653414 0.02580082 0.01442945 -0.02585417 0.003448367 0.01442945 -0.02585417 0.02580082 0.026596 -0.009475231 0.02580082 0.026596 -0.009475231 0.003996372 0.02122861 -0.01750814 0.003950953 0.02122861 -0.01750814 0.02580082 0.02848082 -2.32857e-7 0.02580082 0.02848082 -2.01962e-7 0.004390776 -0.003375828 -0.02355545 0.02580082 -0.003375828 -0.02355545 -0.008855998 -0.008377432 -0.02076846 -0.01577264 -0.008377373 -0.02076852 0.02580082 0.003720164 -0.02476048 0.02580082 0.003720045 -0.02476048 -0.001652956 0.01319569 -0.0228756 0.02580082 0.01319563 -0.0228756 0.003448367 -0.009841263 -0.02378249 -0.01577264 -0.009841203 -0.02378249 0.02580082 -0.0145201 -0.02075684 -0.02332425 -0.01628315 -0.02075684 0.02290004 -0.01924496 -0.02074509 -0.02685755 -0.03034794 -0.02074509 -0.003148794 -0.0253418 -0.02073347 -0.02774477 -0.03446048 -0.02073353 -0.01015263 -0.03075265 -0.02072185 -0.02706408 -0.03669565 -0.02072185 -0.01521843 -0.03479152 -0.02071017 -0.02393335 -0.03671699 -0.02071017 -0.0201205 -0.03671699 -0.02393418 -0.0201205 -0.03479152 -0.02393418 -0.02393335 -0.03075265 -0.02390378 -0.02706408 -0.03669565 -0.02390378 -0.01471078 -0.0253418 -0.02387344 -0.02774477 -0.03446048 -0.02387344 -0.009644925 -0.01924496 -0.0238431 -0.02685755 -0.03034794 -0.0238431 -0.002582371 -0.0145201 -0.02381283 -0.02332425 -0.01628315 -0.02381283 0.02290004 0.02350831 0.0197879 0.003950953 0.02350831 0.0197879 0.02580082 0.02957463 0.01070898 0.02580082 0.02957463 0.01070904 0.003996372 -0.004609704 0.02653414 -0.008855998 -0.004609644 0.02653414 0.02580082 0.003720164 0.02798449 0.02580082 0.003720045 0.02798449 -0.001652956 0.01442945 0.02585422 0.02580082 0.01442945 0.02585422 0.003448367 0.026596 0.00947529 0.02580082 0.02122861 0.0175082 0.02580082 0.02122861 0.0175082 0.003950953 0.026596 0.00947529 0.003996372 -0.003375828 0.02355551 0.02580082 -0.008377373 0.02076858 0.02580082 -0.008377432 0.02076852 -0.01577264 -0.003375828 0.02355551 -0.008855998 0.003720164 0.02476054 0.02580082 0.003720045 0.02476054 -0.001652956 0.01319569 0.02287572 0.02580082 0.01319563 0.02287572 0.003448367 -0.009841263 0.02378255 -0.01577264 -0.009841203 0.02378261 0.02580082 -0.01628315 0.0207569 0.02290004 -0.0145201 0.0207569 -0.02332425 -0.03034794 0.02074521 -0.003090143 -0.01924496 0.02074515 -0.02685755 -0.03446048 0.02073359 -0.01015263 -0.0253418 0.02073359 -0.02774477 -0.03669565 0.02072191 -0.01521843 -0.03075265 0.02072191 -0.02706408 -0.03671699 0.02071017 -0.0201205 -0.03479152 0.02071017 -0.02393335 -0.03671699 0.02393424 -0.0201205 -0.03669565 0.0239039 -0.01471078 -0.03075265 0.0239039 -0.02706408 -0.03479152 0.02393424 -0.02393335 -0.03446048 0.0238735 -0.009644925 -0.0253418 0.0238735 -0.02774477 -0.03034794 0.02384316 -0.002582371 -0.01924496 0.02384316 -0.02685755 -0.01628315 0.02381289 0.02290004 -0.0145201 0.02381289 -0.02332425 -0.03034794 0.02074521 -0.003090143 -0.03446048 0.02073359 -0.01015263 -0.01924496 -0.0238431 -0.02685755 -0.0145201 -0.02381283 -0.02332425 -0.01628315 -0.02075684 0.02290004 -0.01628315 -0.02075684 0.02290004 -0.01628315 -0.02381283 0.02290004 -0.01628315 -0.02381283 0.02290004 -0.03669565 0.0239039 -0.01471078 -0.03446048 0.0238735 -0.009644925 -0.008377432 -0.02076846 -0.01577264 -0.0145201 -0.02075684 -0.02332425 -0.009841263 0.02378255 -0.01577264 -0.0145201 0.02381289 -0.02332425 0.003720045 -0.02798444 -0.001652956 0.01442945 -0.02585417 0.003448367 0.026596 -0.009475231 0.003996372 0.02122861 -0.01750814 0.003950953 0.02724349 -0.02287095 0.02510488 0.01684731 -0.03015577 0.02510488 -0.01924496 -0.02074509 -0.02685755 -0.0253418 -0.02073347 -0.02774477 0.004372179 -0.03234457 0.02510488 -0.004609704 0.02653414 -0.008855998 0.003720045 0.02798449 -0.001652956 -0.03446048 -0.02387344 -0.009644925 -0.03034794 -0.0238431 -0.002582371 -0.03669565 -0.02072185 -0.01521843 -0.03671699 -0.02071017 -0.0201205 -0.01924496 0.02074515 -0.02685755 -0.0253418 0.02073359 -0.02774477 0.003720045 0.02476054 -0.001652956 0.01319563 0.02287572 0.003448367 -0.03075265 0.0239039 -0.02706408 -0.03075265 0.0239039 -0.02706408 -0.0253418 0.0238735 -0.02774477 -0.008377373 -0.02076852 0.02580082 -0.03671699 0.02393424 -0.0201205 -0.004609704 -0.02653408 -0.008855998 0.003720045 -0.02476048 -0.001652956 0.01319563 -0.0228756 0.003448367 -0.01628315 0.0207569 0.02290004 -0.01628315 0.0207569 0.02290004 -0.01628315 0.02381289 0.02290004 -0.01628315 0.02381289 0.02290004 0.004372179 0.03234457 0.02510488 0.01684731 0.03015577 0.02510488 -0.0253418 -0.02387344 -0.02774477 -0.008134782 -0.03015577 0.02510488 0.03451234 -0.01249068 0.02510488 -0.03075265 -0.02072185 -0.02706408 -0.03075265 -0.02072185 -0.02706408 -0.03479152 -0.02071017 -0.02393335 0.03170484 -2.02644e-7 0.004390776 0.02957463 0.01070904 0.003996372 0.02350831 -0.01978784 0.003950953 -0.03075265 0.02072191 -0.02706408 -0.03075265 0.02072191 -0.02706408 -0.03034794 0.02384316 -0.002582371 -0.003375828 -0.02355545 -0.008855998 0.02350831 0.0197879 0.003950953 0.01442945 0.02585422 0.003448367 -0.008134782 0.03015577 0.02510488 -0.01849907 -0.02287095 0.02510488 -0.008377432 0.02076852 -0.01577264 -0.0145201 0.0207569 -0.02332425 -0.009841263 -0.02378249 -0.01577264 -0.03479152 0.02393424 -0.02393335 -0.003375828 0.02355551 -0.008855998 -0.03671699 0.02071017 -0.0201205 -0.03479152 0.02071017 -0.02393335 -0.03669565 0.02072191 -0.01521843 -0.02797263 2.49473e-7 0.02510488 -0.02579987 0.01249068 0.02510488 0.02957463 -0.01070892 0.003996372 -0.03034794 -0.02074509 -0.003148794 0.02724343 0.02287095 0.02510488 -0.009841203 0.02378261 0.02580082 -0.03075265 -0.02390378 -0.02706408 -0.03075265 -0.02390378 -0.02706408 -0.03479152 -0.02393418 -0.02393335 -0.009841203 -0.02378249 0.02580082 0.02848082 -2.01962e-7 0.004390776 0.03671699 2.51757e-7 0.02510488 0.03451234 0.01249068 0.02510488 -0.01849907 0.02287095 0.02510488 -0.02579987 -0.01249068 0.02510488 -0.03671699 -0.02393418 -0.0201205 -0.03446048 -0.02073353 -0.01015263 0.02122861 0.0175082 0.003950953 -0.01924496 0.02384316 -0.02685755 -0.008377373 0.02076858 0.02580082 0.026596 0.00947529 0.003996372 -0.03669565 -0.02390378 -0.01471078</float_array>
          <technique_common>
            <accessor source="#Swivel-mesh-positions-array" count="219" stride="3">
              <param name="X" type="float"/>
              <param name="Y" type="float"/>
              <param name="Z" type="float"/>
            </accessor>
          </technique_common>
        </source>
        <source id="Swivel-mesh-normals">
          <float_array id="Swivel-mesh-normals-array" count="510">0 0 -1 1 0 0 0.9238435 0.3827705 0 0.7072136 0.707 0 0.3824408 0.9239801 0 2.1363e-4 1 0 -0.3829223 0.9237806 0 -0.707 0.7072136 0 -0.9239217 0.3825818 0 -0.9239172 0.3825926 0 -1 0 0 0.9238435 -0.3827705 0 0.7072136 -0.707 0 0.3824408 -0.9239801 0 2.13636e-4 -1 0 2.1363e-4 -1 0 -0.3828963 -0.9237914 0 -0.3829223 -0.9237806 0 -0.707 -0.7072136 0 -0.9239217 -0.3825818 0 0.7048907 -0.7093159 0 0.9228927 -0.3850575 0 0.9238803 -0.3826816 0 0.7071068 -0.7071068 0 -0.3920769 -0.9199325 0 -0.0503866 -0.9987299 0 0.01196348 -0.9999285 0 -0.3224285 -0.9465939 0 0.35741 -0.9339477 0 0.3826816 -0.9238803 0 -0.9238803 0.3826816 0 -0.9227661 0.3853608 0 -0.7045998 0.709605 0 -0.7071068 0.7071068 0 0.3318685 0.9433258 0 0.4136512 0.9104354 0 0.1107229 0.9938514 0 0.2836135 0.9589388 0 -0.01406931 0.9999011 0 0.0538963 0.9985466 0 -0.3826816 0.9238803 0 -0.3548732 0.9349145 0 -0.09714347 -0.9952704 1.52597e-4 -0.2749509 -0.9614583 0 0.002227902 0.9999976 6.10387e-5 0.001312315 0.9999992 6.10388e-5 0.001739561 0.9999985 4.57791e-4 7.62986e-4 0.9999997 3.66233e-4 0.001922667 0.9999977 9.461e-4 0.001739561 0.9999981 8.85062e-4 0.002716183 0.9999954 0.00137335 0.002807736 0.9999951 0.001403868 0.004699885 0.9999862 0.002349913 0.004669368 0.9999864 0.002349913 0.01162761 -0.9999167 0.005615413 0.01232975 -0.9999046 0.006225883 0.007019221 -0.9999696 0.00338751 0.00714153 -0.9999683 0.003540217 0.005096614 -0.9999838 0.002533018 0.004791438 -0.9999859 0.002288877 0.00463885 -0.9999869 0.002197325 0.002838253 -0.9999957 7.62983e-4 0.004425227 -0.9999894 0.001281797 0.004181087 -0.9999913 0 0.7048907 0.7093159 0 0.7071068 0.7071068 0 0.9238803 0.3826816 0 0.9228927 0.3850575 0 -0.3920769 0.9199325 0 -0.3224011 0.9466032 0 0.01196348 0.9999285 0 -0.0503866 0.9987299 0 0.3826816 0.9238803 0 0.35741 0.9339477 0 -0.9238803 -0.3826816 0 -0.7071068 -0.7071068 0 -0.7045998 -0.709605 0 -0.9227661 -0.3853608 0 0.3318685 -0.9433258 0 0.2836135 -0.9589388 0 0.1107229 -0.9938514 0 0.4136512 -0.9104354 0 -0.01406931 -0.9999011 0 0.0538963 -0.9985466 0 -0.3826816 -0.9238803 0 -0.3548732 -0.9349145 0 -0.09714347 0.9952704 1.52597e-4 -0.2749509 0.9614583 0 0.001281797 -0.9999992 6.10388e-5 0.002227902 -0.9999976 6.10387e-5 7.62986e-4 -0.9999997 3.66233e-4 0.001709043 -0.9999985 4.57791e-4 0.001739561 -0.9999981 8.85062e-4 0.001922667 -0.9999977 9.461e-4 0.002807736 -0.9999951 0.001403868 0.002716183 -0.9999954 0.00137335 0.004669368 -0.9999864 0.002349913 0.004730403 -0.9999861 0.002349913 0.01162761 0.9999167 0.005615413 0.00714153 0.9999683 0.003540217 0.007019221 0.9999696 0.00338751 0.01232975 0.9999046 0.006225883 0.004791438 0.9999859 0.002288877 0.005096614 0.9999838 0.002533018 0.002838253 0.9999957 7.62983e-4 0.00463885 0.9999869 0.002197325 0.004181087 0.9999913 0 0.004425227 0.9999894 0.001281797 -0.7718263 0 -0.6358335 -0.97315 0 -0.230172 -0.9732216 9.15571e-5 -0.2298694 -0.7716624 0 -0.6360325 -0.9732216 -9.15571e-5 -0.2298694 -0.9732833 -0.0360735 0.2267566 -0.9816839 -0.03012251 0.188121 -0.8863607 -0.0737642 0.4570817 -0.890904 -0.07260411 0.4483513 -0.867595 -0.08029556 0.490746 -0.8668392 -0.07812935 0.4924286 -0.8792075 -0.005249321 0.4764103 -0.8794736 0 0.4759479 -0.3550633 -0.1313862 0.9255634 -0.4105766 0 0.9118262 -0.3933607 -0.04294037 0.9183809 -0.3395217 -0.1648931 0.9260321 0.7005695 0.03982758 -0.712472 0.747135 0.3577129 -0.5602062 0.7424476 0.3199358 -0.5885683 0.6924461 0 -0.7214697 0.3824928 0 -0.9239584 0.3829483 0 -0.9237698 0.009216725 0 -0.9999576 0.009491384 0 -0.9999551 -0.1248235 0 -0.992179 -0.6126447 0 -0.7903586 0.6857072 0.2569723 -0.6810073 0.6815496 0.2876107 -0.6728822 0.018067 -0.01831114 -0.9996691 0.00701946 -0.02099734 -0.9997549 0.00891149 -0.02111905 -0.9997373 0.01959335 -0.01718235 -0.9996605 0.002655148 0 -0.9999966 0.5627745 -0.0157479 -0.8264605 0.5689327 0.02322483 -0.8220562 0.226944 -0.09613686 -0.9691513 0.2328878 -0.08105754 -0.9691198 -0.9732833 0.0360735 0.2267566 -0.9816839 0.03012251 0.188121 -0.8863607 0.0737642 0.4570817 -0.8906537 0.07370483 0.4486687 -0.866437 0.08862739 0.4913573 -0.8651318 0.08743786 0.493864 -0.8796207 0.005859613 0.4756398 -0.8799345 0 0.475095 -0.3550633 0.1313862 0.9255634 -0.3395217 0.1648931 0.9260321 -0.3933607 0.04294037 0.9183809 0.7005695 -0.03982758 -0.712472 0.7424476 -0.3199358 -0.5885683 0.747135 -0.3577129 -0.5602062 0.6815496 -0.2876107 -0.6728822 0.6857072 -0.2569723 -0.6810073 0.018067 0.01831114 -0.9996691 0.01959335 0.01718235 -0.9996605 0.00891149 0.02111905 -0.9997373 0.00701946 0.02099734 -0.9997549 0.5689327 -0.02322483 -0.8220562 0.5627745 0.0157479 -0.8264605 0.2328878 0.08105754 -0.9691198 0.226944 0.09613686 -0.9691513</float_array>
          <technique_common>
            <accessor source="#Swivel-mesh-normals-array" count="170" stride="3">
              <param name="X" type="float"/>
              <param name="Y" type="float"/>
              <param name="Z" type="float"/>
            </accessor>
          </technique_common>
        </source>
        <source id="Swivel-mesh-map-0">
          <float_array id="Swivel-mesh-map-0-array" count="1224">0.3753437 0.3338871 0.2049828 0.2099512 0.4097644 0.2587134 0.4097644 0.2587134 0.2049828 0.2099512 0.4097644 0.1752688 2.01262e-4 0.2446337 0.2049828 0.2099512 0.02791625 0.3233844 0.02791625 0.3233844 0.2049828 0.2099512 0.08573877 0.3829355 0.08573877 0.3829355 0.2049828 0.2099512 0.1594977 0.4191088 0.1594977 0.4191088 0.2049828 0.2099512 0.2411276 0.4199057 0.2411276 0.4199057 0.2049828 0.2099512 0.3176641 0.3923212 0.2049828 0.2099512 0.3753437 0.3338871 0.3176641 0.3923212 0.3242274 0.03697025 0.381848 0.09655559 0.2049828 0.2099512 0.381848 0.09655559 0.4097644 0.1752688 0.2049828 0.2099512 2.01262e-4 0.2446337 0 0.1612265 0.2049828 0.2099512 0 0.1612265 0.03462296 0.08601856 0.2049828 0.2099512 0.03462296 0.08601856 0.09210062 0.02761858 0.2049828 0.2099512 0.09210062 0.02761858 0.1688386 0 0.2049828 0.2099512 0.1688386 0 0.2502669 8.31047e-4 0.2049828 0.2099512 0.2502669 8.31047e-4 0.3242274 0.03697025 0.2049828 0.2099512 0.9740068 0.1675872 0.9746012 0.2447769 0.9570888 0.2446251 0.9740068 0.1675872 0.9570888 0.2446251 0.9564943 0.1674348 0.9765609 0.3012144 0.9590485 0.3010622 0.9570888 0.2446251 0.9765609 0.3012144 0.9570888 0.2446251 0.9746012 0.2447769 0.9766206 0.3081458 0.9765744 0.2395222 0.9941014 0.2395221 0.9766206 0.3081458 0.9941014 0.2395221 0.9941475 0.3081458 0.9765609 0.1573235 0.9940875 0.1573235 0.9941014 0.2395221 0.9765609 0.1573235 0.9941014 0.2395221 0.9765744 0.2395222 0.9765609 0.1573235 0.9765748 0.07501435 0.9941014 0.07501429 0.9765609 0.1573235 0.9941014 0.07501429 0.9940875 0.1573235 0.976621 0.006929993 0.9941475 0.006929934 0.9941014 0.07501429 0.976621 0.006929993 0.9941014 0.07501429 0.9765748 0.07501435 0.9564943 0 0.9435702 0.06835484 0.9266782 0.06835448 0.9564943 0 0.9266782 0.06835448 0.9396022 0 0.939724 0.1506056 0.9228316 0.1506057 0.9266782 0.06835448 0.939724 0.1506056 0.9266782 0.06835448 0.9435702 0.06835484 0.9740068 0.1675872 0.9564943 0.1674348 0.9570887 0.08398735 0.9740068 0.1675872 0.9570887 0.08398735 0.9746012 0.08413994 0.9765609 0.007082164 0.9746012 0.08413994 0.9570887 0.08398735 0.9765609 0.007082164 0.9570887 0.08398735 0.9590485 0.006929934 0.9616274 0.5030182 0.9791544 0.5030186 0.9791082 0.5716422 0.9616274 0.5030182 0.9791082 0.5716422 0.9615813 0.5716422 0.9615674 0.6538408 0.9615813 0.5716422 0.9791082 0.5716422 0.9615674 0.6538408 0.9791082 0.5716422 0.9790943 0.6538405 0.9615674 0.6538408 0.9790943 0.6538405 0.9791082 0.7361497 0.9615674 0.6538408 0.9791082 0.7361497 0.9615812 0.73615 0.9616274 0.8042343 0.9615812 0.73615 0.9791082 0.7361497 0.9616274 0.8042343 0.9791082 0.7361497 0.9791544 0.8042344 0.9564943 0.3012144 0.9396019 0.3012143 0.926678 0.23286 0.9564943 0.3012144 0.926678 0.23286 0.9435703 0.2328596 0.939724 0.1506056 0.9435703 0.2328596 0.926678 0.23286 0.939724 0.1506056 0.926678 0.23286 0.9228316 0.1506057 0.1471543 0.4211652 0.1452172 0.4881467 5.74318e-4 0.4868898 0.1471543 0.4211652 5.74318e-4 0.4868898 0.002209782 0.4199057 0.1452172 0.4881467 0.1420265 0.5600055 0 0.558771 0.1452172 0.4881467 0 0.558771 5.74318e-4 0.4868898 0.6261059 0.2192355 0.6196208 0.2914348 0.471736 0.3971138 0.6261059 0.2192355 0.471736 0.3971138 0.4394205 0.3526414 0.6196208 0.2914348 0.6337212 0.3683362 0.5133157 0.4543784 0.6196208 0.2914348 0.5133157 0.4543784 0.471736 0.3971138 0.6337212 0.3683362 0.666298 0.4189108 0.5485996 0.5030182 0.6337212 0.3683362 0.5485996 0.5030182 0.5133157 0.4543784 0.1403343 0.7285454 8.12832e-4 0.7285453 0.01002335 0.6756476 0.1403343 0.7285454 0.01002335 0.6756476 0.1498359 0.6756477 0.1369978 0.7909389 0 0.790939 8.12832e-4 0.7285453 0.1369978 0.7909389 8.12832e-4 0.7285453 0.1403343 0.7285454 0.4464653 0.631687 0.6293796 0.7701365 0.6457157 0.8240107 0.4464653 0.631687 0.6457157 0.8240107 0.4262962 0.6579301 0.4750561 0.5945143 0.6199536 0.7041886 0.6293796 0.7701365 0.4750561 0.5945143 0.6293796 0.7701365 0.4464653 0.631687 0.5132037 0.5449523 0.631177 0.6342476 0.6199536 0.7041886 0.5132037 0.5449523 0.6199536 0.7041886 0.4750561 0.5945143 0.5455103 0.5030182 0.6608312 0.5903053 0.631177 0.6342476 0.5455103 0.5030182 0.631177 0.6342476 0.5132037 0.5449523 0.6430829 0.1647207 0.6261059 0.2192355 0.4394205 0.3526414 0.6430829 0.1647207 0.4394205 0.3526414 0.4191398 0.3247509 0.4262962 0.6579301 0.6457157 0.8240107 0.6608313 0.8863349 0.4262962 0.6579301 0.6608313 0.8863349 0.4097644 0.7109043 0.4097644 0.7109043 0.6608313 0.8863349 0.6604495 0.9251842 0.4097644 0.7109043 0.6604495 0.9251842 0.4905987 0.8885932 0.4905987 0.8885932 0.6604495 0.9251842 0.6405763 0.9606451 0.4905987 0.8885932 0.6405763 0.9606451 0.5110005 0.9381016 0.5110005 0.9381016 0.6405763 0.9606451 0.6151903 0.9862508 0.5110005 0.9381016 0.6151903 0.9862508 0.5287343 0.9700402 0.5287343 0.9700402 0.6151903 0.9862508 0.5823994 0.9948872 0.5287343 0.9700402 0.5823994 0.9948872 0.5545205 0.989735 0.5621992 0.004389524 0.5902104 0 0.6227495 0.009528219 0.5621992 0.004389524 0.6227495 0.009528219 0.5331417 0.02532798 0.5331417 0.02532798 0.6227495 0.009528219 0.6474158 0.0358175 0.5331417 0.02532798 0.6474158 0.0358175 0.5145286 0.05677115 0.5145286 0.05677115 0.6474158 0.0358175 0.666298 0.07180762 0.5145286 0.05677115 0.666298 0.07180762 0.4924458 0.1059301 0.4924458 0.1059301 0.666298 0.07180762 0.6656023 0.1106531 0.4924458 0.1059301 0.6656023 0.1106531 0.4097644 0.2791663 0.4097644 0.2791663 0.6656023 0.1106531 0.6430829 0.1647207 0.4097644 0.2791663 0.6430829 0.1647207 0.4191398 0.3247509 0.1471543 0.6756476 0.002209842 0.6743881 5.74318e-4 0.6246128 0.1471543 0.6756476 5.74318e-4 0.6246128 0.1452172 0.6258701 0.1452172 0.6258701 5.74318e-4 0.6246128 0 0.558771 0.1452172 0.6258701 0 0.558771 0.1420265 0.5600055 0.8826395 0.2837825 0.6959542 0.1503767 0.7282696 0.1059044 0.8826395 0.2837825 0.7282696 0.1059044 0.8761544 0.2115832 0.8761544 0.2115832 0.7282696 0.1059044 0.7698493 0.04863971 0.8761544 0.2115832 0.7698493 0.04863971 0.8902548 0.1346819 0.8051332 0 0.9228317 0.08410727 0.8902548 0.1346819 0.8051332 0 0.8902548 0.1346819 0.7698493 0.04863971 0.1403343 0.8533359 0.1498359 0.9062335 0.01002341 0.9062334 0.1403343 0.8533359 0.01002341 0.9062334 8.12835e-4 0.8533358 0.1369978 0.7909389 0.1403343 0.8533359 8.12835e-4 0.8533358 0.1369978 0.7909389 8.12835e-4 0.8533358 0 0.790939 0.1953984 0.783106 0.1752294 0.7568629 0.3946488 0.5907822 0.1953984 0.783106 0.3946488 0.5907822 0.3783127 0.6446564 0.2239893 0.8202788 0.1953984 0.783106 0.3783127 0.6446564 0.2239893 0.8202788 0.3783127 0.6446564 0.3688867 0.7106044 0.2621368 0.8698407 0.2239893 0.8202788 0.3688867 0.7106044 0.2621368 0.8698407 0.3688867 0.7106044 0.3801101 0.7805454 0.2944434 0.9117749 0.2621368 0.8698407 0.3801101 0.7805454 0.2944434 0.9117749 0.3801101 0.7805454 0.4097644 0.8244876 0.8996165 0.3382974 0.6756734 0.1782672 0.6959542 0.1503767 0.8996165 0.3382974 0.6959542 0.1503767 0.8826395 0.2837825 0.1752294 0.7568629 0.1586975 0.7038887 0.4097644 0.5284581 0.1752294 0.7568629 0.4097644 0.5284581 0.3946488 0.5907822 0.1586975 0.7038887 0.2392222 0.5264341 0.4093825 0.4896088 0.1586975 0.7038887 0.4093825 0.4896088 0.4097644 0.5284581 0.2392222 0.5264341 0.2599335 0.4766914 0.3895093 0.4541479 0.2392222 0.5264341 0.3895093 0.4541479 0.4093825 0.4896088 0.2599335 0.4766914 0.2776674 0.4447528 0.3641234 0.428542 0.2599335 0.4766914 0.3641234 0.428542 0.3895093 0.4541479 0.2776674 0.4447528 0.3034536 0.425058 0.3313324 0.4199057 0.2776674 0.4447528 0.3313324 0.4199057 0.3641234 0.428542 0.8187329 0.4986286 0.7896754 0.4776901 0.8792832 0.4934899 0.8187329 0.4986286 0.8792832 0.4934899 0.8467441 0.5030182 0.7896754 0.4776901 0.7710623 0.446247 0.9039495 0.4672006 0.7896754 0.4776901 0.9039495 0.4672006 0.8792832 0.4934899 0.7710623 0.446247 0.7489795 0.397088 0.9228317 0.4312104 0.7710623 0.446247 0.9228317 0.4312104 0.9039495 0.4672006 0.7489795 0.397088 0.666298 0.2238519 0.922136 0.392365 0.7489795 0.397088 0.922136 0.392365 0.9228317 0.4312104 0.666298 0.2238519 0.6756734 0.1782672 0.8996165 0.3382974 0.666298 0.2238519 0.8996165 0.3382974 0.922136 0.392365 0.682236 0.8985391 0.682236 0.9261188 0.6608313 0.9261187 0.682236 0.8985391 0.6608313 0.9261187 0.6608313 0.8985391 0.9650829 0.3724791 0.9864876 0.3724791 0.9864876 0.4000588 0.9650829 0.3724791 0.9864876 0.4000588 0.9650829 0.4000588 0.9652842 0.434355 0.9650829 0.4000588 0.9864876 0.4000588 0.9652842 0.434355 0.9864876 0.4000588 0.9864099 0.4311327 0.9654856 0.4625817 0.9652842 0.434355 0.9864099 0.4311327 0.9654856 0.4625817 0.9864099 0.4311327 0.9863323 0.4593591 0.9793899 0.5469457 0.9791543 0.504298 1 0.5030182 0.9793899 0.5469457 1 0.5030182 0.9999566 0.5456661 0.9797109 0.6961067 0.9793899 0.5469457 0.9999566 0.5456661 0.9797109 0.6961067 0.9999566 0.5456661 1 0.6960908 0.9799491 0.7426002 0.9797109 0.6961067 1 0.6960908 0.9799491 0.7426002 1 0.6960908 0.9999669 0.7515091 0.7136209 0.8715779 0.7185133 0.9226388 0.701062 0.9226387 0.9234359 0.3529369 0.9436479 0.3012144 0.943725 0.3529369 0.9232345 0.3889274 0.9234359 0.3529369 0.943725 0.3529369 0.9232345 0.3889274 0.943725 0.3529369 0.9438026 0.3889274 0.9230331 0.4292467 0.9232345 0.3889274 0.9438026 0.3889274 0.9230331 0.4292467 0.9438026 0.3889274 0.9438797 0.4292467 0.9228316 0.4625817 0.9230331 0.4292467 0.9438797 0.4292467 0.9228316 0.4625817 0.9438797 0.4292467 0.9439573 0.4625817 0.9650829 0.3724791 0.9652842 0.3455179 0.9864099 0.3455179 0.9650829 0.3724791 0.9864099 0.3455179 0.9864876 0.3724791 0.9615673 0.8439074 0.9163398 0.8620271 0.9084151 0.8424127 0.9615673 0.8439074 0.9084151 0.8424127 0.9521653 0.8240598 0.7142155 0.8176027 0.6751762 0.7578178 0.694307 0.749693 0.7142155 0.8176027 0.694307 0.749693 0.7288576 0.8025907 0.6751762 0.7578178 0.6608313 0.6872963 0.6815382 0.6872963 0.6751762 0.7578178 0.6815382 0.6872963 0.694307 0.749693 0.9163398 0.8620271 0.8507313 0.8715779 0.8507313 0.8503475 0.9163398 0.8620271 0.8507313 0.8503475 0.9084151 0.8424127 0.8507313 0.8715779 0.7733723 0.8575499 0.7812969 0.8379359 0.8507313 0.8715779 0.7812969 0.8379359 0.8507313 0.8503475 0.7733723 0.8575499 0.7142155 0.8176027 0.7288576 0.8025907 0.7733723 0.8575499 0.7288576 0.8025907 0.7812969 0.8379359 0.6820345 0.960415 0.6609089 0.9571927 0.6608313 0.9261187 0.6820345 0.960415 0.6608313 0.9261187 0.682236 0.9261188 0.681833 0.9886417 0.6609864 0.9854191 0.6609089 0.9571927 0.681833 0.9886417 0.6609089 0.9571927 0.6820345 0.960415 0.9793899 0.9560725 0.9999569 0.957498 1 1 0.9793899 0.9560725 1 1 0.9791543 0.9987201 0.9797109 0.8069114 1 0.8069274 0.9999569 0.957498 0.9797109 0.8069114 0.9999569 0.957498 0.9793899 0.9560725 0.9799496 0.7604179 0.9999669 0.7515091 1 0.8069274 0.9799496 0.7604179 1 0.8069274 0.9797109 0.8069114 0.9644786 0.3529368 0.9441895 0.3529369 0.9442666 0.3012144 0.701062 0.8715779 0.701062 0.9299777 0.682236 0.9193997 0.96468 0.3889274 0.944112 0.3889274 0.9441895 0.3529369 0.96468 0.3889274 0.9441895 0.3529369 0.9644786 0.3529368 0.9648815 0.4292467 0.9440344 0.4292468 0.944112 0.3889274 0.9648815 0.4292467 0.944112 0.3889274 0.96468 0.3889274 0.9650829 0.4625818 0.9439573 0.4625818 0.9440344 0.4292468 0.9650829 0.4625818 0.9440344 0.4292468 0.9648815 0.4292467 0.682236 0.8985391 0.6608313 0.8985391 0.6609088 0.8715779 0.682236 0.8985391 0.6609088 0.8715779 0.6820345 0.8715779 0.9615673 0.5306883 0.9521654 0.5505359 0.9084152 0.532183 0.9615673 0.5306883 0.9084152 0.532183 0.9163398 0.5125689 0.7142156 0.5569929 0.7288577 0.5720049 0.694307 0.6249026 0.7142156 0.5569929 0.694307 0.6249026 0.6751762 0.6167783 0.6751762 0.6167783 0.694307 0.6249026 0.6815382 0.6872963 0.6751762 0.6167783 0.6815382 0.6872963 0.6608313 0.6872963 0.9163398 0.5125689 0.9084152 0.532183 0.8507314 0.5242482 0.9163398 0.5125689 0.8507314 0.5242482 0.8507314 0.5030182 0.8507314 0.5030182 0.8507314 0.5242482 0.781297 0.5366598 0.8507314 0.5030182 0.781297 0.5366598 0.7733724 0.5170458 0.7288577 0.5720049 0.7142156 0.5569929 0.7733724 0.5170458 0.7288577 0.5720049 0.7733724 0.5170458 0.781297 0.5366598</float_array>
          <technique_common>
            <accessor source="#Swivel-mesh-map-0-array" count="612" stride="2">
              <param name="S" type="float"/>
              <param name="T" type="float"/>
            </accessor>
          </technique_common>
        </source>
        <vertices id="Swivel-mesh-vertices">
          <input semantic="POSITION" source="#Swivel-mesh-positions"/>
        </vertices>
        <polylist material="PBRFULL_Swivel-material" count="204">
          <input semantic="VERTEX" source="#Swivel-mesh-vertices" offset="0"/>
          <input semantic="NORMAL" source="#Swivel-mesh-normals" offset="1"/>
          <input semantic="TEXCOORD" source="#Swivel-mesh-map-0" offset="2" set="0"/>
          <vcount>3 3 3 3 3 3 3 3 3 3 3 3 3 3 3 3 3 3 3 3 3 3 3 3 3 3 3 3 3 3 3 3 3 3 3 3 3 3 3 3 3 3 3 3 3 3 3 3 3 3 3 3 3 3 3 3 3 3 3 3 3 3 3 3 3 3 3 3 3 3 3 3 3 3 3 3 3 3 3 3 3 3 3 3 3 3 3 3 3 3 3 3 3 3 3 3 3 3 3 3 3 3 3 3 3 3 3 3 3 3 3 3 3 3 3 3 3 3 3 3 3 3 3 3 3 3 3 3 3 3 3 3 3 3 3 3 3 3 3 3 3 3 3 3 3 3 3 3 3 3 3 3 3 3 3 3 3 3 3 3 3 3 3 3 3 3 3 3 3 3 3 3 3 3 3 3 3 3 3 3 3 3 3 3 3 3 3 3 3 3 3 3 3 3 3 3 3 3 3 3 3 3 3 3 </vcount>
          <p>143 0 0 1 0 1 174 0 2 174 0 3 1 0 4 208 0 5 4 0 6 1 0 7 211 0 8 211 0 9 1 0 10 6 0 11 6 0 12 1 0 13 173 0 14 173 0 15 1 0 16 147 0 17 147 0 18 1 0 19 144 0 20 1 0 21 143 0 22 144 0 23 201 0 24 209 0 25 1 0 26 209 0 27 208 0 28 1 0 29 4 0 30 198 0 31 1 0 32 198 0 33 13 0 34 1 0 35 13 0 36 14 0 37 1 0 38 14 0 39 170 0 40 1 0 41 170 0 42 171 0 43 1 0 44 171 0 45 201 0 46 1 0 47 3 1 48 11 2 49 17 2 50 3 1 51 17 2 52 18 1 53 10 3 54 19 3 55 17 2 56 10 3 57 17 2 58 11 2 59 10 3 60 16 4 61 20 4 62 10 3 63 20 4 64 19 3 65 15 5 66 21 5 67 20 4 68 15 5 69 20 4 70 16 4 71 15 5 72 187 6 73 22 6 74 15 5 75 22 6 76 21 5 77 210 7 78 23 7 79 22 6 80 210 7 81 22 6 82 187 6 83 210 7 84 12 8 85 24 9 86 210 7 87 24 9 88 23 7 89 197 10 90 25 10 91 24 9 92 197 10 93 24 9 94 12 8 95 3 1 96 18 1 97 26 11 98 3 1 99 26 11 100 2 11 101 0 12 102 2 11 103 26 11 104 0 12 105 26 11 106 27 12 107 0 12 108 27 12 109 28 13 110 0 12 111 28 13 112 9 13 113 8 14 114 9 13 115 28 13 116 8 14 117 28 13 118 29 15 119 8 14 120 29 15 121 30 16 122 8 14 123 30 16 124 7 17 125 188 18 126 7 17 127 30 16 128 188 18 129 30 16 130 31 18 131 188 18 132 31 18 133 32 19 134 188 18 135 32 19 136 5 19 137 197 10 138 5 19 139 32 19 140 197 10 141 32 19 142 25 10 143 180 20 144 34 21 145 35 22 146 180 20 147 35 22 148 36 23 149 34 21 150 178 1 151 38 1 152 34 21 153 38 1 154 35 22 155 163 24 156 139 25 157 41 26 158 163 24 159 41 26 160 42 27 161 139 25 162 140 28 163 44 29 164 139 25 165 44 29 166 41 26 167 140 28 168 180 20 169 36 23 170 140 28 171 36 23 172 44 29 173 45 30 174 141 31 175 142 32 176 45 30 177 142 32 178 48 33 179 49 10 180 50 10 181 141 31 182 49 10 183 141 31 184 45 30 185 51 34 186 52 35 187 135 36 188 51 34 189 135 36 190 161 37 191 55 38 192 56 39 193 52 35 194 55 38 195 52 35 196 51 34 197 57 40 198 58 41 199 56 39 200 57 40 201 56 39 202 55 38 203 48 33 204 142 32 205 58 41 206 48 33 207 58 41 208 57 40 209 59 42 210 163 24 211 42 27 212 59 42 213 42 27 214 206 43 215 161 37 216 135 36 217 136 44 218 161 37 219 136 44 220 130 45 221 130 45 222 136 44 223 145 46 224 130 45 225 145 46 226 64 47 227 64 47 228 145 46 229 146 48 230 64 47 231 146 48 232 213 49 233 213 49 234 146 48 235 175 50 236 213 49 237 175 50 238 152 51 239 152 51 240 175 50 241 177 52 242 152 51 243 177 52 244 70 53 245 71 54 246 72 55 247 204 56 248 71 54 249 204 56 250 74 57 251 74 57 252 204 56 253 172 58 254 74 57 255 172 58 256 150 59 257 150 59 258 172 58 259 127 60 260 150 59 261 127 60 262 78 61 263 78 61 264 127 60 265 128 62 266 78 61 267 128 62 268 132 63 269 132 63 270 128 62 271 59 42 272 132 63 273 59 42 274 206 43 275 185 64 276 82 65 277 83 66 278 185 64 279 83 66 280 84 67 281 84 67 282 83 66 283 38 1 284 84 67 285 38 1 286 178 1 287 148 68 288 86 69 289 87 70 290 148 68 291 87 70 292 149 71 293 149 71 294 87 70 295 89 72 296 149 71 297 89 72 298 186 73 299 82 65 300 185 64 301 186 73 302 82 65 303 186 73 304 89 72 305 91 74 306 92 75 307 214 76 308 91 74 309 214 76 310 217 77 311 49 10 312 91 74 313 217 77 314 49 10 315 217 77 316 50 10 317 95 78 318 216 79 319 189 80 320 95 78 321 189 80 322 193 81 323 99 82 324 95 78 325 193 81 326 99 82 327 193 81 328 156 83 329 101 84 330 99 82 331 156 83 332 101 84 333 156 83 334 157 85 335 92 75 336 101 84 337 157 85 338 92 75 339 157 85 340 214 76 341 137 86 342 202 87 343 86 69 344 137 86 345 86 69 346 148 68 347 216 79 348 167 88 349 106 89 350 216 79 351 106 89 352 189 80 353 167 88 354 125 90 355 154 91 356 167 88 357 154 91 358 106 89 359 125 90 360 126 92 361 155 93 362 125 90 363 155 93 364 154 91 365 126 92 366 111 94 367 181 95 368 126 92 369 181 95 370 155 93 371 111 94 372 113 96 373 195 97 374 111 94 375 195 97 376 181 95 377 162 98 378 133 99 379 158 100 380 162 98 381 158 100 382 118 101 383 133 99 384 134 102 385 160 103 386 133 99 387 160 103 388 158 100 389 134 102 390 183 104 391 122 105 392 134 102 393 122 105 394 160 103 395 183 104 396 168 106 397 138 107 398 183 104 399 138 107 400 122 105 401 168 106 402 202 87 403 137 86 404 168 106 405 137 86 406 138 107 407 205 108 408 212 109 409 153 110 410 205 108 411 153 110 412 69 111 413 192 108 414 114 111 415 194 112 416 192 108 417 194 112 418 115 109 419 116 113 420 115 109 421 194 112 422 116 113 423 194 112 424 196 114 425 119 115 426 116 113 427 196 114 428 119 115 429 196 114 430 109 116 431 121 117 432 119 115 433 109 116 434 121 117 435 109 116 436 107 118 437 169 119 438 121 117 439 107 118 440 169 119 441 107 118 442 166 120 443 104 121 444 123 122 445 105 123 446 104 121 447 105 123 448 96 124 449 124 125 450 103 126 451 97 127 452 124 125 453 97 127 454 190 128 455 215 129 456 124 125 457 190 128 458 215 129 459 190 128 460 108 130 461 120 131 462 215 129 463 108 130 464 120 131 465 108 130 466 110 132 467 159 133 468 120 131 469 110 132 470 159 133 471 110 132 472 112 133 473 192 108 474 117 134 475 182 134 476 192 108 477 182 134 478 114 111 479 103 126 480 85 135 481 98 136 482 103 126 483 98 136 484 97 127 485 81 137 486 179 138 487 94 139 488 81 137 489 94 139 490 93 140 491 179 138 492 37 0 493 207 141 494 179 138 495 207 141 496 94 139 497 85 135 498 88 142 499 100 143 500 85 135 501 100 143 502 98 136 503 88 142 504 90 144 505 102 145 506 88 142 507 102 145 508 100 143 509 90 144 510 81 137 511 93 140 512 90 144 513 93 140 514 102 145 515 218 146 516 68 147 517 153 110 518 218 146 519 153 110 520 212 109 521 76 148 522 66 149 523 68 147 524 76 148 525 68 147 526 218 146 527 151 150 528 200 151 529 66 149 530 151 150 531 66 149 532 76 148 533 131 152 534 129 153 535 200 151 536 131 152 537 200 151 538 151 150 539 60 154 540 54 155 541 62 156 542 60 154 543 62 156 544 80 122 545 79 157 546 61 128 547 53 158 548 79 157 549 53 158 550 191 159 551 77 129 552 63 130 553 61 128 554 77 129 555 61 128 556 79 157 557 75 131 558 65 132 559 63 130 560 75 131 561 63 130 562 77 129 563 203 133 564 67 133 565 65 132 566 203 133 567 65 132 568 75 131 569 205 108 570 69 111 571 176 134 572 205 108 573 176 134 574 73 134 575 191 159 576 53 158 577 184 160 578 191 159 579 184 160 580 39 161 581 33 162 582 47 163 583 46 164 584 33 162 585 46 164 586 199 165 587 199 165 588 46 164 589 207 141 590 199 165 591 207 141 592 37 0 593 39 161 594 184 160 595 164 166 596 39 161 597 164 166 598 40 167 599 40 167 600 164 166 601 165 168 602 40 167 603 165 168 604 43 169 605 47 163 606 33 162 607 43 169 608 47 163 609 43 169 610 165 168 611</p>
        </polylist>
      </mesh>
    </geometry>
  </library_geometries>
  <library_controllers/>
  <library_visual_scenes>
    <visual_scene id="Scene" name="Scene">
      <node id="Swivel" name="Swivel" type="NODE">
        <matrix sid="transform">1 0 0 0 0 1 0 0 0 0 1 0 0 0 0 1</matrix>
        <instance_geometry url="#Swivel-mesh" name="Swivel">
          <bind_material>
            <technique_common>
              <instance_material symbol="PBRFULL_Swivel-material" target="#PBRFULL_Swivel-material"/>
            </technique_common>
          </bind_material>
        </instance_geometry>
      </node>
    </visual_scene>
  </library_visual_scenes>
  <scene>
    <instance_visual_scene url="#Scene"/>
  </scene>
</COLLADA>