<?xml version="1.0" encoding="utf-8"?>
<COLLADA xmlns="http://www.collada.org/2005/11/COLLADASchema" version="1.4.1" xmlns:xsi="http://www.w3.org/2001/XMLSchema-instance">
  <asset>
    <contributor>
      <author>Blender User</author>
      <authoring_tool>Blender 2.79.0 commit date:2017-09-11, commit time:10:43, hash:5bd8ac9abfa</authoring_tool>
    </contributor>
    <created>2017-11-23T16:37:32</created>
    <modified>2017-11-23T16:37:32</modified>
    <unit name="meter" meter="1"/>
    <up_axis>Z_UP</up_axis>
  </asset>
  <library_images/>
  <library_effects>
    <effect id="Material_001-effect">
      <profile_COMMON>
        <technique sid="common">
          <phong>
            <emission>
              <color sid="emission">0 0 0 1</color>
            </emission>
            <ambient>
              <color sid="ambient">0 0 0 1</color>
            </ambient>
            <diffuse>
              <color sid="diffuse">0.64 0.64 0.64 1</color>
            </diffuse>
            <specular>
              <color sid="specular">0.25 0.25 0.25 1</color>
            </specular>
            <shininess>
              <float sid="shininess">50</float>
            </shininess>
            <index_of_refraction>
              <float sid="index_of_refraction">1</float>
            </index_of_refraction>
          </phong>
        </technique>
      </profile_COMMON>
    </effect>
  </library_effects>
  <library_materials>
    <material id="Material_001-material" name="Material_001">
      <instance_effect url="#Material_001-effect"/>
    </material>
  </library_materials>
  <library_geometries>
    <geometry id="Cube_003-mesh" name="Cube.003">
      <mesh>
        <source id="Cube_003-mesh-positions">
          <float_array id="Cube_003-mesh-positions-array" count="42">1 1 -1 1 -1 -1 -1 -0.9999998 -1 -0.9999997 1 -1 1 0.9999995 1 0.9999994 -1.000001 1 -1 -0.9999997 1 -1 1 1 0 0 -1 0 0 1 1 -2.98023e-7 0 -2.68221e-7 -1 0 -1 2.38419e-7 0 2.38419e-7 0.9999999 0</float_array>
          <technique_common>
            <accessor source="#Cube_003-mesh-positions-array" count="14" stride="3">
              <param name="X" type="float"/>
              <param name="Y" type="float"/>
              <param name="Z" type="float"/>
            </accessor>
          </technique_common>
        </source>
        <source id="Cube_003-mesh-normals">
          <float_array id="Cube_003-mesh-normals-array" count="54">0 0 1 1 0 0 -4.76837e-7 -1 -4.76837e-7 -1 0 0 1.19209e-7 1 2.38419e-7 0 0 -1 0 0 -1 0 0 1 1 -2.98023e-7 2.98023e-7 1 -2.98023e-7 2.98023e-7 -6.25849e-7 -1 -2.98023e-7 -2.38419e-7 -1 0 0 -1 0 -1 1.19209e-7 -1.49012e-7 -1 1.19209e-7 -1.49012e-7 0 1 1.19209e-7 0 1 0 2.38419e-7 1 0</float_array>
          <technique_common>
            <accessor source="#Cube_003-mesh-normals-array" count="18" stride="3">
              <param name="X" type="float"/>
              <param name="Y" type="float"/>
              <param name="Z" type="float"/>
            </accessor>
          </technique_common>
        </source>
        <vertices id="Cube_003-mesh-vertices">
          <input semantic="POSITION" source="#Cube_003-mesh-positions"/>
        </vertices>
        <triangles material="Material_001-material" count="24">
          <input semantic="VERTEX" source="#Cube_003-mesh-vertices" offset="0"/>
          <input semantic="NORMAL" source="#Cube_003-mesh-normals" offset="1"/>
          <p>4 0 7 0 9 0 0 1 4 1 10 1 1 2 5 2 11 2 2 3 6 3 12 3 4 4 0 4 13 4 0 5 1 5 8 5 1 5 2 5 8 5 2 6 3 6 8 6 3 5 0 5 8 5 7 7 6 7 9 7 6 0 5 0 9 0 5 0 4 0 9 0 4 8 5 8 10 8 5 9 1 9 10 9 1 1 0 1 10 1 5 10 6 10 11 10 6 11 2 11 11 11 2 12 1 12 11 12 6 3 7 3 12 3 7 13 3 13 12 13 3 14 2 14 12 14 0 15 3 15 13 15 3 16 7 16 13 16 7 17 4 17 13 17</p>
        </triangles>
      </mesh>
    </geometry>
  </library_geometries>
  <library_controllers/>
  <library_visual_scenes>
    <visual_scene id="Scene" name="Scene">
      <node id="COL_base" name="COL_base" type="NODE">
        <instance_geometry url="#Cube_003-mesh" name="COL_base">
          <bind_material>
            <technique_common>
              <instance_material symbol="Material_001-material" target="#Material_001-material"/>
            </technique_common>
          </bind_material>
        </instance_geometry>
      </node>
    </visual_scene>
  </library_visual_scenes>
  <scene>
    <instance_visual_scene url="#Scene"/>
  </scene>
</COLLADA>