<?xml version="1.0" encoding="utf-8"?>
<COLLADA xmlns="http://www.collada.org/2005/11/COLLADASchema" version="1.4.1">
  <asset>
    <contributor>
      <author>Blender User</author>
      <authoring_tool>Blender 2.76.0 commit date:2015-11-03, commit time:10:56, hash:f337fea</authoring_tool>
    </contributor>
    <created>2017-01-25T08:36:06</created>
    <modified>2017-01-25T08:36:06</modified>
    <unit name="meter" meter="1"/>
    <up_axis>Z_UP</up_axis>
  </asset>
  <library_images/>
  <library_geometries>
    <geometry id="Cube_008-mesh" name="Cube.008">
      <mesh>
        <source id="Cube_008-mesh-positions">
          <float_array id="Cube_008-mesh-positions-array" count="294">-5.309604 -1.844525 -0.0284031 -4.743511 -4.825953 4.369224 -4.447501 1.271546 -0.02836918 -4.589261 -2.259264 -4.271807 -3.808897 -24.32494 0.2110425 -3.808897 -24.32494 0.4685367 -4.151761 0.5629797 3.906238 -4.1518 0.5629941 -3.963099 -2.514678 -25.22704 -1.570963 0.04033017 1.841917 -0.02841359 0.04037636 1.841867 2.260312 2.329104 1.841907 -0.02841645 0.04036998 1.841917 -2.317181 -2.248392 1.841887 -0.02838128 -2.248392 1.841887 0.1003658 2.271274 1.634497 2.202482 2.271234 1.634523 -2.259331 -2.190532 1.6345 -2.259302 5.390349 -1.844533 -0.02841317 4.824215 -4.825942 4.369185 3.335108 -24.76194 -0.7223891 4.669987 -2.259323 -4.271855 4.412503 0.960484 -2.072734 4.232501 0.5629789 3.90622 2.995807 -25.08874 0.8841469 2.327648 -25.16134 -1.917242 4.232492 0.5629522 -3.963078 -1.711722 -25.62504 -0.256986 0.414353 -25.36464 2.296838 0.2856065 -25.36464 2.168091 -0.6061139 -25.29054 -2.334895 2.074068 -25.44744 -0.5864742 2.266238 -24.70684 2.217598 -2.378298 -25.33814 0.2216079 -1.491938 -25.31194 -1.945876 1.411849 -24.68454 -2.823695 0.04032069 -1.844524 -5.378422 -4.357331 -4.825953 -4.812367 0.04036641 1.271563 -4.516302 4.283747 -2.259323 -4.658097 -0.008304297 -25.56084 -2.343477 -1.514575 -25.05144 -2.800187 -3.894307 0.5629941 -4.220593 3.974999 0.5629522 -4.220572 2.021925 -25.10674 -2.326416 0.04037421 -1.844545 5.32153 4.283715 -2.259313 4.601217 0.04037714 1.271528 4.459443 -4.357272 -4.825953 4.755465 -0.5677658 -25.14004 2.958389 1.422677 -24.66904 3.27985 3.975008 0.5629789 4.163713 -3.894268 0.5629798 4.163733 -2.063345 -24.77084 2.793119 -1.620685 -25.31194 -1.945876 -1.620685 -25.31194 -1.817129 -1.399368 -25.56744 1.544328 -2.320838 -24.77084 2.793119 -4.589263 -2.259285 4.601205 -4.151762 0.5629797 4.163732 -3.894268 0.5629798 3.777491 -2.377139 1.841887 -0.02838128 -2.319278 1.6345 -2.259302 -4.1518 0.5629941 -4.220593 -4.589261 -2.259264 -4.658049 -1.772068 -25.05144 -2.800187 -2.190523 1.634505 2.331239 -2.061776 1.634505 2.331239 3.846262 0.5629789 3.90622 3.975008 0.5629789 3.777473 3.975008 0.5629789 3.648726 3.975 0.5629522 -3.834331 2.271234 1.634523 -2.388078 2.142488 1.634523 -2.388078 -2.190532 1.6345 -2.388049 4.232501 0.5629789 4.163714 4.669954 -2.259313 4.601217 2.652477 -24.70684 2.60384 1.646347 -25.39444 1.736208 1.646347 -25.39444 1.607461 1.507138 -25.42264 -1.781275 2.776328 -24.69434 -2.447926 4.669987 -2.259323 -4.658097 4.232493 0.5629522 -4.220572 1.5176 -25.39444 1.864955 1.388854 -25.39444 1.864956 1.260107 -25.39444 1.864956 -1.491938 -25.31194 -2.074623 -1.363192 -25.31194 -2.074623 -1.234445 -25.31194 -2.074623 -1.620685 -25.31194 -2.074623 -2.063345 -24.77084 2.535625 -2.261458 0.9604983 -4.143049 -2.319269 1.634505 2.331239 2.202815 -25.44744 -0.8439685 0.6718461 -25.36464 2.425585 2.399981 1.634523 -2.388078 2.40002 1.634497 2.33123</float_array>
          <technique_common>
            <accessor source="#Cube_008-mesh-positions-array" count="98" stride="3">
              <param name="X" type="float"/>
              <param name="Y" type="float"/>
              <param name="Z" type="float"/>
            </accessor>
          </technique_common>
        </source>
        <source id="Cube_008-mesh-normals">
          <float_array id="Cube_008-mesh-normals-array" count="558">-0.9988533 -0.04787647 0 -0.8457771 -0.1433466 0.5139191 -0.4407684 -0.8967671 -0.03914195 0.6790324 -0.2790071 0.6790214 -0.9699073 0.1244814 0.2092467 0.08519196 0.9816882 0.1703841 -0.988197 0.1531887 -1.8648e-6 -0.7517715 0.4285544 -0.5011794 -0.956878 0.2647348 -0.1195831 -0.9881992 0.1531747 -1.86482e-6 -0.264358 0.9596284 -0.09606361 -0.2243136 0.9153487 -0.3343955 -0.833313 -0.1382106 -0.5352451 -0.09454387 -0.9955207 0 -0.9924476 -0.1226698 0 -0.864612 -0.5024404 -4.229e-6 -1.32818e-5 1 0 -0.08915865 0.9915257 0.09448516 -0.2274879 0.9468363 0.2274869 -0.5215074 0.8509522 0.06253576 0.09255516 0.9957076 1.97135e-5 0.5323885 0.8465002 -8.04196e-7 0.01551276 0.8528013 0.5220051 -0.3170207 -0.8938658 -0.3170207 4.08555e-6 0.995707 -0.09256076 0 1 0 0.613581 0.7896318 -3.52282e-6 0.7045693 0.08466243 0.7045669 -0.09257519 0.9957058 -1.76674e-6 0 0.9957071 -0.09256088 -7.90325e-6 0.3233952 -0.946264 -0.3272272 0.8864801 -0.3272238 0.9305725 0.3623804 0.05210816 0.9881997 0.1531713 1.86416e-6 4.62962e-7 1 0 0.7517712 0.4285556 -0.5011788 0.9760535 -0.1193529 0.1818637 0.2209377 -0.975288 -8.84068e-6 0.009449541 -0.08946859 0.9959448 0.2562054 -0.8798819 0.4002084 0.7796682 -0.1424347 -0.6097786 0.7691817 -0.0129823 0.6388983 0.3431266 -0.9392682 -0.006278991 -0.2627539 0.9394764 0.2198736 0.9778622 0.1655808 -0.1279393 -0.09793359 0.9757283 -0.1958661 0.9881975 0.1531856 0 0.751773 0.4285517 0.5011795 0.334896 -0.9164298 0.219092 0 0.456329 -0.8898112 -0.7427302 0.6695909 0 0.1033928 0.9892498 0.1034163 -0.03688836 -0.998642 0.03678911 -0.2324818 0.9146815 0.3306207 0 0.9976309 -0.06879377 -0.1289474 -0.9589294 0.2526403 -0.2906523 0.9468666 0.1377133 0 -1 -2.87671e-5 0 -1 0 0.1852713 -0.9120454 -0.3658522 -0.8040165 0.4481376 0.3908071 0 0.9966323 0.08200114 -0.1050126 0.9131562 0.3938505 0.271869 -0.05735784 -0.9606235 0 -0.09899854 -0.9950876 0 -0.9411776 -0.3379123 0 -0.9411763 -0.3379159 -0.2092408 0.1244862 -0.9699081 -0.1914732 0.9144085 -0.3566445 5.8715e-6 0.153172 -0.9881996 0 0.191461 -0.9815003 0.1195975 0.2647349 -0.9568762 0 0.1531952 -0.988196 0 0.8632422 -0.50479 0 0.8632417 -0.5047908 0.1552526 -0.1154952 -0.9811002 0.0974195 -0.4685416 0.8780537 0 -0.0980398 -0.9951826 0.4326826 -0.8656833 -0.2517507 -0.136408 -0.09645527 0.9859458 0.4760183 -0.1122042 0.8722482 1.16468e-6 -0.8898659 0.4562221 -0.2707007 0.8491477 -0.4535077 0.1810477 0.1699646 0.9686763 0.1703795 0.9816891 -0.0851897 0 0.1531872 0.9881972 -0.5011829 0.4285516 0.7517708 -0.1195871 0.2647287 0.9568792 -5.18729e-6 0.1531787 0.9881985 1.74473e-6 0.8632525 0.5047725 -2.0337e-6 0.8632507 0.5047757 -0.1365439 -0.1125403 0.9842208 -0.2217935 -0.9640293 -0.1464757 -0.9928485 -0.09415113 -0.07339942 -0.9943452 -0.06548827 0.08360022 -0.06220835 -0.08613204 0.9943397 -0.4583142 -0.8887903 0 -0.508867 -0.8451507 0.16363 -0.9568772 0.2647312 0.1195967 -0.2594848 0.9419453 0.2130886 -0.9592196 0.08209216 -0.2704787 -4.62964e-7 1 0 -0.9686781 0.1699525 -0.1810495 -0.9881991 0.153175 0 -0.3566524 0.914407 -0.1914659 -0.2057807 0.9785982 -4.79331e-7 -0.9847175 -0.06744623 -0.1605695 0.04866701 -0.8764501 0.4790272 -0.8389488 -0.1376917 -0.5265035 -0.1964482 -0.9470523 -0.2539686 -1.20597e-5 1 2.1483e-5 2.1125e-6 0.3236407 0.9461801 1.03317e-6 0.9957071 0.09256124 4.31223e-6 0.995706 0.09257262 0.4718079 0.8767043 0.09373903 0.02967721 0.04075306 0.9987285 0.2966574 0.9077385 0.2966566 0.09256666 0.9957066 1.58079e-6 0.09458291 0.9910137 -0.09458261 0.4664269 0.8795657 -0.09386307 -1.45293e-5 0.995707 -0.09256124 0 0.9957071 -0.09256106 -0.09257543 0.9957057 0 0.9699071 0.1244748 0.2092521 0.9592438 0.08209693 -0.2703914 -0.06427407 0.9958603 0.06427383 2.31482e-7 1 0 0.9936413 -0.09111315 0.06614702 0.1294106 -0.9766746 -0.1713469 0.9672132 -0.1252726 0.22092 0.3724346 -0.8874748 0.2714425 0.9837726 -0.08341473 -0.1588505 0.9964567 -0.08410727 0 0.3112161 -0.9487617 0.05473375 -0.6384599 0.7589286 0.1280491 0.9621275 0.201978 -0.1830728 -0.6724854 0.7401105 -1.87298e-6 0.9881976 0.1531848 1.86416e-6 -2.31482e-7 1 0 0.05185818 -0.9969409 0.05847823 -0.2745136 0.6924576 -0.6671917 -0.665959 0.7312612 -0.1474982 -0.4680282 0.7496065 -0.4680169 -0.4613319 -0.7577974 0.4614282 0.1499304 -0.9850581 -0.08474457 0.02473628 0.9994834 -0.02052217 0.5485953 0.7917138 -0.2687615 -0.05951732 -0.9800871 -0.1894389 0.04299616 -0.9981493 0.04300242 -0.008944392 -0.9999201 -0.008947432 0 -1 2.87671e-5 0.03413361 -0.9894057 -0.1411079 0.06693488 0.9976962 -0.0110532 -0.3440396 0.5095059 -0.7886954 0.6323715 -0.603789 -0.4853299 -0.04164266 -0.1267394 -0.9910616 -0.9685495 -0.1011866 0.2273175 -0.2278164 -0.9305774 -0.2865753 0 -0.9411767 -0.3379152 -0.1195889 0.2647384 -0.9568763 -6.26959e-6 0.9857679 -0.1681123 0.2703832 0.08210563 -0.9592453 0.2067122 -0.9161279 0.3434818 0.1810483 0.1699754 -0.9686743 0 0.1531955 -0.988196 0.1914216 0.9185988 -0.3457369 0 0.8632425 -0.5047897 0.03671801 -0.126922 -0.9912329 0 -0.7337889 0.6793776 -0.1101693 -0.09010899 -0.9898198 0.04358845 -0.9724918 -0.228823 0.1593914 -0.07837581 0.9840995 0 -0.08862948 0.9960647 0.1363392 -0.8828765 0.4493782 0.2374815 -0.84493 0.4792662 0.119592 0.2647283 0.9568787 0.1814036 0.9833419 -0.0114687 0 0.1531871 0.9881972 -0.2092376 0.1244783 0.9699097 0.2704299 0.08209413 0.9592331 -0.1914052 0.918603 0.345735 0 0.8632519 0.5047733 -0.06061303 -0.09917211 0.9932226 0 -0.9739744 0.2266583 0 -0.09791564 0.9951947 -0.1844176 -0.982848 0</float_array>
          <technique_common>
            <accessor source="#Cube_008-mesh-normals-array" count="186" stride="3">
              <param name="X" type="float"/>
              <param name="Y" type="float"/>
              <param name="Z" type="float"/>
            </accessor>
          </technique_common>
        </source>
        <vertices id="Cube_008-mesh-vertices">
          <input semantic="POSITION" source="#Cube_008-mesh-positions"/>
        </vertices>
        <polylist count="192">
          <input semantic="VERTEX" source="#Cube_008-mesh-vertices" offset="0"/>
          <input semantic="NORMAL" source="#Cube_008-mesh-normals" offset="1"/>
          <vcount>3 3 3 3 3 3 3 3 3 3 3 3 3 3 3 3 3 3 3 3 3 3 3 3 3 3 3 3 3 3 3 3 3 3 3 3 3 3 3 3 3 3 3 3 3 3 3 3 3 3 3 3 3 3 3 3 3 3 3 3 3 3 3 3 3 3 3 3 3 3 3 3 3 3 3 3 3 3 3 3 3 3 3 3 3 3 3 3 3 3 3 3 3 3 3 3 3 3 3 3 3 3 3 3 3 3 3 3 3 3 3 3 3 3 3 3 3 3 3 3 3 3 3 3 3 3 3 3 3 3 3 3 3 3 3 3 3 3 3 3 3 3 3 3 3 3 3 3 3 3 3 3 3 3 3 3 3 3 3 3 3 3 3 3 3 3 3 3 3 3 3 3 3 3 3 3 3 3 3 3 3 3 3 3 3 3 3 3 3 3 3 3 </vcount>
          <p>4 0 5 0 1 0 1 1 5 1 57 1 4 2 55 2 56 2 56 3 91 3 57 3 0 4 1 4 6 4 2 5 6 5 60 5 58 6 59 6 6 6 59 7 93 7 60 7 0 8 2 8 7 8 3 9 7 9 63 9 2 10 61 10 62 10 7 11 62 11 92 11 3 12 8 12 4 12 8 13 54 13 55 13 3 14 64 14 65 14 65 15 90 15 54 15 9 16 13 16 14 16 10 17 14 17 66 17 61 18 60 18 14 18 14 19 60 19 93 19 9 20 10 20 15 20 15 21 69 21 70 21 67 22 68 22 15 22 68 23 97 23 69 23 9 24 11 24 16 24 16 25 72 25 73 25 11 26 70 26 71 26 16 27 71 27 96 27 9 28 12 28 17 28 13 29 17 29 62 29 12 30 73 30 74 30 74 31 92 31 62 31 18 32 22 32 23 32 23 33 75 33 76 33 70 34 69 34 23 34 69 35 97 35 75 35 19 36 24 36 20 36 24 37 78 37 79 37 19 38 76 38 77 38 77 39 95 39 78 39 20 40 25 40 21 40 21 41 25 41 81 41 20 42 79 42 80 42 25 43 80 43 94 43 21 44 26 44 22 44 22 45 26 45 71 45 21 46 82 46 83 46 83 47 96 47 71 47 31 48 32 48 28 48 32 49 84 49 85 49 79 50 78 50 32 50 78 51 95 51 84 51 28 52 33 52 29 52 29 53 33 53 56 53 28 54 85 54 86 54 33 55 86 55 91 55 27 56 29 56 34 56 34 57 87 57 88 57 55 58 54 58 34 58 54 57 90 57 87 57 30 59 35 59 31 59 31 60 35 60 80 60 30 61 88 61 89 61 35 62 89 62 94 62 40 63 41 63 37 63 37 64 41 64 65 64 88 65 87 65 41 65 41 66 87 66 90 66 36 67 37 67 42 67 38 68 42 68 74 68 64 69 63 69 42 69 42 70 63 70 92 70 36 71 38 71 43 71 39 72 43 72 83 72 73 73 72 73 43 73 43 74 72 74 96 74 36 75 39 75 44 75 40 76 44 76 89 76 39 77 82 77 81 77 44 78 81 78 94 78 45 79 49 79 50 79 46 80 50 80 77 80 85 81 84 81 50 81 50 82 84 82 95 82 45 83 46 83 51 83 47 84 51 84 68 84 46 85 76 85 75 85 75 86 97 86 68 86 45 87 47 87 52 87 52 88 59 88 58 88 67 89 66 89 52 89 52 90 66 90 93 90 48 91 53 91 49 91 49 92 53 92 86 92 48 93 58 93 57 93 53 58 57 58 91 58 0 94 4 94 1 94 58 95 1 95 57 95 5 96 4 96 56 96 5 97 56 97 57 97 2 98 0 98 6 98 61 99 2 99 60 99 1 100 58 100 6 100 6 101 59 101 60 101 3 102 0 102 7 102 64 103 3 103 63 103 7 104 2 104 62 104 63 105 7 105 92 105 0 106 3 106 4 106 4 107 8 107 55 107 8 108 3 108 65 108 8 109 65 109 54 109 10 110 9 110 14 110 67 111 10 111 66 111 13 25 61 25 14 25 66 112 14 112 93 112 11 113 9 113 15 113 11 114 15 114 70 114 10 115 67 115 15 115 15 116 68 116 69 116 12 117 9 117 16 117 12 118 16 118 73 118 16 119 11 119 71 119 72 25 16 25 96 25 13 120 9 120 17 120 61 121 13 121 62 121 17 122 12 122 74 122 17 25 74 25 62 25 19 123 18 123 23 123 19 124 23 124 76 124 22 125 70 125 23 125 23 126 69 126 75 126 18 127 19 127 20 127 20 128 24 128 79 128 24 129 19 129 77 129 24 130 77 130 78 130 18 131 20 131 21 131 82 132 21 132 81 132 25 133 20 133 80 133 81 134 25 134 94 134 18 135 21 135 22 135 70 136 22 136 71 136 26 137 21 137 83 137 26 138 83 138 71 138 27 139 31 139 28 139 28 140 32 140 85 140 31 141 79 141 32 141 32 142 78 142 84 142 27 143 28 143 29 143 55 144 29 144 56 144 33 145 28 145 86 145 56 146 33 146 91 146 30 147 27 147 34 147 30 148 34 148 88 148 29 149 55 149 34 149 34 150 54 150 87 150 27 151 30 151 31 151 79 152 31 152 80 152 35 153 30 153 89 153 80 154 35 154 94 154 36 155 40 155 37 155 64 156 37 156 65 156 40 157 88 157 41 157 65 158 41 158 90 158 38 159 36 159 42 159 73 160 38 160 74 160 37 161 64 161 42 161 74 162 42 162 92 162 39 163 36 163 43 163 82 164 39 164 83 164 38 165 73 165 43 165 83 166 43 166 96 166 40 167 36 167 44 167 88 168 40 168 89 168 44 169 39 169 81 169 89 170 44 170 94 170 46 171 45 171 50 171 76 172 46 172 77 172 49 173 85 173 50 173 77 174 50 174 95 174 47 175 45 175 51 175 67 176 47 176 68 176 51 177 46 177 75 177 51 25 75 25 68 25 48 178 45 178 52 178 48 179 52 179 58 179 47 180 67 180 52 180 59 181 52 181 93 181 45 182 48 182 49 182 85 183 49 183 86 183 53 184 48 184 57 184 86 185 53 185 91 185</p>
        </polylist>
      </mesh>
    </geometry>
  </library_geometries>
  <library_controllers/>
  <library_visual_scenes>
    <visual_scene id="Scene" name="Scene">
      <node id="COL_VIZ_LeftFingerJoint11y_link_0" name="COL_VIZ_LeftFingerJoint11y_link_0" type="NODE">
        <instance_geometry url="#Cube_008-mesh" name="COL_VIZ_LeftFingerJoint11y_link_0"/>
      </node>
    </visual_scene>
  </library_visual_scenes>
  <scene>
    <instance_visual_scene url="#Scene"/>
  </scene>
</COLLADA>