<?xml version="1.0" encoding="utf-8"?>
<COLLADA xmlns="http://www.collada.org/2005/11/COLLADASchema" version="1.4.1">
  <asset>
    <contributor>
      <author>Blender User</author>
      <authoring_tool>Blender 2.76.0 commit date:2015-11-03, commit time:10:56, hash:f337fea</authoring_tool>
    </contributor>
    <created>2017-01-25T08:36:08</created>
    <modified>2017-01-25T08:36:08</modified>
    <unit name="meter" meter="1"/>
    <up_axis>Z_UP</up_axis>
  </asset>
  <library_images/>
  <library_geometries>
    <geometry id="Cube_047-mesh" name="Cube.047">
      <mesh>
        <source id="Cube_047-mesh-positions">
          <float_array id="Cube_047-mesh-positions-array" count="294">-6.404392 -5.311155 4.105767 -6.404392 -5.311155 4.493422 -5.602127 -0.9816195 3.743059 -5.251933 -6.826791 -4.337409 -3.451629 -21.56142 -8.78271e-5 -5.600357 -18.82062 4.001493 -5.602127 -0.9816194 4.001496 -5.602127 -0.9816195 3.484622 -2.955659 -22.00722 -0.5335521 -0.001007378 0.5568969 4.105758 -0.001007378 0.5568969 4.364195 3.039013 0.5571879 4.105758 -8.41043e-4 -1.016914 -0.5037328 -3.041033 0.5566058 4.105758 -2.87912 -0.08212953 4.234977 2.8771 -0.08154743 4.234977 5.106958 -1.410259 1.800333 -5.108688 -1.411319 1.800343 6.403362 -5.309983 4.105757 6.403362 -5.309983 4.493412 3.452189 -21.56082 -8.91642e-5 5.231902 -6.825872 -4.337409 5.600306 -0.9805706 3.743059 5.600306 -0.9805705 4.001496 5.602077 -18.81952 4.001493 2.956309 -22.00672 -0.5335531 5.411907 -2.161709 -0.4664778 4.0634e-4 -23.43015 -8.88572e-5 4.0634e-4 -23.43015 0.2583479 -2.088423 -22.99725 -8.83092e-5 -0.2092006 -22.99715 -2.017365 2.089153 -22.99695 -8.91508e-5 1.927241 -22.35822 0.1291292 -1.720611 -22.35852 0.965946 -1.720611 -22.35852 -0.9661232 1.721331 -22.35822 -0.9661232 -0.001755833 -6.656941 -5.569549 -4.899835 -9.901043 -4.851492 -0.003450989 -3.120806 -4.750526 4.899775 -9.900092 -4.851503 -0.2747118 -22.00702 -2.825303 -0.5985373 -22.00702 -2.825303 -4.376782 -3.571816 -4.268038 4.342413 -3.570958 -4.268038 1.844043 -21.03952 -3.34885 -0.001007378 -0.7205737 5.139505 5.917623 -5.309983 4.881067 -0.001007378 -0.08183842 4.622632 -5.918653 -5.311155 4.881077 -0.2747038 -22.00702 2.825121 1.844053 -21.03952 3.34867 3.039013 -0.08154743 4.622632 -3.041033 -0.08212953 4.622632 -2.590513 -21.03992 2.783691 -1.882523 -22.35852 -0.9661232 -2.088423 -22.35852 -8.83092e-5 -2.088423 -22.35852 0.1291301 -5.600357 -18.82062 4.25993 -6.080567 -5.311156 4.622641 -5.602127 -0.9816195 4.259933 -5.278301 -0.9816196 3.872278 -5.278301 -0.9816196 3.74306 -5.270601 -1.411319 1.800343 -5.080477 -2.876688 -2.661288 -4.928108 -6.826791 -4.466628 -2.914339 -21.03992 -2.783871 -2.87912 -0.08212953 4.364195 -2.717208 -0.08212953 4.364195 2.8771 -0.08154743 4.364195 5.276481 -0.9805707 3.872278 5.276481 -0.9805707 3.74306 5.268871 -1.410259 1.800333 2.50662 -2.334049 -2.521512 2.344708 -2.334049 -2.521512 -2.519191 -2.334548 -2.521512 5.600306 -0.9805706 4.259933 6.079537 -5.309984 4.622631 5.602077 -18.81952 4.25993 1.572203 -22.35822 1.377146 2.089154 -22.35822 -8.91508e-5 2.089154 -22.35822 -0.1293075 2.914779 -21.03952 -2.783871 4.908077 -6.825872 -4.466628 5.059757 -2.875727 -2.661288 1.491762 -21.56092 2.735453 3.60839e-4 -22.35832 2.023314 -0.1615519 -22.35832 2.023314 -1.720611 -22.35852 -1.095342 -0.2092006 -22.35842 -2.017365 1.721331 -22.35822 -1.095342 -1.653123 -21.56122 -2.735625 -2.800653 -21.56132 1.587925 -5.092411 -2.162729 -0.4664828 -5.278301 -0.9816195 4.001496 1.653674 -21.56092 -2.735625 1.653674 -21.56092 2.735453 5.088081 -2.161709 -0.4664779 5.276481 -0.9805706 4.001496</float_array>
          <technique_common>
            <accessor source="#Cube_047-mesh-positions-array" count="98" stride="3">
              <param name="X" type="float"/>
              <param name="Y" type="float"/>
              <param name="Z" type="float"/>
            </accessor>
          </technique_common>
        </source>
        <source id="Cube_047-mesh-normals">
          <float_array id="Cube_047-mesh-normals-array" count="564">-0.893733 -0.04975056 -0.445832 -0.9993689 -0.03552383 0 -0.504767 -0.8632558 0 -0.6567194 -0.7489086 0.08863222 -0.9832618 0.1821988 0 4.60159e-7 1 -7.1222e-7 -0.9939497 0.1098374 0 3.68127e-7 1 0 -0.9832619 0.1821984 0 -0.9895992 0.09042572 -0.1118773 0.1693565 0.9624382 -0.2122055 -0.5165572 0.7998118 -0.3057281 -0.8052681 -0.2558364 -0.5348749 -0.3362899 -0.939027 -0.07167547 -0.365824 -0.1603708 -0.9167628 -0.3322768 -0.8430427 -0.4229318 -1.90142e-5 0.1982822 0.980145 0 1 -3.56111e-7 -0.3510538 0.9363553 0 -0.3510538 0.9363553 -7.20102e-7 0.2165637 0.9762685 1.56465e-7 0.3508693 0.9364246 0 0 0 1 0.3508682 0.936425 0 0.2760021 0.8391916 -0.4685939 0.218748 0.9189857 -0.3280469 0 0.9764023 -0.2159596 0 0.9492034 -0.3146631 -0.2761729 0.8391319 -0.4686004 0 0.9764009 -0.2159662 -8.59031e-5 0.8373383 -0.5466852 -0.1856215 0.9323146 -0.3103775 0.9832288 0.1823766 0 0.9939294 0.1100201 0 -3.68127e-7 1 0 -3.68128e-7 1 0 0.9982457 -0.05920851 0 0.533868 -0.8034386 0.2635745 0.9993761 -0.0353204 0 0.5703193 -0.8214231 0 0.8052002 -0.2548639 -0.535441 0.9812335 -0.1699235 -0.09114307 0.3756575 -0.9267586 0 0.2244322 -0.9207412 -0.3191643 0.9843329 0.08855211 -0.1524714 0.4118364 0.8724137 -0.2632209 0.3428878 0.3795529 -0.8592832 0 0.9509445 -0.3093619 0.1535313 -0.1584002 0.9753653 0.3201634 -0.8896358 0.3256434 0 -1 -6.10575e-6 0 -0.8624066 0.5062164 -0.2329757 -0.7680371 0.5965244 -0.9124519 -0.08113479 0.4010593 0 -1 1.78255e-4 -0.3252427 -0.8149143 0.4797207 -0.1643201 -0.7928777 -0.5868082 6.56223e-5 -1 0 0 -1 3.04857e-6 -0.337369 -0.8411198 -0.4227287 0.417142 -0.8787412 -0.2319625 0.9124475 -0.08113741 -0.4010693 1.03739e-4 -1 0 0.78258 -0.5466097 -0.2979707 0 -0.1650756 -0.986281 -0.1004903 -0.198868 -0.9748606 -0.1907462 -0.9304745 -0.3127831 -0.3838161 -0.82419 -0.4164084 -0.2133279 0.1071485 -0.9710872 -0.1415675 0.8725516 -0.4675602 -0.8716108 0.175557 -0.4576837 -0.1812395 0.9349128 -0.3051075 0.1304129 0.2237743 -0.9658766 0.8672035 0.1790583 -0.4646464 0 0.8160709 -0.5779519 0.1814858 0.9344611 -0.3063421 -0.2068725 -0.07484161 -0.9755012 0.2651842 -0.8384097 -0.4761791 0.869005 -0.06377661 0.4906761 0.2972089 -0.7709749 -0.5632624 -0.2238007 -0.0369234 0.9739353 -0.213141 -0.03990525 0.9762062 0.2394943 -0.856411 0.4573868 0 -0.761838 0.6477677 0.1405053 0.1258989 0.9820427 -9.57201e-5 1 6.00601e-5 0.8394327 0.1369779 0.5259181 0.2689697 0.902258 -0.337025 -6.00876e-5 0.6290526 0.7773628 -0.1910685 0.1530695 0.9695683 0 1 1.33541e-7 -0.3175287 0.9271466 -0.1989341 -0.07955771 -0.1482796 0.9857403 -0.3689294 -0.8693486 0.3288223 -0.8465881 -0.04433339 0.5303992 -0.393055 -0.8155641 0.4246917 -0.9982337 -0.05941122 0 -0.3700464 -0.05579131 0.9273365 -0.5036135 -0.8146662 0.2875634 -0.6995373 -0.7145961 0 -0.9832618 0.1821988 0 -0.3651214 0.1716207 0.9150043 3.68128e-7 1 0 -0.9742823 0.1574025 -0.1612409 -0.342896 0.3795045 -0.8593013 -0.1987677 0.9316591 -0.3041427 -0.9826512 -0.151537 -0.1069254 -0.4894517 -0.8370636 0.2444624 -0.9809362 -0.1713514 -0.09166699 -0.4192533 -0.8312582 -0.3650161 -0.2167518 0.9762268 1.56458e-7 -0.2201285 0.9356625 0.2758247 -0.2462931 0.1318171 0.9601895 -0.3510542 0.9363552 0 -1.87744e-5 0.1982914 0.9801432 0.2462531 0.1318291 0.9601982 0.2165635 0.9762686 -3.12931e-7 0.3508692 0.9364246 -1.44019e-6 -9.05872e-5 0.9463601 -0.3231141 0 0.8373833 -0.5466162 0.5263196 0.8193827 -0.227156 0.1850293 0.9323527 -0.3106165 -9.06192e-5 0.9463601 -0.323114 -0.5264655 0.819283 -0.227177 -0.2186559 0.9192458 -0.3273786 0 0.9492095 -0.3146449 0.9832286 0.1823776 0 0.3651174 0.1716876 0.9149932 -4.6016e-7 1 0 0.8935901 -0.04955786 -0.4461398 0.4961225 -0.8480473 0.1862215 0.3700434 -0.05571526 0.9273424 0.4111143 -0.7967072 0.4429927 0.9825063 -0.1508243 -0.1092403 0.365855 -0.1598518 -0.9168412 0.4896376 -0.8369621 0.2444371 0.3416395 -0.8611505 -0.376434 0.9803572 0.1740774 -0.09271997 -7.40076e-7 0.9764024 -0.2159591 0.9722846 0.1259517 -0.1969745 0 0.949204 -0.3146615 0.2030742 -0.9791634 0 0.4545467 -0.7613266 0.4623518 0.6237763 0 0.781603 -0.90233 0.3462783 -0.2566945 -0.2029327 -0.9791927 0 -1 -7.22163e-7 0 -0.303749 -0.8143543 0.494534 -0.4953486 -0.840967 0.2177251 -0.4659852 -0.8737847 -0.1391331 -0.5710026 4.05495e-7 -0.8209484 -0.9345518 -3.61102e-7 -0.3558271 0 -1 0 0.164431 -0.7928376 -0.5868314 1 -7.22161e-7 0 0.4782308 3.39613e-7 -0.8782343 -0.02807372 -0.1754339 -0.9840909 -0.8764489 -0.06773906 0.4767062 0 -0.9170213 -0.3988381 -0.383337 -0.9209415 0.07014119 -0.1296417 0.2236787 -0.9660025 -9.67209e-5 0.9430162 -0.3327469 -0.3360086 0.1139546 -0.9349399 -0.1612747 0.8780805 -0.4505167 0.2139018 0.1083349 -0.9708293 0.3394622 0.1159458 -0.9334464 0.1418026 0.8770706 -0.4589546 0.1614263 0.8774301 -0.4517279 0.02742844 -0.1763935 -0.9839375 0.1932634 -0.8939033 -0.4044579 0.4530246 -0.2400878 -0.8585609 -0.6752308 0.6520556 0.3448001 -0.0399757 -0.1074942 0.9934018 0.8465955 -0.0441609 0.5304017 0.2306282 -0.8026866 0.5500047 0.319612 -0.7685447 0.5542446 -6.03231e-5 0.6290527 0.7773627 -1.04052e-4 1 -3.26928e-5 0.191039 0.1531043 0.9695686 0.3173662 0.9272241 -0.198832 -0.1405341 0.1258756 0.9820415 -0.8394522 0.136824 0.5259272 -9.57588e-5 1 -1.19869e-4 -0.2690979 0.9021599 -0.3371853 0.04080533 -0.1085172 0.9932568 0 -0.915946 0.4013016 0.4211632 -0.03175336 0.9064289 -0.3252313 -0.8445433 0.4254072</float_array>
          <technique_common>
            <accessor source="#Cube_047-mesh-normals-array" count="188" stride="3">
              <param name="X" type="float"/>
              <param name="Y" type="float"/>
              <param name="Z" type="float"/>
            </accessor>
          </technique_common>
        </source>
        <vertices id="Cube_047-mesh-vertices">
          <input semantic="POSITION" source="#Cube_047-mesh-positions"/>
        </vertices>
        <polylist count="192">
          <input semantic="VERTEX" source="#Cube_047-mesh-vertices" offset="0"/>
          <input semantic="NORMAL" source="#Cube_047-mesh-normals" offset="1"/>
          <vcount>3 3 3 3 3 3 3 3 3 3 3 3 3 3 3 3 3 3 3 3 3 3 3 3 3 3 3 3 3 3 3 3 3 3 3 3 3 3 3 3 3 3 3 3 3 3 3 3 3 3 3 3 3 3 3 3 3 3 3 3 3 3 3 3 3 3 3 3 3 3 3 3 3 3 3 3 3 3 3 3 3 3 3 3 3 3 3 3 3 3 3 3 3 3 3 3 3 3 3 3 3 3 3 3 3 3 3 3 3 3 3 3 3 3 3 3 3 3 3 3 3 3 3 3 3 3 3 3 3 3 3 3 3 3 3 3 3 3 3 3 3 3 3 3 3 3 3 3 3 3 3 3 3 3 3 3 3 3 3 3 3 3 3 3 3 3 3 3 3 3 3 3 3 3 3 3 3 3 3 3 3 3 3 3 3 3 3 3 3 3 3 3 </vcount>
          <p>0 0 4 0 5 0 5 1 57 1 58 1 4 2 55 2 56 2 5 3 56 3 91 3 0 4 1 4 6 4 2 5 6 5 60 5 58 6 59 6 6 6 6 7 59 7 93 7 0 8 2 8 7 8 3 9 7 9 63 9 61 10 62 10 7 10 7 11 62 11 92 11 3 12 8 12 4 12 8 13 54 13 55 13 3 14 64 14 65 14 65 15 90 15 54 15 9 16 13 16 14 16 14 17 66 17 67 17 61 18 60 18 14 18 14 19 60 19 93 19 9 20 10 20 15 20 15 21 69 21 70 21 10 22 67 22 68 22 15 23 68 23 97 23 11 24 16 24 12 24 12 25 16 25 72 25 70 26 71 26 16 26 16 27 71 27 96 27 12 28 17 28 13 28 17 29 62 29 61 29 12 30 73 30 74 30 17 31 74 31 92 31 18 32 22 32 23 32 23 33 75 33 76 33 22 34 70 34 69 34 23 35 69 35 97 35 18 36 19 36 24 36 20 37 24 37 78 37 76 38 77 38 24 38 24 39 77 39 95 39 20 40 25 40 21 40 21 41 25 41 81 41 79 42 80 42 25 42 25 43 80 43 94 43 18 44 21 44 26 44 22 45 26 45 71 45 21 46 82 46 83 46 26 47 83 47 96 47 31 48 32 48 28 48 32 49 84 49 85 49 79 50 78 50 32 50 78 51 95 51 84 51 28 52 33 52 29 52 29 53 33 53 56 53 85 54 86 54 33 54 33 55 86 55 91 55 27 56 29 56 34 56 34 57 87 57 88 57 55 58 54 58 34 58 54 59 90 59 87 59 27 60 30 60 35 60 31 61 35 61 80 61 88 62 89 62 35 62 89 63 94 63 80 63 40 64 41 64 37 64 37 65 41 65 65 65 88 66 87 66 41 66 41 67 87 67 90 67 36 68 37 68 42 68 38 69 42 69 74 69 64 70 63 70 42 70 63 71 92 71 74 71 36 72 38 72 43 72 43 73 83 73 82 73 73 74 72 74 43 74 72 75 96 75 83 75 39 76 44 76 40 76 40 77 44 77 89 77 39 78 82 78 81 78 44 79 81 79 94 79 49 80 50 80 46 80 46 81 50 81 77 81 49 82 85 82 84 82 50 83 84 83 95 83 45 84 46 84 51 84 47 85 51 85 68 85 46 86 76 86 75 86 51 87 75 87 97 87 45 88 47 88 52 88 48 89 52 89 59 89 67 90 66 90 52 90 52 91 66 91 93 91 48 92 53 92 49 92 49 93 53 93 86 93 48 94 58 94 57 94 53 95 57 95 91 95 1 96 0 96 5 96 1 97 5 97 58 97 5 98 4 98 56 98 57 99 5 99 91 99 2 100 0 100 6 100 61 7 2 7 60 7 1 101 58 101 6 101 60 102 6 102 93 102 3 103 0 103 7 103 64 104 3 104 63 104 2 102 61 102 7 102 63 105 7 105 92 105 0 106 3 106 4 106 4 107 8 107 55 107 8 108 3 108 65 108 8 109 65 109 54 109 10 110 9 110 14 110 10 111 14 111 67 111 13 112 61 112 14 112 66 113 14 113 93 113 11 114 9 114 15 114 11 115 15 115 70 115 15 116 10 116 68 116 69 117 15 117 97 117 9 118 11 118 12 118 73 119 12 119 72 119 11 120 70 120 16 120 72 121 16 121 96 121 9 122 12 122 13 122 13 123 17 123 61 123 17 124 12 124 74 124 62 125 17 125 92 125 19 126 18 126 23 126 19 127 23 127 76 127 23 128 22 128 69 128 75 34 23 34 97 34 20 129 18 129 24 129 79 130 20 130 78 130 19 131 76 131 24 131 78 132 24 132 95 132 18 133 20 133 21 133 82 134 21 134 81 134 20 135 79 135 25 135 81 136 25 136 94 136 22 137 18 137 26 137 70 138 22 138 71 138 26 139 21 139 83 139 71 140 26 140 96 140 27 141 31 141 28 141 28 142 32 142 85 142 31 143 79 143 32 143 32 144 78 144 84 144 27 145 28 145 29 145 55 146 29 146 56 146 28 147 85 147 33 147 56 148 33 148 91 148 30 149 27 149 34 149 30 150 34 150 88 150 29 151 55 151 34 151 34 152 54 152 87 152 31 153 27 153 35 153 79 154 31 154 80 154 30 155 88 155 35 155 35 152 89 152 80 152 36 156 40 156 37 156 64 157 37 157 65 157 40 158 88 158 41 158 65 159 41 159 90 159 38 160 36 160 42 160 73 161 38 161 74 161 37 162 64 162 42 162 42 163 63 163 74 163 39 164 36 164 43 164 39 165 43 165 82 165 38 166 73 166 43 166 43 167 72 167 83 167 36 168 39 168 40 168 88 169 40 169 89 169 44 170 39 170 81 170 89 171 44 171 94 171 45 172 49 172 46 172 76 173 46 173 77 173 50 174 49 174 84 174 77 175 50 175 95 175 47 176 45 176 51 176 67 177 47 177 68 177 51 178 46 178 75 178 68 179 51 179 97 179 48 180 45 180 52 180 58 181 48 181 59 181 47 182 67 182 52 182 59 183 52 183 93 183 45 184 48 184 49 184 85 185 49 185 86 185 53 186 48 186 57 186 86 187 53 187 91 187</p>
        </polylist>
      </mesh>
    </geometry>
  </library_geometries>
  <library_controllers/>
  <library_visual_scenes>
    <visual_scene id="Scene" name="Scene">
      <node id="COL_VIZ_RightFingerJoint32y_link_0" name="COL_VIZ_RightFingerJoint32y_link_0" type="NODE">
        <instance_geometry url="#Cube_047-mesh" name="COL_VIZ_RightFingerJoint32y_link_0"/>
      </node>
    </visual_scene>
  </library_visual_scenes>
  <scene>
    <instance_visual_scene url="#Scene"/>
  </scene>
</COLLADA>