<?xml version="1.0" encoding="utf-8"?>
<COLLADA xmlns="http://www.collada.org/2005/11/COLLADASchema" version="1.4.1">
  <asset>
    <contributor>
      <author>Blender User</author>
      <authoring_tool>Blender 2.76.0 commit date:2015-11-03, commit time:10:56, hash:f337fea</authoring_tool>
    </contributor>
    <created>2017-01-25T08:36:05</created>
    <modified>2017-01-25T08:36:05</modified>
    <unit name="meter" meter="1"/>
    <up_axis>Z_UP</up_axis>
  </asset>
  <library_images/>
  <library_geometries>
    <geometry id="Cube_003-mesh" name="Cube.003">
      <mesh>
        <source id="Cube_003-mesh-positions">
          <float_array id="Cube_003-mesh-positions-array" count="294">-19.3187 34.5903 -4.625625 -19.84659 27.5135 0.1876882 -21.66769 35.76429 -4.625625 -15.7056 27.5135 -19.6893 -13.752 -4.802489 -5.770641 -13.3577 -3.731829 0.5214653 -17.5696 35.17729 3.461407 -15.0682 35.17729 -23.8837 -9.890201 -4.802487 -19.0406 1.266599 36.93829 11.95061 1.2666 34.5903 11.95061 20.8793 36.93829 -8.545778 -3.77917 34.5903 -28.88279 -20.8793 36.93829 -8.652694 -16.98235 35.76429 3.461407 16.91995 35.76429 3.550217 13.9732 34.5903 -23.19149 -10.8946 34.5903 -25.811 19.2968 34.5903 -4.520844 20.50229 34.59029 0.5879318 15.1855 -0.2087566 -8.558032 19.3187 34.5903 -12.57279 21.66769 35.76429 -12.57279 19.3278 35.17729 -0.02867972 12.8009 -5.389488 0.2270177 11.6709 -4.802547 -16.7457 20.4932 35.17729 -13.1894 0.6419563 -4.802491 6.056714 -0.04179161 -3.144831 6.775589 -15.81719 -5.492825 -8.63896 0.04178345 -3.144826 -23.974 15.81719 -5.492825 -8.559514 11.6264 -4.80249 -0.3895938 -9.946825 -4.802491 1.788289 -9.890201 -4.802487 -19.0406 11.6709 -4.802547 -16.7457 0.05623525 34.5903 -29.28929 -11.48185 34.59029 -27.04422 0.05623519 35.17729 -30.52251 8.167348 34.59029 -28.89552 0.04002583 -5.389544 -24.56072 -8.09586 -3.144826 -21.3893 -7.47633 34.5903 -27.70319 13.9732 34.5903 -23.19149 8.165245 -3.144826 -21.3452 -0.05407464 27.5135 13.76294 11.48185 34.59029 9.845778 -0.05623269 35.17729 13.32403 -8.167348 34.59029 11.69703 -0.04003459 -5.38949 7.362221 8.342648 -5.38949 4.886252 11.48185 35.17729 9.845778 -7.5801 34.5903 10.46381 -8.409109 -5.38949 4.843992 -11.6265 -4.802487 -16.8089 -13.5217 -3.144829 -2.761981 -14.6962 -4.318827 -2.145369 -11.558 -3.731829 3.477492 -14.6112 27.5135 6.665987 -13.9732 34.5903 5.993045 -13.9732 34.5903 5.993045 -19.3187 34.5903 -4.625625 -13.8937 34.5903 -23.26709 -15.0682 35.17729 -24.50031 -13.8937 34.5903 -23.26709 -11.0647 -5.389485 -20.27382 -7.5801 34.5903 10.46381 -0.05623269 34.5903 12.09081 7.47633 34.5903 10.50471 18.1533 34.5903 -0.6452913 19.2968 34.5903 -4.520844 19.3187 34.5903 -12.57279 7.5801 34.5903 -27.6623 0.05623519 35.76429 -30.52251 -0.5310136 35.76429 -30.52251 13.8937 34.5903 6.068625 15.0682 34.59029 7.301847 12.8009 -5.389488 0.8436293 12.8009 -5.976488 0.2270177 13.4897 -3.144829 -2.688661 11.6709 -4.802547 -16.7457 12.8454 -5.389545 -17.97892 13.9732 34.5903 -23.19149 15.1477 35.17729 -24.42471 5.55569 -3.144831 5.596909 5.55569 -3.144831 5.596909 -5.63276 -3.144831 5.566569 -8.09586 -3.144826 -21.3893 0.04002583 -4.802546 -23.3275 8.165245 -3.144826 -21.3452 -9.890201 -4.802487 -19.0406 -9.946825 -4.802491 1.788289 -13.8937 34.5903 -23.26709 -13.9732 34.5903 5.993045 11.6709 -4.802547 -16.7457 10.3243 -3.14483 2.300479 13.9732 34.5903 -23.19149 13.8937 34.5903 6.068625</float_array>
          <technique_common>
            <accessor source="#Cube_003-mesh-positions-array" count="98" stride="3">
              <param name="X" type="float"/>
              <param name="Y" type="float"/>
              <param name="Z" type="float"/>
            </accessor>
          </technique_common>
        </source>
        <source id="Cube_003-mesh-normals">
          <float_array id="Cube_003-mesh-normals-array" count="474">-0.9748486 -0.2014337 0.09536612 -0.8462984 -0.1352771 0.5152467 -0.6526673 0.7395031 0.1648048 -0.4035772 -0.8298953 0.3852266 -0.9600235 0.2028256 0.1929166 0.2432468 0.9622038 -0.1224534 -0.5567877 0.1282376 0.8206964 0 0 1 -0.942457 -0.09676194 -0.3200187 -0.447061 -0.8945036 0 0.3951326 0.9113986 0.1149908 -0.9452439 -0.1756225 -0.2750833 2.95143e-7 1 3.96751e-7 -0.7925565 -0.1011054 -0.6013585 -0.1264331 0.982622 0.1358992 -0.03554153 0.9767363 0.211478 -0.5394196 -0.7970502 0.2715467 0.4728631 0 0.881136 0.959115 -0.003721535 0.2829922 0 -1 5.85713e-5 0.544822 0.2863137 0.7881584 0.05939418 0.9808925 -0.1852629 0 1 -7.10001e-7 0.8310313 -0.5562211 0.002260327 -0.07737827 0.9807581 -0.179238 -0.2160485 0.942575 -0.2547065 0 0.8130817 0.5821497 0.2283992 -0.9355902 0.2692676 0.6732204 -0.7337912 0.09124058 -0.05208188 0.9974099 0.04960662 -0.394456 0.9115145 -0.1163871 0.9702315 -0.188273 0.1523296 0.9732114 0 0.2299124 0.9983958 -0.05662018 0 -0.2433171 -0.7025173 0.6687796 0.9361863 -0.1479781 -0.3188379 0.7381894 0.06669843 0.6712882 0.8274983 -0.559967 -0.04103189 0.4470614 -0.8945033 0 -0.4470614 0.8945033 0 0.3126685 -0.9381413 -0.1487594 -0.3126685 0.9381413 0.1487593 0.07025772 -0.9903188 0.1197184 0.06976068 -0.9409468 0.3312895 -0.2845921 -0.6532307 -0.7016388 -0.7238634 -0.6861314 0.07242542 -0.3267033 -0.486229 0.8104606 0.4056822 -0.7088918 -0.57697 0 1 0 0.1834897 -0.9822331 0.03936588 -0.2116381 -0.7150025 -0.6663188 -0.4657059 0.8693407 -0.1654226 -0.1304091 -0.9913052 -0.01753711 -0.288625 0.3481432 0.8919036 -0.3868221 -0.1081571 -0.9157897 -0.2886834 -0.09177929 -0.9530155 -4.35465e-6 1 -6.58923e-5 -0.3116573 -0.311787 -0.8975849 -0.2819506 -0.9423857 -0.1800364 0.1873327 0.9441736 0.271003 0.09017992 0.9916864 -0.09179192 0.3553442 0 -0.9347356 0.0475493 -0.1959792 -0.9794546 0.5396048 -0.123798 -0.832767 -0.4384138 -0.8987149 0.01024121 0.2784703 -0.1832859 0.942794 0.6635261 -0.1558331 0.731744 -0.5194066 -0.4070087 -0.7513726 0.2886291 0 0.9574411 -0.2150967 0.6668071 -0.7135138 0.09680873 0.9910239 -0.09219473 -0.06588417 0.9973342 -0.03136664 -1.62277e-6 1 2.90379e-6 -0.3685101 -0.1548933 0.9166288 0.2878026 -0.04807323 -0.9564825 -0.453102 -0.1342097 0.8812982 -0.4915243 -0.8671094 0.08077776 -0.9490623 -0.1257164 -0.2889224 -0.7686138 -0.152987 0.6211503 0.9977494 -0.03636461 -0.05633747 -0.366401 -0.9033208 0.2230737 -0.4413334 -0.8830454 0.1595489 0.4413334 0.8830454 -0.1595489 -0.7772259 -0.03738582 0.6281101 -0.4266497 -0.8536639 0.2987107 0.2055033 -0.4829501 -0.8511919 0.4435567 0.8874937 0.1249499 0.4470618 0.8945031 0 -0.9761416 -0.1329512 -0.1716731 0.8853949 -0.4324458 0.1704894 -0.6929416 -0.1103956 0.7124919 -0.4217845 0 0.9066962 -0.9476426 -0.1283424 0.292407 -0.5491713 0.285834 0.7853087 0.150772 0.9779844 0.1442719 0.94616 -0.1281105 0.2972693 0.05571913 0.9693464 0.2392971 0.5889494 -0.7166038 0.3736546 -0.05307608 0.9972982 -0.05078774 -0.0532841 0.8667307 0.4959221 0.8794595 0.1747773 -0.4427233 0.06020873 0.9960857 -0.06471669 -0.6403061 -0.7451748 -0.1863405 0.3896862 0.1825823 0.9026674 0.4921496 0.8627297 -0.1161301 0.3197053 0.9114995 0.2587612 -0.6732204 0.7337912 -0.0912407 -0.3426518 0.9139638 -0.2173936 0.9694955 -0.08799993 -0.2287673 -0.9175897 -0.1792912 -0.3548012 0.7680799 -0.153569 0.6216671 1 0 0 0.9930531 -0.1176367 0.002700924 0.8862251 -0.1247946 -0.4461296 0.4470604 -0.894503 0.001215934 -0.4470604 0.894503 -0.001215934 0.3614892 -0.9144455 -0.1819758 -0.3614892 0.9144455 0.1819758 0.4993654 -0.1630369 0.8509131 0.8355058 -0.3085824 0.4546505 0.4251413 -0.6640928 0.6150087 -0.03437608 -0.9957641 0.08527755 -0.7846643 -0.4058281 0.468621 -0.1082152 -0.8589887 0.500428 0.09233754 -0.9941111 -0.0567193 0.2837824 0.3481422 0.8934565 -0.2955707 -0.9272309 -0.2299583 -0.09620791 -0.9939523 -0.05294239 0.4663206 0.8694927 -0.1628733 0.1383151 -0.8934106 -0.4274184 -0.1884718 -0.1620665 -0.9686139 -0.8327224 -0.1544041 -0.5317265 -0.08131891 -0.8999409 0.4283615 0.5609912 -0.8147627 -0.1464605 -0.09012889 -0.899258 -0.4280327 0 0 -1 -0.04728221 0.9566418 -0.287404 -0.3323051 0.8114672 -0.4807227 0.02085924 -0.9027343 -0.4296925 -0.1638103 -0.9582763 0.234249 0.3915261 -0.1082349 -0.9137793 0.07911485 -0.9001014 0.428437 0.6937893 -0.1413351 -0.7061734 0.3960536 -0.1436032 0.9069288 0.5724432 -0.1450585 0.8070111 -0.2829423 -0.04801881 -0.9579342 -0.6500631 -0.251946 -0.7168969 0.2907495 0.0547887 0.9552293 -0.09012866 0.8992558 -0.4280373 0.5785624 0 0.8156381 -0.1821758 0.9472891 -0.2635437 -0.2002548 0.0559628 0.9781444 -0.694883 0.1299034 0.7072926 0.09253901 0.8990547 -0.4279454 -0.2832568 -0.1832494 0.9413743 0.002124488 -0.6214447 -0.7834552 -0.5070221 -0.142643 0.850048 0.6310098 -0.6387562 -0.4402468</float_array>
          <technique_common>
            <accessor source="#Cube_003-mesh-normals-array" count="158" stride="3">
              <param name="X" type="float"/>
              <param name="Y" type="float"/>
              <param name="Z" type="float"/>
            </accessor>
          </technique_common>
        </source>
        <vertices id="Cube_003-mesh-vertices">
          <input semantic="POSITION" source="#Cube_003-mesh-positions"/>
        </vertices>
        <polylist count="192">
          <input semantic="VERTEX" source="#Cube_003-mesh-vertices" offset="0"/>
          <input semantic="NORMAL" source="#Cube_003-mesh-normals" offset="1"/>
          <vcount>3 3 3 3 3 3 3 3 3 3 3 3 3 3 3 3 3 3 3 3 3 3 3 3 3 3 3 3 3 3 3 3 3 3 3 3 3 3 3 3 3 3 3 3 3 3 3 3 3 3 3 3 3 3 3 3 3 3 3 3 3 3 3 3 3 3 3 3 3 3 3 3 3 3 3 3 3 3 3 3 3 3 3 3 3 3 3 3 3 3 3 3 3 3 3 3 3 3 3 3 3 3 3 3 3 3 3 3 3 3 3 3 3 3 3 3 3 3 3 3 3 3 3 3 3 3 3 3 3 3 3 3 3 3 3 3 3 3 3 3 3 3 3 3 3 3 3 3 3 3 3 3 3 3 3 3 3 3 3 3 3 3 3 3 3 3 3 3 3 3 3 3 3 3 3 3 3 3 3 3 3 3 3 3 3 3 3 3 3 3 3 3 </vcount>
          <p>4 0 5 0 1 0 5 1 57 1 58 1 55 2 56 2 5 2 5 3 56 3 91 3 0 4 1 4 6 4 6 5 60 5 61 5 58 6 59 6 6 6 59 7 93 7 60 7 2 8 7 8 3 8 7 9 63 9 64 9 61 10 62 10 7 10 7 7 62 7 92 7 3 11 8 11 4 11 4 12 8 12 54 12 3 13 64 13 65 13 8 7 65 7 90 7 9 14 13 14 14 14 10 15 14 15 66 15 61 16 60 16 14 16 14 7 60 7 93 7 9 17 10 17 15 17 15 18 69 18 70 18 10 19 67 19 68 19 15 20 68 20 97 20 11 21 16 21 12 21 12 22 16 22 72 22 11 23 70 23 71 23 16 7 71 7 96 7 12 24 17 24 13 24 13 25 17 25 62 25 12 26 73 26 74 26 17 27 74 27 92 27 18 28 22 28 23 28 23 29 75 29 76 29 70 30 69 30 23 30 69 7 97 7 75 7 19 31 24 31 20 31 24 32 78 32 79 32 76 33 77 33 24 33 77 34 95 34 78 34 20 35 25 35 21 35 25 36 81 36 82 36 20 37 79 37 80 37 25 7 80 7 94 7 21 38 26 38 22 38 22 39 26 39 71 39 82 40 83 40 26 40 26 41 83 41 96 41 27 42 31 42 32 42 28 43 32 43 84 43 79 44 78 44 32 44 32 45 78 45 95 45 27 46 28 46 33 46 33 47 56 47 55 47 28 48 85 48 86 48 33 7 86 7 91 7 29 49 34 49 30 49 30 50 34 50 87 50 29 51 55 51 54 51 34 7 54 7 90 7 30 52 35 52 31 52 31 7 35 7 80 7 30 53 88 53 89 53 35 7 89 7 94 7 36 54 40 54 41 54 41 55 65 55 64 55 88 7 87 7 41 7 41 7 87 7 90 7 36 56 37 56 42 56 38 57 42 57 74 57 37 58 64 58 63 58 42 59 63 59 92 59 38 60 43 60 39 60 43 7 83 7 82 7 38 61 73 61 72 61 43 7 72 7 96 7 36 62 39 62 44 62 44 7 89 7 88 7 82 63 81 63 44 63 44 64 81 64 94 64 45 65 49 65 50 65 50 66 77 66 76 66 85 7 84 7 50 7 50 67 84 67 95 67 46 68 51 68 47 68 47 69 51 69 68 69 76 70 75 70 51 70 51 7 75 7 97 7 47 71 52 71 48 71 48 72 52 72 59 72 67 7 66 7 52 7 66 7 93 7 59 7 45 73 48 73 53 73 49 74 53 74 86 74 58 75 57 75 53 75 53 76 57 76 91 76 0 77 4 77 1 77 1 78 5 78 58 78 4 79 55 79 5 79 57 80 5 80 91 80 2 81 0 81 6 81 2 82 6 82 61 82 1 83 58 83 6 83 6 7 59 7 60 7 0 84 2 84 3 84 3 85 7 85 64 85 2 86 61 86 7 86 63 87 7 87 92 87 0 88 3 88 4 88 55 89 4 89 54 89 8 90 3 90 65 90 54 7 8 7 90 7 10 91 9 91 14 91 67 48 10 48 66 48 13 92 61 92 14 92 66 93 14 93 93 93 11 94 9 94 15 94 11 95 15 95 70 95 15 96 10 96 68 96 69 97 15 97 97 97 9 98 11 98 12 98 73 99 12 99 72 99 16 100 11 100 71 100 72 7 16 7 96 7 9 101 12 101 13 101 61 102 13 102 62 102 17 103 12 103 74 103 62 7 17 7 92 7 19 104 18 104 23 104 19 105 23 105 76 105 22 106 70 106 23 106 23 107 69 107 75 107 18 108 19 108 20 108 20 109 24 109 79 109 19 110 76 110 24 110 24 111 77 111 78 111 18 112 20 112 21 112 21 113 25 113 82 113 25 7 20 7 80 7 81 7 25 7 94 7 18 114 21 114 22 114 70 115 22 115 71 115 21 116 82 116 26 116 71 117 26 117 96 117 28 118 27 118 32 118 85 7 28 7 84 7 31 119 79 119 32 119 84 120 32 120 95 120 29 121 27 121 33 121 29 122 33 122 55 122 33 123 28 123 86 123 56 7 33 7 91 7 27 124 29 124 30 124 88 125 30 125 87 125 34 126 29 126 54 126 87 7 34 7 90 7 27 127 30 127 31 127 79 128 31 128 80 128 35 129 30 129 89 129 80 7 35 7 94 7 37 130 36 130 41 130 37 131 41 131 64 131 40 132 88 132 41 132 65 133 41 133 90 133 38 134 36 134 42 134 73 135 38 135 74 135 42 136 37 136 63 136 74 137 42 137 92 137 36 138 38 138 39 138 39 7 43 7 82 7 43 139 38 139 72 139 83 7 43 7 96 7 40 140 36 140 44 140 40 141 44 141 88 141 39 142 82 142 44 142 89 7 44 7 94 7 46 143 45 143 50 143 46 144 50 144 76 144 49 145 85 145 50 145 77 146 50 146 95 146 45 147 46 147 47 147 67 148 47 148 68 148 46 149 76 149 51 149 68 150 51 150 97 150 45 151 47 151 48 151 58 152 48 152 59 152 47 153 67 153 52 153 52 7 66 7 59 7 49 154 45 154 53 154 85 155 49 155 86 155 48 156 58 156 53 156 86 157 53 157 91 157</p>
        </polylist>
      </mesh>
    </geometry>
  </library_geometries>
  <library_controllers/>
  <library_visual_scenes>
    <visual_scene id="Scene" name="Scene">
      <node id="COL_VIZ_BUNsegment_link_0" name="COL_VIZ_BUNsegment_link_0" type="NODE">
        <instance_geometry url="#Cube_003-mesh" name="COL_VIZ_BUNsegment_link_0"/>
      </node>
    </visual_scene>
  </library_visual_scenes>
  <scene>
    <instance_visual_scene url="#Scene"/>
  </scene>
</COLLADA>