<?xml version="1.0" encoding="utf-8"?>
<COLLADA xmlns="http://www.collada.org/2005/11/COLLADASchema" version="1.4.1">
  <asset>
    <contributor>
      <author>Blender User</author>
      <authoring_tool>Blender 2.76.0 commit date:2015-11-03, commit time:10:56, hash:f337fea</authoring_tool>
    </contributor>
    <created>2017-01-25T08:36:06</created>
    <modified>2017-01-25T08:36:06</modified>
    <unit name="meter" meter="1"/>
    <up_axis>Z_UP</up_axis>
  </asset>
  <library_images/>
  <library_geometries>
    <geometry id="Cube_012-mesh" name="Cube.012">
      <mesh>
        <source id="Cube_012-mesh-positions">
          <float_array id="Cube_012-mesh-positions-array" count="294">-6.403428 -3.86046 4.335942 -6.403428 -3.86046 4.723594 -5.600479 -0.1826393 3.973243 -5.231978 -5.135591 -4.107151 -3.442441 -18.5795 -0.3328368 -3.442441 -18.5795 0.5915166 -5.600479 -0.1826393 4.231678 -5.412049 -1.176153 -0.2362748 -3.442441 -18.5795 -0.5912719 -2.715373 1.146872 4.335933 -2.715373 1.146872 4.594368 3.040804 1.146288 4.335933 2.716985 1.146288 4.077498 -3.039192 1.146872 4.335933 -3.039192 1.146872 4.594368 3.040804 1.146288 4.594368 3.040804 1.146288 4.077498 -4.736032 -1.203515 -2.172636 6.40421 -3.861629 4.335942 6.40421 -3.861629 4.723594 3.441843 -18.5801 -0.3328368 5.2518 -5.13651 -4.107151 5.601922 -0.1837032 3.973243 5.601922 -0.1837032 4.231678 5.600431 -15.2614 4.231678 3.479273 -18.0587 -1.778286 5.080273 -1.777774 -2.172636 0.139352 -20.19721 -1.173012 0.2091681 -19.95041 2.01737 -1.161038 -19.95021 -1.558891 -0.8372194 -19.95021 -1.817326 1.882454 -19.95051 -0.8366964 0.8003538 -19.95041 1.96915 -0.8011445 -19.95031 1.96915 -0.8011434 -19.95031 -1.968906 1.882454 -19.95051 -1.095131 0.001649081 -4.993589 -5.339339 -4.899771 -7.721519 -4.621284 0.003294587 -1.696399 -4.778703 4.899723 -7.722469 -4.621284 -3.45654e-4 -19.31235 -3.091536 -1.653662 -18.5796 -2.993791 -4.342522 -2.361584 -4.037829 4.376593 -2.362513 -4.037829 1.653064 -18.5799 -2.993791 8.0524e-4 -3.69079e-5 5.369673 5.918482 -3.86163 5.111247 -2.715373 0.8602175 5.111238 -5.9177 -3.86046 5.111247 -3.46916e-4 -19.31235 3.09178 0.3234719 -19.0257 2.833345 3.040804 0.5729797 4.852803 -3.039192 0.5735632 4.852803 -1.844042 -18.0582 3.348865 -1.161038 -19.3769 -1.688109 -2.40683 -19.95011 -0.2094388 -2.083012 -19.3768 -0.08022129 -5.601969 -15.2603 4.490113 -6.07961 -3.86046 4.852812 -5.600479 -0.1826393 4.490113 -5.27666 -0.1826394 4.102461 -5.600479 0.3906692 3.973243 -5.27666 -0.1826394 3.844026 -4.66634 -2.361584 -4.037829 -5.06168 -7.72152 -4.362849 -2.91476 -18.0582 -2.783632 -3.039192 1.146872 4.852803 -2.715373 1.146872 4.852803 3.040804 1.146288 4.852803 5.278103 -0.1837033 4.102461 5.601922 0.3896054 3.973243 5.278103 -0.1837033 3.844026 4.756454 -1.204465 -2.431071 4.432635 -1.204465 -2.431071 -4.736032 -1.203515 -2.431071 5.601922 -0.1837032 4.490113 6.080392 -3.86163 4.852812 5.600431 -15.2614 4.490113 2.082244 -19.3772 0.3389021 2.406063 -19.95051 0.2096846 2.082244 -19.3772 0.08046704 2.914283 -18.0586 -2.783632 5.061633 -7.72247 -4.362849 4.700411 -2.362513 -4.037829 0.8003538 -19.95041 2.227585 0.476535 -19.95041 2.227585 -0.8011445 -19.95031 2.227585 -0.8011434 -19.95031 -2.227341 -3.8352e-4 -19.95031 -2.281701 1.160242 -19.95051 -2.075761 -2.801222 -18.5795 -1.587857 -2.306982 -18.5795 2.24142 -4.736032 -1.776823 -2.172636 -5.27666 -0.1826394 4.231678 2.800574 -18.58 -1.587857 2.306384 -18.58 2.24142 4.756454 -1.777774 -2.172636 5.278103 -0.1837033 4.231678</float_array>
          <technique_common>
            <accessor source="#Cube_012-mesh-positions-array" count="98" stride="3">
              <param name="X" type="float"/>
              <param name="Y" type="float"/>
              <param name="Z" type="float"/>
            </accessor>
          </technique_common>
        </source>
        <source id="Cube_012-mesh-normals">
          <float_array id="Cube_012-mesh-normals-array" count="570">-0.9803602 -0.1972161 0 -0.8921301 -0.05353295 -0.4485959 -0.2314494 -0.08764898 0.9688906 -0.3865015 -0.8831006 0.2659888 -0.9769874 0.2132974 0 0 1 0 -0.9916207 0.129184 0 1.84069e-7 1 0 -0.9747157 0.2037564 -0.09172081 -0.9479553 0.1994954 -0.2481582 -0.3706217 5.96396e-7 -0.9287839 0.1669523 0.9566882 -0.2384839 -0.9912567 -0.1319478 0 -0.5094674 -0.5656054 -0.6484856 -0.9304981 -0.2360555 -0.2800915 -0.4832235 -0.8184309 -0.3109117 0 1 0 0 1 7.1224e-7 -0.174319 0.121775 0.9771304 -0.510823 0.8596859 7.08926e-7 1.01354e-4 1 -6.41083e-7 0.5109928 0.8595851 -3.54448e-7 1.01354e-4 1 0 0.5109931 0.8595848 3.54449e-7 0 0.9405341 -0.3396996 -0.06207853 0.2526889 -0.9655541 0.9964106 -0.03478872 -0.07717275 -0.01499682 0.9416877 -0.3361542 -0.470701 0.8619127 -0.1885398 1.03624e-4 1 0 -1 -1.60916e-6 0 0.977025 0.2131248 0 0.991644 0.1290053 0 0.3706258 0 0.9287824 -1.84067e-7 1 1.7806e-7 0.9975236 -0.07033354 0 0.5843327 -0.7624149 0.2779906 0.9991149 -0.04206514 0 0.7097268 -0.7044771 0 0.9897986 -0.1402695 -0.02496683 0.844529 -0.2479705 -0.4746384 -0.1227762 -0.283697 -0.9510216 0.5795942 -0.8037288 -0.1345015 0.9781764 0.1389362 -0.1544916 0.1029157 0.9606728 -0.2579075 0.2611144 0.07595068 -0.9623154 0 0.9542076 -0.2991454 0.1304276 -0.9901793 0.05033648 0 -1 0 -0.7648193 -0.5182481 0.3827146 0.6304172 -0.739624 0.2356494 -0.003782868 -0.9970078 0.07720983 -0.470867 -0.880897 0.04800826 -7.76267e-5 -1 9.94197e-5 -0.6731743 -0.739484 0 6.44653e-4 -0.9999995 8.035e-4 0.002749204 0.9999963 0 -0.7263298 -0.1511289 -0.6705261 -0.3285347 -0.7482318 0.5763803 0.1418066 -0.833266 -0.534377 0.9443022 -0.3290798 0 -1.59463e-4 -1 -7.50816e-5 0.64335 -0.6013322 -0.4738149 -0.1406877 -0.1877635 -0.9720864 -0.246495 -0.2153235 -0.9449212 -0.04197156 -0.7848452 -0.618269 -0.5945587 -0.6411215 -0.4852457 -0.212923 0.1275846 -0.9687033 -0.2202704 0.7649354 -0.6052726 -0.8436524 0.09427678 -0.5285475 -0.9993559 -0.01474857 -0.03271633 0.1890597 0.1645137 -0.9680867 0 0.108215 -0.9941275 0 0.8112515 -0.5846973 0.9995833 -0.01186311 -0.02631521 0.140649 -0.187771 -0.9720905 0.3107781 -0.6035522 -0.7342628 0.8207195 -0.2490668 -0.5141839 0.4070411 -0.8508268 -0.3322821 0.755671 -0.3609154 0.5465357 -0.2699657 -0.04487442 0.9618237 0 -0.5479751 0.8364948 0.3423721 -0.3849074 0.8571042 0.1387764 0.1471284 0.9793337 0.0448516 0 0.9989938 0.8364406 0.1604923 0.524032 0.2327959 0.9277505 -0.2916939 -0.2352302 -0.49067 0.8389933 -0.1896573 0.1793884 0.9653238 0 0.6696026 0.7427195 -0.2674863 0 0.9635617 0.06781286 -0.1037175 0.9922924 -0.3094078 -0.6052051 0.7334805 -0.8462646 -0.05232608 0.5301871 -0.401645 -0.7524108 0.5220723 -0.9803601 -0.1972164 0 -0.3702507 -0.04503333 0.9278398 -0.5059055 -0.8625891 0 -0.5268896 -0.7687035 0.3626047 -0.9769873 0.2132982 0 -0.3706263 0 0.9287822 -0.3630613 0.200958 0.9098365 1.84067e-7 1 1.78059e-7 -0.9828852 0.1039725 -0.1520745 -0.2633787 0.07773387 -0.9615557 -0.09283548 0.9681203 -0.2326468 -0.0101183 0.954048 -0.2994833 -0.980486 -0.161844 -0.1115963 -0.7978565 -0.6028475 0 -0.979671 -0.08259403 0.1828195 -0.4336102 -0.8568214 -0.278997 0 1 -7.12241e-7 -0.510827 0.8596836 -3.54462e-7 -0.510828 0.859683 3.54462e-7 1.01354e-4 1 0 0.1743481 0.1217578 0.9771273 1.01354e-4 1 6.41083e-7 0.5109907 0.8595863 0 1.01354e-4 1 -1.27255e-4 0 0.9405335 -0.3397009 0.5109906 0.8595864 0 0.4887828 0.8537375 -0.1795088 0 0.9999976 -0.002256333 0.06211566 0.2527078 -0.9655467 -0.009539902 0.9396849 -0.3419084 -0.9959874 -6.5207e-7 -0.0894947 0.9770252 0.2131238 0 0.3630675 0.2008894 0.9098492 0 1 0 -1.84068e-7 1 0 0.9187818 -0.06121486 -0.3899908 0.4253979 0.03646212 0.9042717 0.3698139 -0.06606584 0.926754 0.6114313 -0.752915 0.2434564 0.9806053 -0.162702 -0.1092767 0.9707326 -0.09326922 0.2213121 0.4131464 -0.8599992 -0.2995186 0.5279339 -0.7957465 -0.2967714 0.9708927 0.1985812 -0.1339136 0.3706227 5.96395e-7 -0.9287836 0.9474179 0.1946662 -0.253977 0 0.9666486 -0.2561064 0.006279647 -0.9970121 0.0769909 0 -1 -1.39051e-5 0.6392739 -0.7283781 0.2465651 0.6730195 -0.7396247 0 -0.1921744 -0.9811656 0.01957589 0.6389067 -0.4938194 0.5898649 -9.81697e-5 -1 0 -0.6411598 -0.742689 0.1932021 -0.1351706 -0.9762395 -0.169368 1.65201e-5 -1 2.41076e-4 -0.7433932 -0.1470632 -0.6524868 -0.8469917 -0.5316063 0 0.140133 -0.9901327 0 0.8291014 0.3747865 -0.4148807 -1.36875e-4 -1 1.06684e-4 0.8437618 -0.5247885 0.1125305 -0.05831891 -0.1548119 -0.9862212 -0.820729 -0.2490226 -0.5141903 -0.3110066 -0.6038235 -0.7339429 -0.40713 -0.8507967 -0.3322501 -0.1902003 0.1646608 -0.9678381 1.01414e-4 0.9787046 -0.2052736 0 0.1082155 -0.9941275 0 0.8112468 -0.5847041 0.2123701 0.1262077 -0.9690049 0.8440687 0.08894968 -0.5288062 0.217578 0.7882006 -0.5756732 0 0.8112507 -0.5846985 0.05831956 -0.1548277 -0.9862187 0.1090124 -0.7808589 -0.6151225 0.2464619 -0.2153397 -0.9449262 0.6340263 -0.574611 -0.5175258 -0.03305 -0.1170724 0.9925733 0.8462565 -0.05249804 0.5301829 0.7379468 -0.2800701 0.6139994 0.3402726 -0.735094 0.5863885 0.06282043 0.4638276 0.8836956 6.7825e-5 0.6696023 0.7427199 0.1896929 0.1793522 0.9653236 0.2675048 0 0.9635565 -0.1387438 0.1471527 0.9793346 -0.8364199 0.1606426 0.5240188 -0.6237813 0 0.781599 -0.2326569 0.9278399 -0.2915202 0.03302472 -0.1170763 0.9925737 -6.2537e-5 -0.8045032 0.5939486 0.2591958 -0.04538726 0.9647578 -0.5670083 -0.6282365 0.5327482</float_array>
          <technique_common>
            <accessor source="#Cube_012-mesh-normals-array" count="190" stride="3">
              <param name="X" type="float"/>
              <param name="Y" type="float"/>
              <param name="Z" type="float"/>
            </accessor>
          </technique_common>
        </source>
        <vertices id="Cube_012-mesh-vertices">
          <input semantic="POSITION" source="#Cube_012-mesh-positions"/>
        </vertices>
        <polylist count="192">
          <input semantic="VERTEX" source="#Cube_012-mesh-vertices" offset="0"/>
          <input semantic="NORMAL" source="#Cube_012-mesh-normals" offset="1"/>
          <vcount>3 3 3 3 3 3 3 3 3 3 3 3 3 3 3 3 3 3 3 3 3 3 3 3 3 3 3 3 3 3 3 3 3 3 3 3 3 3 3 3 3 3 3 3 3 3 3 3 3 3 3 3 3 3 3 3 3 3 3 3 3 3 3 3 3 3 3 3 3 3 3 3 3 3 3 3 3 3 3 3 3 3 3 3 3 3 3 3 3 3 3 3 3 3 3 3 3 3 3 3 3 3 3 3 3 3 3 3 3 3 3 3 3 3 3 3 3 3 3 3 3 3 3 3 3 3 3 3 3 3 3 3 3 3 3 3 3 3 3 3 3 3 3 3 3 3 3 3 3 3 3 3 3 3 3 3 3 3 3 3 3 3 3 3 3 3 3 3 3 3 3 3 3 3 3 3 3 3 3 3 3 3 3 3 3 3 3 3 3 3 3 3 </vcount>
          <p>0 0 4 0 5 0 1 1 5 1 57 1 4 2 55 2 56 2 5 3 56 3 91 3 0 4 1 4 6 4 2 5 6 5 60 5 58 6 59 6 6 6 6 7 59 7 93 7 0 8 2 8 7 8 3 9 7 9 63 9 2 10 61 10 62 10 7 11 62 11 92 11 3 12 8 12 4 12 8 13 54 13 55 13 64 14 65 14 8 14 8 15 65 15 90 15 13 16 14 16 10 16 14 17 66 17 67 17 13 18 61 18 60 18 14 19 60 19 93 19 10 20 15 20 11 20 11 21 15 21 69 21 67 22 68 22 15 22 15 23 68 23 97 23 11 16 16 16 12 16 16 24 72 24 73 24 11 25 70 25 71 25 71 26 96 26 72 26 12 27 17 27 13 27 13 28 17 28 62 28 73 29 74 29 17 29 17 30 74 30 92 30 18 31 22 31 23 31 23 32 75 32 76 32 22 33 70 33 69 33 23 34 69 34 97 34 18 35 19 35 24 35 20 36 24 36 78 36 76 37 77 37 24 37 24 38 77 38 95 38 20 39 25 39 21 39 25 40 81 40 82 40 20 41 79 41 80 41 25 42 80 42 94 42 18 43 21 43 26 43 22 44 26 44 71 44 21 45 82 45 83 45 26 46 83 46 96 46 27 47 31 47 32 47 32 48 84 48 85 48 31 49 79 49 78 49 32 50 78 50 95 50 27 51 28 51 33 51 29 52 33 52 56 52 28 53 85 53 86 53 33 54 86 54 91 54 29 55 34 55 30 55 30 56 34 56 87 56 29 57 55 57 54 57 54 58 90 58 87 58 27 59 30 59 35 59 31 60 35 60 80 60 30 61 88 61 89 61 35 62 89 62 94 62 40 63 41 63 37 63 37 64 41 64 65 64 40 65 88 65 87 65 41 66 87 66 90 66 36 67 37 67 42 67 38 68 42 68 74 68 37 69 64 69 63 69 63 70 92 70 74 70 36 71 38 71 43 71 39 72 43 72 83 72 73 73 72 73 43 73 72 74 96 74 83 74 39 75 44 75 40 75 40 76 44 76 89 76 39 77 82 77 81 77 44 78 81 78 94 78 49 79 50 79 46 79 46 80 50 80 77 80 85 81 84 81 50 81 50 82 84 82 95 82 45 83 46 83 51 83 47 84 51 84 68 84 46 85 76 85 75 85 51 86 75 86 97 86 45 87 47 87 52 87 48 88 52 88 59 88 47 89 67 89 66 89 52 90 66 90 93 90 48 91 53 91 49 91 49 92 53 92 86 92 48 93 58 93 57 93 53 94 57 94 91 94 1 95 0 95 5 95 58 96 1 96 57 96 5 97 4 97 56 97 57 98 5 98 91 98 2 99 0 99 6 99 61 100 2 100 60 100 1 101 58 101 6 101 60 102 6 102 93 102 3 103 0 103 7 103 64 104 3 104 63 104 7 105 2 105 62 105 63 106 7 106 92 106 0 107 3 107 4 107 4 108 8 108 55 108 3 109 64 109 8 109 54 110 8 110 90 110 9 111 13 111 10 111 10 16 14 16 67 16 14 112 13 112 60 112 66 113 14 113 93 113 9 114 10 114 11 114 70 115 11 115 69 115 10 116 67 116 15 116 69 117 15 117 97 117 9 118 11 118 12 118 12 119 16 119 73 119 16 120 11 120 71 120 16 121 71 121 72 121 9 122 12 122 13 122 61 123 13 123 62 123 12 124 73 124 17 124 62 125 17 125 92 125 19 126 18 126 23 126 19 127 23 127 76 127 23 128 22 128 69 128 75 129 23 129 97 129 20 130 18 130 24 130 79 131 20 131 78 131 19 132 76 132 24 132 78 133 24 133 95 133 18 134 20 134 21 134 21 135 25 135 82 135 25 136 20 136 80 136 81 137 25 137 94 137 22 138 18 138 26 138 70 139 22 139 71 139 26 140 21 140 83 140 71 141 26 141 96 141 28 142 27 142 32 142 28 143 32 143 85 143 32 144 31 144 78 144 84 145 32 145 95 145 29 146 27 146 33 146 55 147 29 147 56 147 33 148 28 148 86 148 56 149 33 149 91 149 27 150 29 150 30 150 88 151 30 151 87 151 34 152 29 152 54 152 34 153 54 153 87 153 31 154 27 154 35 154 79 155 31 155 80 155 35 156 30 156 89 156 80 157 35 157 94 157 36 158 40 158 37 158 64 159 37 159 65 159 41 160 40 160 87 160 65 161 41 161 90 161 38 162 36 162 42 162 73 163 38 163 74 163 42 164 37 164 63 164 42 165 63 165 74 165 39 166 36 166 43 166 82 167 39 167 83 167 38 168 73 168 43 168 43 169 72 169 83 169 36 170 39 170 40 170 88 171 40 171 89 171 44 172 39 172 81 172 89 173 44 173 94 173 45 174 49 174 46 174 76 175 46 175 77 175 49 176 85 176 50 176 77 177 50 177 95 177 47 178 45 178 51 178 67 179 47 179 68 179 51 180 46 180 75 180 68 181 51 181 97 181 48 182 45 182 52 182 58 183 48 183 59 183 52 184 47 184 66 184 59 185 52 185 93 185 45 186 48 186 49 186 85 187 49 187 86 187 53 188 48 188 57 188 86 189 53 189 91 189</p>
        </polylist>
      </mesh>
    </geometry>
  </library_geometries>
  <library_controllers/>
  <library_visual_scenes>
    <visual_scene id="Scene" name="Scene">
      <node id="COL_VIZ_LeftFingerJoint22y_link_0" name="COL_VIZ_LeftFingerJoint22y_link_0" type="NODE">
        <instance_geometry url="#Cube_012-mesh" name="COL_VIZ_LeftFingerJoint22y_link_0"/>
      </node>
    </visual_scene>
  </library_visual_scenes>
  <scene>
    <instance_visual_scene url="#Scene"/>
  </scene>
</COLLADA>