<?xml version="1.0" encoding="utf-8"?>
<COLLADA xmlns="http://www.collada.org/2005/11/COLLADASchema" version="1.4.1">
  <asset>
    <contributor>
      <author>Blender User</author>
      <authoring_tool>Blender 2.76.0 commit date:2015-11-03, commit time:10:56, hash:f337fea</authoring_tool>
    </contributor>
    <created>2017-01-25T08:36:07</created>
    <modified>2017-01-25T08:36:07</modified>
    <unit name="meter" meter="1"/>
    <up_axis>Z_UP</up_axis>
  </asset>
  <library_images/>
  <library_geometries>
    <geometry id="Cube_061-mesh" name="Cube.061">
      <mesh>
        <source id="Cube_061-mesh-positions">
          <float_array id="Cube_061-mesh-positions-array" count="294">-14.43245 -60.36129 -0.03786695 -12.59101 -101.542 8.533703 -1.119194 16.62149 0.01935935 -11.84832 -60.4341 -7.93357 -10.82804 -136.086 0.09028178 -9.182024 -134.312 10.01638 -1.653031 14.65729 5.617562 -0.8615772 14.64989 -6.260568 -11.15664 -134.312 -6.969952 0.006477892 16.87869 0.01321274 0.006477892 16.87869 0.01321274 0.006477892 16.87869 0.01321274 0.006477892 16.87869 0.01321274 0.006477892 16.87869 0.01321274 0.006477892 16.87869 0.01321274 0.006477892 16.87869 0.01321274 0.006477892 16.87869 0.01321274 0.006477892 16.87869 0.01321274 14.4991 -76.9736 4.191856 11.61507 -60.98561 7.78549 10.97155 -134.312 -3.630842 12.61334 -102.459 -8.53374 1.972322 16.14349 -1.260157 1.680082 14.65219 5.598782 7.894083 -134.312 9.97076 7.854143 -134.312 -9.896365 1.664312 14.66099 -5.594607 10.97155 -134.312 -3.630842 10.97155 -134.312 -3.630842 -9.724189 -136.086 0.0876702 -9.724189 -136.086 0.0876702 10.97155 -134.312 -3.630842 10.97155 -134.312 -3.630842 -6.654974 -134.312 12.23168 -9.221962 -134.312 -9.850705 5.327037 -134.312 -12.11152 -0.02297204 -102.06 -19.02658 -0.8872372 -102.06 -19.02658 -0.003567457 14.63339 -6.521337 4.188426 -60.85308 -17.30757 2.413441 -134.312 -13.54152 2.413441 -134.312 -13.54152 -0.8615772 14.64989 -6.260568 -0.8615772 14.64989 -6.260568 2.413441 -134.312 -13.54152 -3.55742 -60.5665 15.13289 4.249526 -60.74629 17.14075 -1.653031 14.65729 5.617562 -4.421685 -60.56649 17.15945 2.468101 -134.312 13.64508 2.468101 -134.312 13.64508 1.680082 14.65219 5.598782 -1.653031 14.65729 5.617562 -6.654974 -134.312 12.23168 -11.72694 -132.424 -7.409531 -11.72694 -132.424 -7.409531 -11.72694 -132.424 -7.409531 -6.654974 -134.312 12.23168 -9.640542 -60.4235 11.05759 -1.653031 14.65729 5.617562 -1.653031 14.65729 5.617562 -1.653031 14.65729 5.617562 -1.653031 14.65729 5.617562 -0.8615772 14.64989 -6.260568 -9.685253 -60.5016 -11.15431 -9.221962 -134.312 -9.850705 -1.013184 13.45639 7.460123 -1.013184 13.45639 7.460123 -1.013184 13.45639 7.460123 -1.013184 13.45639 7.460123 -1.013184 13.45639 7.460123 -1.013184 13.45639 7.460123 1.023535 13.46489 -7.439018 1.023535 13.46489 -7.439018 1.023535 13.46489 -7.439018 1.680082 14.65219 5.598782 6.636444 -60.83641 13.49799 7.894083 -134.312 9.97076 7.894083 -134.312 9.97076 7.894083 -134.312 9.97076 7.894083 -134.312 9.97076 7.854143 -134.312 -9.896365 6.581785 -60.93191 -13.68221 1.664312 14.66099 -5.594607 7.894083 -134.312 9.97076 7.894083 -134.312 9.97076 7.894083 -134.312 9.97076 -9.221962 -134.312 -9.850705 -9.221962 -134.312 -9.850705 5.327037 -134.312 -12.11152 -12.31412 -134.312 -3.568552 -11.69674 -132.424 7.581869 -1.992871 13.47509 -6.656588 -1.974061 13.46459 6.700162 5.327037 -134.312 -12.11152 7.894083 -134.312 9.97076 1.984451 13.46899 -6.679058 2.003251 13.45859 6.677692</float_array>
          <technique_common>
            <accessor source="#Cube_061-mesh-positions-array" count="98" stride="3">
              <param name="X" type="float"/>
              <param name="Y" type="float"/>
              <param name="Z" type="float"/>
            </accessor>
          </technique_common>
        </source>
        <source id="Cube_061-mesh-normals">
          <float_array id="Cube_061-mesh-normals-array" count="276">-0.9793408 -0.09377235 0.1791601 -0.6588073 -0.03453177 0.7515187 0 0 1 0.601149 0.7991362 -0.001210629 -0.7935093 0.08979916 0.6018964 -0.9810423 0.1697291 -0.09353137 0.7113879 -0.7011696 0.04783737 -0.9503498 -0.01295298 -0.3109142 -0.8300658 -0.01505577 -0.5574622 0 -1 -1.8802e-5 -0.461992 0.661036 0.5912655 0.9659208 0.158123 0.2049251 -0.1075018 0.8982431 -0.4261487 0.9887287 0.1319161 0.07080864 0.1822093 0.6860347 0.7043836 0.7402562 -0.01753491 0.6720962 0.7534984 -0.01865124 0.6571852 0.8894701 -0.1139649 -0.4425551 0 -1 0 0.9385658 0.09606033 -0.3314617 -0.8374813 0.5325296 -0.1226274 0.1057548 -0.9874239 0.1175164 -0.9685145 -0.02197688 0.2479857 0.05094134 0.9433693 0.3278099 0.7627428 0.5265679 0.375433 0.07624059 -0.9957975 -0.05074393 0 1 0 -0.2968771 -0.1895518 -0.9359135 -0.2873706 0.1042098 -0.9521337 0.2515355 -0.4513051 0.8561855 0.2865823 -0.1199051 0.9505227 0.2526355 0.1191647 -0.9601954 -0.4636615 -0.6611442 0.5898359 0.7649692 -0.05139815 -0.6420128 0.5562971 -0.03319227 -0.8303203 0 1 4.29779e-5 0.5604528 -0.03013819 0.8276379 -0.2436811 0.1386361 0.9598956 -0.00435388 -0.8384536 -0.5449556 0.461992 -0.661036 -0.5912655 0.9185017 -0.05399054 0.3917138 0 -1 5.92716e-6 -0.76003 -0.02038836 0.6495682 -0.9987708 -0.04756391 -0.01394593 -0.5672972 -0.009837687 0.8234545 0.9861362 -0.0679658 -0.1513804 0.656453 -0.09123277 -0.7488299 -0.9847947 0.1703339 -0.03414481 -0.9646506 0.08453959 -0.2496041 -0.940034 0.1444362 -0.3089893 -0.8215376 0.1325682 -0.5545283 0.9944827 -0.0812807 0.06631416 -0.998276 -0.04745835 0.03453749 0.9549166 0.2953776 0.02977466 -0.8302049 -0.01504123 -0.5572555 -0.890451 -0.3395253 -0.3030176 0.3329167 0.8386871 0.4310111 0.2860911 0.8853338 -0.3665186 -0.8353103 0.5489736 -0.02974742 0.9773263 0.1407393 0.1581954 0.7501781 0.1173486 0.6507396 -0.2842726 0.9392983 0.1921142 0.9714103 -0.08974856 0.2197892 0.9978018 -0.05670768 -0.03429281 0.4922087 -0.03633618 -0.8697185 0.9855648 0.1259621 -0.1131176 0.9403085 0.09609806 -0.326474 -0.9755765 -0.07378447 -0.2068971 0 -1 -1.59834e-6 -0.3512624 -0.9362769 7.0748e-4 -0.6892563 -0.7064195 -0.1609266 -0.02750504 -0.9838262 -0.1770021 0 -0.167661 -0.9858448 -0.7098495 -0.01689189 -0.7041508 0 0.1065531 -0.9943071 -0.3515033 0.1018716 -0.9306277 0.2168994 -0.4929085 0.8426126 -0.5377104 0.08992648 -0.8383203 0.8282538 0.1349702 -0.5438555 -0.2515355 0.451305 -0.8561855 -0.1477319 -0.8055952 0.5737524 0 -1 -4.45639e-6 0.8330822 -0.04837954 -0.5510297 -0.2497462 -0.03992497 0.9674879 0.8350099 -0.04627329 0.5482858 0.005781412 0.1253474 0.9920961 0.8324819 0.1114498 0.5427273 -0.1822093 -0.6860345 -0.7043837 0.919525 0.0263254 0.3921491 -0.75234 0.1268764 0.6464419 -0.1530187 -0.03242927 0.9876911 -0.05094134 -0.9433693 -0.3278099</float_array>
          <technique_common>
            <accessor source="#Cube_061-mesh-normals-array" count="92" stride="3">
              <param name="X" type="float"/>
              <param name="Y" type="float"/>
              <param name="Z" type="float"/>
            </accessor>
          </technique_common>
        </source>
        <vertices id="Cube_061-mesh-vertices">
          <input semantic="POSITION" source="#Cube_061-mesh-positions"/>
        </vertices>
        <polylist count="192">
          <input semantic="VERTEX" source="#Cube_061-mesh-vertices" offset="0"/>
          <input semantic="NORMAL" source="#Cube_061-mesh-normals" offset="1"/>
          <vcount>3 3 3 3 3 3 3 3 3 3 3 3 3 3 3 3 3 3 3 3 3 3 3 3 3 3 3 3 3 3 3 3 3 3 3 3 3 3 3 3 3 3 3 3 3 3 3 3 3 3 3 3 3 3 3 3 3 3 3 3 3 3 3 3 3 3 3 3 3 3 3 3 3 3 3 3 3 3 3 3 3 3 3 3 3 3 3 3 3 3 3 3 3 3 3 3 3 3 3 3 3 3 3 3 3 3 3 3 3 3 3 3 3 3 3 3 3 3 3 3 3 3 3 3 3 3 3 3 3 3 3 3 3 3 3 3 3 3 3 3 3 3 3 3 3 3 3 3 3 3 3 3 3 3 3 3 3 3 3 3 3 3 3 3 3 3 3 3 3 3 3 3 3 3 3 3 3 3 3 3 3 3 3 3 3 3 3 3 3 3 3 3 </vcount>
          <p>4 0 5 0 1 0 1 1 5 1 57 1 4 2 55 2 56 2 5 3 56 3 91 3 0 4 1 4 6 4 6 2 60 2 61 2 58 2 59 2 6 2 59 2 93 2 60 2 0 5 2 5 7 5 7 2 63 2 64 2 2 2 61 2 62 2 7 6 62 6 92 6 0 7 3 7 8 7 8 2 54 2 55 2 64 8 65 8 8 8 8 9 65 9 90 9 13 2 14 2 10 2 14 2 66 2 67 2 61 2 60 2 14 2 60 10 93 10 66 10 10 2 15 2 11 2 15 2 69 2 70 2 67 2 68 2 15 2 68 2 97 2 69 2 11 2 16 2 12 2 16 2 72 2 73 2 70 2 71 2 16 2 16 11 71 11 96 11 12 2 17 2 13 2 17 2 62 2 61 2 73 2 74 2 17 2 17 12 74 12 92 12 22 13 23 13 19 13 23 2 75 2 76 2 70 2 69 2 23 2 23 14 69 14 97 14 18 15 19 15 24 15 24 2 78 2 79 2 19 16 76 16 77 16 77 2 95 2 78 2 20 17 25 17 21 17 21 2 25 2 81 2 20 2 79 2 80 2 25 18 80 18 94 18 18 19 21 19 26 19 22 20 26 20 71 20 82 2 83 2 26 2 26 2 83 2 96 2 31 2 32 2 28 2 32 2 84 2 85 2 79 2 78 2 32 2 78 2 95 2 84 2 28 21 33 21 29 21 29 22 33 22 56 22 28 2 85 2 86 2 33 23 86 23 91 23 29 2 34 2 30 2 34 2 87 2 88 2 55 2 54 2 34 2 54 24 90 24 87 24 27 25 30 25 35 25 31 26 35 26 80 26 88 2 89 2 35 2 35 2 89 2 94 2 36 2 40 2 41 2 37 27 41 27 65 27 88 2 87 2 41 2 87 2 90 2 65 2 37 28 42 28 38 28 38 29 42 29 74 29 64 2 63 2 42 2 42 2 63 2 92 2 38 30 43 30 39 30 43 31 83 31 82 31 38 2 73 2 72 2 72 32 96 32 83 32 36 33 39 33 44 33 40 2 44 2 89 2 82 34 81 34 44 34 44 35 81 35 94 35 49 2 50 2 46 2 50 36 77 36 76 36 85 2 84 2 50 2 84 2 95 2 77 2 45 37 46 37 51 37 47 38 51 38 68 38 76 2 75 2 51 2 51 2 75 2 97 2 45 2 47 2 52 2 52 2 59 2 58 2 67 2 66 2 52 2 52 39 66 39 93 39 45 40 48 40 53 40 49 41 53 41 86 41 48 42 58 42 57 42 53 2 57 2 91 2 0 43 4 43 1 43 58 44 1 44 57 44 5 45 4 45 56 45 57 46 5 46 91 46 2 47 0 47 6 47 2 2 6 2 61 2 1 48 58 48 6 48 6 2 59 2 60 2 3 49 0 49 7 49 3 50 7 50 64 50 7 51 2 51 62 51 63 2 7 2 92 2 4 52 0 52 8 52 4 53 8 53 55 53 3 54 64 54 8 54 54 55 8 55 90 55 9 2 13 2 10 2 10 2 14 2 67 2 13 2 61 2 14 2 14 56 60 56 66 56 9 2 10 2 11 2 11 2 15 2 70 2 10 2 67 2 15 2 15 2 68 2 69 2 9 2 11 2 12 2 12 2 16 2 73 2 11 2 70 2 16 2 72 57 16 57 96 57 9 2 12 2 13 2 13 2 17 2 61 2 12 2 73 2 17 2 62 58 17 58 92 58 18 59 22 59 19 59 19 60 23 60 76 60 22 61 70 61 23 61 75 2 23 2 97 2 20 62 18 62 24 62 20 2 24 2 79 2 24 2 19 2 77 2 24 2 77 2 78 2 18 63 20 63 21 63 82 64 21 64 81 64 25 18 20 18 80 18 81 2 25 2 94 2 22 65 18 65 26 65 70 2 22 2 71 2 21 66 82 66 26 66 71 67 26 67 96 67 27 2 31 2 28 2 28 2 32 2 85 2 31 2 79 2 32 2 32 2 78 2 84 2 27 2 28 2 29 2 55 2 29 2 56 2 33 68 28 68 86 68 56 69 33 69 91 69 27 2 29 2 30 2 30 2 34 2 88 2 29 70 55 70 34 70 34 2 54 2 87 2 31 2 27 2 35 2 79 2 31 2 80 2 30 71 88 71 35 71 80 2 35 2 94 2 37 72 36 72 41 72 64 73 37 73 65 73 40 2 88 2 41 2 41 2 87 2 65 2 36 74 37 74 38 74 73 2 38 2 74 2 37 75 64 75 42 75 74 76 42 76 92 76 36 77 38 77 39 77 39 78 43 78 82 78 43 79 38 79 72 79 43 80 72 80 83 80 40 2 36 2 44 2 88 81 40 81 89 81 39 82 82 82 44 82 89 2 44 2 94 2 45 83 49 83 46 83 46 84 50 84 76 84 49 2 85 2 50 2 50 2 84 2 77 2 47 85 45 85 51 85 67 2 47 2 68 2 46 86 76 86 51 86 68 87 51 87 97 87 48 88 45 88 52 88 48 89 52 89 58 89 47 2 67 2 52 2 59 2 52 2 93 2 49 90 45 90 53 90 85 2 49 2 86 2 53 2 48 2 57 2 86 91 53 91 91 91</p>
        </polylist>
      </mesh>
    </geometry>
  </library_geometries>
  <library_controllers/>
  <library_visual_scenes>
    <visual_scene id="Scene" name="Scene">
      <node id="COL_VIZ_RWsegment_link_0" name="COL_VIZ_RWsegment_link_0" type="NODE">
        <instance_geometry url="#Cube_061-mesh" name="COL_VIZ_RWsegment_link_0"/>
      </node>
    </visual_scene>
  </library_visual_scenes>
  <scene>
    <instance_visual_scene url="#Scene"/>
  </scene>
</COLLADA>