<?xml version="1.0" encoding="utf-8"?>
<COLLADA xmlns="http://www.collada.org/2005/11/COLLADASchema" version="1.4.1">
  <asset>
    <contributor>
      <author>Blender User</author>
      <authoring_tool>Blender 2.77.0 commit date:2016-04-05, commit time:18:12, hash:abf6f08</authoring_tool>
    </contributor>
    <created>2017-03-06T14:39:55</created>
    <modified>2017-03-06T14:39:55</modified>
    <unit name="meter" meter="1"/>
    <up_axis>Z_UP</up_axis>
  </asset>
  <library_images>
    <image id="PBRFULL_LaboRoomShelf-material_Base_Color_jpg" name="PBRFULL_LaboRoomShelf-material_Base_Color_jpg">
      <init_from>PBRFULL_LaboRoomShelf-material_Base_Color.jpg</init_from>
    </image>
  </library_images>
  <library_effects>
    <effect id="PBRFULL_LaboRoomShelf-effect">
      <profile_COMMON>
        <newparam sid="PBRFULL_LaboRoomShelf-material_Base_Color_jpg-surface">
          <surface type="2D">
            <init_from>PBRFULL_LaboRoomShelf-material_Base_Color_jpg</init_from>
          </surface>
        </newparam>
        <newparam sid="PBRFULL_LaboRoomShelf-material_Base_Color_jpg-sampler">
          <sampler2D>
            <source>PBRFULL_LaboRoomShelf-material_Base_Color_jpg-surface</source>
          </sampler2D>
        </newparam>
        <technique sid="common">
          <phong>
            <emission>
              <color sid="emission">0 0 0 1</color>
            </emission>
            <ambient>
              <color sid="ambient">0 0 0 1</color>
            </ambient>
            <diffuse>
              <texture texture="PBRFULL_LaboRoomShelf-material_Base_Color_jpg-sampler"/>
            </diffuse>
            <specular>
              <color sid="specular">0.5 0.5 0.5 1</color>
            </specular>
            <shininess>
              <float sid="shininess">300</float>
            </shininess>
            <index_of_refraction>
              <float sid="index_of_refraction">1</float>
            </index_of_refraction>
          </phong>
        </technique>
      </profile_COMMON>
    </effect>
  </library_effects>
  <library_materials>
    <material id="PBRFULL_LaboRoomShelf-material" name="PBRFULL_LaboRoomShelf">
      <instance_effect url="#PBRFULL_LaboRoomShelf-effect"/>
    </material>
  </library_materials>
  <library_geometries>
    <geometry id="Cube_079-mesh" name="Cube.079">
      <mesh>
        <source id="Cube_079-mesh-positions">
          <float_array id="Cube_079-mesh-positions-array" count="1050">-0.4647946 -1.002906 6.154449 -0.4647946 -1.002906 8.154451 -0.4647946 0.9970942 6.154449 -0.4647946 0.9970942 8.154451 1.535205 -1.002906 6.154449 1.535205 -1.002906 8.154451 1.535205 0.9970942 6.154449 1.535205 0.9970942 8.154451 0.1937942 0.915762 -7.724823 0.1937942 0.8976562 -7.724823 -0.4647951 0.8976562 -13.56165 -0.4647942 0.915762 -13.56165 1.535206 0.915762 5.957794 1.535205 0.8976562 5.957794 -0.4647951 0.8976562 5.957794 -0.4647946 0.915762 5.957794 1.535206 0.915762 3.763763 1.535205 0.8976562 3.763763 -0.4647951 0.8976562 3.763763 -0.4647946 0.915762 3.763763 -0.1830358 0.915762 -13.56165 -0.1830363 0.8976562 -13.56165 -0.1830363 0.915762 5.957794 -0.1830368 0.8976562 5.957794 -0.1830358 0.915762 3.763763 -0.1830368 0.8976562 3.763763 1.059911 0.915762 1.328339 1.05991 0.8976562 1.328339 -0.4647951 0.8976562 -0.9822388 -0.4647946 0.915762 -0.9822388 -0.1830363 0.8976562 1.766632 -0.1830358 0.915762 1.766632 -0.1830363 0.8976562 -2.118713 0.5823927 0.915762 -1.867981 0.5823922 0.8976562 -1.867981 -0.4647951 0.8976562 -4.251648 -0.4647946 0.915762 -4.251648 -0.1830358 0.915762 -2.118713 -0.1830363 0.8976562 -7.987946 0.3436408 0.915762 -4.87204 0.3436403 0.8976562 -4.87204 -0.4647951 0.8976562 -9.026857 -0.4647946 0.915762 -9.026857 -0.1830358 0.915762 -7.987946 -0.0875678 0.915762 -12.36612 -0.0875678 0.8976562 -12.36612 0.676085 0.915762 5.957794 0.6760841 0.8976562 5.957794 0.676085 0.915762 3.763763 0.6760841 0.8976562 3.763763 0.4384375 0.915762 1.547485 0.438437 0.8976562 1.547485 0.1996779 0.8976562 -1.993347 0.1996784 0.915762 -1.993347 0.08030176 0.8976562 -6.429993 0.08030223 0.915762 -6.429993 1.535206 0.915762 5.590607 1.535205 0.8976562 5.590607 -0.4647951 0.8976562 5.590607 -0.4647946 0.915762 5.590607 -0.1830363 0.915762 5.590607 -0.1830368 0.8976562 5.590607 0.6760841 0.8976562 5.590607 0.676085 0.915762 5.590607 -0.4016252 0.915762 -13.56165 -0.4016256 0.8976562 -13.56165 -0.4016256 0.915762 5.957794 -0.4016261 0.8976562 5.957794 -0.4016256 0.915762 3.763763 -0.4016261 0.8976562 3.763763 -0.4016256 0.8976562 -0.3659668 -0.4016256 0.915762 -0.3659668 -0.4016256 0.8976562 -3.773437 -0.4016252 0.915762 -3.773437 -0.4016256 0.8976562 -8.793947 -0.4016252 0.915762 -8.793947 -0.4016256 0.915762 5.590607 -0.4016261 0.8976562 5.590607 -0.4016252 0.9593377 -11.32104 -0.4647942 0.9593377 -11.32104 -0.4016256 0.8540802 -11.32104 -0.4647951 0.8540802 -11.32104 -0.4647951 0.8540802 4.215729 -0.4647951 0.8540802 4.513641 -0.4647946 0.9593377 4.215729 -0.4647946 0.9593377 4.513641 -0.4016256 0.9593377 4.513641 -0.4016261 0.8540802 4.513641 -0.4647951 0.8540802 -1.116302 -0.4647951 0.8540802 2.733795 -0.4647946 0.9593377 -1.116302 -0.4647946 0.9593377 2.733795 -0.4016252 0.9593377 2.733795 -0.4016261 0.8540802 2.733795 -0.4647951 0.8540802 -3.768524 -0.4647946 0.9593377 -3.768524 -0.4016256 0.8540802 -0.6163635 -0.4016252 0.9593377 -0.6163635 -0.4647951 0.8540802 -7.642303 -0.4647946 0.9593377 -7.642303 -0.4016256 0.8540802 -3.380585 -0.4016252 0.9593377 -3.380585 -0.4016256 0.8540802 -7.453369 -0.4016252 0.9593377 -7.453369 -0.4016256 0.9593377 4.215729 -0.4016261 0.8540802 4.215729 1.370882 0.9609938 5.590607 1.370882 0.9609938 5.957794 1.370882 0.8524244 5.590607 1.370882 0.8524244 5.957794 0.6368547 0.9609938 5.957794 -0.09717321 0.9609938 5.957794 0.6368537 0.8524244 5.957794 -0.09717369 0.8524244 5.957794 -0.09717321 0.9609938 5.590607 0.6368547 0.9609938 5.590607 -0.09717369 0.8524244 5.590607 0.6368537 0.8524244 5.590607 -0.2839346 0.9609938 5.957794 -0.2839351 0.8524244 5.957794 -0.2839346 0.9609938 5.590607 -0.2839351 0.8524244 5.590607 0.1937932 0.0199213 -7.724823 0.1937932 0.001815736 -7.724823 -0.4647961 0.001815736 -13.56165 -0.4647951 0.0199213 -13.56165 1.535205 0.0199213 5.957794 1.535204 0.001815736 5.957794 -0.4647961 0.001815736 5.957794 -0.4647956 0.0199213 5.957794 1.535205 0.0199213 3.763763 1.535204 0.001815736 3.763763 -0.4647961 0.001815736 3.763763 -0.4647956 0.0199213 3.763763 -0.1830368 0.0199213 -13.56165 -0.1830372 0.001815736 -13.56165 -0.1830372 0.0199213 5.957794 -0.1830376 0.001815736 5.957794 -0.1830368 0.0199213 3.763763 -0.1830376 0.001815736 3.763763 1.05991 0.0199213 1.328339 1.059909 0.001815736 1.328339 -0.4647961 0.001815736 -0.9822388 -0.4647956 0.0199213 -0.9822388 -0.1830372 0.001815736 1.766632 -0.1830368 0.0199213 1.766632 -0.1830372 0.001815736 -2.118713 0.5823917 0.0199213 -1.86795 0.5823913 0.001815736 -1.86795 -0.4647961 0.001815736 -4.251617 -0.4647956 0.0199213 -4.251617 -0.1830368 0.0199213 -2.118713 -0.1830372 0.001815736 -7.987915 0.3436399 0.0199213 -4.872009 0.3436394 0.001815736 -4.872009 -0.4647961 0.001815736 -9.026857 -0.4647956 0.0199213 -9.026857 -0.1830368 0.0199213 -7.987946 -0.08756875 0.0199213 -12.36612 -0.08756875 0.001815736 -12.36609 0.6760841 0.0199213 5.957794 0.6760831 0.001815736 5.957794 0.6760841 0.0199213 3.763763 0.6760831 0.001815736 3.763763 0.4384365 0.0199213 1.547485 0.438436 0.001815736 1.547485 0.1996769 0.001815736 -1.993317 0.1996774 0.0199213 -1.993317 0.0803008 0.001815736 -6.429962 0.08030128 0.0199213 -6.429962 1.535205 0.0199213 5.590607 1.535204 0.001815736 5.590607 -0.4647961 0.001815736 5.590607 -0.4647956 0.0199213 5.590607 -0.1830372 0.0199213 5.590607 -0.1830376 0.001815736 5.590607 0.6760831 0.001815736 5.590607 0.6760841 0.0199213 5.590607 -0.4016261 0.0199213 -13.56165 -0.4016266 0.001815736 -13.56165 -0.4016266 0.0199213 5.957794 -0.4016271 0.001815736 5.957794 -0.4016266 0.0199213 3.763763 -0.4016271 0.001815736 3.763763 -0.4016266 0.001815736 -0.3659363 -0.4016266 0.0199213 -0.3659363 -0.4016266 0.001815736 -3.773437 -0.4016261 0.0199213 -3.773437 -0.4016266 0.001815736 -8.793915 -0.4016261 0.0199213 -8.793915 -0.4016266 0.0199213 5.590607 -0.4016271 0.001815736 5.590607 -0.4016261 0.06349754 -11.32104 -0.4647951 0.06349754 -11.32104 -0.4016266 -0.0417599 -11.32104 -0.4647961 -0.0417599 -11.32104 -0.4647961 -0.0417599 4.21579 -0.4647961 -0.0417599 4.513641 -0.4647956 0.06349754 4.21579 -0.4647956 0.06349754 4.513641 -0.4016266 0.06349754 4.513641 -0.4016271 -0.0417599 4.513641 -0.4647961 -0.0417599 -1.116272 -0.4647961 -0.0417599 2.733795 -0.4647956 0.06349754 -1.116272 -0.4647956 0.06349754 2.733795 -0.4016261 0.06349754 2.733795 -0.4016271 -0.0417599 2.733795 -0.4647961 -0.0417599 -3.768494 -0.4647951 0.06349754 -3.768494 -0.4016266 -0.0417599 -0.616333 -0.4016261 0.06349754 -0.616333 -0.4647961 -0.0417599 -7.642303 -0.4647951 0.06349754 -7.642303 -0.4016266 -0.0417599 -3.380585 -0.4016261 0.06349754 -3.380585 -0.4016266 -0.0417599 -7.453339 -0.4016261 0.06349754 -7.453339 -0.4016266 0.06349754 4.21579 -0.4016271 -0.0417599 4.21579 1.370882 0.06515359 5.590607 1.370882 0.06515359 5.957794 1.370881 -0.04341602 5.590607 1.370881 -0.04341602 5.957794 0.6368537 0.06515359 5.957794 -0.09717416 0.06515359 5.957794 0.6368528 -0.04341602 5.957794 -0.09717464 -0.04341602 5.957794 -0.09717416 0.06515359 5.590607 0.6368537 0.06515359 5.590607 -0.09717464 -0.04341602 5.590607 0.6368528 -0.04341602 5.590607 -0.2839356 0.06515359 5.957794 -0.283936 -0.04341602 5.957794 -0.2839356 0.06515359 5.590607 -0.283936 -0.04341602 5.590607 0.1937932 -0.9083147 -7.724823 0.1937932 -0.9264202 -7.724823 -0.4647961 -0.9264202 -13.56165 -0.4647951 -0.9083147 -13.56165 1.535205 -0.9083147 5.957794 1.535204 -0.9264202 5.957794 -0.4647961 -0.9264202 5.957794 -0.4647956 -0.9083147 5.957794 1.535205 -0.9083147 3.763763 1.535204 -0.9264202 3.763763 -0.4647961 -0.9264202 3.763763 -0.4647956 -0.9083147 3.763763 -0.1830368 -0.9083147 -13.56165 -0.1830372 -0.9264202 -13.56165 -0.1830372 -0.9083147 5.957794 -0.1830376 -0.9264202 5.957794 -0.1830368 -0.9083147 3.763763 -0.1830376 -0.9264202 3.763763 1.05991 -0.9083147 1.328339 1.059909 -0.9264202 1.328339 -0.4647961 -0.9264202 -0.9822388 -0.4647956 -0.9083147 -0.9822388 -0.1830372 -0.9264202 1.766632 -0.1830368 -0.9083147 1.766632 -0.1830372 -0.9264202 -2.118713 0.5823917 -0.9083147 -1.86795 0.5823913 -0.9264202 -1.86795 -0.4647961 -0.9264202 -4.251617 -0.4647956 -0.9083147 -4.251617 -0.1830368 -0.9083147 -2.118713 -0.1830372 -0.9264202 -7.987915 0.3436399 -0.9083147 -4.872009 0.3436394 -0.9264202 -4.872009 -0.4647961 -0.9264202 -9.026857 -0.4647956 -0.9083147 -9.026857 -0.1830368 -0.9083147 -7.987946 -0.08756875 -0.9083147 -12.36612 -0.08756875 -0.9264202 -12.36609 0.6760841 -0.9083147 5.957794 0.6760831 -0.9264202 5.957794 0.6760841 -0.9083147 3.763763 0.6760831 -0.9264202 3.763763 0.4384365 -0.9083147 1.547485 0.438436 -0.9264202 1.547485 0.1996769 -0.9264202 -1.993317 0.1996774 -0.9083147 -1.993317 0.0803008 -0.9264202 -6.429962 0.08030128 -0.9083147 -6.429962 1.535205 -0.9083147 5.590607 1.535204 -0.9264202 5.590607 -0.4647961 -0.9264202 5.590607 -0.4647956 -0.9083147 5.590607 -0.1830372 -0.9083147 5.590607 -0.1830376 -0.9264202 5.590607 0.6760831 -0.9264202 5.590607 0.6760841 -0.9083147 5.590607 -0.4016261 -0.9083147 -13.56165 -0.4016266 -0.9264202 -13.56165 -0.4016266 -0.9083147 5.957794 -0.4016271 -0.9264202 5.957794 -0.4016266 -0.9083147 3.763763 -0.4016271 -0.9264202 3.763763 -0.4016266 -0.9264202 -0.3659363 -0.4016266 -0.9083147 -0.3659363 -0.4016266 -0.9264202 -3.773437 -0.4016261 -0.9083147 -3.773437 -0.4016266 -0.9264202 -8.793915 -0.4016261 -0.9083147 -8.793915 -0.4016266 -0.9083147 5.590607 -0.4016271 -0.9264202 5.590607 -0.4016261 -0.8647385 -11.32104 -0.4647951 -0.8647385 -11.32104 -0.4016266 -0.969996 -11.32104 -0.4647961 -0.969996 -11.32104 -0.4647961 -0.969996 4.21579 -0.4647961 -0.969996 4.513641 -0.4647956 -0.8647385 4.21579 -0.4647956 -0.8647385 4.513641 -0.4016266 -0.8647385 4.513641 -0.4016271 -0.969996 4.513641 -0.4647961 -0.969996 -1.116272 -0.4647961 -0.969996 2.733795 -0.4647956 -0.8647385 -1.116272 -0.4647956 -0.8647385 2.733795 -0.4016261 -0.8647385 2.733795 -0.4016271 -0.969996 2.733795 -0.4647961 -0.969996 -3.768494 -0.4647951 -0.8647385 -3.768494 -0.4016266 -0.969996 -0.616333 -0.4016261 -0.8647385 -0.616333 -0.4647961 -0.969996 -7.642303 -0.4647951 -0.8647385 -7.642303 -0.4016266 -0.969996 -3.380585 -0.4016261 -0.8647385 -3.380585 -0.4016266 -0.969996 -7.453339 -0.4016261 -0.8647385 -7.453339 -0.4016266 -0.8647385 4.21579 -0.4016271 -0.969996 4.21579 1.370882 -0.8630824 5.590607 1.370882 -0.8630824 5.957794 1.370881 -0.971652 5.590607 1.370881 -0.971652 5.957794 0.6368537 -0.8630824 5.957794 -0.09717416 -0.8630824 5.957794 0.6368528 -0.971652 5.957794 -0.09717464 -0.971652 5.957794 -0.09717416 -0.8630824 5.590607 0.6368537 -0.8630824 5.590607 -0.09717464 -0.971652 5.590607 0.6368528 -0.971652 5.590607 -0.2839356 -0.8630824 5.957794 -0.283936 -0.971652 5.957794 -0.2839356 -0.8630824 5.590607 -0.283936 -0.971652 5.590607</float_array>
          <technique_common>
            <accessor source="#Cube_079-mesh-positions-array" count="350" stride="3">
              <param name="X" type="float"/>
              <param name="Y" type="float"/>
              <param name="Z" type="float"/>
            </accessor>
          </technique_common>
        </source>
        <source id="Cube_079-mesh-normals">
          <float_array id="Cube_079-mesh-normals-array" count="771">-1 0 0 0 1 0 1 0 0 0 -1 0 0 0 -1 0 0 1 1 -5.3793e-5 0 -1 3.13792e-5 0 1 5.44902e-7 0 0 -0.9998109 -0.01944458 -1 3.32947e-5 0 1 -3.44357e-6 0 0.9814838 -5.30678e-5 -0.1915454 0 -1 0 0.9968268 -2.74487e-5 -0.07960098 0.9890237 -4.88945e-5 -0.1477571 -1 -5.76418e-7 0 -1 3.22213e-5 0 -1 2.75759e-5 0 0.9968568 -2.62179e-5 -0.07922607 0 -1 0 0 1 0 0 0.9998109 -0.01944446 0.9986234 -2.53523e-5 -0.05245339 -1 2.32303e-5 0 0 1 0 0 1 0 0.9981676 0 -0.06051033 0.2653914 -0.9641408 0 0 -1 0 -1 2.88324e-5 0 1 5.73795e-7 0 1 -4.32486e-5 0 0 1 0 0 1 0 0.2653899 0.9641413 0 0 1 0 1 -6.02136e-7 1.22446e-7 -1 1.20652e-6 0 -1 4.5914e-6 0 1 -1.34339e-6 0 -1 4.46188e-6 0 -1 -5.72889e-7 0 -1 -7.45037e-6 0 -1 -2.09186e-7 0 1 -9.799e-6 0 -1 -2.06294e-6 0 0 0.9995452 0.03016018 1 -2.31851e-6 1.22681e-7 0 -0.9995452 0.03016036 1 -1.84602e-6 2.81546e-7 -0.3587443 0.933436 0 -0.3587446 -0.9334357 0 1 -5.37938e-5 0 1 1.41463e-6 0 -1 2.68969e-5 0 1 -1.0898e-6 0 0 -0.999811 -0.01944446 -1 2.77461e-5 0 1 4.59231e-6 0 0.9814838 -4.24549e-5 -0.1915454 0 -1 0 0.996827 -1.34497e-4 -0.07959908 0 1 0 0.9890236 -6.51944e-5 -0.1477579 -1 2.81944e-5 0 -1 2.2061e-5 0 -1 -1.49747e-6 0 0.9968566 -2.18486e-5 -0.07922661 0 1 0 0 0.9998109 -0.0194447 0 -1 0 0.9986234 -2.9962e-5 -0.05245339 -1 2.32307e-5 0 0 1 0 0 1 0 0.9981676 0 -0.06051069 0.2653909 -0.964141 0 0 1 0 1 7.45036e-6 0 -1 2.88329e-5 0 1 5.73784e-7 0 1 -5.76658e-5 0 0 1 0 0.2653931 0.9641404 0 0 1 0 1 -6.02124e-7 1.39938e-7 -1 1.20653e-6 0 -1 -6.88852e-6 0 1 1.34341e-6 0 -1 1.04109e-5 0 -1 -7.45027e-6 0 -1 2.0919e-7 0 1 -1.14321e-5 0 -1 9.88667e-6 0 -1 0 -1.79788e-7 0 0.9995452 0.03016048 1 -2.98098e-6 1.22682e-7 0 -0.9995452 0.03016018 1 -3.69185e-6 3.21754e-7 -0.358749 0.9334341 0 -0.3587442 -0.9334359 0 1 1.41463e-6 0 1 -1.0898e-6 0 0 -0.999811 -0.01944446 -1 2.77461e-5 0 0.9814838 -4.24549e-5 -0.1915451 0 -1 0 0.996827 -1.34497e-4 -0.07959908 0.9890238 -6.51944e-5 -0.1477569 -1 2.81944e-5 0 -1 2.20609e-5 0 -1 -1.49748e-6 0 0.9968568 -2.18486e-5 -0.07922631 0 -1 0 0 0.9998109 -0.01944464 0.9986234 -2.9962e-5 -0.0524531 -1 2.32307e-5 0 0 1 0 0 1 0 0 -1 0 0 1 0 0.9981676 0 -0.06051105 0 1 0 -1 2.88329e-5 0 1 5.73785e-7 0 1 -5.76657e-5 0 0 1 0 0.265394 0.9641401 0 0 1 0 1 -6.02124e-7 1.39938e-7 -1 1.20653e-6 0 -1 -6.88854e-6 0 1 1.3434e-6 0 -1 1.04109e-5 0 -1 -7.45029e-6 0 -1 2.0919e-7 0 1 -1.14321e-5 0 -1 9.88669e-6 0 -1 0 -1.79788e-7 0 0.9995452 0.03016042 1 -2.98098e-6 1.22682e-7 0 -0.9995452 0.03016018 1 -3.69185e-6 3.21753e-7 -0.3587479 0.9334346 0 -0.3587431 -0.9334363 0 1 -5.37931e-5 0 -1 2.68965e-5 0 0 -0.9998109 -0.01944458 -1 2.21965e-5 0 1 -3.72519e-6 0 0.9814838 -5.30678e-5 -0.1915454 0.9968269 0 -0.07960122 0.9890239 -2.44473e-5 -0.1477561 -1 2.4166e-5 0 1 4.61502e-7 0 -1 2.75759e-5 0 -1 -4.61505e-7 0 0.9968566 -2.62179e-5 -0.07922714 0 0.9998109 -0.0194444 0.9986233 0 -0.05245453 -1 1.15283e-6 0 -1 5.22681e-5 0 -1 -3.7437e-7 0 0 1 0 0 -1 0 0 1 0 0 -1 0 0.9981676 0 -0.06051033 1 -9.1828e-6 0 1 -5.76648e-5 0 0.2653894 0.9641413 0 1 -9.89676e-6 0 -1 -7.45032e-6 0 -1 4.82612e-6 0 1 -9.27411e-6 0 -1 1.14579e-6 0 0 0.9995452 0.03016012 1 -1.63315e-6 1.51228e-7 0 -0.9995452 0.03016036 -0.3587446 0.9334357 0 -0.3587444 -0.9334359 0 1 -5.3794e-5 0 -1 3.13799e-5 0 1 -1.34339e-6 0 0 -0.9998109 -0.01944446 -1 2.77461e-5 0 1 -3.72514e-6 0 0.9814838 -7.42961e-5 -0.1915454 0 -1 0 0 1 0 0.9968269 -2.19593e-5 -0.07960081 0 -1 0 0.9890236 -1.62986e-5 -0.1477577 -1 2.81944e-5 0 1 -4.61486e-7 0 -1 3.30914e-5 0 -1 9.22961e-7 0 0.9968566 -2.62183e-5 -0.07922655 0 0.9998109 -0.0194447 0.9986234 0 -0.05245357 -1 5.80767e-5 0 -1 3.74372e-7 0 0 -1 0 0 -1 0 0 -1 0 0 1 0 0.9981676 -1.01952e-4 -0.06051027 0 1 0 0 -1 0 0.2653944 0.9641399 0 1 -1.18758e-5 0 -1 6.03257e-6 0 -1 9.18461e-6 0 1 -1.05989e-5 0 -1 1.26034e-5 0 -1 1.0041e-5 0 0 0.9995452 0.03016048 1 -1.63318e-6 1.5123e-7 0 -0.9995452 0.03016012 1 -7.48736e-7 0 -0.3587468 0.9334349 0 1 -1.34339e-6 0 0 -0.9998109 -0.01944446 1 -3.72514e-6 0 0.9814837 -7.42961e-5 -0.1915459 0 1 0 0.996827 -2.19593e-5 -0.07960033 0.9890236 -1.62986e-5 -0.1477579 -1 3.30914e-5 0 -1 9.22963e-7 0 0.9968567 -2.62183e-5 -0.07922685 0 0.9998109 -0.0194447 0.9986234 0 -0.05245369 -1 5.80767e-5 0 0 1 0 -1 3.74372e-7 0 0 1 0 0 -1 0 0 1 0 0 -1 0 0 1 0 0.9981677 -1.01952e-4 -0.06050992 0.26539 -0.9641412 0 0 1 0 0 -1 0 0 -1 0 0.2653935 0.9641402 0 1 -1.18758e-5 0 -1 6.03258e-6 0 1 -1.05989e-5 0 -1 1.26034e-5 0 -1 1.0041e-5 0 0 0.9995452 0.03016048 1 -1.63318e-6 1.5123e-7 1 -7.48738e-7 0 -0.358748 0.9334346 0</float_array>
          <technique_common>
            <accessor source="#Cube_079-mesh-normals-array" count="257" stride="3">
              <param name="X" type="float"/>
              <param name="Y" type="float"/>
              <param name="Z" type="float"/>
            </accessor>
          </technique_common>
        </source>
        <source id="Cube_079-mesh-map-0">
          <float_array id="Cube_079-mesh-map-0-array" count="4104">0.7747492 0.1022374 0.7747492 0 0.9080861 0 0.7747492 0.5111873 0.7747492 0.4089499 0.9080852 0.4089497 0.7747492 0.5111873 0.9080258 0.5111873 0.9080258 0.6134247 0.9080852 0.3067123 0.9080853 0.4089497 0.7747492 0.4089496 0.908086 0.3067122 0.7747492 0.3067122 0.7747492 0.2044748 0.908086 0.1022374 0.9080861 0.2044748 0.7747492 0.2044748 0.9080861 0.1022374 0.7747492 0.1022374 0.9080861 0 0.9080852 0.5111871 0.7747492 0.5111873 0.9080852 0.4089497 0.7747493 0.6134247 0.7747492 0.5111873 0.9080258 0.6134247 0.7747492 0.3067122 0.9080852 0.3067123 0.7747492 0.4089496 0.908086 0.2044748 0.908086 0.3067122 0.7747492 0.2044748 0.7747492 0.1022375 0.908086 0.1022374 0.7747492 0.2044748 0.7759563 0.7236065 0.7759563 0.7268356 0.7747492 0.7268356 0.9749119 0.2012451 0.9761191 0.2012451 0.9761191 0.2044742 0.9975845 1 0.9963775 1 0.9963775 0.9812383 0.9602752 0.2436084 0.9573701 0.3121058 0.9573701 0.1144852 0.9192157 0.9978085 0.9180087 0.9978085 0.9180087 0.9790384 0.9602755 0.500134 0.9602754 0.2436084 0.9631806 0.3121059 0.9333691 0.9978082 0.9333595 0.883272 0.9375709 0.883272 0.9192157 0.8856525 0.9180087 0.8856525 0.9180086 0.6430431 0.9602755 0.9785948 0.9631807 0.9083446 0.9631807 0.9235666 0.9975845 0.7627242 0.9975848 0.8878948 0.9963777 0.8878948 0.05727589 0.09338587 0.1145519 0.09338593 0.1145519 0.1954767 0.5737754 0.9790378 0.5737754 0.885652 0.6310513 0.8856519 0.6246867 0.06111383 0.6310514 0 0.6310514 0.2849203 0.976119 0.2595654 0.9791346 0.25756 0.9791346 0.2950825 0.9749119 0.2156482 0.976119 0.2156482 0.976119 0.2595654 0.9963778 0.06123316 0.9963778 0 0.9975849 0 0.5737754 0.885652 0.5896189 0.7723588 0.6310513 0.7835613 0.0731194 0.2066791 0.1145519 0.1954767 0.1145519 0.3940904 0.9975844 0.5986719 0.9975845 0.7627242 0.9963775 0.7627242 0.9180086 0.6430431 0.9180087 0.8856525 0.9151036 0.8330019 0.9192157 0.6430431 0.9180086 0.6430431 0.9180086 0.4759152 0.9602754 0.8852512 0.9602754 0.9785948 0.9573702 0.9083446 0.9192157 0.4759152 0.9180086 0.4759152 0.9180086 0.2318128 0.9180087 0.8856525 0.9180087 0.9790384 0.9151036 0.9087564 0.9975844 0.5986719 0.9963773 0.5986719 0.9963774 0.4448105 0.09699565 0.6144773 0.08903706 0.3876818 0.1145519 0.3940904 0.5896189 0.7723588 0.6055365 0.5913562 0.6310513 0.5849477 0.9460226 0 0.946013 0.1145361 0.9418017 0.1145361 0.1081873 0.9179243 0.09699565 0.6144773 0.1145519 0.6941178 0.9975845 0.4448105 0.9963774 0.4448105 0.9963775 0.2988155 0.9192157 0.6430431 0.9221209 0.63619 0.9221209 0.8330019 0.9192157 0.2318128 0.9180086 0.2318128 0.9180086 0 0.6134951 0.3645607 0.6310514 0.2849203 0.6310513 0.5849477 0.9192157 0.8856525 0.9221209 0.8330019 0.9221209 0.9087564 0.5959388 0.4442012 0.6134951 0.3645607 0.6055365 0.5913562 0.08942937 0.6806673 0.0794394 0.5348368 0.09699565 0.6144773 0.5800217 0.5977647 0.6055365 0.5913562 0.5896189 0.7723588 0.0794394 0.5348368 0.06352221 0.3812732 0.08903706 0.3876818 0.06352221 0.3812732 0.03168702 0.2178815 0.0731194 0.2066791 0.5481865 0.7611564 0.5896189 0.7723588 0.5737754 0.885652 0.9963775 0.2988155 0.9963778 0.06123316 0.9975848 0.06123316 0.9749119 0.2595654 0.976119 0.2595654 0.976119 0.3034825 0.8237111 0.6134247 0.8237099 0.621817 0.7992302 0.621817 0.6059288 0.2983708 0.6246867 0.06111383 0.6134951 0.3645607 0.5164995 0.885652 0.5737754 0.885652 0.5737754 0.9790378 0.03168702 0.2178815 0 0.09338581 0.05727589 0.09338587 0.9718964 0.5565903 0.9749119 0.5545849 0.9749119 0.5921074 0 0 0.05727589 0 0.05727589 0.09338587 0.05727589 0 0.1145518 0 0.1145519 0.09338593 0.9749119 0.2595654 0.9749119 0.3034825 0.9718964 0.2950825 0.9602754 0.9785948 0.9602754 0.9973564 0.9573702 0.9235666 0.9192157 0.9790384 0.9180087 0.9790384 0.9180087 0.8856525 0.9602754 0.2436084 0.9602754 0 0.9631805 0.1144852 0.9975846 0.9812383 0.9963775 0.9812383 0.9963777 0.8878948 0.1145518 0 0.1291247 1.21876e-7 0.1291248 0.09338599 0.9749119 0.4136648 0.9718964 0.4180541 0.9718964 0.4085071 0.6310514 0.2849203 0.6456243 0.2437186 0.6456242 0.5003604 0.114552 0.9790382 0.1145519 0.6941178 0.1291248 0.7353194 0.6310513 0.5849477 0.6456242 0.5003604 0.6456242 0.6745457 0.1145519 0.6941178 0.1145519 0.3940904 0.1291248 0.4786777 0.6310513 0.7835613 0.6456242 0.6745457 0.6456242 0.8856519 0.1145519 0.3940904 0.1145519 0.1954767 0.1291248 0.3044923 0.1145519 0.1954767 0.1145519 0.09338593 0.1291248 0.09338599 0.6310513 0.9790378 0.6310513 0.8856519 0.6456242 0.8856519 0.6310514 0 0.6456243 0 0.6456243 0.2437186 0.8726741 0.7124324 0.872673 0.7040401 0.8971527 0.7040401 0.9749119 0.2044743 0.9761191 0.2044742 0.976119 0.2156482 0.7759563 0.7124325 0.7759563 0.7236065 0.7747492 0.7236065 0.9333595 0.07382404 0.9375708 0.07382404 0.9375708 0.08905291 0.9418017 0.1145361 0.946013 0.1145361 0.946013 0.3025882 0.9418016 0.8330006 0.946013 0.8330006 0.9460129 0.908755 0.9333595 0.3360631 0.9333595 0.1648074 0.9375708 0.1648074 0.9333595 0.4773665 0.9333595 0.3360631 0.9375708 0.3616193 0.9418016 0.6617449 0.946013 0.6361888 0.946013 0.8330006 0.9333595 0.6855618 0.9333595 0.4773665 0.9375708 0.4971973 0.9418016 0.5204416 0.946013 0.5006107 0.946013 0.6361888 0.9333595 0.883272 0.9333595 0.6855618 0.9375709 0.6952198 0.9418017 0.3122463 0.946013 0.3025882 0.946013 0.5006107 0.9418016 0.908755 0.9460129 0.908755 0.9460129 0.9239839 0.9333595 0.08905291 0.9375708 0.08905291 0.9375708 0.1648074 0.9602755 0.6742405 0.9602755 0.500134 0.9631806 0.5202069 0.9192157 0.2318128 0.9192157 0 0.9221208 0.1145371 0.9192157 0.9790384 0.9221209 0.9087564 0.9221209 0.9239853 0.9602753 0.5001339 0.9573702 0.5202069 0.9573701 0.3121058 0.9180086 0.2318128 0.9151035 0.3025894 0.9151034 0.1145371 0.9192157 0.4759152 0.9192157 0.2318128 0.9221208 0.3025894 0.9180087 0.9790384 0.9180087 0.9978085 0.9151036 0.9239853 0.9192157 0.6430431 0.9192157 0.4759152 0.9221209 0.5006119 0.9602755 0.6742405 0.9631806 0.6614463 0.9631806 0.8326244 0.9180086 0.4759152 0.9151035 0.5006119 0.9151035 0.3025894 0.9180086 0.6430431 0.9151035 0.63619 0.9151035 0.5006119 0.9602754 0.6742405 0.9573702 0.6614463 0.9573702 0.5202069 0.9418112 0.9978079 0.9418016 0.9239839 0.9460129 0.9239839 0.9602754 0.6742405 0.9602754 0.8852512 0.9573702 0.8326244 0.9375804 0 0.9375708 0.07382404 0.9333595 0.07382404 0.9602755 0.8852512 0.9631806 0.8326244 0.9631807 0.9083446 0.8237099 0.6593394 0.8237099 0.6968616 0.7992301 0.6968617 0.8237099 0.621817 0.8237099 0.6593394 0.7992302 0.6593394 0.872673 0.7040401 0.872673 0.6665178 0.8971528 0.6665178 0.872673 0.6665178 0.872673 0.6289955 0.8971528 0.6289955 0.872673 0.6289955 0.872673 0.6194486 0.8971528 0.6194486 0.8237099 0.6968616 0.8237099 0.7064086 0.7992302 0.7064086 0.8971539 0.6134247 0.8971528 0.6194486 0.872673 0.6194486 0.9749119 0.4575819 0.9749119 0.5014991 0.9718964 0.4930992 0.9749119 0.4575819 0.9718964 0.4555765 0.9718964 0.4180541 0.9749119 0.2156482 0.9718964 0.2200375 0.9718964 0.2104905 0.9718964 0.5565903 0.9718964 0.5126731 0.9749119 0.5170623 0.7992313 0.7124325 0.7992302 0.7064086 0.8237099 0.7064086 0.9749119 0.2595654 0.9718964 0.25756 0.9718964 0.2200375 0.976119 0.2156482 0.9761191 0.2044742 0.9791346 0.2104905 0.976119 0.2595654 0.976119 0.2156482 0.9791346 0.2200375 0.9718964 0.5126731 0.9718964 0.5014991 0.9749119 0.5075153 0.7771633 0.7156616 0.7771633 0.7124325 0.7783704 0.7124325 0.9001695 0.6134247 0.9013766 0.6134247 0.9013766 0.6166538 0.9999997 1 0.9987926 1 0.9987927 0.9812384 0.9689911 0.24361 0.966086 0.3121074 0.9660859 0.1144851 0.9121983 0.9978085 0.9109913 0.9978085 0.9109913 0.9790384 0.9718964 0.4972224 0.9718964 0.7537463 0.9689912 0.685249 0.9333497 0 0.9333594 0.1145362 0.929148 0.1145362 0.9121983 0.8856525 0.9109913 0.8856525 0.9109913 0.6430431 0.9718964 0.01876157 0.9689912 0.08900862 0.9689912 0.07378977 0.9999997 0.7627242 0.9999999 0.8878948 0.9987928 0.8878948 0.1864008 0.09338587 0.2436767 0.09338593 0.2436767 0.1954767 0.4446505 0.9790378 0.4446505 0.885652 0.5019264 0.885652 0.4955618 0.06111383 0.5019266 0 0.5019265 0.2849203 0.9013766 0.671745 0.9043921 0.6697396 0.9043921 0.7072621 0.9001695 0.6278278 0.9013766 0.6278278 0.9013766 0.671745 1 0.06123316 0.9987929 0.06123465 0.998793 0 0.4446505 0.885652 0.460494 0.7723588 0.5019264 0.7835613 0.2022443 0.2066791 0.2436767 0.1954767 0.2436767 0.3940904 0.9999995 0.5986735 0.9999997 0.7627242 0.9987926 0.7627242 0.9109913 0.6430431 0.9109913 0.8856525 0.9080861 0.8330019 0.9121983 0.6430431 0.9109913 0.6430431 0.9109912 0.4759168 0.9689912 0.8852512 0.9689912 0.9785947 0.9660861 0.9083477 0.9121983 0.4759168 0.9109912 0.4759168 0.9109912 0.2318128 0.9109913 0.8856525 0.9109913 0.9790384 0.9080861 0.9087595 0.9999995 0.5986735 0.9987924 0.5986735 0.9987925 0.4448121 0.2261205 0.6144757 0.218162 0.3876802 0.2436767 0.3940904 0.460494 0.7723588 0.4764117 0.5913578 0.5019264 0.5849477 0.9418016 0 0.941792 0.1145362 0.9375806 0.1145362 0.2373121 0.9179228 0.2261205 0.6144757 0.2436768 0.6941162 0.9999996 0.4448121 0.9987925 0.4448121 0.9987927 0.2988156 0.9121983 0.6430431 0.9151034 0.6361915 0.9151034 0.8330019 0.9121983 0.2318128 0.9109912 0.2318128 0.9109911 0 0.4843702 0.3645624 0.5019265 0.2849203 0.5019264 0.5849477 0.9121983 0.8856525 0.9151034 0.8330019 0.9151034 0.9087595 0.4668139 0.4442028 0.4843702 0.3645624 0.4764117 0.5913578 0.2185542 0.6806673 0.2085642 0.5348352 0.2261205 0.6144757 0.4508968 0.5977663 0.4764117 0.5913578 0.460494 0.7723588 0.2085642 0.5348352 0.1926471 0.3812716 0.218162 0.3876802 0.1926471 0.3812716 0.1608119 0.2178815 0.2022443 0.2066791 0.4190616 0.7611564 0.460494 0.7723588 0.4446505 0.885652 0.9999998 0.2988156 0.9987927 0.2988156 0.9987929 0.06123465 0.9001695 0.671745 0.9013766 0.671745 0.9013766 0.7156621 0.8237111 0.7124325 0.8237122 0.7040402 0.848192 0.7040401 0.476804 0.2983708 0.4955618 0.06111383 0.4843702 0.3645624 0.3873746 0.8856521 0.4446505 0.885652 0.4446505 0.9790378 0.1608119 0.2178815 0.1291249 0.09338587 0.1864008 0.09338587 0.9080258 0.6573418 0.9050102 0.6593472 0.9050102 0.6218247 0.1291249 0 0.1864008 0 0.1864008 0.09338587 0.1864008 0 0.2436767 0 0.2436767 0.09338593 0.9001695 0.671745 0.9001695 0.7156621 0.897154 0.7072622 0.9689912 0.9785947 0.9689912 0.9973564 0.9660861 0.9235666 0.9121983 0.9790384 0.9109913 0.9790384 0.9109913 0.8856525 0.9718964 0.7537463 0.9718964 0.9973564 0.9689912 0.8828712 0.9999997 0.9812384 0.9987927 0.9812384 0.9987928 0.8878948 0.2436767 0 0.2582497 1.46252e-7 0.2582497 0.09338599 0.9779275 0.3146566 0.974912 0.3190458 0.974912 0.3094988 0.5019265 0.2849203 0.5164994 0.2437202 0.5164994 0.5003604 0.2436768 0.9790382 0.2436768 0.6941162 0.2582497 0.7353178 0.5019264 0.5849477 0.5164994 0.5003604 0.5164994 0.6745473 0.2436768 0.6941162 0.2436767 0.3940904 0.2582497 0.4786777 0.5019264 0.7835613 0.5164994 0.6745473 0.5164994 0.8856519 0.2436767 0.3940904 0.2436767 0.1954767 0.2582497 0.3044908 0.2436767 0.1954767 0.2436767 0.09338593 0.2582497 0.09338599 0.5019264 0.9790378 0.5019264 0.885652 0.5164994 0.8856519 0.5019266 0 0.5164995 0 0.5164994 0.2437202 0.9963762 0 0.9963773 0.008392274 0.9718976 0.008392214 0.9001695 0.6166539 0.9013766 0.6166538 0.9013766 0.6278278 0.7771633 0.7268356 0.7771633 0.7156616 0.7783704 0.7156616 0.9333595 0.9239842 0.9291481 0.9239842 0.9291481 0.9087584 0.9375806 0.1145362 0.941792 0.1145362 0.941792 0.3025883 0.9375805 0.8330006 0.9417919 0.8330006 0.9417919 0.9087581 0.9333595 0.6617467 0.9333595 0.8330008 0.9291481 0.8330008 0.9333595 0.5204418 0.9333595 0.6617467 0.9291481 0.6361905 0.9375805 0.6617465 0.9417919 0.6361903 0.9417919 0.8330006 0.9333594 0.312248 0.9333595 0.5204418 0.929148 0.5006124 0.9375805 0.5204417 0.9417919 0.5006123 0.9417919 0.6361903 0.9333594 0.1145362 0.9333594 0.312248 0.929148 0.3025884 0.9375806 0.3122479 0.941792 0.3025883 0.9417919 0.5006123 0.9375805 0.9087581 0.9417919 0.9087581 0.9417919 0.9239839 0.9333595 0.9087584 0.9291481 0.9087584 0.9291481 0.8330008 0.9718964 0.3231143 0.9718964 0.4972224 0.9689912 0.4771494 0.9121983 0.2318128 0.9121983 0 0.9151034 0.1145371 0.9121983 0.9790384 0.9151034 0.9087595 0.9151034 0.9239853 0.9689912 0.5001339 0.966086 0.5202069 0.966086 0.3121074 0.9109912 0.2318128 0.908086 0.3025894 0.908086 0.1145371 0.9121983 0.4759168 0.9121983 0.2318128 0.9151034 0.3025894 0.9109913 0.9790384 0.9109913 0.9978085 0.9080861 0.9239853 0.9121983 0.6430431 0.9121983 0.4759168 0.9151034 0.5006134 0.9718964 0.3231143 0.9689912 0.3359085 0.9689912 0.1647319 0.9109912 0.4759168 0.9080861 0.5006134 0.908086 0.3025894 0.9109913 0.6430431 0.9080861 0.6361915 0.9080861 0.5006134 0.9689912 0.674242 0.966086 0.6614478 0.966086 0.5202069 0.9375901 0.9978079 0.9375805 0.9239839 0.9417919 0.9239839 0.9689912 0.674242 0.9689912 0.8852512 0.9660861 0.8326244 0.9291385 0.9978082 0.9291481 0.9239842 0.9333595 0.9239842 0.9718964 0.1121051 0.9689912 0.1647319 0.9689912 0.08900862 0.8237122 0.6665178 0.8237122 0.6289955 0.848192 0.6289955 0.8237122 0.7040402 0.8237122 0.6665178 0.848192 0.6665178 0.9963773 0.008392274 0.9963773 0.04591459 0.9718976 0.04591459 0.9963773 0.04591459 0.9963773 0.08343696 0.9718976 0.0834369 0.9963773 0.08343696 0.9963772 0.0929839 0.9718975 0.09298384 0.8237122 0.6289955 0.8237122 0.6194486 0.848192 0.6194486 0.9718964 0.09900766 0.9718975 0.09298384 0.9963772 0.0929839 0.9779275 0.3585737 0.9779275 0.4024908 0.974912 0.3940908 0.9779275 0.3585737 0.974912 0.3565683 0.974912 0.3190458 0.9001695 0.6278278 0.897154 0.6322171 0.897154 0.6226701 0.9080258 0.6573418 0.9080258 0.701259 0.9050102 0.6968698 0.8481909 0.6134247 0.848192 0.6194486 0.8237122 0.6194486 0.9001695 0.671745 0.897154 0.6697396 0.897154 0.6322171 0.9013766 0.6278278 0.9013766 0.6166538 0.9043921 0.6226701 0.9013766 0.671745 0.9013766 0.6278278 0.9043921 0.6322171 0.9080258 0.701259 0.9080258 0.712433 0.9050102 0.7064168 0.7771633 0.7236065 0.7771633 0.7268356 0.7759562 0.7268356 0.974912 0.09900772 0.9761191 0.09900772 0.9761191 0.1022368 0.9987921 1 0.997585 1 0.9975851 0.9812384 0.9660858 0.2436099 0.9631807 0.3121073 0.9631807 0.1144852 0.9262332 0.9978085 0.9250261 0.9978085 0.9250261 0.9790383 0.9544649 0.500134 0.9544649 0.24361 0.95737 0.3121074 0.9460324 0.9978082 0.9460227 0.883272 0.9502341 0.883272 0.9262332 0.8856524 0.9250261 0.8856524 0.9250261 0.6430431 0.954465 0.9785948 0.9573701 0.9083477 0.9573701 0.9235666 0.9987921 0.7627243 0.9987924 0.8878948 0.9975853 0.8878948 0.3155257 0.09338587 0.3728016 0.09338593 0.3728016 0.1954766 0.7029002 0.9790378 0.7029002 0.885652 0.7601761 0.885652 0.7538115 0.06111389 0.7601763 0 0.7601762 0.2849203 0.9761191 0.157328 0.9791346 0.1553226 0.9791346 0.1928451 0.9749119 0.1134108 0.9761191 0.1134108 0.9761191 0.157328 0.9987924 0.0612331 0.9975854 0.06123465 0.9975854 0 0.7029002 0.885652 0.7187438 0.7723588 0.7601761 0.7835613 0.3313692 0.2066791 0.3728016 0.1954766 0.3728016 0.3940903 0.9987919 0.5986735 0.9987921 0.7627243 0.997585 0.7627243 0.9250261 0.6430431 0.9250261 0.8856524 0.922121 0.8330019 0.9262332 0.6430431 0.9250261 0.6430431 0.9250261 0.4759167 0.9660859 0.8852511 0.9660859 0.9785947 0.9631808 0.9083477 0.9262332 0.4759167 0.9250261 0.4759167 0.9250261 0.2318127 0.9250261 0.8856524 0.9250261 0.9790383 0.922121 0.9087595 0.9987919 0.5986735 0.9975849 0.5986735 0.9975849 0.4448122 0.3552454 0.6144757 0.3472868 0.3876802 0.3728016 0.3940903 0.7187438 0.7723588 0.7346614 0.5913578 0.7601762 0.5849477 0.9544648 0 0.9544552 0.1145361 0.9502438 0.1145361 0.366437 0.9179227 0.3552454 0.6144757 0.3728016 0.6941162 0.998792 0.4448122 0.9975849 0.4448122 0.9975851 0.2988156 0.9262332 0.6430431 0.9291383 0.6361914 0.9291383 0.8330019 0.9262331 0.2318127 0.9250261 0.2318127 0.9250261 0 0.7426199 0.3645624 0.7601762 0.2849203 0.7601762 0.5849477 0.9262332 0.8856524 0.9291383 0.8330019 0.9291383 0.9087595 0.7250637 0.4442029 0.7426199 0.3645624 0.7346614 0.5913578 0.3476791 0.6806672 0.3376891 0.5348351 0.3552454 0.6144757 0.7091466 0.5977664 0.7346614 0.5913578 0.7187438 0.7723588 0.3376891 0.5348351 0.321772 0.3812716 0.3472868 0.3876802 0.321772 0.3812716 0.2899368 0.2178815 0.3313692 0.2066791 0.6773113 0.7611564 0.7187438 0.7723588 0.7029002 0.885652 0.9987922 0.2988156 0.9975851 0.2988156 0.9975854 0.06123465 0.9749119 0.157328 0.9761191 0.157328 0.9761191 0.2012451 0.7992301 0.6134247 0.799229 0.621817 0.7747492 0.621817 0.7350537 0.2983708 0.7538115 0.06111389 0.7426199 0.3645624 0.6456243 0.8856521 0.7029002 0.885652 0.7029002 0.9790378 0.2899368 0.2178815 0.2582498 0.09338581 0.3155257 0.09338587 0.9718964 0.3585737 0.9749119 0.3565683 0.9749119 0.3940909 0.2582498 0 0.3155257 0 0.3155257 0.09338587 0.3155257 0 0.3728016 0 0.3728016 0.09338593 0.9749119 0.157328 0.9749119 0.2012451 0.9718964 0.1928452 0.9660859 0.9785947 0.9660859 0.9973564 0.9631808 0.9235666 0.9262332 0.9790384 0.9250261 0.9790383 0.9250261 0.8856524 0.9544649 0.24361 0.9544648 0 0.95737 0.1144852 0.9987921 0.9812384 0.9975851 0.9812384 0.9975853 0.8878948 0.3728016 0 0.3873745 1.21876e-7 0.3873745 0.09338593 0.9749119 0.6116814 0.9718964 0.6160706 0.9718964 0.6065236 0.7601762 0.2849203 0.7747491 0.2437202 0.7747491 0.5003604 0.3728017 0.9790382 0.3728016 0.6941162 0.3873745 0.7353178 0.7601762 0.5849477 0.7747491 0.5003604 0.7747491 0.6745473 0.3728016 0.6941162 0.3728016 0.3940903 0.3873745 0.4786776 0.7601761 0.7835613 0.7747491 0.6745473 0.7747491 0.885652 0.3728016 0.3940903 0.3728016 0.1954766 0.3873745 0.3044907 0.3728016 0.1954766 0.3728016 0.09338593 0.3873745 0.09338593 0.7601761 0.9790378 0.7601761 0.885652 0.7747491 0.885652 0.7601763 0 0.7747492 0 0.7747491 0.2437202 0.8726719 0.6134247 0.872673 0.621817 0.8481932 0.621817 0.974912 0.1022368 0.9761191 0.1022368 0.9761191 0.1134108 0.7771633 0.7124325 0.7771633 0.7236065 0.7759562 0.7236065 0.9460226 0.07382404 0.950234 0.07382404 0.950234 0.08904981 0.9502438 0.1145361 0.9544552 0.1145361 0.9544551 0.3025882 0.9502437 0.8330006 0.9544551 0.8330006 0.9544551 0.9087581 0.9460226 0.3360615 0.9460227 0.1648074 0.950234 0.1648074 0.9460227 0.4773665 0.9460226 0.3360615 0.9502341 0.3616178 0.9502437 0.6617465 0.9544551 0.6361902 0.9544551 0.8330006 0.9460227 0.6855602 0.9460227 0.4773665 0.9502341 0.4971958 0.9502438 0.5204416 0.9544551 0.5006122 0.9544551 0.6361902 0.9460227 0.883272 0.9460227 0.6855602 0.9502341 0.6952199 0.9502438 0.3122478 0.9544551 0.3025882 0.9544551 0.5006122 0.9502437 0.9087581 0.9544551 0.9087581 0.9544551 0.9239839 0.9460226 0.08904981 0.950234 0.08904981 0.950234 0.1648074 0.9544649 0.674242 0.9544649 0.500134 0.9573701 0.5202069 0.9262331 0.2318127 0.9262331 0 0.9291383 0.114537 0.9262332 0.9790384 0.9291383 0.9087595 0.9291384 0.9239853 0.9660859 0.5001339 0.9631807 0.5202069 0.9631807 0.3121073 0.9250261 0.2318127 0.9221209 0.3025893 0.9221209 0.114537 0.9262332 0.4759167 0.9262331 0.2318127 0.9291383 0.3025893 0.9250261 0.9790383 0.9250261 0.9978085 0.922121 0.9239853 0.9262332 0.6430431 0.9262332 0.4759167 0.9291383 0.5006133 0.9544649 0.674242 0.9573701 0.6614479 0.9573701 0.8326244 0.9250261 0.4759167 0.9221209 0.5006133 0.9221209 0.3025893 0.9250261 0.6430431 0.9221209 0.6361914 0.9221209 0.5006133 0.9660859 0.674242 0.9631807 0.6614478 0.9631807 0.5202069 0.9502533 0.9978079 0.9502437 0.9239839 0.9544551 0.9239839 0.9660859 0.674242 0.9660859 0.8852511 0.9631808 0.8326244 0.9502436 0 0.950234 0.07382404 0.9460226 0.07382404 0.954465 0.8852512 0.9573701 0.8326244 0.9573701 0.9083477 0.799229 0.6593394 0.799229 0.6968617 0.7747492 0.6968617 0.799229 0.621817 0.799229 0.6593394 0.7747492 0.6593394 0.872673 0.621817 0.872673 0.6593394 0.8481932 0.6593393 0.872673 0.6593394 0.872673 0.6968617 0.8481932 0.6968616 0.872673 0.6968617 0.872673 0.7064086 0.8481932 0.7064086 0.799229 0.6968617 0.799229 0.7064086 0.7747492 0.7064086 0.848192 0.7124324 0.8481932 0.7064086 0.872673 0.7064086 0.9749119 0.6555985 0.9749119 0.6995157 0.9718964 0.6911157 0.9749119 0.6555985 0.9718964 0.6535931 0.9718964 0.6160706 0.9749119 0.1134108 0.9718964 0.1178001 0.9718964 0.1082531 0.9718964 0.3585737 0.9718964 0.3146566 0.9749119 0.3190458 0.7747504 0.7124325 0.7747492 0.7064086 0.799229 0.7064086 0.9749119 0.157328 0.9718964 0.1553226 0.9718964 0.1178001 0.9761191 0.1134108 0.9761191 0.1022368 0.9791346 0.108253 0.9761191 0.157328 0.9761191 0.1134108 0.9791346 0.1178 0.9718964 0.3146566 0.9718964 0.3034825 0.9749119 0.3094988 0.7747492 0.7236065 0.7759563 0.7236065 0.7747492 0.7268356 0.9749119 0.2044743 0.9749119 0.2012451 0.9761191 0.2044742 0.9975846 0.9812383 0.9975845 1 0.9963775 0.9812383 0.9602752 0 0.9602752 0.2436084 0.9573701 0.1144852 0.9192157 0.9790384 0.9192157 0.9978085 0.9180087 0.9790384 0.9631806 0.5202069 0.9602755 0.500134 0.9631806 0.3121059 0.9375805 0.9978082 0.9333691 0.9978082 0.9375709 0.883272 0.9192157 0.6430431 0.9192157 0.8856525 0.9180086 0.6430431 0.9602755 0.9973564 0.9602755 0.9785948 0.9631807 0.9235666 0.9963775 0.7627242 0.9975845 0.7627242 0.9963777 0.8878948 0.0731194 0.2066791 0.05727589 0.09338587 0.1145519 0.1954767 0.6310513 0.9790378 0.5737754 0.9790378 0.6310513 0.8856519 0.6134951 0.3645607 0.6246867 0.06111383 0.6310514 0.2849203 0.976119 0.3034825 0.976119 0.2595654 0.9791346 0.2950825 0.9749119 0.2595654 0.9749119 0.2156482 0.976119 0.2595654 0.9975848 0.06123316 0.9963778 0.06123316 0.9975849 0 0.6310513 0.8856519 0.5737754 0.885652 0.6310513 0.7835613 0.08903706 0.3876818 0.0731194 0.2066791 0.1145519 0.3940904 0.9963773 0.5986719 0.9975844 0.5986719 0.9963775 0.7627242 0.9151035 0.63619 0.9180086 0.6430431 0.9151036 0.8330019 0.9192157 0.4759152 0.9192157 0.6430431 0.9180086 0.4759152 0.9573702 0.8326244 0.9602754 0.8852512 0.9573702 0.9083446 0.9192157 0.2318128 0.9192157 0.4759152 0.9180086 0.2318128 0.9151036 0.8330019 0.9180087 0.8856525 0.9151036 0.9087564 0.9975845 0.4448105 0.9975844 0.5986719 0.9963774 0.4448105 0.1145519 0.6941178 0.09699565 0.6144773 0.1145519 0.3940904 0.6310513 0.7835613 0.5896189 0.7723588 0.6310513 0.5849477 0.9418113 0 0.9460226 0 0.9418017 0.1145361 0.114552 0.9790382 0.1081873 0.9179243 0.1145519 0.6941178 0.9975847 0.2988155 0.9975845 0.4448105 0.9963775 0.2988155 0.9192157 0.8856525 0.9192157 0.6430431 0.9221209 0.8330019 0.9192157 0 0.9192157 0.2318128 0.9180086 0 0.6055365 0.5913562 0.6134951 0.3645607 0.6310513 0.5849477 0.9192157 0.9790384 0.9192157 0.8856525 0.9221209 0.9087564 0.5800217 0.5977647 0.5959388 0.4442012 0.6055365 0.5913562 0.1081873 0.9179243 0.08942937 0.6806673 0.09699565 0.6144773 0.5481865 0.7611564 0.5800217 0.5977647 0.5896189 0.7723588 0.09699565 0.6144773 0.0794394 0.5348368 0.08903706 0.3876818 0.08903706 0.3876818 0.06352221 0.3812732 0.0731194 0.2066791 0.5164995 0.885652 0.5481865 0.7611564 0.5737754 0.885652 0.9975847 0.2988155 0.9963775 0.2988155 0.9975848 0.06123316 0.9749119 0.3034825 0.9749119 0.2595654 0.976119 0.3034825 0.7992313 0.6134247 0.8237111 0.6134247 0.7992302 0.621817 0.5959388 0.4442012 0.6059288 0.2983708 0.6134951 0.3645607 0.5164995 0.9790378 0.5164995 0.885652 0.5737754 0.9790378 0.0731194 0.2066791 0.03168702 0.2178815 0.05727589 0.09338587 0.9718964 0.6005074 0.9718964 0.5565903 0.9749119 0.5921074 0 0.09338581 0 0 0.05727589 0.09338587 0.05727589 0.09338587 0.05727589 0 0.1145519 0.09338593 0.9718964 0.25756 0.9749119 0.2595654 0.9718964 0.2950825 0.9573702 0.9083446 0.9602754 0.9785948 0.9573702 0.9235666 0.9192157 0.8856525 0.9192157 0.9790384 0.9180087 0.8856525 0.9631806 0.3121059 0.9602754 0.2436084 0.9631805 0.1144852 0.9975848 0.8878948 0.9975846 0.9812383 0.9963777 0.8878948 0.1145519 0.09338593 0.1145518 0 0.1291248 0.09338599 0.9749119 0.4024909 0.9749119 0.4136648 0.9718964 0.4085071 0.6310513 0.5849477 0.6310514 0.2849203 0.6456242 0.5003604 0.1291249 0.9790382 0.114552 0.9790382 0.1291248 0.7353194 0.6310513 0.7835613 0.6310513 0.5849477 0.6456242 0.6745457 0.1291248 0.7353194 0.1145519 0.6941178 0.1291248 0.4786777 0.6310513 0.8856519 0.6310513 0.7835613 0.6456242 0.8856519 0.1291248 0.4786777 0.1145519 0.3940904 0.1291248 0.3044923 0.1291248 0.3044923 0.1145519 0.1954767 0.1291248 0.09338599 0.6456242 0.9790378 0.6310513 0.9790378 0.6456242 0.8856519 0.6310514 0.2849203 0.6310514 0 0.6456243 0.2437186 0.8971539 0.7124325 0.8726741 0.7124324 0.8971527 0.7040401 0.9749119 0.2156482 0.9749119 0.2044743 0.976119 0.2156482 0.7747492 0.7124325 0.7759563 0.7124325 0.7747492 0.7236065 0.9333595 0.08905291 0.9333595 0.07382404 0.9375708 0.08905291 0.9418017 0.3122463 0.9418017 0.1145361 0.946013 0.3025882 0.9418016 0.908755 0.9418016 0.8330006 0.9460129 0.908755 0.9375708 0.3616193 0.9333595 0.3360631 0.9375708 0.1648074 0.9375708 0.4971973 0.9333595 0.4773665 0.9375708 0.3616193 0.9418016 0.8330006 0.9418016 0.6617449 0.946013 0.8330006 0.9375709 0.6952198 0.9333595 0.6855618 0.9375708 0.4971973 0.9418016 0.6617449 0.9418016 0.5204416 0.946013 0.6361888 0.9375709 0.883272 0.9333595 0.883272 0.9375709 0.6952198 0.9418016 0.5204416 0.9418017 0.3122463 0.946013 0.5006107 0.9418016 0.9239839 0.9418016 0.908755 0.9460129 0.9239839 0.9333595 0.1648074 0.9333595 0.08905291 0.9375708 0.1648074 0.9631806 0.6614463 0.9602755 0.6742405 0.9631806 0.5202069 0.9221208 0.3025894 0.9192157 0.2318128 0.9221208 0.1145371 0.9192157 0.9978085 0.9192157 0.9790384 0.9221209 0.9239853 0.9602752 0.2436084 0.9602753 0.5001339 0.9573701 0.3121058 0.9180086 0 0.9180086 0.2318128 0.9151034 0.1145371 0.9221209 0.5006119 0.9192157 0.4759152 0.9221208 0.3025894 0.9151036 0.9087564 0.9180087 0.9790384 0.9151036 0.9239853 0.9221209 0.63619 0.9192157 0.6430431 0.9221209 0.5006119 0.9602755 0.8852512 0.9602755 0.6742405 0.9631806 0.8326244 0.9180086 0.2318128 0.9180086 0.4759152 0.9151035 0.3025894 0.9180086 0.4759152 0.9180086 0.6430431 0.9151035 0.5006119 0.9602753 0.5001339 0.9602754 0.6742405 0.9573702 0.5202069 0.9460225 0.9978079 0.9418112 0.9978079 0.9460129 0.9239839 0.9573702 0.6614463 0.9602754 0.6742405 0.9573702 0.8326244 0.9333691 0 0.9375804 0 0.9333595 0.07382404 0.9602755 0.9785948 0.9602755 0.8852512 0.9631807 0.9083446 0.7992302 0.6593394 0.8237099 0.6593394 0.7992301 0.6968617 0.7992302 0.621817 0.8237099 0.621817 0.7992302 0.6593394 0.8971527 0.7040401 0.872673 0.7040401 0.8971528 0.6665178 0.8971528 0.6665178 0.872673 0.6665178 0.8971528 0.6289955 0.8971528 0.6289955 0.872673 0.6289955 0.8971528 0.6194486 0.7992301 0.6968617 0.8237099 0.6968616 0.7992302 0.7064086 0.8726742 0.6134247 0.8971539 0.6134247 0.872673 0.6194486 0.9718964 0.4555765 0.9749119 0.4575819 0.9718964 0.4930992 0.9749119 0.4136648 0.9749119 0.4575819 0.9718964 0.4180541 0.9749119 0.2044743 0.9749119 0.2156482 0.9718964 0.2104905 0.9749119 0.5545849 0.9718964 0.5565903 0.9749119 0.5170623 0.8237111 0.7124325 0.7992313 0.7124325 0.8237099 0.7064086 0.9749119 0.2156482 0.9749119 0.2595654 0.9718964 0.2200375 0.9791346 0.2200375 0.976119 0.2156482 0.9791346 0.2104905 0.9791346 0.25756 0.976119 0.2595654 0.9791346 0.2200375 0.9749119 0.5170623 0.9718964 0.5126731 0.9749119 0.5075153 0.7783704 0.7156616 0.7771633 0.7156616 0.7783704 0.7124325 0.9001695 0.6166539 0.9001695 0.6134247 0.9013766 0.6166538 0.9999997 0.9812384 0.9999997 1 0.9987927 0.9812384 0.9689911 0 0.9689911 0.24361 0.9660859 0.1144851 0.9121983 0.9790384 0.9121983 0.9978085 0.9109913 0.9790384 0.9689912 0.4771494 0.9718964 0.4972224 0.9689912 0.685249 0.9291384 0 0.9333497 0 0.929148 0.1145362 0.9121983 0.6430431 0.9121983 0.8856525 0.9109913 0.6430431 0.9718964 0 0.9718964 0.01876157 0.9689912 0.07378977 0.9987926 0.7627242 0.9999997 0.7627242 0.9987928 0.8878948 0.2022443 0.2066791 0.1864008 0.09338587 0.2436767 0.1954767 0.5019264 0.9790378 0.4446505 0.9790378 0.5019264 0.885652 0.4843702 0.3645624 0.4955618 0.06111383 0.5019265 0.2849203 0.9013766 0.7156621 0.9013766 0.671745 0.9043921 0.7072621 0.9001695 0.671745 0.9001695 0.6278278 0.9013766 0.671745 1 0 1 0.06123316 0.998793 0 0.5019264 0.885652 0.4446505 0.885652 0.5019264 0.7835613 0.218162 0.3876802 0.2022443 0.2066791 0.2436767 0.3940904 0.9987924 0.5986735 0.9999995 0.5986735 0.9987926 0.7627242 0.9080861 0.6361915 0.9109913 0.6430431 0.9080861 0.8330019 0.9121983 0.4759168 0.9121983 0.6430431 0.9109912 0.4759168 0.9660861 0.8326244 0.9689912 0.8852512 0.9660861 0.9083477 0.9121983 0.2318128 0.9121983 0.4759168 0.9109912 0.2318128 0.9080861 0.8330019 0.9109913 0.8856525 0.9080861 0.9087595 0.9999996 0.4448121 0.9999995 0.5986735 0.9987925 0.4448121 0.2436768 0.6941162 0.2261205 0.6144757 0.2436767 0.3940904 0.5019264 0.7835613 0.460494 0.7723588 0.5019264 0.5849477 0.9375903 0 0.9418016 0 0.9375806 0.1145362 0.2436768 0.9790382 0.2373121 0.9179228 0.2436768 0.6941162 0.9999998 0.2988156 0.9999996 0.4448121 0.9987927 0.2988156 0.9121983 0.8856525 0.9121983 0.6430431 0.9151034 0.8330019 0.9121983 0 0.9121983 0.2318128 0.9109911 0 0.4764117 0.5913578 0.4843702 0.3645624 0.5019264 0.5849477 0.9121983 0.9790384 0.9121983 0.8856525 0.9151034 0.9087595 0.4508968 0.5977663 0.4668139 0.4442028 0.4764117 0.5913578 0.2373121 0.9179228 0.2185542 0.6806673 0.2261205 0.6144757 0.4190616 0.7611564 0.4508968 0.5977663 0.460494 0.7723588 0.2261205 0.6144757 0.2085642 0.5348352 0.218162 0.3876802 0.218162 0.3876802 0.1926471 0.3812716 0.2022443 0.2066791 0.3873746 0.8856521 0.4190616 0.7611564 0.4446505 0.885652 1 0.06123316 0.9999998 0.2988156 0.9987929 0.06123465 0.9001695 0.7156621 0.9001695 0.671745 0.9013766 0.7156621 0.8481909 0.7124324 0.8237111 0.7124325 0.848192 0.7040401 0.4668139 0.4442028 0.476804 0.2983708 0.4843702 0.3645624 0.3873746 0.9790379 0.3873746 0.8856521 0.4446505 0.9790378 0.2022443 0.2066791 0.1608119 0.2178815 0.1864008 0.09338587 0.9080257 0.6134247 0.9080258 0.6573418 0.9050102 0.6218247 0.1291249 0.09338587 0.1291249 0 0.1864008 0.09338587 0.1864008 0.09338587 0.1864008 0 0.2436767 0.09338593 0.897154 0.6697396 0.9001695 0.671745 0.897154 0.7072622 0.9660861 0.9083477 0.9689912 0.9785947 0.9660861 0.9235666 0.9121983 0.8856525 0.9121983 0.9790384 0.9109913 0.8856525 0.9689912 0.685249 0.9718964 0.7537463 0.9689912 0.8828712 0.9999999 0.8878948 0.9999997 0.9812384 0.9987928 0.8878948 0.2436767 0.09338593 0.2436767 0 0.2582497 0.09338599 0.9779275 0.3034825 0.9779275 0.3146566 0.974912 0.3094988 0.5019264 0.5849477 0.5019265 0.2849203 0.5164994 0.5003604 0.2582498 0.9790382 0.2436768 0.9790382 0.2582497 0.7353178 0.5019264 0.7835613 0.5019264 0.5849477 0.5164994 0.6745473 0.2582497 0.7353178 0.2436768 0.6941162 0.2582497 0.4786777 0.5019264 0.885652 0.5019264 0.7835613 0.5164994 0.8856519 0.2582497 0.4786777 0.2436767 0.3940904 0.2582497 0.3044908 0.2582497 0.3044908 0.2436767 0.1954767 0.2582497 0.09338599 0.5164994 0.9790378 0.5019264 0.9790378 0.5164994 0.8856519 0.5019265 0.2849203 0.5019266 0 0.5164994 0.2437202 0.9718964 0 0.9963762 0 0.9718976 0.008392214 0.9001695 0.6278278 0.9001695 0.6166539 0.9013766 0.6278278 0.7783704 0.7268356 0.7771633 0.7268356 0.7783704 0.7156616 0.9333595 0.9087584 0.9333595 0.9239842 0.9291481 0.9087584 0.9375806 0.3122479 0.9375806 0.1145362 0.941792 0.3025883 0.9375805 0.9087581 0.9375805 0.8330006 0.9417919 0.9087581 0.9291481 0.6361905 0.9333595 0.6617467 0.9291481 0.8330008 0.929148 0.5006124 0.9333595 0.5204418 0.9291481 0.6361905 0.9375805 0.8330006 0.9375805 0.6617465 0.9417919 0.8330006 0.929148 0.3025884 0.9333594 0.312248 0.929148 0.5006124 0.9375805 0.6617465 0.9375805 0.5204417 0.9417919 0.6361903 0.929148 0.1145362 0.9333594 0.1145362 0.929148 0.3025884 0.9375805 0.5204417 0.9375806 0.3122479 0.9417919 0.5006123 0.9375805 0.9239839 0.9375805 0.9087581 0.9417919 0.9239839 0.9333595 0.8330008 0.9333595 0.9087584 0.9291481 0.8330008 0.9689912 0.3359085 0.9718964 0.3231143 0.9689912 0.4771494 0.9151034 0.3025894 0.9121983 0.2318128 0.9151034 0.1145371 0.9121983 0.9978085 0.9121983 0.9790384 0.9151034 0.9239853 0.9689911 0.24361 0.9689912 0.5001339 0.966086 0.3121074 0.9109911 0 0.9109912 0.2318128 0.908086 0.1145371 0.9151034 0.5006134 0.9121983 0.4759168 0.9151034 0.3025894 0.9080861 0.9087595 0.9109913 0.9790384 0.9080861 0.9239853 0.9151034 0.6361915 0.9121983 0.6430431 0.9151034 0.5006134 0.9718964 0.1121051 0.9718964 0.3231143 0.9689912 0.1647319 0.9109912 0.2318128 0.9109912 0.4759168 0.908086 0.3025894 0.9109912 0.4759168 0.9109913 0.6430431 0.9080861 0.5006134 0.9689912 0.5001339 0.9689912 0.674242 0.966086 0.5202069 0.9418015 0.9978079 0.9375901 0.9978079 0.9417919 0.9239839 0.966086 0.6614478 0.9689912 0.674242 0.9660861 0.8326244 0.9333499 0.9978082 0.9291385 0.9978082 0.9333595 0.9239842 0.9718964 0.01876157 0.9718964 0.1121051 0.9689912 0.08900862 0.848192 0.6665178 0.8237122 0.6665178 0.848192 0.6289955 0.848192 0.7040401 0.8237122 0.7040402 0.848192 0.6665178 0.9718976 0.008392214 0.9963773 0.008392274 0.9718976 0.04591459 0.9718976 0.04591459 0.9963773 0.04591459 0.9718976 0.0834369 0.9718976 0.0834369 0.9963773 0.08343696 0.9718975 0.09298384 0.848192 0.6289955 0.8237122 0.6289955 0.848192 0.6194486 0.9963762 0.09900772 0.9718964 0.09900766 0.9963772 0.0929839 0.974912 0.3565683 0.9779275 0.3585737 0.974912 0.3940908 0.9779275 0.3146566 0.9779275 0.3585737 0.974912 0.3190458 0.9001695 0.6166539 0.9001695 0.6278278 0.897154 0.6226701 0.9050102 0.6593472 0.9080258 0.6573418 0.9050102 0.6968698 0.8237112 0.6134247 0.8481909 0.6134247 0.8237122 0.6194486 0.9001695 0.6278278 0.9001695 0.671745 0.897154 0.6322171 0.9043921 0.6322171 0.9013766 0.6278278 0.9043921 0.6226701 0.9043921 0.6697396 0.9013766 0.671745 0.9043921 0.6322171 0.9050102 0.6968698 0.9080258 0.701259 0.9050102 0.7064168 0.7759562 0.7236065 0.7771633 0.7236065 0.7759562 0.7268356 0.974912 0.1022368 0.974912 0.09900772 0.9761191 0.1022368 0.9987921 0.9812384 0.9987921 1 0.9975851 0.9812384 0.9660857 0 0.9660858 0.2436099 0.9631807 0.1144852 0.9262332 0.9790384 0.9262332 0.9978085 0.9250261 0.9790383 0.9573701 0.5202069 0.9544649 0.500134 0.95737 0.3121074 0.9502437 0.9978082 0.9460324 0.9978082 0.9502341 0.883272 0.9262332 0.6430431 0.9262332 0.8856524 0.9250261 0.6430431 0.954465 0.9973564 0.954465 0.9785948 0.9573701 0.9235666 0.997585 0.7627243 0.9987921 0.7627243 0.9975853 0.8878948 0.3313692 0.2066791 0.3155257 0.09338587 0.3728016 0.1954766 0.7601761 0.9790378 0.7029002 0.9790378 0.7601761 0.885652 0.7426199 0.3645624 0.7538115 0.06111389 0.7601762 0.2849203 0.9761191 0.2012451 0.9761191 0.157328 0.9791346 0.1928451 0.9749119 0.157328 0.9749119 0.1134108 0.9761191 0.157328 0.9987924 0 0.9987924 0.0612331 0.9975854 0 0.7601761 0.885652 0.7029002 0.885652 0.7601761 0.7835613 0.3472868 0.3876802 0.3313692 0.2066791 0.3728016 0.3940903 0.9975849 0.5986735 0.9987919 0.5986735 0.997585 0.7627243 0.9221209 0.6361914 0.9250261 0.6430431 0.922121 0.8330019 0.9262332 0.4759167 0.9262332 0.6430431 0.9250261 0.4759167 0.9631808 0.8326244 0.9660859 0.8852511 0.9631808 0.9083477 0.9262331 0.2318127 0.9262332 0.4759167 0.9250261 0.2318127 0.922121 0.8330019 0.9250261 0.8856524 0.922121 0.9087595 0.998792 0.4448122 0.9987919 0.5986735 0.9975849 0.4448122 0.3728016 0.6941162 0.3552454 0.6144757 0.3728016 0.3940903 0.7601761 0.7835613 0.7187438 0.7723588 0.7601762 0.5849477 0.9502534 0 0.9544648 0 0.9502438 0.1145361 0.3728017 0.9790382 0.366437 0.9179227 0.3728016 0.6941162 0.9987922 0.2988156 0.998792 0.4448122 0.9975851 0.2988156 0.9262332 0.8856524 0.9262332 0.6430431 0.9291383 0.8330019 0.9262331 0 0.9262331 0.2318127 0.9250261 0 0.7346614 0.5913578 0.7426199 0.3645624 0.7601762 0.5849477 0.9262332 0.9790384 0.9262332 0.8856524 0.9291383 0.9087595 0.7091466 0.5977664 0.7250637 0.4442029 0.7346614 0.5913578 0.366437 0.9179227 0.3476791 0.6806672 0.3552454 0.6144757 0.6773113 0.7611564 0.7091466 0.5977664 0.7187438 0.7723588 0.3552454 0.6144757 0.3376891 0.5348351 0.3472868 0.3876802 0.3472868 0.3876802 0.321772 0.3812716 0.3313692 0.2066791 0.6456243 0.8856521 0.6773113 0.7611564 0.7029002 0.885652 0.9987924 0.0612331 0.9987922 0.2988156 0.9975854 0.06123465 0.9749119 0.2012451 0.9749119 0.157328 0.9761191 0.2012451 0.7747503 0.6134247 0.7992301 0.6134247 0.7747492 0.621817 0.7250637 0.4442029 0.7350537 0.2983708 0.7426199 0.3645624 0.6456243 0.9790379 0.6456243 0.8856521 0.7029002 0.9790378 0.3313692 0.2066791 0.2899368 0.2178815 0.3155257 0.09338587 0.9718964 0.4024909 0.9718964 0.3585737 0.9749119 0.3940909 0.2582498 0.09338581 0.2582498 0 0.3155257 0.09338587 0.3155257 0.09338587 0.3155257 0 0.3728016 0.09338593 0.9718964 0.1553226 0.9749119 0.157328 0.9718964 0.1928452 0.9631808 0.9083477 0.9660859 0.9785947 0.9631808 0.9235666 0.9262332 0.8856524 0.9262332 0.9790384 0.9250261 0.8856524 0.95737 0.3121074 0.9544649 0.24361 0.95737 0.1144852 0.9987924 0.8878948 0.9987921 0.9812384 0.9975853 0.8878948 0.3728016 0.09338593 0.3728016 0 0.3873745 0.09338593 0.9749119 0.6005074 0.9749119 0.6116814 0.9718964 0.6065236 0.7601762 0.5849477 0.7601762 0.2849203 0.7747491 0.5003604 0.3873746 0.9790382 0.3728017 0.9790382 0.3873745 0.7353178 0.7601761 0.7835613 0.7601762 0.5849477 0.7747491 0.6745473 0.3873745 0.7353178 0.3728016 0.6941162 0.3873745 0.4786776 0.7601761 0.885652 0.7601761 0.7835613 0.7747491 0.885652 0.3873745 0.4786776 0.3728016 0.3940903 0.3873745 0.3044907 0.3873745 0.3044907 0.3728016 0.1954766 0.3873745 0.09338593 0.7747491 0.9790378 0.7601761 0.9790378 0.7747491 0.885652 0.7601762 0.2849203 0.7601763 0 0.7747491 0.2437202 0.848192 0.6134247 0.8726719 0.6134247 0.8481932 0.621817 0.9749119 0.1134108 0.974912 0.1022368 0.9761191 0.1134108 0.7759562 0.7124325 0.7771633 0.7124325 0.7759562 0.7236065 0.9460226 0.08904981 0.9460226 0.07382404 0.950234 0.08904981 0.9502438 0.3122478 0.9502438 0.1145361 0.9544551 0.3025882 0.9502437 0.9087581 0.9502437 0.8330006 0.9544551 0.9087581 0.9502341 0.3616178 0.9460226 0.3360615 0.950234 0.1648074 0.9502341 0.4971958 0.9460227 0.4773665 0.9502341 0.3616178 0.9502437 0.8330006 0.9502437 0.6617465 0.9544551 0.8330006 0.9502341 0.6952199 0.9460227 0.6855602 0.9502341 0.4971958 0.9502437 0.6617465 0.9502438 0.5204416 0.9544551 0.6361902 0.9502341 0.883272 0.9460227 0.883272 0.9502341 0.6952199 0.9502438 0.5204416 0.9502438 0.3122478 0.9544551 0.5006122 0.9502437 0.9239839 0.9502437 0.9087581 0.9544551 0.9239839 0.9460227 0.1648074 0.9460226 0.08904981 0.950234 0.1648074 0.9573701 0.6614479 0.9544649 0.674242 0.9573701 0.5202069 0.9291383 0.3025893 0.9262331 0.2318127 0.9291383 0.114537 0.9262332 0.9978085 0.9262332 0.9790384 0.9291384 0.9239853 0.9660858 0.2436099 0.9660859 0.5001339 0.9631807 0.3121073 0.9250261 0 0.9250261 0.2318127 0.9221209 0.114537 0.9291383 0.5006133 0.9262332 0.4759167 0.9291383 0.3025893 0.922121 0.9087595 0.9250261 0.9790383 0.922121 0.9239853 0.9291383 0.6361914 0.9262332 0.6430431 0.9291383 0.5006133 0.954465 0.8852512 0.9544649 0.674242 0.9573701 0.8326244 0.9250261 0.2318127 0.9250261 0.4759167 0.9221209 0.3025893 0.9250261 0.4759167 0.9250261 0.6430431 0.9221209 0.5006133 0.9660859 0.5001339 0.9660859 0.674242 0.9631807 0.5202069 0.9544647 0.9978079 0.9502533 0.9978079 0.9544551 0.9239839 0.9631807 0.6614478 0.9660859 0.674242 0.9631808 0.8326244 0.9460322 0 0.9502436 0 0.9460226 0.07382404 0.954465 0.9785948 0.954465 0.8852512 0.9573701 0.9083477 0.7747492 0.6593394 0.799229 0.6593394 0.7747492 0.6968617 0.7747492 0.621817 0.799229 0.621817 0.7747492 0.6593394 0.8481932 0.621817 0.872673 0.621817 0.8481932 0.6593393 0.8481932 0.6593393 0.872673 0.6593394 0.8481932 0.6968616 0.8481932 0.6968616 0.872673 0.6968617 0.8481932 0.7064086 0.7747492 0.6968617 0.799229 0.6968617 0.7747492 0.7064086 0.8726719 0.7124325 0.848192 0.7124324 0.872673 0.7064086 0.9718964 0.6535931 0.9749119 0.6555985 0.9718964 0.6911157 0.9749119 0.6116814 0.9749119 0.6555985 0.9718964 0.6160706 0.974912 0.1022368 0.9749119 0.1134108 0.9718964 0.1082531 0.9749119 0.3565683 0.9718964 0.3585737 0.9749119 0.3190458 0.7992301 0.7124325 0.7747504 0.7124325 0.799229 0.7064086 0.9749119 0.1134108 0.9749119 0.157328 0.9718964 0.1178001 0.9791346 0.1178 0.9761191 0.1134108 0.9791346 0.108253 0.9791346 0.1553226 0.9761191 0.157328 0.9791346 0.1178 0.9749119 0.3190458 0.9718964 0.3146566 0.9749119 0.3094988</float_array>
          <technique_common>
            <accessor source="#Cube_079-mesh-map-0-array" count="2052" stride="2">
              <param name="S" type="float"/>
              <param name="T" type="float"/>
            </accessor>
          </technique_common>
        </source>
        <vertices id="Cube_079-mesh-vertices">
          <input semantic="POSITION" source="#Cube_079-mesh-positions"/>
        </vertices>
        <polylist material="PBRFULL_LaboRoomShelf-material" count="684">
          <input semantic="VERTEX" source="#Cube_079-mesh-vertices" offset="0"/>
          <input semantic="NORMAL" source="#Cube_079-mesh-normals" offset="1"/>
          <input semantic="TEXCOORD" source="#Cube_079-mesh-map-0" offset="2" set="0"/>
          <vcount>3 3 3 3 3 3 3 3 3 3 3 3 3 3 3 3 3 3 3 3 3 3 3 3 3 3 3 3 3 3 3 3 3 3 3 3 3 3 3 3 3 3 3 3 3 3 3 3 3 3 3 3 3 3 3 3 3 3 3 3 3 3 3 3 3 3 3 3 3 3 3 3 3 3 3 3 3 3 3 3 3 3 3 3 3 3 3 3 3 3 3 3 3 3 3 3 3 3 3 3 3 3 3 3 3 3 3 3 3 3 3 3 3 3 3 3 3 3 3 3 3 3 3 3 3 3 3 3 3 3 3 3 3 3 3 3 3 3 3 3 3 3 3 3 3 3 3 3 3 3 3 3 3 3 3 3 3 3 3 3 3 3 3 3 3 3 3 3 3 3 3 3 3 3 3 3 3 3 3 3 3 3 3 3 3 3 3 3 3 3 3 3 3 3 3 3 3 3 3 3 3 3 3 3 3 3 3 3 3 3 3 3 3 3 3 3 3 3 3 3 3 3 3 3 3 3 3 3 3 3 3 3 3 3 3 3 3 3 3 3 3 3 3 3 3 3 3 3 3 3 3 3 3 3 3 3 3 3 3 3 3 3 3 3 3 3 3 3 3 3 3 3 3 3 3 3 3 3 3 3 3 3 3 3 3 3 3 3 3 3 3 3 3 3 3 3 3 3 3 3 3 3 3 3 3 3 3 3 3 3 3 3 3 3 3 3 3 3 3 3 3 3 3 3 3 3 3 3 3 3 3 3 3 3 3 3 3 3 3 3 3 3 3 3 3 3 3 3 3 3 3 3 3 3 3 3 3 3 3 3 3 3 3 3 3 3 3 3 3 3 3 3 3 3 3 3 3 3 3 3 3 3 3 3 3 3 3 3 3 3 3 3 3 3 3 3 3 3 3 3 3 3 3 3 3 3 3 3 3 3 3 3 3 3 3 3 3 3 3 3 3 3 3 3 3 3 3 3 3 3 3 3 3 3 3 3 3 3 3 3 3 3 3 3 3 3 3 3 3 3 3 3 3 3 3 3 3 3 3 3 3 3 3 3 3 3 3 3 3 3 3 3 3 3 3 3 3 3 3 3 3 3 3 3 3 3 3 3 3 3 3 3 3 3 3 3 3 3 3 3 3 3 3 3 3 3 3 3 3 3 3 3 3 3 3 3 3 3 3 3 3 3 3 3 3 3 3 3 3 3 3 3 3 3 3 3 3 3 3 3 3 3 3 3 3 3 3 3 3 3 3 3 3 3 3 3 3 3 3 3 3 3 3 3 3 3 3 3 3 3 3 3 3 3 3 3 3 3 3 3 3 3 3 3 3 3 3 3 3 3 3 3 3 3 3 3 3 3 3 3 3 3 3 3 3 3 3 3 3 3 3 3 3 3 3 3 3 3 3 3 3 3 3 3 3 3 3 3 3 3 3 3 3 3 3 3 3 3 3 3 3 3 3 3 3 3 3 3 3 3 3 3 3 3 3 3 3 3 3 3 3 3 3 3 3 3 3 3 3 3 3 3 3 3 3 3 3 3 3 3 3 3 3 3 </vcount>
          <p>3 0 0 2 0 1 0 0 2 7 1 3 6 1 4 2 1 5 5 2 6 4 2 7 6 2 8 1 3 9 0 3 10 4 3 11 2 4 12 6 4 13 4 4 14 7 5 15 3 5 16 1 5 17 1 0 18 3 0 19 0 0 20 3 1 21 7 1 22 2 1 23 7 2 24 5 2 25 6 2 26 5 3 27 1 3 28 4 3 29 0 4 30 2 4 31 4 4 32 5 5 33 7 5 34 1 5 35 65 4 36 10 4 37 11 4 38 15 5 39 14 5 40 67 5 41 12 6 42 13 6 43 57 6 44 74 2 45 102 2 46 80 2 47 14 7 48 15 7 49 59 7 50 73 8 51 75 8 52 103 8 53 65 9 54 80 9 55 81 9 56 18 10 57 19 10 58 29 10 59 76 11 60 104 11 61 86 11 62 26 12 63 16 12 64 17 12 65 49 13 66 25 13 67 30 13 68 63 1 69 48 1 70 24 1 71 44 1 72 20 1 73 43 1 74 47 5 75 112 5 76 109 5 77 22 5 78 23 5 79 47 5 80 45 14 81 21 14 82 20 14 83 48 1 84 50 1 85 31 1 86 51 3 87 30 3 88 32 3 89 33 15 90 26 15 91 27 15 92 29 16 93 19 16 94 91 16 95 28 17 96 29 17 97 36 17 98 69 2 99 77 2 100 105 2 101 35 18 102 36 18 103 42 18 104 19 0 105 59 0 106 84 0 107 33 19 108 34 19 109 40 19 110 54 20 111 52 20 112 32 20 113 50 21 114 53 21 115 37 21 116 11 22 117 79 22 118 78 22 119 45 3 120 54 3 121 38 3 122 39 23 123 40 23 124 9 23 125 28 0 126 88 0 127 89 0 128 41 24 129 42 24 130 11 24 131 55 1 132 43 1 133 37 1 134 18 0 135 89 0 136 82 0 137 39 1 138 55 1 139 53 1 140 9 3 141 40 3 142 54 3 143 33 25 144 53 25 145 50 25 146 40 3 147 34 3 148 52 3 149 34 3 150 27 3 151 51 3 152 26 26 153 50 26 154 48 26 155 9 27 156 45 27 157 44 27 158 46 5 159 47 5 160 13 5 161 13 28 162 109 28 163 108 28 164 8 1 165 44 1 166 55 1 167 16 1 168 48 1 169 63 1 170 27 29 171 17 29 172 49 29 173 63 4 174 115 4 175 106 4 176 57 3 177 62 3 178 49 3 179 62 3 180 61 3 181 25 3 182 46 5 183 12 5 184 107 5 185 77 2 186 67 2 187 87 2 188 58 30 189 59 30 190 19 30 191 75 31 192 64 31 193 78 31 194 56 32 195 57 32 196 17 32 197 61 3 198 77 3 199 69 3 200 61 4 201 116 4 202 121 4 203 43 1 204 75 1 205 73 1 206 21 3 207 38 3 208 74 3 209 37 33 210 73 33 211 71 33 212 38 3 213 32 3 214 72 3 215 31 1 216 71 1 217 68 1 218 32 3 219 30 3 220 70 3 221 30 3 222 25 3 223 69 3 224 60 34 225 24 34 226 68 34 227 20 1 228 64 1 229 75 1 230 56 35 231 106 35 232 107 35 233 66 5 234 67 5 235 23 5 236 21 4 237 65 4 238 64 4 239 87 3 240 83 3 241 82 3 242 78 36 243 79 36 244 99 36 245 92 1 246 91 1 247 84 1 248 96 3 249 93 3 250 89 3 251 100 3 252 96 3 253 88 3 254 97 1 255 90 1 256 91 1 257 102 3 258 100 3 259 94 3 260 101 1 261 95 1 262 90 1 263 80 3 264 102 3 265 98 3 266 103 1 267 99 1 268 95 1 269 104 1 270 84 1 271 85 1 272 105 3 273 82 3 274 89 3 275 71 37 276 73 37 277 101 37 278 41 38 279 10 38 280 81 38 281 58 39 282 82 39 283 83 39 284 72 40 285 100 40 286 102 40 287 42 41 288 99 41 289 79 41 290 35 42 291 41 42 292 98 42 293 59 43 294 15 43 295 85 43 296 28 44 297 35 44 298 94 44 299 71 45 300 97 45 301 92 45 302 36 0 303 95 0 304 99 0 305 29 46 306 90 46 307 95 46 308 70 2 309 96 2 310 100 2 311 66 47 312 86 47 313 85 47 314 70 48 315 69 48 316 93 48 317 14 49 318 83 49 319 87 49 320 68 50 321 92 50 322 104 50 323 112 3 324 113 3 325 116 3 326 109 3 327 112 3 328 117 3 329 106 1 330 115 1 331 110 1 332 115 1 333 114 1 334 111 1 335 114 1 336 120 1 337 118 1 338 113 3 339 119 3 340 121 3 341 66 51 342 118 51 343 120 51 344 62 4 345 57 4 346 108 4 347 62 4 348 117 4 349 116 4 350 22 5 351 111 5 352 118 5 353 63 4 354 60 4 355 114 4 356 77 52 357 121 52 358 119 52 359 46 5 360 110 5 361 111 5 362 23 5 363 67 5 364 119 5 365 47 5 366 23 5 367 113 5 368 60 4 369 76 4 370 120 4 371 179 4 372 124 4 373 125 4 374 129 5 375 128 5 376 181 5 377 126 53 378 127 53 379 171 53 380 188 54 381 216 54 382 194 54 383 128 55 384 129 55 385 173 55 386 187 56 387 189 56 388 217 56 389 179 57 390 194 57 391 195 57 392 132 58 393 133 58 394 143 58 395 190 59 396 218 59 397 200 59 398 140 60 399 130 60 400 131 60 401 163 61 402 139 61 403 144 61 404 177 1 405 162 1 406 138 1 407 158 1 408 134 1 409 157 1 410 161 5 411 226 5 412 223 5 413 136 5 414 137 5 415 161 5 416 158 62 417 159 62 418 135 62 419 162 63 420 164 63 421 145 63 422 165 3 423 144 3 424 146 3 425 147 64 426 140 64 427 141 64 428 143 0 429 133 0 430 205 0 431 142 65 432 143 65 433 150 65 434 183 2 435 191 2 436 219 2 437 149 66 438 150 66 439 156 66 440 133 67 441 173 67 442 198 67 443 147 68 444 148 68 445 154 68 446 168 3 447 166 3 448 146 3 449 164 69 450 167 69 451 151 69 452 125 70 453 193 70 454 192 70 455 159 71 456 168 71 457 152 71 458 153 72 459 154 72 460 123 72 461 142 0 462 202 0 463 203 0 464 155 73 465 156 73 466 125 73 467 169 1 468 157 1 469 151 1 470 132 0 471 203 0 472 196 0 473 153 74 474 169 74 475 167 74 476 123 3 477 154 3 478 168 3 479 147 1 480 167 1 481 164 1 482 154 3 483 148 3 484 166 3 485 148 3 486 141 3 487 165 3 488 140 75 489 164 75 490 162 75 491 122 76 492 123 76 493 159 76 494 160 5 495 161 5 496 127 5 497 127 77 498 223 77 499 222 77 500 122 78 501 158 78 502 169 78 503 130 1 504 162 1 505 177 1 506 141 3 507 131 3 508 163 3 509 177 4 510 229 4 511 220 4 512 171 3 513 176 3 514 163 3 515 176 3 516 175 3 517 139 3 518 160 5 519 126 5 520 221 5 521 191 79 522 181 79 523 201 79 524 172 80 525 173 80 526 133 80 527 189 81 528 178 81 529 192 81 530 170 82 531 171 82 532 131 82 533 175 3 534 191 3 535 183 3 536 175 4 537 230 4 538 235 4 539 157 1 540 189 1 541 187 1 542 135 3 543 152 3 544 188 3 545 151 83 546 187 83 547 185 83 548 152 3 549 146 3 550 186 3 551 145 1 552 185 1 553 182 1 554 146 3 555 144 3 556 184 3 557 144 3 558 139 3 559 183 3 560 174 1 561 138 1 562 182 1 563 134 1 564 178 1 565 189 1 566 170 84 567 220 84 568 221 84 569 180 5 570 181 5 571 137 5 572 135 4 573 179 4 574 178 4 575 201 3 576 197 3 577 196 3 578 192 1 579 193 1 580 213 1 581 206 1 582 205 1 583 198 1 584 210 3 585 207 3 586 203 3 587 214 3 588 210 3 589 202 3 590 211 1 591 204 1 592 205 1 593 216 3 594 214 3 595 208 3 596 215 85 597 209 85 598 204 85 599 194 3 600 216 3 601 212 3 602 217 1 603 213 1 604 209 1 605 218 1 606 198 1 607 199 1 608 219 3 609 196 3 610 203 3 611 185 86 612 187 86 613 215 86 614 155 87 615 124 87 616 195 87 617 172 88 618 196 88 619 197 88 620 186 89 621 214 89 622 216 89 623 156 90 624 213 90 625 193 90 626 149 0 627 155 0 628 212 0 629 173 91 630 129 91 631 199 91 632 142 92 633 149 92 634 208 92 635 185 93 636 211 93 637 206 93 638 150 94 639 209 94 640 213 94 641 143 95 642 204 95 643 209 95 644 184 2 645 210 2 646 214 2 647 180 96 648 200 96 649 199 96 650 184 97 651 183 97 652 207 97 653 128 98 654 197 98 655 201 98 656 182 99 657 206 99 658 218 99 659 226 3 660 227 3 661 230 3 662 223 3 663 226 3 664 231 3 665 220 1 666 229 1 667 224 1 668 229 1 669 228 1 670 225 1 671 228 1 672 234 1 673 232 1 674 227 3 675 233 3 676 235 3 677 180 100 678 232 100 679 234 100 680 176 4 681 171 4 682 222 4 683 176 4 684 231 4 685 230 4 686 136 5 687 225 5 688 232 5 689 177 4 690 174 4 691 228 4 692 191 101 693 235 101 694 233 101 695 160 5 696 224 5 697 225 5 698 137 5 699 181 5 700 233 5 701 161 5 702 137 5 703 227 5 704 174 4 705 190 4 706 234 4 707 293 4 708 238 4 709 239 4 710 243 5 711 242 5 712 295 5 713 240 53 714 241 53 715 285 53 716 302 102 717 330 102 718 308 102 719 242 55 720 243 55 721 287 55 722 301 103 723 303 103 724 331 103 725 293 104 726 308 104 727 309 104 728 246 105 729 247 105 730 257 105 731 304 59 732 332 59 733 314 59 734 254 106 735 244 106 736 245 106 737 277 107 738 253 107 739 258 107 740 291 1 741 276 1 742 252 1 743 272 1 744 248 1 745 271 1 746 275 5 747 340 5 748 337 5 749 250 5 750 251 5 751 275 5 752 272 108 753 273 108 754 249 108 755 276 1 756 278 1 757 259 1 758 279 3 759 258 3 760 260 3 761 261 109 762 254 109 763 255 109 764 257 0 765 247 0 766 319 0 767 256 110 768 257 110 769 264 110 770 297 2 771 305 2 772 333 2 773 263 111 774 264 111 775 270 111 776 247 112 777 287 112 778 312 112 779 261 113 780 262 113 781 268 113 782 282 114 783 280 114 784 260 114 785 278 1 786 281 1 787 265 1 788 239 115 789 307 115 790 306 115 791 273 3 792 282 3 793 266 3 794 267 116 795 268 116 796 237 116 797 256 0 798 316 0 799 317 0 800 269 117 801 270 117 802 239 117 803 283 1 804 271 1 805 265 1 806 246 0 807 317 0 808 310 0 809 267 118 810 283 118 811 281 118 812 237 3 813 268 3 814 282 3 815 261 119 816 281 119 817 278 119 818 268 120 819 262 120 820 280 120 821 262 3 822 255 3 823 279 3 824 254 121 825 278 121 826 276 121 827 236 122 828 237 122 829 273 122 830 274 5 831 275 5 832 241 5 833 241 77 834 337 77 835 336 77 836 236 123 837 272 123 838 283 123 839 244 1 840 276 1 841 291 1 842 255 3 843 245 3 844 277 3 845 291 4 846 343 4 847 334 4 848 285 3 849 290 3 850 277 3 851 290 3 852 289 3 853 253 3 854 274 5 855 240 5 856 335 5 857 305 79 858 295 79 859 315 79 860 286 124 861 287 124 862 247 124 863 303 125 864 292 125 865 306 125 866 284 126 867 285 126 868 245 126 869 289 3 870 305 3 871 297 3 872 289 4 873 344 4 874 349 4 875 271 1 876 303 1 877 301 1 878 249 3 879 266 3 880 302 3 881 265 127 882 301 127 883 299 127 884 266 3 885 260 3 886 300 3 887 259 1 888 299 1 889 296 1 890 260 3 891 258 3 892 298 3 893 258 3 894 253 3 895 297 3 896 288 1 897 252 1 898 296 1 899 248 1 900 292 1 901 303 1 902 284 128 903 334 128 904 335 128 905 294 5 906 295 5 907 251 5 908 249 4 909 293 4 910 292 4 911 315 3 912 311 3 913 310 3 914 306 1 915 307 1 916 327 1 917 320 1 918 319 1 919 312 1 920 324 3 921 321 3 922 317 3 923 328 3 924 324 3 925 316 3 926 325 1 927 318 1 928 319 1 929 330 3 930 328 3 931 322 3 932 329 129 933 323 129 934 318 129 935 308 3 936 330 3 937 326 3 938 331 1 939 327 1 940 323 1 941 332 1 942 312 1 943 313 1 944 333 3 945 310 3 946 317 3 947 299 130 948 301 130 949 329 130 950 269 131 951 238 131 952 309 131 953 286 132 954 310 132 955 311 132 956 300 133 957 328 133 958 330 133 959 270 134 960 327 134 961 307 134 962 263 0 963 269 0 964 326 0 965 287 135 966 243 135 967 313 135 968 256 136 969 263 136 970 322 136 971 299 137 972 325 137 973 320 137 974 264 138 975 323 138 976 327 138 977 257 139 978 318 139 979 323 139 980 298 2 981 324 2 982 328 2 983 294 140 984 314 140 985 313 140 986 298 141 987 297 141 988 321 141 989 242 142 990 311 142 991 315 142 992 296 143 993 320 143 994 332 143 995 340 3 996 341 3 997 344 3 998 337 3 999 340 3 1000 345 3 1001 334 1 1002 343 1 1003 338 1 1004 343 1 1005 342 1 1006 339 1 1007 342 1 1008 348 1 1009 346 1 1010 341 3 1011 347 3 1012 349 3 1013 294 144 1014 346 144 1015 348 144 1016 290 4 1017 285 4 1018 336 4 1019 290 4 1020 345 4 1021 344 4 1022 250 5 1023 339 5 1024 346 5 1025 291 4 1026 288 4 1027 342 4 1028 305 145 1029 349 145 1030 347 145 1031 274 5 1032 338 5 1033 339 5 1034 251 5 1035 295 5 1036 347 5 1037 275 5 1038 251 5 1039 341 5 1040 288 4 1041 304 4 1042 348 4 1043 64 4 1044 65 4 1045 11 4 1046 66 5 1047 15 5 1048 67 5 1049 56 146 1050 12 146 1051 57 146 1052 65 2 1053 74 2 1054 80 2 1055 58 147 1056 14 147 1057 59 147 1058 101 2 1059 73 2 1060 103 2 1061 10 148 1062 65 148 1063 81 148 1064 28 149 1065 18 149 1066 29 149 1067 66 150 1068 76 150 1069 86 150 1070 27 151 1071 26 151 1072 17 151 1073 51 3 1074 49 3 1075 30 3 1076 60 1 1077 63 1 1078 24 1 1079 55 1 1080 44 1 1081 43 1 1082 13 5 1083 47 5 1084 109 5 1085 46 5 1086 22 5 1087 47 5 1088 44 152 1089 45 152 1090 20 152 1091 24 1 1092 48 1 1093 31 1 1094 52 3 1095 51 3 1096 32 3 1097 34 153 1098 33 153 1099 27 153 1100 90 0 1101 29 0 1102 91 0 1103 35 154 1104 28 154 1105 36 154 1106 93 155 1107 69 155 1108 105 155 1109 41 156 1110 35 156 1111 42 156 1112 91 157 1113 19 157 1114 84 157 1115 39 158 1116 33 158 1117 40 158 1118 38 3 1119 54 3 1120 32 3 1121 31 1 1122 50 1 1123 37 1 1124 64 159 1125 11 159 1126 78 159 1127 21 3 1128 45 3 1129 38 3 1130 8 160 1131 39 160 1132 9 160 1133 18 161 1134 28 161 1135 89 161 1136 10 162 1137 41 162 1138 11 162 1139 53 1 1140 55 1 1141 37 1 1142 58 163 1143 18 163 1144 82 163 1145 33 164 1146 39 164 1147 53 164 1148 45 165 1149 9 165 1150 54 165 1151 26 166 1152 33 166 1153 50 166 1154 54 3 1155 40 3 1156 52 3 1157 52 167 1158 34 167 1159 51 167 1160 16 1 1161 26 1 1162 48 1 1163 8 168 1164 9 168 1165 44 168 1166 12 5 1167 46 5 1168 13 5 1169 57 77 1170 13 77 1171 108 77 1172 39 1 1173 8 1 1174 55 1 1175 56 1 1176 16 1 1177 63 1 1178 51 3 1179 27 3 1180 49 3 1181 56 4 1182 63 4 1183 106 4 1184 17 3 1185 57 3 1186 49 3 1187 49 3 1188 62 3 1189 25 3 1190 110 5 1191 46 5 1192 107 5 1193 105 169 1194 77 169 1195 87 169 1196 18 30 1197 58 30 1198 19 30 1199 103 2 1200 75 2 1201 78 2 1202 16 170 1203 56 170 1204 17 170 1205 25 3 1206 61 3 1207 69 3 1208 77 4 1209 61 4 1210 121 4 1211 37 1 1212 43 1 1213 73 1 1214 65 3 1215 21 3 1216 74 3 1217 31 1 1218 37 1 1219 71 1 1220 74 3 1221 38 3 1222 72 3 1223 24 1 1224 31 1 1225 68 1 1226 72 3 1227 32 3 1228 70 3 1229 70 3 1230 30 3 1231 69 3 1232 76 1 1233 60 1 1234 68 1 1235 43 1 1236 20 1 1237 75 1 1238 12 171 1239 56 171 1240 107 171 1241 22 5 1242 66 5 1243 23 5 1244 20 4 1245 21 4 1246 64 4 1247 105 3 1248 87 3 1249 82 3 1250 103 1 1251 78 1 1252 99 1 1253 104 1 1254 92 1 1255 84 1 1256 88 3 1257 96 3 1258 89 3 1259 94 3 1260 100 3 1261 88 3 1262 92 1 1263 97 1 1264 91 1 1265 98 3 1266 102 3 1267 94 3 1268 97 1 1269 101 1 1270 90 1 1271 81 3 1272 80 3 1273 98 3 1274 101 1 1275 103 1 1276 95 1 1277 86 1 1278 104 1 1279 85 1 1280 93 3 1281 105 3 1282 89 3 1283 97 172 1284 71 172 1285 101 172 1286 98 0 1287 41 0 1288 81 0 1289 14 173 1290 58 173 1291 83 173 1292 74 2 1293 72 2 1294 102 2 1295 11 174 1296 42 174 1297 79 174 1298 94 0 1299 35 0 1300 98 0 1301 84 0 1302 59 0 1303 85 0 1304 88 0 1305 28 0 1306 94 0 1307 68 175 1308 71 175 1309 92 175 1310 42 176 1311 36 176 1312 99 176 1313 36 0 1314 29 0 1315 95 0 1316 72 2 1317 70 2 1318 100 2 1319 15 177 1320 66 177 1321 85 177 1322 96 178 1323 70 178 1324 93 178 1325 67 179 1326 14 179 1327 87 179 1328 76 2 1329 68 2 1330 104 2 1331 117 3 1332 112 3 1333 116 3 1334 108 3 1335 109 3 1336 117 3 1337 107 1 1338 106 1 1339 110 1 1340 110 1 1341 115 1 1342 111 1 1343 111 1 1344 114 1 1345 118 1 1346 116 3 1347 113 3 1348 121 3 1349 76 180 1350 66 180 1351 120 180 1352 117 4 1353 62 4 1354 108 4 1355 61 4 1356 62 4 1357 116 4 1358 66 5 1359 22 5 1360 118 5 1361 115 4 1362 63 4 1363 114 4 1364 67 181 1365 77 181 1366 119 181 1367 22 5 1368 46 5 1369 111 5 1370 113 5 1371 23 5 1372 119 5 1373 112 5 1374 47 5 1375 113 5 1376 114 4 1377 60 4 1378 120 4 1379 178 4 1380 179 4 1381 125 4 1382 180 5 1383 129 5 1384 181 5 1385 170 182 1386 126 182 1387 171 182 1388 179 2 1389 188 2 1390 194 2 1391 172 183 1392 128 183 1393 173 183 1394 215 184 1395 187 184 1396 217 184 1397 124 185 1398 179 185 1399 195 185 1400 142 186 1401 132 186 1402 143 186 1403 180 187 1404 190 187 1405 200 187 1406 141 188 1407 140 188 1408 131 188 1409 165 189 1410 163 189 1411 144 189 1412 174 1 1413 177 1 1414 138 1 1415 169 190 1416 158 190 1417 157 190 1418 127 5 1419 161 5 1420 223 5 1421 160 5 1422 136 5 1423 161 5 1424 134 191 1425 158 191 1426 135 191 1427 138 1 1428 162 1 1429 145 1 1430 166 192 1431 165 192 1432 146 192 1433 148 193 1434 147 193 1435 141 193 1436 204 0 1437 143 0 1438 205 0 1439 149 194 1440 142 194 1441 150 194 1442 207 195 1443 183 195 1444 219 195 1445 155 196 1446 149 196 1447 156 196 1448 205 197 1449 133 197 1450 198 197 1451 153 198 1452 147 198 1453 154 198 1454 152 3 1455 168 3 1456 146 3 1457 145 1 1458 164 1 1459 151 1 1460 178 199 1461 125 199 1462 192 199 1463 135 3 1464 159 3 1465 152 3 1466 122 200 1467 153 200 1468 123 200 1469 132 0 1470 142 0 1471 203 0 1472 124 201 1473 155 201 1474 125 201 1475 167 1 1476 169 1 1477 151 1 1478 172 202 1479 132 202 1480 196 202 1481 147 1 1482 153 1 1483 167 1 1484 159 203 1485 123 203 1486 168 203 1487 140 1 1488 147 1 1489 164 1 1490 168 204 1491 154 204 1492 166 204 1493 166 205 1494 148 205 1495 165 205 1496 130 206 1497 140 206 1498 162 206 1499 158 207 1500 122 207 1501 159 207 1502 126 5 1503 160 5 1504 127 5 1505 171 77 1506 127 77 1507 222 77 1508 153 208 1509 122 208 1510 169 208 1511 170 1 1512 130 1 1513 177 1 1514 165 209 1515 141 209 1516 163 209 1517 170 4 1518 177 4 1519 220 4 1520 131 3 1521 171 3 1522 163 3 1523 163 3 1524 176 3 1525 139 3 1526 224 5 1527 160 5 1528 221 5 1529 219 2 1530 191 2 1531 201 2 1532 132 124 1533 172 124 1534 133 124 1535 217 2 1536 189 2 1537 192 2 1538 130 126 1539 170 126 1540 131 126 1541 139 3 1542 175 3 1543 183 3 1544 191 4 1545 175 4 1546 235 4 1547 151 1 1548 157 1 1549 187 1 1550 179 3 1551 135 3 1552 188 3 1553 145 1 1554 151 1 1555 185 1 1556 188 3 1557 152 3 1558 186 3 1559 138 1 1560 145 1 1561 182 1 1562 186 3 1563 146 3 1564 184 3 1565 184 3 1566 144 3 1567 183 3 1568 190 1 1569 174 1 1570 182 1 1571 157 1 1572 134 1 1573 189 1 1574 126 210 1575 170 210 1576 221 210 1577 136 5 1578 180 5 1579 137 5 1580 134 4 1581 135 4 1582 178 4 1583 219 3 1584 201 3 1585 196 3 1586 217 1 1587 192 1 1588 213 1 1589 218 1 1590 206 1 1591 198 1 1592 202 3 1593 210 3 1594 203 3 1595 208 3 1596 214 3 1597 202 3 1598 206 1 1599 211 1 1600 205 1 1601 212 3 1602 216 3 1603 208 3 1604 211 1 1605 215 1 1606 204 1 1607 195 3 1608 194 3 1609 212 3 1610 215 1 1611 217 1 1612 209 1 1613 200 1 1614 218 1 1615 199 1 1616 207 3 1617 219 3 1618 203 3 1619 211 211 1620 185 211 1621 215 211 1622 212 0 1623 155 0 1624 195 0 1625 128 0 1626 172 0 1627 197 0 1628 188 2 1629 186 2 1630 216 2 1631 125 212 1632 156 212 1633 193 212 1634 208 0 1635 149 0 1636 212 0 1637 198 213 1638 173 213 1639 199 213 1640 202 0 1641 142 0 1642 208 0 1643 182 214 1644 185 214 1645 206 214 1646 156 215 1647 150 215 1648 213 215 1649 150 216 1650 143 216 1651 209 216 1652 186 2 1653 184 2 1654 214 2 1655 129 217 1656 180 217 1657 199 217 1658 210 218 1659 184 218 1660 207 218 1661 181 219 1662 128 219 1663 201 219 1664 190 220 1665 182 220 1666 218 220 1667 231 3 1668 226 3 1669 230 3 1670 222 3 1671 223 3 1672 231 3 1673 221 1 1674 220 1 1675 224 1 1676 224 1 1677 229 1 1678 225 1 1679 225 1 1680 228 1 1681 232 1 1682 230 3 1683 227 3 1684 235 3 1685 190 221 1686 180 221 1687 234 221 1688 231 4 1689 176 4 1690 222 4 1691 175 4 1692 176 4 1693 230 4 1694 180 5 1695 136 5 1696 232 5 1697 229 4 1698 177 4 1699 228 4 1700 181 101 1701 191 101 1702 233 101 1703 136 5 1704 160 5 1705 225 5 1706 227 5 1707 137 5 1708 233 5 1709 226 5 1710 161 5 1711 227 5 1712 228 4 1713 174 4 1714 234 4 1715 292 4 1716 293 4 1717 239 4 1718 294 5 1719 243 5 1720 295 5 1721 284 182 1722 240 182 1723 285 182 1724 293 2 1725 302 2 1726 308 2 1727 286 183 1728 242 183 1729 287 183 1730 329 222 1731 301 222 1732 331 222 1733 238 223 1734 293 223 1735 309 223 1736 256 105 1737 246 105 1738 257 105 1739 294 224 1740 304 224 1741 314 224 1742 255 225 1743 254 225 1744 245 225 1745 279 3 1746 277 3 1747 258 3 1748 288 1 1749 291 1 1750 252 1 1751 283 226 1752 272 226 1753 271 226 1754 241 5 1755 275 5 1756 337 5 1757 274 5 1758 250 5 1759 275 5 1760 248 227 1761 272 227 1762 249 227 1763 252 1 1764 276 1 1765 259 1 1766 280 3 1767 279 3 1768 260 3 1769 262 228 1770 261 228 1771 255 228 1772 318 0 1773 257 0 1774 319 0 1775 263 110 1776 256 110 1777 264 110 1778 321 195 1779 297 195 1780 333 195 1781 269 229 1782 263 229 1783 270 229 1784 319 230 1785 247 230 1786 312 230 1787 267 231 1788 261 231 1789 268 231 1790 266 3 1791 282 3 1792 260 3 1793 259 1 1794 278 1 1795 265 1 1796 292 232 1797 239 232 1798 306 232 1799 249 3 1800 273 3 1801 266 3 1802 236 233 1803 267 233 1804 237 233 1805 246 0 1806 256 0 1807 317 0 1808 238 234 1809 269 234 1810 239 234 1811 281 235 1812 283 235 1813 265 235 1814 286 236 1815 246 236 1816 310 236 1817 261 237 1818 267 237 1819 281 237 1820 273 238 1821 237 238 1822 282 238 1823 254 239 1824 261 239 1825 278 239 1826 282 3 1827 268 3 1828 280 3 1829 280 240 1830 262 240 1831 279 240 1832 244 241 1833 254 241 1834 276 241 1835 272 242 1836 236 242 1837 273 242 1838 240 5 1839 274 5 1840 241 5 1841 285 243 1842 241 243 1843 336 243 1844 267 244 1845 236 244 1846 283 244 1847 284 1 1848 244 1 1849 291 1 1850 279 245 1851 255 245 1852 277 245 1853 284 4 1854 291 4 1855 334 4 1856 245 3 1857 285 3 1858 277 3 1859 277 3 1860 290 3 1861 253 3 1862 338 5 1863 274 5 1864 335 5 1865 333 2 1866 305 2 1867 315 2 1868 246 124 1869 286 124 1870 247 124 1871 331 2 1872 303 2 1873 306 2 1874 244 126 1875 284 126 1876 245 126 1877 253 3 1878 289 3 1879 297 3 1880 305 4 1881 289 4 1882 349 4 1883 265 1 1884 271 1 1885 301 1 1886 293 3 1887 249 3 1888 302 3 1889 259 1 1890 265 1 1891 299 1 1892 302 3 1893 266 3 1894 300 3 1895 252 1 1896 259 1 1897 296 1 1898 300 3 1899 260 3 1900 298 3 1901 298 246 1902 258 246 1903 297 246 1904 304 1 1905 288 1 1906 296 1 1907 271 1 1908 248 1 1909 303 1 1910 240 247 1911 284 247 1912 335 247 1913 250 5 1914 294 5 1915 251 5 1916 248 4 1917 249 4 1918 292 4 1919 333 3 1920 315 3 1921 310 3 1922 331 1 1923 306 1 1924 327 1 1925 332 1 1926 320 1 1927 312 1 1928 316 3 1929 324 3 1930 317 3 1931 322 3 1932 328 3 1933 316 3 1934 320 1 1935 325 1 1936 319 1 1937 326 3 1938 330 3 1939 322 3 1940 325 1 1941 329 1 1942 318 1 1943 309 3 1944 308 3 1945 326 3 1946 329 1 1947 331 1 1948 323 1 1949 314 1 1950 332 1 1951 313 1 1952 321 3 1953 333 3 1954 317 3 1955 325 248 1956 299 248 1957 329 248 1958 326 0 1959 269 0 1960 309 0 1961 242 0 1962 286 0 1963 311 0 1964 302 2 1965 300 2 1966 330 2 1967 239 249 1968 270 249 1969 307 249 1970 322 0 1971 263 0 1972 326 0 1973 312 213 1974 287 213 1975 313 213 1976 316 0 1977 256 0 1978 322 0 1979 296 250 1980 299 250 1981 320 250 1982 270 251 1983 264 251 1984 327 251 1985 264 252 1986 257 252 1987 323 252 1988 300 2 1989 298 2 1990 328 2 1991 243 253 1992 294 253 1993 313 253 1994 324 254 1995 298 254 1996 321 254 1997 295 142 1998 242 142 1999 315 142 2000 304 255 2001 296 255 2002 332 255 2003 345 3 2004 340 3 2005 344 3 2006 336 3 2007 337 3 2008 345 3 2009 335 1 2010 334 1 2011 338 1 2012 338 1 2013 343 1 2014 339 1 2015 339 1 2016 342 1 2017 346 1 2018 344 3 2019 341 3 2020 349 3 2021 304 256 2022 294 256 2023 348 256 2024 345 4 2025 290 4 2026 336 4 2027 289 4 2028 290 4 2029 344 4 2030 294 5 2031 250 5 2032 346 5 2033 343 4 2034 291 4 2035 342 4 2036 295 101 2037 305 101 2038 347 101 2039 250 5 2040 274 5 2041 339 5 2042 341 5 2043 251 5 2044 347 5 2045 340 5 2046 275 5 2047 341 5 2048 342 4 2049 288 4 2050 348 4 2051</p>
        </polylist>
      </mesh>
    </geometry>
  </library_geometries>
  <library_controllers/>
  <library_visual_scenes>
    <visual_scene id="Scene" name="Scene">
      <node id="RegalAblage" name="RegalAblage" type="NODE">
        <matrix sid="transform">-1.64729e-8 0.6059905 0 0 -0.1011099 -9.87284e-8 0 -5.96046e-8 0 0 0.01035992 4.76837e-7 0 0 0 1</matrix>
        <instance_geometry url="#Cube_079-mesh" name="RegalAblage">
          <bind_material>
            <technique_common>
              <instance_material symbol="PBRFULL_LaboRoomShelf-material" target="#PBRFULL_LaboRoomShelf-material"/>
            </technique_common>
          </bind_material>
        </instance_geometry>
      </node>
    </visual_scene>
  </library_visual_scenes>
  <scene>
    <instance_visual_scene url="#Scene"/>
  </scene>
</COLLADA>