<?xml version="1.0" encoding="utf-8"?>
<COLLADA xmlns="http://www.collada.org/2005/11/COLLADASchema" version="1.4.1">
  <asset>
    <contributor>
      <author>Blender User</author>
      <authoring_tool>Blender 2.78.0 commit date:2017-02-24, commit time:14:33, hash:e92f2352830</authoring_tool>
    </contributor>
    <created>2017-07-14T10:06:20</created>
    <modified>2017-07-14T10:06:20</modified>
    <unit name="meter" meter="1"/>
    <up_axis>Z_UP</up_axis>
  </asset>
  <library_images/>
  <library_effects>
    <effect id="Metall_Alu_012_003-effect">
      <profile_COMMON>
        <technique sid="common">
          <phong>
            <emission>
              <color sid="emission">0 0 0 1</color>
            </emission>
            <ambient>
              <color sid="ambient">0 0 0 1</color>
            </ambient>
            <diffuse>
              <color sid="diffuse">0.45 0.45 0.45 1</color>
            </diffuse>
            <specular>
              <color sid="specular">0.325 0.325 0.325 1</color>
            </specular>
            <shininess>
              <float sid="shininess">70</float>
            </shininess>
            <index_of_refraction>
              <float sid="index_of_refraction">1</float>
            </index_of_refraction>
          </phong>
        </technique>
      </profile_COMMON>
    </effect>
    <effect id="Metall_goeldlich_005_003-effect">
      <profile_COMMON>
        <technique sid="common">
          <phong>
            <emission>
              <color sid="emission">0 0 0 1</color>
            </emission>
            <ambient>
              <color sid="ambient">0 0 0 1</color>
            </ambient>
            <diffuse>
              <color sid="diffuse">0.831 0.686 0.216 1</color>
            </diffuse>
            <specular>
              <color sid="specular">0.075 0.075 0.075 1</color>
            </specular>
            <shininess>
              <float sid="shininess">80</float>
            </shininess>
            <index_of_refraction>
              <float sid="index_of_refraction">1</float>
            </index_of_refraction>
          </phong>
        </technique>
      </profile_COMMON>
    </effect>
  </library_effects>
  <library_materials>
    <material id="Metall_Alu_012_003-material" name="Metall_Alu_012_003">
      <instance_effect url="#Metall_Alu_012_003-effect"/>
    </material>
    <material id="Metall_goeldlich_005_003-material" name="Metall_goeldlich_005_003">
      <instance_effect url="#Metall_goeldlich_005_003-effect"/>
    </material>
  </library_materials>
  <library_geometries>
    <geometry id="Cylinder_033-mesh" name="Cylinder.033">
      <mesh>
        <source id="Cylinder_033-mesh-positions">
          <float_array id="Cylinder_033-mesh-positions-array" count="525">0.003902137 0.00163275 0.001253664 0.003940761 0.00164622 0.003253698 0.003186047 0.001333475 0.001241028 0.002978026 0.003004074 0.001256823 0.00301069 0.003038108 0.003256857 0.006775617 0.002820968 0.00337094 0.00244832 0.002473235 0.001241505 0.003025829 0.001273095 6.80932e-5 -0.003085851 0.001265585 8.01748e-5 -0.002357959 0.002361416 7.5999e-5 -0.001292705 0.003062784 8.40086e-5 -3.88192e-6 0.003315925 6.78482e-5 0.001229465 0.003064453 7.0209e-5 0.002319991 0.002336263 7.94036e-5 0.001600027 0.003925561 0.001258909 0.001618802 0.003968119 0.003259003 0.005182981 0.005205094 0.00337702 0.006901085 0.002872169 0.005206763 0.001305758 0.003212273 0.001240968 -0.003235697 0.001335144 0.001241147 -0.002482414 0.002463877 0.001241147 -0.001356303 0.003222048 0.001241147 -2.3426e-5 0.003503739 0.001241147 -2.21924e-5 0.004253625 0.001259684 -2.2992e-5 0.004294693 0.003259778 0.002790808 0.006798982 0.00338006 0.005270659 0.005298018 0.005206823 0.01057636 0.00439608 0.005509972 -0.003943443 0.00162971 0.001253664 -0.003027796 0.003006398 0.001256823 -0.001646757 0.003924012 0.001258909 -0.001664817 0.003968119 0.003259003 -1.3374e-5 0.007358074 0.003379404 0.002841711 0.006920695 0.005206823 0.008083999 0.008111 0.005518436 0.01059049 0.004400134 0.007845461 0.01104605 0.002242267 0.006376802 -0.003986716 0.00164622 0.003253698 -0.003056704 0.003038108 0.003256857 -0.002838611 0.006795346 0.003386497 -2.27442e-5 0.007490694 0.005206823 0.004367232 0.01059836 0.005524158 0.008087456 0.008118569 0.01596248 0.009597599 0.005987048 0.01401656 0.009591996 0.005986213 0.01175171 0.00989443 0.005452156 0.009498596 -0.004996538 0.002907574 0.003256559 -0.004846036 0.005723476 0.003507554 -0.002884685 0.006911873 0.005206823 -2.11225e-5 0.01148939 0.005526185 0.004354953 0.01059627 0.01826155 -0.004996538 0.002907574 0.003749966 -0.004968464 0.005952775 0.005263507 -0.004927754 0.01037669 0.005523622 4.10776e-4 0.0112313 0.01924538 -0.004981815 0.01032638 0.02043062 -0.007967591 0.006063163 0.007613778 -0.007802546 0.006052851 0.02102231 -0.0079481 0.008150815 0.02098971 -0.005020499 0.006036102 0.007613718 -0.004985809 0.01033818 0.007623553 -0.006918728 0.006054699 0.0221253 -0.007948398 0.008150875 0.007618546 -0.006914615 0.008520603 0.02211886 -0.005035579 0.006054997 0.02259379 -0.005038738 0.008502304 0.02257591 0.002465367 0.007990479 0.02087181 0.002448976 0.009210705 0.02085512 0.005040764 0.006862282 0.01948314 0.004535317 0.009204566 0.019836 0.00598663 0.006254851 0.01860082 0.006742835 0.009260296 0.01756495 0.005886018 0.004397571 0.007859885 0.005886137 0.002243459 0.006360709 0.005886554 0.006020188 0.0117498 0.005886137 0.005476474 0.009487926 0.004930078 0.005938172 0.007579684 0.005159974 0.002907752 0.003256559 0.004758358 0.00510472 0.00562644 0.004220187 4.41686e-6 0.001249969 0.004267334 4.4166e-6 0.003249943 0.003461897 4.4166e-6 0.001241266 0.003902137 -0.001623928 0.001253664 0.003940761 -0.001637399 0.003253698 0.007343471 4.41712e-6 0.003370344 0.003186047 -0.001324653 0.001241028 0.003290772 4.4166e-6 7.64582e-5 0.002978026 -0.002995252 0.001256823 0.00301069 -0.003029227 0.003256857 0.006775617 -0.002812147 0.00337094 0.007471263 4.41712e-6 0.005206882 0.00244832 -0.002464413 0.001241505 0.003025829 -0.001264214 6.80932e-5 -0.003336548 4.41635e-6 7.66623e-5 -0.003085851 -0.001256704 8.01748e-5 -0.002357959 -0.002352595 7.5999e-5 -0.001292705 -0.003053963 8.40086e-5 -3.88128e-6 -0.003307044 6.78482e-5 0.001229465 -0.003055632 7.0209e-5 0.002319991 -0.002327442 7.94036e-5 0.001600027 -0.00391668 0.001258909 0.001618802 -0.003959238 0.003259003 0.005182981 -0.005196273 0.00337702 0.006901085 -0.002863347 0.005206763 0.01146638 4.41712e-6 0.005499958 0.001305758 -0.003203451 0.001240968 -0.003507912 4.41635e-6 0.001241266 -0.003235697 -0.001326262 0.001241147 -0.002482414 -0.002455055 0.001241147 -0.001356303 -0.003213167 0.001241147 -2.34255e-5 -0.003494918 0.001241147 -2.21914e-5 -0.004244744 0.001259684 -2.2991e-5 -0.004285871 0.003259778 0.002790808 -0.006790161 0.00338006 0.005270659 -0.005289196 0.005206823 0.01057636 -0.004387259 0.005509972 0.01147139 4.41712e-6 0.005801498 0.01147139 4.41712e-6 0.005801498 -0.004266321 4.41609e-6 0.001249969 -0.003943443 -0.001620888 0.001253664 -0.003027796 -0.002997577 0.001256823 -0.001646757 -0.00391519 0.001258909 -0.001664817 -0.003959298 0.003259003 -1.3373e-5 -0.007349252 0.003379404 0.002841711 -0.006911873 0.005206823 0.008083999 -0.008102178 0.005518436 0.01059049 -0.004391312 0.007845461 0.01104605 -0.002233386 0.006376802 -0.00431329 4.41584e-6 0.003249943 -0.003986716 -0.001637399 0.003253698 -0.003056704 -0.003029227 0.003256857 -0.002838611 -0.006786525 0.003386497 -2.27432e-5 -0.007481873 0.005206823 0.004367232 -0.01058954 0.005524158 0.008087456 -0.008109748 0.01596248 0.009597599 -0.005978226 0.01401656 0.009591996 -0.005977332 0.01175171 0.00989443 -0.005443334 0.009498596 -0.005020976 4.41609e-6 0.003249943 -0.004996538 -0.002898693 0.003256559 -0.004846036 -0.005714654 0.003507554 -0.002884685 -0.006902992 0.005206823 -2.11204e-5 -0.01148056 0.005526185 0.004354953 -0.01058745 0.01826155 -0.005016982 4.41609e-6 0.003756165 -0.004996538 -0.002898752 0.003749966 -0.004968464 -0.005943953 0.005263507 -0.004927754 -0.01036787 0.005523622 4.10778e-4 -0.01122242 0.01924538 -0.004981815 -0.01031756 0.02043062 -0.007967591 -0.006054341 0.007613778 -0.007802546 -0.00604397 0.02102231 -0.0079481 -0.008141994 0.02098971 -0.005020499 -0.006027221 0.007613718 -0.004985809 -0.01032936 0.007623553 -0.006918728 -0.006045877 0.0221253 -0.007948398 -0.008141994 0.007618546 -0.006914615 -0.008511781 0.02211886 -0.005035579 -0.006046175 0.02259379 -0.005038738 -0.008493483 0.02257591 0.002465367 -0.007981657 0.02087181 0.002448976 -0.009201824 0.02085512 0.005040764 -0.006853461 0.01948314 0.004535317 -0.009195744 0.019836 0.00598663 -0.00624603 0.01860082 0.006742835 -0.009251415 0.01756495 0.005886495 4.41712e-6 0.005902469 0.005886018 -0.004388749 0.007859885 0.005886137 -0.002234637 0.006360709 0.005886554 -0.006011366 0.0117498 0.005886137 -0.005467593 0.009487926 0.004930078 -0.005929291 0.007579684 0.005159974 4.41686e-6 0.003249943 0.005159974 -0.002898871 0.003256559 0.004758358 -0.005095899 0.00562644</float_array>
          <technique_common>
            <accessor source="#Cylinder_033-mesh-positions-array" count="175" stride="3">
              <param name="X" type="float"/>
              <param name="Y" type="float"/>
              <param name="Z" type="float"/>
            </accessor>
          </technique_common>
        </source>
        <source id="Cylinder_033-mesh-normals">
          <float_array id="Cylinder_033-mesh-normals-array" count="522">0.6876261 0.2852926 -0.6676666 0.6147563 0.2554491 -0.7462041 0.7412451 0 -0.6712346 0.6050662 0 -0.7961752 0.5249673 0.5273783 -0.6680431 0.4691095 0.4718868 -0.7464979 0.6656245 0 -0.7462868 0.7343481 0 -0.6787731 0.5669884 0.2331067 -0.7900542 0.9136593 0.3787152 -0.1476528 0.2854782 0.6886087 -0.6665737 0.2540131 0.6148747 -0.7465965 0.6761218 0.2824855 -0.680486 0.6109583 0.2551382 -0.7494227 0.238479 0.5712633 -0.7853574 0.4273034 0.427334 -0.7967419 -0.6053432 0 -0.7959645 -0.564236 0.2357595 -0.7912365 -0.9897428 0 -0.1428611 -0.4342552 0.4336143 -0.7895576 -0.6972707 0.7035881 -0.1370309 -0.235855 0.5643063 -0.791158 -0.377579 0.9147716 -0.1436216 -0.001159667 0.6050319 -0.7962006 0.002166867 0.9879397 -0.1548243 0.3790823 0.9134477 -0.1480194 -1.52593e-4 0.747278 -0.6645116 0 0.6655111 -0.7463881 0.518835 0.5201473 -0.6784225 0.4691395 0.4709401 -0.7470768 0.6627635 0 -0.7488288 0.7625858 0 -0.6468871 -0.7417672 0 -0.6706576 -0.6865375 0.2851748 -0.6688362 -0.5270679 0.5270679 -0.6666325 -0.2844997 0.6886041 -0.6669965 -0.2544084 0.6154204 -0.7460122 0.2801363 0.6782601 -0.6793283 0.2541041 0.6141715 -0.7471444 0.7044669 0.2986881 -0.643826 -0.6488993 0 -0.7608743 -0.5974705 0.2642946 -0.7570849 -0.4859984 0.4747671 -0.7337588 -5.18828e-4 0.7338057 -0.6793593 -0.001709043 0.66409 -0.7476507 0.2929201 0.7118219 -0.6383631 0.5414515 0.5446866 -0.6404271 0.8180318 -0.1134697 0.5638694 -0.6693832 0.06033694 -0.740463 -0.6690726 0.4059055 -0.6225613 -0.2440909 0.6763316 -0.6949787 -0.2198942 0.6513507 -0.7262155 -0.01174992 0.7776339 -0.6286078 0.5127606 0.3756968 0.771964 0.7351475 0.5442497 0.4041664 0.3663489 0.8811722 0.2988716 -0.7109417 0 -0.703251 -0.7480949 -0.1449677 0.6475635 -0.9679853 -0.2507783 0.01071232 -0.626675 0.5366138 -0.5650879 0.05410975 0.9241084 0.3782802 -0.7023797 0.3560119 -0.6163752 -0.5863665 -0.5707712 -0.5747997 -0.7052733 -0.6571747 0.2659157 0.7732788 -0.1203393 0.6225418 -0.5725412 0.8015577 -0.1723422 -0.2646049 0.9077444 0.3255525 -0.8821267 0.3657115 0.2968297 -0.3181008 -0.8998868 -0.2983549 0.03558528 -0.6633026 0.7475048 0.3164493 -0.5190026 0.7940379 0.3030566 0.4052658 0.8625059 0.2187942 -0.680371 0.6994457 0.2604481 -0.7641317 0.5901436 0.8625466 -0.4783957 0.1647756 0.83411 0.4435606 0.3278943 -0.02053928 0.3906736 0.9203001 -0.5147387 0.4540968 0.7272141 -0.5347567 -0.6398953 0.551878 0.8634244 -0.3070251 0.4002925 -0.3358667 -0.8988288 0.2816031 0.9162844 -0.3870167 0.1031556 0.3858807 -0.9091879 0.1564397 0.8062226 0 0.5916124 -0.6610686 -0.3032657 0.6863077 -0.4142059 -0.6402002 0.6469755 -0.4518036 -0.8551734 0.2540708 -0.5512407 -0.3156007 0.7723534 -0.6880257 0 0.7256864 -0.6510377 0 0.7590455 -0.4793363 -0.7401849 0.4715539 0.6876261 -0.2852926 -0.6676666 0.6147563 -0.2554491 -0.7462041 0.5669884 -0.2331067 -0.7900542 0.5249673 -0.5273783 -0.6680431 0.4691095 -0.4718868 -0.7464979 0.4273034 -0.427334 -0.7967419 0.9136593 -0.3787152 -0.1476528 0.2854782 -0.6886087 -0.6665737 0.2540131 -0.6148747 -0.7465965 0.6761218 -0.2824855 -0.680486 0.6109583 -0.2551382 -0.7494227 0.238479 -0.5712633 -0.7853574 0.6994715 -0.6966637 -0.1593717 -0.564236 -0.2357595 -0.7912365 -0.9155167 -0.3768518 -0.1407548 -0.6972707 -0.7035881 -0.1370309 -0.4342552 -0.4336143 -0.7895576 -0.377579 -0.9147716 -0.1436216 -0.235855 -0.5643063 -0.791158 0.002166867 -0.9879397 -0.1548243 -0.001159667 -0.6050319 -0.7962006 0.3790823 -0.9134477 -0.1480194 -1.52593e-4 -0.747278 -0.6645116 0 -0.6655111 -0.7463881 0.518835 -0.5201473 -0.6784225 0.4691395 -0.4709401 -0.7470768 -0.6865375 -0.2851748 -0.6688362 -0.5270679 -0.5270679 -0.6666325 -0.2844997 -0.6886041 -0.6669965 0.2801363 -0.6782601 -0.6793283 0.2541041 -0.6141715 -0.7471444 0.7044669 -0.2986881 -0.643826 -0.5974705 -0.2642946 -0.7570849 -0.4859984 -0.4747671 -0.7337588 -0.2544084 -0.6154204 -0.7460122 -5.18828e-4 -0.7338057 -0.6793593 -0.001709043 -0.66409 -0.7476507 0.5414515 -0.5446866 -0.6404271 0.2929201 -0.7118219 -0.6383631 0.8180318 0.1134697 0.5638694 -0.6693832 -0.06033694 -0.740463 -0.6690726 -0.4059055 -0.6225613 -0.2440909 -0.6763316 -0.6949787 -0.2198942 -0.6513507 -0.7262155 -0.01174992 -0.7776339 -0.6286078 0.5127606 -0.3756968 0.771964 0.3663489 -0.8811722 0.2988716 0.7351475 -0.5442497 0.4041664 -0.7480949 0.1449677 0.6475635 -0.9679853 0.2507783 0.01071232 -0.626675 -0.5366138 -0.5650879 0.05410975 -0.9241084 0.3782802 -0.7023797 -0.3560119 -0.6163752 -0.8821267 -0.3657115 0.2968297 -0.7052733 0.6571747 0.2659157 0.7732788 0.1203393 0.6225418 -0.5725412 -0.8015577 -0.1723422 -0.2646049 -0.9077444 0.3255525 -0.3181008 0.8998868 -0.2983549 -0.5863665 0.5707712 -0.5747997 0.03558528 0.6633026 0.7475048 -0.02053928 -0.3906736 0.9203001 0.3030566 -0.4052658 0.8625059 0.3164493 0.5190026 0.7940379 0.2187942 0.680371 0.6994457 0.2604481 0.7641317 0.5901436 0.83411 -0.4435606 0.3278943 -0.5147387 -0.4540968 0.7272141 -0.6610686 0.3032657 0.6863077 -0.5347567 0.6398953 0.551878 -0.3358667 0.8988288 0.2816031 0.8634244 0.3070251 0.4002925 0.3858914 0.9091827 0.1564441 -0.4518036 0.8551734 0.2540708 -0.4142059 0.6402002 0.6469755 -0.4793363 0.7401849 0.4715539 -0.5512407 0.3156007 0.7723534 0.9162844 0.3870167 0.1031556 0.9893827 0 -0.1453341 0.6994715 0.6966637 -0.1593717 -0.9155167 0.3768518 -0.1407548 -0.5861756 0 0.8101841 0.8625466 0.4783957 0.1647756</float_array>
          <technique_common>
            <accessor source="#Cylinder_033-mesh-normals-array" count="174" stride="3">
              <param name="X" type="float"/>
              <param name="Y" type="float"/>
              <param name="Z" type="float"/>
            </accessor>
          </technique_common>
        </source>
        <vertices id="Cylinder_033-mesh-vertices">
          <input semantic="POSITION" source="#Cylinder_033-mesh-positions"/>
        </vertices>
        <lines count="1">
          <input semantic="VERTEX" source="#Cylinder_033-mesh-vertices" offset="0"/>
          <p>116 117</p>
        </lines>
        <polylist material="Metall_Alu_012_003-material" count="322">
          <input semantic="VERTEX" source="#Cylinder_033-mesh-vertices" offset="0"/>
          <input semantic="NORMAL" source="#Cylinder_033-mesh-normals" offset="1"/>
          <vcount>3 3 3 3 3 3 3 3 3 3 3 3 3 3 3 3 3 3 3 3 3 3 3 3 3 3 3 3 3 3 3 3 3 3 3 3 3 3 3 3 3 3 3 3 3 3 3 3 3 3 3 3 3 3 3 3 3 3 3 3 3 3 3 3 3 3 3 3 3 3 3 3 3 3 3 3 3 3 3 3 3 3 3 3 3 3 3 3 3 3 3 3 3 3 3 3 3 3 3 3 3 3 3 3 3 3 3 3 3 3 3 3 3 3 3 3 3 3 3 3 3 3 3 3 3 3 3 3 3 3 3 3 3 3 3 3 3 3 3 3 3 3 3 3 3 3 3 3 3 3 3 3 3 3 3 3 3 3 3 3 3 3 3 3 3 3 3 3 3 3 3 3 3 3 3 3 3 3 3 3 3 3 3 3 3 3 3 3 3 3 3 3 3 3 3 3 3 3 3 3 3 3 3 3 3 3 3 3 3 3 3 3 3 3 3 3 3 3 3 3 3 3 3 3 3 3 3 3 3 3 3 3 3 3 3 3 3 3 3 3 3 3 3 3 3 3 3 3 3 3 3 3 3 3 3 3 3 3 3 3 3 3 3 3 3 3 3 3 3 3 3 3 3 3 3 3 3 3 3 3 3 3 3 3 3 3 3 3 3 3 3 3 3 3 3 3 3 3 3 3 3 3 3 3 3 3 3 3 3 3 3 3 3 3 3 3 3 3 3 3 3 3 </vcount>
          <p>0 0 1 1 79 2 0 0 79 2 81 3 3 4 4 5 0 0 80 6 1 1 84 7 3 4 0 0 2 8 2 8 81 3 7 9 14 10 15 11 3 4 1 1 4 5 5 12 84 7 5 12 17 13 14 10 3 4 18 14 6 15 2 8 7 9 106 16 19 17 93 18 19 17 20 19 9 20 20 19 21 21 10 22 21 21 22 23 11 24 22 23 18 14 12 25 18 14 6 15 12 25 23 26 24 27 14 10 4 5 15 11 16 28 5 12 16 28 26 29 90 30 17 13 104 31 23 26 14 10 18 14 118 32 28 33 19 17 28 33 29 34 19 17 29 34 30 35 21 21 30 35 23 26 21 21 30 35 31 36 24 27 15 11 24 27 25 37 16 28 25 37 33 38 17 13 26 29 27 39 118 32 128 40 37 41 28 33 37 41 38 42 29 34 38 42 31 36 24 27 31 36 32 43 25 37 32 43 40 44 26 29 33 38 41 45 27 39 34 46 35 47 37 41 128 40 46 48 38 42 37 41 47 49 31 36 38 42 39 50 32 43 39 50 48 51 33 38 40 44 49 52 69 53 71 54 50 55 46 48 138 56 51 57 47 49 46 48 52 58 39 50 47 49 52 58 40 44 48 51 53 59 41 45 49 52 54 60 62 61 56 62 57 63 48 51 52 58 53 59 27 39 35 47 36 64 53 59 52 58 60 65 54 60 60 65 55 66 55 66 60 65 58 67 59 68 56 62 60 65 64 69 66 70 67 71 66 70 68 72 67 71 68 72 70 73 69 53 70 73 43 74 42 75 54 60 55 66 67 71 50 55 54 60 69 53 34 46 41 45 42 75 65 76 55 66 63 77 55 66 58 67 63 77 36 64 35 47 72 78 35 47 45 79 75 80 45 79 44 81 74 82 68 72 74 82 70 73 116 83 36 64 73 84 75 80 74 82 68 72 56 62 59 68 61 85 61 85 59 68 64 69 76 86 72 78 75 80 66 70 76 86 68 72 66 70 64 69 76 86 52 58 51 57 77 87 51 57 144 88 77 87 73 84 77 87 166 89 72 78 78 90 77 87 72 78 76 86 78 90 52 58 78 90 76 86 44 81 43 74 70 73 82 91 79 2 83 92 82 91 85 93 81 3 87 94 82 91 88 95 80 6 84 7 83 92 87 94 91 96 85 93 85 93 92 97 81 3 100 98 87 94 101 99 83 92 89 100 88 95 84 7 90 30 103 101 100 98 105 102 87 94 91 96 99 103 92 97 106 16 93 18 107 104 107 104 94 105 95 106 108 107 95 106 96 108 109 109 96 108 97 110 110 111 97 110 98 112 105 102 98 112 91 96 111 113 100 98 112 114 88 95 102 115 101 99 89 100 103 101 114 116 90 30 104 31 103 101 111 113 110 111 105 102 118 32 106 16 107 104 119 117 107 104 120 118 120 118 108 107 109 109 121 119 109 109 111 113 121 119 111 113 112 114 101 99 113 120 112 114 102 115 114 116 124 121 103 101 115 122 114 116 118 32 119 117 129 123 119 117 120 118 130 124 120 118 121 119 122 125 112 114 123 126 122 125 113 120 124 121 132 127 114 116 125 128 133 129 115 122 126 130 125 128 129 123 139 131 128 40 130 124 140 132 129 123 122 125 131 133 130 124 123 126 132 127 141 134 124 121 133 129 142 135 163 136 143 137 165 138 139 131 145 139 138 56 140 132 146 140 139 131 131 133 141 134 146 140 132 127 142 135 147 141 133 129 143 137 148 142 156 143 152 144 151 145 141 134 147 141 146 140 115 122 127 146 126 130 147 141 154 147 146 140 148 142 149 148 154 147 149 148 152 144 154 147 153 149 154 147 150 150 158 151 159 152 161 153 160 154 161 153 162 155 162 155 163 136 164 156 164 156 165 138 134 157 148 142 161 153 149 148 143 137 163 136 148 142 125 128 134 157 133 129 159 152 157 158 149 148 149 148 157 158 152 144 127 146 168 159 167 160 126 130 167 160 170 161 137 162 170 161 169 163 162 155 164 156 169 163 116 83 166 89 168 159 170 161 171 164 162 155 150 150 151 145 155 165 155 165 158 151 153 149 171 164 170 161 167 160 160 154 162 155 171 164 160 154 171 164 158 151 146 140 174 166 173 167 145 139 173 167 144 88 168 159 166 89 173 167 167 160 168 159 173 167 167 160 174 166 171 164 146 140 153 149 171 164 136 168 169 163 164 156 1 1 80 6 79 2 2 8 0 0 81 3 4 5 1 1 0 0 1 1 5 12 84 7 6 15 3 4 2 8 81 3 86 169 7 9 15 11 4 5 3 4 4 5 16 28 5 12 90 30 84 7 17 13 3 4 6 15 18 14 13 170 6 15 7 9 19 17 8 171 93 18 8 171 19 17 9 20 9 20 20 19 10 22 10 22 21 21 11 24 11 24 22 23 12 25 6 15 13 170 12 25 24 27 15 11 14 10 15 11 25 37 16 28 17 13 5 12 26 29 17 13 27 39 104 31 22 23 23 26 18 14 106 16 118 32 19 17 29 34 20 19 19 17 20 19 29 34 21 21 23 26 22 23 21 21 23 26 30 35 24 27 24 27 32 43 25 37 26 29 16 28 33 38 26 29 34 46 27 39 28 33 118 32 37 41 29 34 28 33 38 42 30 35 29 34 31 36 31 36 39 50 32 43 33 38 25 37 40 44 34 46 26 29 41 45 35 47 34 46 45 79 34 46 42 75 45 79 42 75 43 74 44 81 45 79 42 75 44 81 128 40 138 56 46 48 37 41 46 48 47 49 38 42 47 49 39 50 40 44 32 43 48 51 41 45 33 38 49 52 138 56 144 88 51 57 46 48 51 57 52 58 48 51 39 50 52 58 49 52 40 44 53 59 50 55 41 45 54 60 58 67 62 61 57 63 104 31 27 39 116 83 27 39 36 64 116 83 52 58 59 68 60 65 49 52 53 59 54 60 53 59 60 65 54 60 60 65 62 61 58 67 56 62 62 61 60 65 65 76 64 69 67 71 68 72 69 53 67 71 70 73 71 54 69 53 71 54 70 73 42 75 55 66 65 76 67 71 54 60 67 71 69 53 41 45 50 55 71 54 42 75 41 45 71 54 73 84 36 64 72 78 72 78 35 47 75 80 75 80 45 79 74 82 166 89 116 83 73 84 76 86 75 80 68 72 57 63 56 62 61 85 64 69 59 68 76 86 78 90 52 58 77 87 144 88 172 172 77 87 77 87 172 172 166 89 73 84 72 78 77 87 59 68 52 58 76 86 74 82 44 81 70 73 79 2 80 6 83 92 79 2 82 91 81 3 82 91 83 92 88 95 84 7 89 100 83 92 82 91 87 94 85 93 92 97 86 169 81 3 87 94 88 95 101 99 89 100 102 115 88 95 89 100 84 7 103 101 105 102 91 96 87 94 85 93 91 96 92 97 93 18 94 105 107 104 108 107 107 104 95 106 109 109 108 107 96 108 110 111 109 109 97 110 105 102 110 111 98 112 98 112 99 103 91 96 100 98 101 99 112 114 102 115 113 120 101 99 102 115 89 100 114 116 104 31 115 122 103 101 100 98 111 113 105 102 119 117 118 32 107 104 107 104 108 107 120 118 121 119 120 118 109 109 109 109 110 111 111 113 122 125 121 119 112 114 113 120 123 126 112 114 113 120 102 115 124 121 115 122 125 128 114 116 128 40 118 32 129 123 129 123 119 117 130 124 130 124 120 118 122 125 123 126 131 133 122 125 123 126 113 120 132 127 124 121 114 116 133 129 126 130 137 162 125 128 125 128 137 162 134 157 137 162 136 168 134 157 136 168 135 173 134 157 139 131 138 56 128 40 140 132 139 131 129 123 131 133 140 132 130 124 131 133 123 126 141 134 132 127 124 121 142 135 145 139 144 88 138 56 146 140 145 139 139 131 140 132 131 133 146 140 141 134 132 127 147 141 142 135 133 129 148 142 150 150 156 143 151 145 104 31 116 83 115 122 116 83 127 146 115 122 154 147 153 149 146 140 142 135 148 142 147 141 148 142 154 147 147 141 152 144 156 143 154 147 154 147 156 143 150 150 160 154 158 151 161 153 161 153 163 136 162 155 163 136 165 138 164 156 135 173 164 156 134 157 161 153 159 152 149 148 163 136 161 153 148 142 134 157 165 138 133 129 165 138 143 137 133 129 126 130 127 146 167 160 137 162 126 130 170 161 136 168 137 162 169 163 127 146 116 83 168 159 169 163 170 161 162 155 153 149 150 150 155 165 171 164 153 149 158 151 145 139 146 140 173 167 173 167 172 172 144 88 166 89 172 172 173 167 174 166 167 160 173 167 174 166 146 140 171 164 135 173 136 168 164 156</p>
        </polylist>
        <polylist material="Metall_goeldlich_005_003-material" count="8">
          <input semantic="VERTEX" source="#Cylinder_033-mesh-vertices" offset="0"/>
          <input semantic="NORMAL" source="#Cylinder_033-mesh-normals" offset="1"/>
          <vcount>3 3 3 3 3 3 3 3 </vcount>
          <p>57 63 61 85 63 77 61 85 64 69 63 77 151 145 152 144 157 158 155 165 157 158 158 151 58 67 57 63 63 77 64 69 65 76 63 77 155 165 151 145 157 158 157 158 159 152 158 151</p>
        </polylist>
      </mesh>
    </geometry>
  </library_geometries>
  <library_controllers/>
  <library_visual_scenes>
    <visual_scene id="Scene" name="Scene">
      <node id="COL_hollie_right_hand_virtual_i" name="COL_hollie_right_hand_virtual_i" type="NODE">
        <instance_geometry url="#Cylinder_033-mesh" name="COL_hollie_right_hand_virtual_i">
          <bind_material>
            <technique_common>
              <instance_material symbol="Metall_Alu_012_003-material" target="#Metall_Alu_012_003-material"/>
              <instance_material symbol="Metall_goeldlich_005_003-material" target="#Metall_goeldlich_005_003-material"/>
            </technique_common>
          </bind_material>
        </instance_geometry>
      </node>
    </visual_scene>
  </library_visual_scenes>
  <scene>
    <instance_visual_scene url="#Scene"/>
  </scene>
</COLLADA>