<?xml version="1.0" encoding="utf-8"?>
<COLLADA xmlns="http://www.collada.org/2005/11/COLLADASchema" version="1.4.1">
  <asset>
    <contributor>
      <author>Blender User</author>
      <authoring_tool>Blender 2.78.0 commit date:2017-02-24, commit time:14:33, hash:e92f2352830</authoring_tool>
    </contributor>
    <created>2017-07-14T10:06:20</created>
    <modified>2017-07-14T10:06:20</modified>
    <unit name="meter" meter="1"/>
    <up_axis>Z_UP</up_axis>
  </asset>
  <library_images/>
  <library_effects>
    <effect id="Metall_Alu_011_003-effect">
      <profile_COMMON>
        <technique sid="common">
          <phong>
            <emission>
              <color sid="emission">0 0 0 1</color>
            </emission>
            <ambient>
              <color sid="ambient">0 0 0 1</color>
            </ambient>
            <diffuse>
              <color sid="diffuse">0.45 0.45 0.45 1</color>
            </diffuse>
            <specular>
              <color sid="specular">0.325 0.325 0.325 1</color>
            </specular>
            <shininess>
              <float sid="shininess">70</float>
            </shininess>
            <index_of_refraction>
              <float sid="index_of_refraction">1</float>
            </index_of_refraction>
          </phong>
        </technique>
      </profile_COMMON>
    </effect>
    <effect id="Kunststoff_druckteile_007_003-effect">
      <profile_COMMON>
        <technique sid="common">
          <phong>
            <emission>
              <color sid="emission">0 0 0 1</color>
            </emission>
            <ambient>
              <color sid="ambient">0 0 0 1</color>
            </ambient>
            <diffuse>
              <color sid="diffuse">0.5 0.5 0.5 1</color>
            </diffuse>
            <specular>
              <color sid="specular">0.5 0.5 0.5 1</color>
            </specular>
            <shininess>
              <float sid="shininess">50</float>
            </shininess>
            <index_of_refraction>
              <float sid="index_of_refraction">1</float>
            </index_of_refraction>
          </phong>
        </technique>
      </profile_COMMON>
    </effect>
    <effect id="Gummi_011_003-effect">
      <profile_COMMON>
        <technique sid="common">
          <phong>
            <emission>
              <color sid="emission">0 0 0 1</color>
            </emission>
            <ambient>
              <color sid="ambient">0 0 0 1</color>
            </ambient>
            <diffuse>
              <color sid="diffuse">0.1 0.1 0.1 1</color>
            </diffuse>
            <specular>
              <color sid="specular">0.025 0.025 0.025 1</color>
            </specular>
            <shininess>
              <float sid="shininess">50</float>
            </shininess>
            <index_of_refraction>
              <float sid="index_of_refraction">1</float>
            </index_of_refraction>
          </phong>
        </technique>
      </profile_COMMON>
    </effect>
  </library_effects>
  <library_materials>
    <material id="Metall_Alu_011_003-material" name="Metall_Alu_011_003">
      <instance_effect url="#Metall_Alu_011_003-effect"/>
    </material>
    <material id="Kunststoff_druckteile_007_003-material" name="Kunststoff_druckteile_007_003">
      <instance_effect url="#Kunststoff_druckteile_007_003-effect"/>
    </material>
    <material id="Gummi_011_003-material" name="Gummi_011_003">
      <instance_effect url="#Gummi_011_003-effect"/>
    </material>
  </library_materials>
  <library_geometries>
    <geometry id="Circle_047-mesh" name="Circle.047">
      <mesh>
        <source id="Circle_047-mesh-positions">
          <float_array id="Circle_047-mesh-positions-array" count="1743">0.002326905 -1.92505e-4 -0.007929325 0.002030134 -0.001153409 -0.007920622 0.001307606 -0.00193721 -0.007922887 3.69245e-4 -0.002299606 -0.007914662 -6.56748e-4 -0.002236843 -0.007894515 -0.001583695 -0.001692593 -0.007917165 -0.002145111 -8.76813e-4 -0.007897078 -0.002303481 1.78935e-4 -0.007909357 -0.002012848 0.001131355 -0.007905364 -0.001295685 0.001913905 -0.007910132 -3.66216e-4 0.00228703 -0.007914125 6.63873e-4 0.002229392 -0.007902979 0.001594841 0.001687765 -0.007928729 0.002166032 8.68135e-4 -0.007915794 0.002511143 -1.86101e-4 -0.006000757 0.002193331 -0.001262068 -0.005991935 0.001431822 -0.002088546 -0.005994856 3.87132e-4 -0.002502799 -0.00599873 -7.3385e-4 -0.002422749 -0.006002843 -0.001709043 -0.001864254 -0.00600636 -0.002345383 -9.37921e-4 -0.006008565 -0.002516746 1.72768e-4 -0.006009101 -0.002189278 0.001247823 -0.00600773 -0.001427769 0.002074301 -0.006004869 -3.83081e-4 0.002488553 -0.006000995 7.37898e-4 0.002408504 -0.005996882 0.001713097 0.001849949 -0.005993366 0.002349436 9.23656e-4 -0.00599116 0.007265985 -0.003536939 -0.005773603 0.005673766 -0.003433823 -0.005779445 0.003478825 -0.005068302 -0.00578767 9.36295e-4 -0.006064474 -0.005776703 -0.001782715 -0.005869328 -0.005775213 -0.003902137 -0.004679918 -0.005814731 -0.0062415 -0.002307295 -0.00580269 -0.006042718 4.24655e-4 -0.005822002 -0.005753576 0.004473745 -0.005820453 -0.003524601 0.004222631 -0.005812346 -0.001078367 0.00404793 -0.005803346 0.00164783 0.003853201 -0.005793392 0.00776267 0.003416478 -0.005770981 0.007619082 0.001406073 -0.005771756 -0.00443077 -0.005363106 -0.00523734 -0.004454195 -0.005387425 -0.004016876 0.004549205 -0.005746304 -0.004794478 0.003390491 -0.006050527 -0.005235373 8.49626e-4 -0.006931006 -0.005265235 -0.001818954 -0.006732702 -0.005264639 0.006896376 -0.006068885 -0.004302263 0.003407061 -0.006082296 -0.003988087 8.5004e-4 -0.006930768 -0.003997564 -0.001821219 -0.006740391 -0.004007339 0.004540979 -0.005785763 -0.003921389 0.005327284 -0.006001949 -0.004380226 0.005598187 -0.006456494 -0.0023247 0.006715118 -0.007748484 -0.001595497 0.006713449 -0.007750451 -7.14168e-4 0.01130139 -0.008086562 -0.001560688 0.008996307 -0.007910013 -0.001589357 0.01014953 -0.007990598 -0.001588165 0.007843077 -0.007829427 -0.001590609 0.01132231 -0.006655633 -0.004451632 0.008545517 -0.006426513 -0.004098296 0.01006466 -0.006462693 -0.004217028 -0.00660628 -0.002259433 -0.005215346 0.01204359 0.003344237 -0.005819976 0.01131933 -0.005623221 -0.005759 0.01421535 -0.001083374 -0.008943259 0.01401901 -0.00382328 -0.00848633 0.01385349 -0.006150603 -0.007256627 0.01369529 -0.008366465 -0.004950582 0.01361209 -0.00953269 -0.00277698 0.01841318 0.007857501 -0.005373477 0.01850986 0.009218513 -0.002809345 0.01717555 -0.009432554 -0.003557205 0.01728254 -0.007965385 -0.005939781 0.01739454 -0.006397724 -0.007309436 0.01757442 -0.003880083 -0.008543431 0.01777106 -0.00112468 -0.008934736 0.01496952 0.009473264 -0.00281006 0.01487302 0.008113801 -0.005375862 0.01472663 0.006078481 -0.007334113 0.0145455 0.003549695 -0.008554935 0.01826721 0.005821585 -0.007327556 0.01884579 0.003454267 -0.008634209 0.02010244 -0.00946623 -0.003511726 0.02021241 -0.008170187 -0.005931913 0.02031391 -0.006633698 -0.00728625 0.02017855 -0.004953086 -0.008217275 0.0203793 0.008445739 -0.005260705 0.02082657 0.009715974 -0.002870321 0.0197699 0.00656718 -0.007138967 0.01901054 0.00419569 -0.008399605 0.02569609 0.009285449 -0.004171431 0.02653729 0.009889721 -0.002786695 0.02513194 0.008300602 -0.005631327 0.02465718 0.00724405 -0.006702601 0.0312758 0.009348869 -0.003828346 0.03148323 0.009920895 -0.002272903 0.03086715 0.008733212 -0.004907131 0.03063416 0.008096575 -0.00577265 0.03595745 0.008986353 -0.003713905 0.0360223 0.009410321 -0.002621948 0.035649 0.008499562 -0.004657745 0.03547197 0.007981657 -0.005425155 0.04389631 0.007494628 -0.003895461 0.04377323 0.008056938 -0.002623796 0.04400086 0.006924629 -0.004829406 0.0441398 0.006225049 -0.005683124 0.01899045 0.003039777 -0.008734226 0.02494239 0.005992531 -0.007612943 0.03074812 0.006970047 -0.006858527 0.03555482 0.006927251 -0.006536006 0.04427301 0.005561828 -0.006336808 0.02347135 -0.009500622 -0.003471374 0.02357411 -0.008261322 -0.005861043 0.02368342 -0.007071256 -0.007133841 0.0234819 -0.006312906 -0.007637381 0.02861201 -0.009562849 -0.003379642 0.0286864 -0.008346736 -0.005701959 0.02872282 -0.007737338 -0.006491124 0.02868509 -0.007175564 -0.007095575 0.03382676 -0.00962013 -0.003300666 0.03382426 -0.009287416 -0.004057943 0.0338881 -0.00811237 -0.005965113 0.03393357 -0.007273733 -0.006627321 0.0468412 -0.009913146 -0.002697706 0.04689937 -0.00908339 -0.004481077 0.04695606 -0.008220076 -0.005679547 0.0470159 -0.007514119 -0.006328225 0.04461991 0.007136821 -0.003892779 0.04464703 0.007616221 -0.002724468 0.04459547 0.006641387 -0.004741609 0.04459744 0.006027579 -0.00553888 0.04452621 0.00540924 -0.006335914 0.04652321 0.006820857 -0.003882229 0.04655385 0.007307708 -0.002720057 0.0464906 0.006323277 -0.004724502 0.04645192 0.005741 -0.005541145 0.04612976 0.004891097 -0.006330072 0.05092716 0.00642395 -0.00383377 0.05096113 0.006899178 -0.002687096 0.05089271 0.005942821 -0.004682004 0.0508511 0.005360543 -0.005488336 0.05079329 0.004558026 -0.006313025 0.04974615 -0.01011282 -0.002697467 0.04980498 -0.009287774 -0.004476606 0.04986649 -0.008424282 -0.005672574 0.04991632 -0.007721245 -0.006317615 0.05309045 0.004376828 -0.006304621 0.05222231 -0.007885932 -0.006309151 0.05409872 0.003890156 -0.006088376 0.05372178 -0.007161557 -0.006303608 0.05585604 7.47362e-4 -0.006294846 0.05541115 -0.005485892 -0.00629723 0.05670636 -9.90379e-4 -0.006291925 0.05656099 -0.003123223 -0.0062927 0.05246961 0.006835103 -0.002547562 0.05181992 -0.01029938 -0.002503395 0.0549336 0.005834102 -0.002492845 0.05383014 -0.00964266 -0.002468645 0.05741506 0.003361701 -0.002489507 0.05664229 -0.00755012 -0.002462565 0.0586192 -6.0252e-4 -0.002614319 0.05839067 -0.003791749 -0.002604365 0.05595022 -0.003759562 -0.006295025 0.05653494 -2.22351e-4 -0.006292521 0.05820536 -0.005005002 -0.002531111 0.05860292 6.23126e-4 -0.002545356 0.05248135 0.006997168 -0.001973986 0.0503996 -0.009329319 -0.00447601 0.05113643 -0.008512914 -0.005670607 0.05201095 -0.01035827 -0.001900851 0.05498731 0.005921006 -0.002001762 0.05476987 -0.009227812 -0.001951456 0.05748748 0.003415942 -0.002022206 0.05669659 -0.007609546 -0.002019703 0.05861699 -6.02236e-4 -0.002020478 0.05838859 -0.003791391 -0.002019822 0.05829876 -0.005044937 -0.002019584 0.05870682 6.5131e-4 -0.002020776 0.05187749 0.006345272 -0.003811776 0.05492126 -0.001705467 -0.001703023 0.05157703 0.005892574 -0.004681408 0.05197989 0.005277514 -0.005486905 0.01175051 -9.07789e-4 -0.008951961 0.01171135 -0.003663957 -0.008500933 0.01154237 -0.006035804 -0.007307052 0.01433938 0.009519398 -0.002811014 0.01221907 0.008112609 -0.005641639 0.0131005 0.006090223 -0.007424056 0.01225918 0.003433883 -0.008651852 0.01145994 -0.003655016 -0.005758225 0.01165634 -9.04324e-4 -0.005757212 0.01130014 -0.008246362 -0.00502938 0.01112204 -0.009366035 -0.002782225 0.01134443 -0.009698092 -0.001559019 0.05179375 -0.001724183 -0.008809983 0.05157536 -0.002440571 -0.008810877 0.05101788 -0.003013372 -0.008813023 0.05029886 -0.003294646 -0.008815646 0.04954677 -0.00325942 -0.008818447 0.04887712 -0.002851963 -0.008820831 0.0484445 -0.002222537 -0.008822381 0.04830425 -0.001458346 -0.008822798 0.04852354 -7.28004e-4 -0.008821904 0.04906284 -1.65082e-4 -0.008819878 0.04978215 1.2382e-4 -0.008817195 0.05054825 9.32103e-5 -0.008814394 0.05122339 -3.1578e-4 -0.00881195 0.05165868 -9.51884e-4 -0.0088104 0.05202162 -0.002122581 -0.005542933 0.05179017 -0.002559006 -0.005679428 0.05121421 -0.002793908 -0.005509793 0.04989796 -0.003548324 -0.005783736 0.04871046 -0.002626717 -0.005505561 0.04817342 -0.002298533 -0.005701124 0.04800844 -0.001816391 -0.005521535 0.04829978 -5.30666e-4 -0.005119204 0.04888576 -1.63437e-4 -0.005033493 0.05017828 3.65145e-4 -0.005784511 0.05017828 3.65428e-4 -0.005784511 0.05138546 -3.90352e-4 -0.00503087 0.05192196 -7.16349e-4 -0.005109488 0.01038956 -0.003726541 -0.005762159 -0.006610929 -0.002218842 -0.004908621 -0.00647664 4.55629e-4 -0.00510317 -0.007527291 0.003903031 -0.002870142 -0.005660414 0.005777478 -0.005819976 -0.004600286 0.00570178 -0.005816102 -0.005506515 0.007532536 -0.005782067 -0.004474341 0.007464766 -0.005815446 -0.00354284 0.008659601 -0.005791723 0.01226586 0.007688999 -0.005753993 -0.00172162 0.009153544 -0.005805134 -0.001757204 0.008655667 -0.005805313 6.76736e-4 0.009351491 -0.005796313 6.14937e-4 0.008486211 -0.00579667 0.003033101 0.008813977 -0.00578773 0.002997517 0.00831604 -0.005787909 0.0044775 0.008210361 -0.005782485 -0.00352931 0.004196166 -0.001512408 0.005087077 0.008917033 -0.005342245 -0.00546354 0.008509814 -0.005091428 0.003346383 0.009751379 -0.005222856 -0.00364077 0.009671211 -0.005159974 -0.001847386 0.01017439 -0.005182623 5.03757e-4 0.01013737 -0.00510621 -0.006300032 0.009287416 -0.003150463 -0.007368564 0.005899488 -0.002905189 -0.007186114 0.007651031 -0.002903997 -0.004471719 0.01057326 -0.003213524 -0.002759695 0.01104503 -0.003233492 0.01189911 0.009642064 -0.002969205 0.004809558 0.01044499 -0.002993166 0.003162741 0.01062971 -0.003183305 4.31376e-4 0.01086741 -0.003002047 -0.001694977 0.0113126 -0.001398742 0.003662347 0.01089388 -0.001221835 -0.001083016 0.004021465 -0.001503467 0.00164318 0.003826737 -0.001493513 0.007757961 0.003390014 -0.001471102 0.01199615 0.003342926 -0.001519024 -0.004627704 0.00526154 -0.002122461 -0.004452943 0.007744789 -0.002218723 -0.003541767 0.0086115 -0.001519441 0.012165 0.007520377 -0.001520097 -0.001760959 0.008641421 -0.001519381 6.1116e-4 0.008471488 -0.001519381 0.002993762 0.00830084 -0.001519381 0.004473745 0.008194863 -0.001519381 0.002326905 -1.92506e-4 0.007929325 0.002030193 -0.001153409 0.007920622 0.001307606 -0.00193721 0.007922887 3.69252e-4 -0.002299606 0.007914662 -6.5674e-4 -0.002236843 0.007894515 -0.001583695 -0.001692593 0.007917165 -0.002145111 -8.76813e-4 0.007897138 -0.002303481 1.78934e-4 0.007909357 -0.002012848 0.001131355 0.007905364 -0.001295685 0.001913905 0.007910132 -3.66209e-4 0.00228703 0.007914125 6.63877e-4 0.002229392 0.007902979 0.001594841 0.001687765 0.007928729 0.002166032 8.68135e-4 0.007915794 0.002511143 -1.86102e-4 0.006000757 0.002193331 -0.001262068 0.005991935 0.001431822 -0.002088546 0.005994856 3.87132e-4 -0.002502799 0.00599873 -7.3385e-4 -0.002422749 0.006002843 -0.001709043 -0.001864254 0.00600636 -0.002345383 -9.37922e-4 0.006008565 -0.002516746 1.72768e-4 0.006009101 -0.002189278 0.001247823 0.00600773 -0.001427769 0.002074301 0.006004869 -3.83081e-4 0.002488553 0.006000995 7.37898e-4 0.002408504 0.005996882 0.001713097 0.001849949 0.005993366 0.002349436 9.23655e-4 0.00599116 0.007265985 -0.003536939 0.005773603 0.005673766 -0.003433823 0.005779445 0.003478825 -0.005068302 0.00578767 9.36295e-4 -0.006064474 0.005776703 -0.001782715 -0.005869328 0.005775213 -0.003902137 -0.004679918 0.005814731 -0.0062415 -0.002307295 0.00580269 -0.006042718 4.24655e-4 0.005822002 -0.005753576 0.004473745 0.005820453 -0.003524601 0.004222631 0.005812346 -0.001078367 0.00404793 0.005803346 0.00164783 0.003853201 0.005793392 0.00776267 0.003416478 0.005770981 0.007619082 0.001406073 0.005771756 -0.00443077 -0.005363106 0.00523734 -0.004454195 -0.005387425 0.004016876 0.004549205 -0.005746304 0.004794478 0.003390491 -0.006050527 0.005235373 8.49626e-4 -0.006931006 0.005265235 -0.001818954 -0.006732702 0.005264639 0.006896376 -0.006068885 0.004302263 0.003407061 -0.006082296 0.003988087 8.5004e-4 -0.006930768 0.003997564 -0.001821219 -0.006740391 0.004007339 0.004540979 -0.005785763 0.003921389 0.005327284 -0.006001949 0.004380226 0.005598187 -0.006456494 0.0023247 0.006715118 -0.007748484 0.001595497 0.006713449 -0.007750451 7.14168e-4 0.006002187 -0.006932973 0 0.00671184 -0.007751822 0 0.01130139 -0.008086562 0.001560688 0.01130175 -0.00808525 0 0.008996307 -0.007910013 0.001589357 0.01014953 -0.007990598 0.001588165 0.007843077 -0.007829427 0.001590609 0.01132231 -0.006655633 0.004451632 0.008545517 -0.006426513 0.004098296 0.01006466 -0.006462693 0.004217028 -0.00660628 -0.002259433 0.005215346 0.01204359 0.003344237 0.005819976 0.01131933 -0.005623221 0.005759 0.01421535 -0.001083374 0.008943259 0.01401901 -0.00382328 0.00848633 0.01385349 -0.006150603 0.007256627 0.01369529 -0.008366465 0.004950582 0.01361209 -0.00953269 0.00277698 0.01357883 -0.009998917 0 0.01841318 0.007857501 0.005373477 0.01850986 0.009218513 0.002809345 0.01854348 0.009689331 0 0.01713359 -0.01001536 0 0.01717555 -0.009432554 0.003557205 0.01728254 -0.007965385 0.005939781 0.01739454 -0.006397724 0.007309436 0.01757442 -0.003880083 0.008543431 0.01777106 -0.00112468 0.008934736 0.01500302 0.009942054 0 0.01496952 0.009473264 0.00281006 0.01487302 0.008113801 0.005375862 0.01472663 0.006078481 0.007334113 0.0145455 0.003549695 0.008554935 0.01826721 0.005821585 0.007327556 0.01884579 0.003454267 0.008634209 0.020065 -0.01003587 0 0.02010244 -0.00946623 0.003511726 0.02021241 -0.008170187 0.005931913 0.02031391 -0.006633698 0.00728625 0.02017855 -0.004953086 0.008217275 0.0203793 0.008445739 0.005260705 0.02082657 0.009715974 0.002870321 0.02093929 0.01021736 0 0.0197699 0.00656718 0.007138967 0.01901054 0.00419569 0.008399605 0.02569609 0.009285449 0.004171431 0.02653729 0.009889721 0.002786695 0.02656114 0.01036542 0 0.02513194 0.008300602 0.005631327 0.02465718 0.00724405 0.006702601 0.0312758 0.009348869 0.003828346 0.03148323 0.009920895 0.002272903 0.03152251 0.01024919 0 0.03086715 0.008733212 0.004907131 0.03063416 0.008096575 0.00577265 0.03595745 0.008986353 0.003713905 0.0360223 0.009410321 0.002621948 0.03605687 0.00984317 0 0.035649 0.008499562 0.004657745 0.03547197 0.007981657 0.005425155 0.04389631 0.007494628 0.003895401 0.04377323 0.008056938 0.002623796 0.04366928 0.00852108 0 0.04400086 0.006924629 0.004829406 0.0441398 0.006225049 0.005683124 0.01899045 0.003039777 0.008734226 0.02494239 0.005992531 0.007612943 0.03074812 0.006970047 0.006858468 0.03555482 0.006927251 0.006536006 0.04427301 0.005561828 0.006336808 0.02342998 -0.01005911 0 0.02347135 -0.009500622 0.003471374 0.02357411 -0.008261322 0.005861043 0.02368342 -0.007071256 0.007133781 0.0234819 -0.006312906 0.007637381 0.02858573 -0.01009541 0 0.02861201 -0.009562849 0.003379642 0.0286864 -0.008346736 0.005701899 0.02872282 -0.007737338 0.006491124 0.02868509 -0.007175564 0.007095575 0.03378921 -0.01011449 0 0.03382676 -0.00962013 0.003300666 0.03382426 -0.009287416 0.004057943 0.0338881 -0.00811237 0.005965113 0.03393357 -0.007273733 0.006627321 0.04681128 -0.01037502 0 0.0468412 -0.009913146 0.002697646 0.04689937 -0.00908339 0.004481017 0.04695606 -0.008220076 0.005679547 0.0470159 -0.007514119 0.006328225 0.04461991 0.007136821 0.003892779 0.04464703 0.007616221 0.002724468 0.04469269 0.008057713 0 0.04459547 0.006641387 0.004741609 0.04459744 0.006027579 0.00553888 0.04452621 0.00540924 0.006335914 0.04652321 0.006820857 0.003882229 0.04655385 0.007307708 0.002720057 0.04657685 0.007768452 0 0.0464906 0.006323277 0.004724502 0.04645192 0.005741 0.005541145 0.04612976 0.004891097 0.006330072 0.05092716 0.00642395 0.003833711 0.05096113 0.006899178 0.002687096 0.05098915 0.007362842 0 0.05089271 0.005942821 0.004682004 0.0508511 0.005360543 0.005488276 0.05079329 0.004558026 0.006313025 0.0497123 -0.0105791 0 0.04974615 -0.01011282 0.002697467 0.04980498 -0.009287774 0.004476606 0.04986649 -0.008424282 0.005672514 0.04991632 -0.007721245 0.006317615 0.05309045 0.004376828 0.006304621 0.05222231 -0.007885932 0.006309151 0.05409872 0.003890156 0.006088376 0.05372178 -0.007161617 0.006303608 0.05585604 7.47362e-4 0.006294846 0.05541115 -0.005485892 0.006297171 0.05670636 -9.90379e-4 0.006291925 0.05656099 -0.003123223 0.0062927 0.05246961 0.006835103 0.002547562 0.05181992 -0.01029938 0.002503395 0.0549336 0.005834102 0.002492845 0.05383014 -0.00964266 0.002468645 0.05741506 0.003361701 0.002489507 0.05664229 -0.00755012 0.002462565 0.0586192 -6.02521e-4 0.002614259 0.05839067 -0.003791749 0.002604305 0.05595022 -0.003759562 0.006295025 0.05653494 -2.22352e-4 0.006292462 0.05820536 -0.005005002 0.002531111 0.05860292 6.23126e-4 0.002545297 0.05248135 0.006997168 0.001973927 0.0503996 -0.009329319 0.00447601 0.05113643 -0.008512914 0.005670547 0.05028188 -0.01058042 0 0.05201095 -0.01035827 0.001900851 0.05498731 0.005921006 0.002001702 0.05476987 -0.009227812 0.001951456 0.05748748 0.003415942 0.002022206 0.05669659 -0.007609546 0.002019643 0.05861699 -6.02236e-4 0.002020478 0.05838859 -0.003791391 0.002019822 0.05829876 -0.005044937 0.002019584 0.05870682 6.5131e-4 0.002020716 0.05182474 -0.01040095 0 0.05473178 -0.009250819 0 0.05247449 0.007073581 0 0.05498516 0.005917608 0 0.05187749 0.006345272 0.003811776 0.05492126 -0.001705467 0.001703023 0.05157703 0.005892574 0.004681408 0.05197989 0.005277514 0.005486905 0.05477845 -0.001601278 0 0.01175051 -9.07789e-4 0.008951961 0.01171135 -0.003663957 0.008500933 0.01154237 -0.006035804 0.007307052 0.01433938 0.009519398 0.002811014 0.01221907 0.008112609 0.005641639 0.0131005 0.006090223 0.007424056 0.01225918 0.003433883 0.008651852 0.01145994 -0.003655016 0.005758225 0.01165634 -9.04325e-4 0.005757212 0.01130014 -0.008246362 0.00502938 0.01112204 -0.009366035 0.002782166 0.01134443 -0.009698092 0.001559019 0.05179381 -0.001724183 0.008809983 0.05157536 -0.002440571 0.008810877 0.05101788 -0.003013372 0.008812963 0.05029886 -0.003294646 0.008815646 0.04954677 -0.00325942 0.008818387 0.04887712 -0.002851963 0.008820831 0.0484445 -0.002222537 0.008822321 0.04830431 -0.001458346 0.008822739 0.0485236 -7.28005e-4 0.008821904 0.04906284 -1.65083e-4 0.008819818 0.04978215 1.2382e-4 0.008817136 0.05054831 9.32096e-5 0.008814334 0.05122339 -3.15781e-4 0.00881195 0.05165868 -9.51884e-4 0.0088104 0.05202162 -0.002122581 0.005542874 0.05179017 -0.002559006 0.005679428 0.05121421 -0.002793908 0.005509793 0.04989796 -0.003548324 0.005783677 0.001851081 0.01113909 0 0.04871046 -0.002626717 0.005505502 0.04817342 -0.002298533 0.005701124 0.04800844 -0.001816391 0.005521476 0.04829978 -5.30666e-4 0.005119204 0.04888576 -1.63438e-4 0.005033493 0.05017828 3.65145e-4 0.005784511 0.05017828 3.65428e-4 0.005784511 0.05138546 -3.90353e-4 0.00503087 0.05192196 -7.16349e-4 0.005109488 0.01038956 -0.003726541 0.005762159 -0.006610929 -0.002218842 0.004908621 -0.00647664 4.55629e-4 0.00510317 -0.007527291 0.003903031 0.002870142 -0.005660414 0.005777478 0.005819976 -0.004600286 0.00570178 0.005816102 -0.005506515 0.007532536 0.005782067 -0.004474341 0.007464766 0.005815446 -0.00354284 0.008659601 0.005791723 0.01226586 0.007688999 0.005753993 -0.00172162 0.009153544 0.005805134 -0.001757204 0.008655667 0.005805313 6.76736e-4 0.009351491 0.005796313 6.14937e-4 0.008486211 0.00579667 0.003033101 0.008813977 0.00578773 0.002997517 0.00831604 0.005787909 0.0044775 0.008210361 0.005782544 -0.00352931 0.004196166 0.001512408 0.005087077 0.008917033 0.005342245 -0.00546354 0.008509814 0.005091428 0.003346383 0.009751379 0.005222856 -0.00364077 0.009671211 0.005159974 -0.001847386 0.01017439 0.005182683 5.03757e-4 0.01013737 0.00510621 -0.006300032 0.009287416 0.003150463 -0.007368564 0.005899488 0.002905189 -0.007186114 0.007651031 0.002903997 -0.004471719 0.01057326 0.003213524 -0.002759695 0.01104503 0.003233492 0.01189911 0.009642064 0.002969205 0.004809558 0.01044499 0.002993166 0.003162741 0.01062971 0.003183305 4.31376e-4 0.01086741 0.003002047 -0.001694977 0.0113126 0.001398742 -0.007503628 0.004382848 0 0.003662347 0.01089388 0.001221835 -0.001613974 0.01137858 0 0.003370881 0.01098763 0 -0.006349265 0.009329319 0 -0.007428646 0.005057036 0 -0.006913244 0.008484661 0 -0.004473268 0.01057708 0 -0.002791941 0.01114225 0 0.01191973 0.009819567 0 0.01266282 0.01011216 0 0.004807472 0.01044046 0 -0.001083016 0.004021465 0.001503467 0.00164318 0.003826737 0.001493513 0.007757961 0.003390014 0.001471102 0.01199615 0.003342926 0.001519024 -0.004627704 0.00526154 0.002122461 -0.004452943 0.007744789 0.002218723 -0.003541767 0.0086115 0.001519441 0.012165 0.007520377 0.001520097 -0.001760959 0.008641421 0.001519381 6.1116e-4 0.008471488 0.001519381 0.002993762 0.00830084 0.001519381 0.004473745 0.008194863 0.001519381</float_array>
          <technique_common>
            <accessor source="#Circle_047-mesh-positions-array" count="581" stride="3">
              <param name="X" type="float"/>
              <param name="Y" type="float"/>
              <param name="Z" type="float"/>
            </accessor>
          </technique_common>
        </source>
        <source id="Circle_047-mesh-normals">
          <float_array id="Circle_047-mesh-normals-array" count="1731">0.6849988 0.2740911 -0.6750192 0.5856984 0.2275223 -0.7779403 0.7121787 -0.05566799 -0.6997876 0.4822421 0.5253054 -0.7010684 0.4254032 0.4641927 -0.7768896 0.2091482 0.7143329 -0.6678215 0.180429 0.6354081 -0.7508009 -0.1160334 0.7061502 -0.6984899 -0.08462899 0.6548449 -0.7510101 -0.407153 0.5861465 -0.7004705 -0.3518323 0.5283894 -0.7726699 -0.6233655 0.3557685 -0.6963077 -0.5425047 0.3115984 -0.7801251 -0.7122973 0.05337876 -0.6998452 -0.6276798 0.04245162 -0.7773134 -0.6874799 -0.2693947 -0.6743871 -0.585596 -0.2323706 -0.7765831 -0.4862009 -0.5209623 -0.7015747 -0.4243385 -0.4689575 -0.774607 -0.2164104 -0.7148779 -0.6649181 -0.1841523 -0.6087343 -0.7717063 0.1064513 -0.7077732 -0.6983733 0.09729623 -0.6291908 -0.7711371 0.3975777 -0.587287 -0.7050008 0.3612206 -0.5230008 -0.7720038 0.6201233 -0.3584501 -0.6978257 0.5442772 -0.3172153 -0.7766189 0.6390427 -0.03863734 -0.7682002 -0.001739561 -0.2615827 -0.9651795 0.04190355 0.7064399 -0.7065315 0.05612444 0.7522935 -0.6564333 0.280744 0.5556284 -0.7825981 -0.5013086 0.04513788 -0.8640905 -0.5641114 -0.2585256 -0.7841831 -0.09869992 -0.3163954 -0.9434789 0.05868798 -0.3259733 -0.9435556 0.1823223 -0.2978684 -0.9370342 0.05093634 -0.2504701 -0.9667835 -0.01663267 -0.6870974 -0.7263749 -0.08221942 -0.8127028 -0.5768484 0.108708 -0.8757066 -0.4704474 0.3199631 -0.7926442 -0.5189787 -0.2296877 -0.2643881 -0.9366657 -0.2350271 -0.8510237 -0.4695966 0.1236929 -0.9923204 -7.32452e-4 0.2886826 -0.9571174 -0.02426284 -0.5885004 -0.6679113 -0.4555896 -0.6453892 -0.763529 -0.02227896 0.0227366 -0.001220703 -0.9997408 -0.6906551 0.05347001 -0.721205 -0.08243203 -0.1596758 -0.9837218 -0.6847797 -0.7263461 -0.05914533 -0.4494886 -0.8932701 -0.005340874 -0.4486657 -0.8936997 0 -0.1969717 -0.726665 -0.6581491 -0.8794462 -0.2120791 -0.426142 -0.07062083 -0.8682641 -0.4910499 -0.06399977 -0.8596788 -0.50681 -0.07996022 -0.7290118 -0.6798149 -0.2168397 -0.9752449 -0.0433374 -0.8242416 -0.5461169 -0.1496068 -0.7911289 -0.4933187 -0.3615961 0.2501003 -0.8110636 -0.5287966 -0.6386935 -0.4282982 -0.6392428 -0.6897907 -0.5709192 -0.4452419 0.005188226 0.2656075 -0.9640673 -0.003723263 0.2711299 -0.9625356 -0.001068115 -0.0453813 -0.9989693 0.03967452 0.5707946 -0.8201339 -0.06531178 0.5865547 -0.8072719 0.05850511 0.7993872 -0.5979611 -0.06842404 0.7920342 -0.6066301 0.0666843 0.9439268 -0.3233504 -0.07229942 0.943921 -0.3221582 0.06973528 0.9975656 0 -0.07480132 0.9971985 0 -0.04614478 -0.9470975 -0.3176117 -0.03836226 -0.9332073 -0.3572849 -0.017304 -0.9998503 0 -0.04156726 -0.8141937 -0.5791035 -0.08060097 -0.7515028 -0.6547877 -0.02862668 -0.5972854 -0.8015179 -0.0548439 -0.5582665 -0.8278471 -0.0130316 -0.3166037 -0.9484684 -0.003753781 -0.2819347 -0.9594263 0.08099669 -0.04419106 -0.9957343 -0.03714203 -0.5750457 -0.8172779 -0.02322524 -0.7785816 -0.6271135 -0.006225824 -0.9999807 0 -0.007171988 -0.9476193 -0.3193218 0.04782271 -0.2802222 -0.9587432 -0.01739561 -0.6415632 -0.7668729 -0.01080381 -0.8105024 -0.5856359 -0.007263422 -0.9999737 0 -0.005035579 -0.9493771 -0.3140989 0.03753846 -0.3246622 -0.9450849 -0.003357112 -0.7638692 -0.6453624 0.008453845 -0.8355299 -0.5493799 -0.006958246 -0.9999758 0 -0.007599115 -0.9999712 0 0.03888136 -0.4121307 -0.9102948 0.01358109 -0.7540423 -0.6566855 -0.01089537 -0.8876534 -0.4603834 -0.00576812 -0.949452 -0.3138594 -0.01275694 -0.9582375 -0.2856889 0.04773157 -0.3307337 -0.9425163 -0.003051877 -0.3561904 -0.9344085 -0.02383542 -0.7475657 -0.6637602 -0.03155696 -0.8609804 -0.5076583 -0.01178038 -0.9999306 0 -0.04272598 -0.9990869 0 0.1915695 0.4246758 -0.8848455 0.08014434 0.4124718 -0.9074381 -0.02304184 0.1254027 -0.9918383 0.04239153 0.3296715 -0.9431436 0.05462872 0.3951278 -0.9170005 0.1455787 0.3693487 -0.9178173 0.2926805 0.7537058 -0.5884435 0.1106031 0.7415966 -0.6616657 0.2862122 0.9191569 -0.2706167 0.2888595 0.9573716 0 0.1215575 0.9528058 -0.2781814 0.2787945 0.8580524 -0.4312999 0.1155142 0.8864842 -0.4481098 0.2864243 0.796861 -0.5319527 0.1103582 0.830891 -0.5453819 0.07217812 0.3230469 -0.9436265 0.06226027 0.7603693 -0.6465 0.1225659 0.9924604 0 0.07968533 0.9581166 -0.2750687 0.08359128 0.8934411 -0.441334 0.07306373 0.8386763 -0.5397071 -0.02240097 -0.3613153 -0.9321747 -0.05707025 -0.8618227 -0.5039888 -0.03674477 -0.954053 -0.2973766 -0.06125247 -0.9511377 -0.3026306 -0.05142468 -0.998677 0 0.03250265 0.387987 -0.9210916 0.163613 -0.5060988 -0.8468145 0.5439425 0.0285964 -0.8386352 0.9675697 -0.03503561 -0.250163 0.9631915 -0.1025451 -0.2484887 0.3627861 -0.2334442 -0.9021586 0.8653727 -0.3490789 -0.359547 0.6903679 -0.6292691 -0.356949 0.4874151 0.1926344 -0.8516564 0.913008 0.2160139 -0.3460556 0.5283277 -0.2021934 -0.8246136 0.4817547 0.417419 -0.7705023 0.5304842 0.7627656 -0.3698313 0.3256104 0.2725984 -0.9053552 0.4874548 -0.2836467 -0.8257921 0.396476 -0.893574 -0.2105525 0.2544742 0.4691811 -0.8456429 0.2364644 0.9028864 -0.3589999 0.3279648 -0.4411013 -0.8353855 0.1460033 -0.9381871 -0.3138277 0.7518415 0.5342088 -0.3864651 -0.05069243 -0.7446997 -0.6654719 0.04580926 -0.782298 -0.6212177 0.6774061 0.4637101 0.5710464 0.7745722 -0.2828196 0.5657307 0.8088325 0.1707881 0.5626913 0.6124629 -0.5476702 0.5700409 0.7343261 -0.05246275 0.6767666 0.7031091 0.7104643 0.02963447 0.1919328 0.9722075 -0.1340692 0.7146039 -0.6975132 -0.05307263 0.2304798 -0.9687052 -0.09213697 0.2392382 -0.970961 0 0.0300914 -0.9995473 0 0.2612111 0.9652818 0 0.1410582 0.9900014 0 0.13108 0.8387902 -0.5284403 0.1992918 0.8652868 -0.4599583 0.1579385 0.7825816 -0.6021807 0.7105746 -0.01629716 0.7034331 0.8452801 0.5343237 0 0.9997138 -0.02392691 0 0.7343109 -0.05246168 0.6767832 -0.6732211 0.01751792 -0.7392339 -0.6106638 0.2393946 -0.7548377 -0.01599198 0.6742287 -0.7383494 0.06750857 0.943228 -0.3252131 -0.6426704 -0.2070108 -0.7376458 -0.6778616 0.03753858 -0.7342306 -0.7479929 -0.6235359 -0.2273979 -0.8806681 0.3489589 -0.3203927 -0.4005035 -0.8959218 -0.1921489 -0.5043529 -0.8634976 0 0.6719394 0.2869102 -0.6827737 0.7942899 0.6011651 -0.0877729 0.7228528 -0.03915643 -0.6898918 0.5098606 0.5433101 -0.6669756 0.546654 0.8356982 -0.05270606 0.2334985 0.7040663 -0.6706483 -0.216077 0.9737812 0.07114058 -0.1378872 0.7187962 -0.6814098 -0.7949602 0.6042466 0.05407971 -0.4095107 0.6159142 -0.6730162 -0.4855898 0.8726945 -0.05105847 -0.6276362 0.3777109 -0.6807404 -0.7655773 0.6388 -0.07632881 -0.7201609 0.04800665 -0.6921443 -0.9968118 0.02011197 -0.07721304 -0.6621804 -0.3007996 -0.6863213 -0.7874184 -0.6107749 -0.08322507 -0.5103093 -0.5537075 -0.6580217 -0.5813677 -0.8131946 -0.02694875 0.1232959 0.945472 -0.3014646 0.07339924 0.9709454 -0.2277665 0.2118914 0.9750426 -0.06628662 -0.1394405 0.9557886 -0.2588912 0.07336801 0.9973049 0 0.4129527 -0.6348869 -0.6529846 0.4517683 -0.8917869 -0.02493375 0.1518623 -0.7239094 -0.6729733 0.6214671 -0.3949825 -0.6765852 0.674638 -0.7344262 -0.07404077 0.9872866 -0.142035 -0.07135319 -0.05624747 -0.8537837 -0.5175806 -0.8646271 -0.3767541 -0.3323798 -0.5135397 0.03616476 -0.8573035 -0.9400086 0.07022368 -0.3338449 -0.8522706 0.06888109 -0.5185465 -0.4964235 0.04477149 -0.8669252 0.5913419 0.166208 -0.7891069 0.5744345 -0.2029839 -0.7929833 -0.1851585 0.5396667 -0.8212651 -0.8369255 -0.1465222 -0.5273396 -0.02545303 -0.6949836 -0.718575 -0.05102777 0.2788828 -0.9589685 0.05572754 0.3770615 -0.9245102 -0.04770201 -0.7041164 -0.7084807 -0.047701 -0.7040705 -0.7085263 -0.5039915 0.2251695 -0.8338413 0.1284564 -0.2382348 -0.9626751 0.06353968 0.2718596 -0.960237 0.03775197 -0.548304 -0.8354266 -0.9630317 0.09570801 -0.2518135 0.1223515 0.6790828 -0.7237934 -0.0841403 0.7510677 -0.6548419 -0.298877 0.6736254 -0.6759448 0.08200532 0.8259134 -0.5578013 -0.5849828 0.5488792 -0.5970987 -0.7282225 0.6285157 -0.2732399 -0.4202823 0.8674522 -0.266251 0.1434388 0.9446517 -0.2950568 0.1965446 0.7516612 -0.6295837 -0.7222017 0.6916826 0 -0.4320364 0.9018563 0 -0.9951023 0.09885102 0 -0.2432071 -0.7040464 -0.6672099 -0.06961381 -0.9974828 -0.01348936 -0.9392489 0.2551988 -0.2295324 -0.01446604 0.9936436 -0.1116392 -0.05832123 0.9982979 0 0.2095437 0.9777994 0 -0.9199058 0.3921396 0 0.07297158 0.9490579 -0.3065356 -0.1362067 0.9906805 0 0.2264172 0.9740305 0 -0.1138676 0.993496 0 -0.07233023 -0.9973339 -0.009674549 0.3166636 -0.9484648 0.01178026 -0.07138323 -0.9974427 -0.003570675 -0.07138323 -0.997443 -0.003448605 -0.6813735 0.7318525 -0.01104795 0.890214 0.4515007 0.06055003 0.3739216 0.926869 0.03311336 0.04269635 0.9990769 0.00476098 0.07120013 0.9974429 0.006195247 0.6849988 0.2740911 0.6750192 0.7121787 -0.05566799 0.6997876 0.5856984 0.2275223 0.7779403 0.4822421 0.5253054 0.7010684 0.2091482 0.7143329 0.6678215 0.180429 0.6354081 0.7508009 -0.1162469 0.7058441 0.6987637 -0.4076139 0.5867308 0.6997128 -0.3518323 0.5283894 0.7726699 -0.6214072 0.3539344 0.6989877 -0.5425047 0.3115984 0.7801251 -0.7116116 0.05429327 0.7004722 -0.6874743 -0.269423 0.6743816 -0.585596 -0.2323706 0.7765831 -0.4862009 -0.5209623 0.7015747 -0.2164104 -0.7148779 0.6649181 -0.1841523 -0.6087343 0.7717063 0.1064513 -0.7077732 0.6983733 0.3975777 -0.587287 0.7050008 0.09729623 -0.6291908 0.7711371 0.6200529 -0.3584142 0.6979067 0.5442772 -0.3172153 0.7766189 0.6390427 -0.03863734 0.7682002 -0.001739561 -0.2615827 0.9651795 0.0227366 -0.001220703 0.9997408 0.04190355 0.7064399 0.7065315 0.05612444 0.7522935 0.6564333 -0.08462899 0.6548449 0.7510101 0.280744 0.5556284 0.7825981 -0.5013086 0.04513788 0.8640905 -0.6276798 0.04245162 0.7773134 -0.5135397 0.03616476 0.8573035 -0.5641114 -0.2585256 0.7841831 -0.4243385 -0.4689575 0.774607 -0.2296877 -0.2643881 0.9366657 -0.09869992 -0.3163954 0.9434789 0.05868798 -0.3259733 0.9435556 0.1823223 -0.2978684 0.9370342 0.3612291 -0.5230132 0.7719914 0.05093634 -0.2504701 0.9667835 0.4254032 0.4641927 0.7768896 -0.08221942 -0.8127028 0.5768484 -0.2350271 -0.8510237 0.4695966 0.108708 -0.8757066 0.4704474 0.3199631 -0.7926442 0.5189787 -0.5885004 -0.6679113 0.4555896 -0.2690879 -0.9630948 0.006347954 0.1236929 -0.9923204 7.32452e-4 0.2886826 -0.9571174 0.02426284 -0.6453892 -0.763529 0.02227896 -0.08243203 -0.1596758 0.9837218 -0.6847797 -0.7263461 0.05914533 -0.4494886 -0.8932701 0.005340874 -0.7557254 -0.6548888 0 -0.1969717 -0.726665 0.6581491 -0.8794462 -0.2120791 0.426142 -0.07062083 -0.8682641 0.4910499 -0.07996022 -0.7290118 0.6798149 -0.2168397 -0.9752449 0.0433374 -0.8242416 -0.5461169 0.1496068 -0.7911289 -0.4933187 0.3615961 0.2501003 -0.8110636 0.5287966 -0.6386755 -0.4283066 0.6392553 0.005188226 0.2656075 0.9640673 -0.001068115 -0.0453813 0.9989693 -0.003723263 0.2711299 0.9625356 0.03967452 0.5707946 0.8201339 0.05850511 0.7993872 0.5979611 -0.06842404 0.7920342 0.6066301 0.0666843 0.9439268 0.3233504 -0.04614478 -0.9470975 0.3176117 -0.03836226 -0.9332073 0.3572849 -0.04156726 -0.8141937 0.5791035 -0.08060097 -0.7515028 0.6547877 -0.02862668 -0.5972854 0.8015179 -0.0548439 -0.5582665 0.8278471 -0.0130316 -0.3166037 0.9484684 -0.003753781 -0.2819347 0.9594263 0.08099669 -0.04419106 0.9957343 -0.03714203 -0.5750457 0.8172779 -0.02322524 -0.7785816 0.6271135 -0.007171988 -0.9476193 0.3193218 -0.01739561 -0.6415632 0.7668729 0.04782271 -0.2802222 0.9587432 -0.01080381 -0.8105024 0.5856359 -0.005035579 -0.9493771 0.3140989 -0.003357112 -0.7638692 0.6453624 0.03753846 -0.3246622 0.9450849 0.008453845 -0.8355299 0.5493799 -0.00576812 -0.949452 0.3138594 0.01358109 -0.7540423 0.6566855 0.03888136 -0.4121307 0.9102948 -0.01089537 -0.8876534 0.4603834 -0.01275694 -0.9582375 0.2856889 -0.02383542 -0.7475657 0.6637602 -0.003021359 -0.3561905 0.9344086 -0.03155696 -0.8609804 0.5076583 -0.03674477 -0.954053 0.2973766 0.1915695 0.4246758 0.8848455 0.08014434 0.4124718 0.9074381 -0.02307236 0.1254026 0.9918376 0.04239153 0.3296715 0.9431436 0.05462872 0.3951278 0.9170005 0.1455787 0.3693487 0.9178173 0.07217812 0.3230469 0.9436265 0.1106031 0.7415966 0.6616657 0.2862122 0.9191569 0.2706167 0.1215575 0.9528058 0.2781814 0.2787945 0.8580524 0.4312999 0.1155142 0.8864842 0.4481098 0.2864243 0.796861 0.5319527 0.1103582 0.830891 0.5453819 0.2926805 0.7537058 0.5884435 0.03250265 0.387987 0.9210916 0.06226027 0.7603693 0.6465 0.07968533 0.9581166 0.2750687 0.08359128 0.8934411 0.441334 0.07306373 0.8386763 0.5397071 -0.05069243 -0.7446997 0.6654719 -0.02240097 -0.3613153 0.9321747 -0.05707025 -0.8618227 0.5039888 -0.06125247 -0.9511377 0.3026306 0.163613 -0.5060988 0.8468145 0.5439425 0.0285964 0.8386352 0.5283497 -0.2021902 0.8246003 0.9631915 -0.1025451 0.2484887 0.3627861 -0.2334442 0.9021586 0.4874548 -0.2836467 0.8257921 0.6903679 -0.6292691 0.356949 0.4874151 0.1926344 0.8516564 0.913008 0.2160139 0.3460556 0.4817547 0.417419 0.7705023 0.3256104 0.2725984 0.9053552 0.5304842 0.7627656 0.3698313 0.3279648 -0.4411013 0.8353855 0.396476 -0.893574 0.2105525 0.2544742 0.4691811 0.8456429 0.2364644 0.9028864 0.3589999 0.1460033 -0.9381871 0.3138277 0.8653727 -0.3490789 0.359547 0.7518415 0.5342088 0.3864651 8.54531e-4 -0.8658533 0.5002973 0.04580926 -0.782298 0.6212177 0.8088325 0.1707881 -0.5626913 0.6774061 0.4637101 -0.5710464 0.7745722 -0.2828196 -0.5657307 0.9675697 -0.03503561 0.250163 0.7343121 -0.05243122 -0.6767842 0.6124629 -0.5476702 -0.5700409 0.7343261 -0.05246275 -0.6767666 0.7031091 0.7104643 -0.02963447 0.7145889 -0.6975284 0.05307376 0.1919328 0.9722075 0.1340692 0.2304798 -0.9687052 0.09213697 0.13108 0.8387902 0.5284403 0.1579385 0.7825816 0.6021807 0.1992918 0.8652868 0.4599583 0.7105746 -0.01629716 -0.7034331 0.8210887 -0.5708007 0 -0.6106638 0.2393946 0.7548377 -0.6732211 0.01751792 0.7392339 -0.1851585 0.5396667 0.8212651 -0.01599198 0.6742287 0.7383494 0.06750857 0.943228 0.3252131 -0.6426704 -0.2070108 0.7376458 -0.6906551 0.05347001 0.721205 -0.6778616 0.03753858 0.7342306 -0.7479929 -0.6235359 0.2273979 -0.6897907 -0.5709192 0.4452419 -0.8806681 0.3489589 0.3203927 -0.4005035 -0.8959218 0.1921489 0.6719394 0.2869102 0.6827737 0.7228528 -0.03915643 0.6898918 0.7942899 0.6011651 0.0877729 0.5098606 0.5433101 0.6669756 0.546654 0.8356982 0.05270606 0.2334985 0.7040663 0.6706483 -0.1378872 0.7187962 0.6814098 -0.2099421 0.9752433 -0.06946182 -0.4095107 0.6159142 0.6730162 -0.4855898 0.8726945 0.05105847 -0.6276362 0.3777109 0.6807404 -0.7201609 0.04800665 0.6921443 -0.7655773 0.6388 0.07632881 -0.6621804 -0.3007996 0.6863213 -0.9968118 0.02011197 0.07721304 -0.5103093 -0.5537075 0.6580217 -0.5813534 -0.8132049 0.02694809 0.1232959 0.945472 0.3014646 0.2118914 0.9750426 0.06628662 0.07339924 0.9709454 0.2277665 -0.1394405 0.9557886 0.2588912 0.4129607 -0.6348687 0.6529973 0.1518623 -0.7239094 0.6729733 0.4517683 -0.8917869 0.02493375 0.6214543 -0.3949743 0.6766018 0.9872866 -0.142035 0.07135319 -0.0639981 -0.8596867 0.5067967 -0.01663267 -0.6870974 0.7263749 -0.05624747 -0.8537837 0.5175806 -0.8646271 -0.3767541 0.3323798 -0.9400051 0.07022571 0.3338544 -0.8522706 0.06888109 0.5185465 0.5913419 0.166208 0.7891069 -0.4964235 0.04477149 0.8669252 0.5744345 -0.2029839 0.7929833 -0.8369255 -0.1465222 0.5273396 -0.02545303 -0.6949836 0.718575 -0.04770201 -0.7041164 0.7084807 0.05572754 0.3770615 0.9245102 -0.047701 -0.7040705 0.7085263 0.1284564 -0.2382348 0.9626751 -0.5039915 0.2251695 0.8338413 0.03775197 -0.548304 0.8354266 0.06354153 0.2718676 0.9602347 -0.05102777 0.2788828 0.9589685 -0.9392489 0.2551988 0.2295324 -0.9630317 0.09570801 0.2518135 0.1223515 0.6790828 0.7237934 0.1965446 0.7516612 0.6295837 0.08200532 0.8259134 0.5578013 -0.0841403 0.7510677 0.6548419 -0.298877 0.6736254 0.6759448 -0.4202823 0.8674522 0.266251 -0.7282225 0.6285157 0.2732399 -0.5849828 0.5488792 0.5970987 0.07297158 0.9490579 0.3065356 0.1434388 0.9446517 0.2950568 -0.2582514 0.9660779 0 -0.9920013 0.126228 0 -0.2431784 -0.7040516 0.6672148 -0.06961381 -0.9974828 0.01348936 -0.01446604 0.9936436 0.1116392 -0.07233023 -0.9973339 0.009674549 -0.07138323 -0.9974427 0.003570675 0.8664805 -0.498079 -0.03360199 0.3166636 -0.9484648 -0.01178026 -0.07138323 -0.997443 0.003448605 -0.02731454 -0.9996214 0.003326535 -0.7543424 -0.6550024 0.04403913 -0.6813735 0.7318525 0.01104795 0.890214 0.4515007 -0.06055003 0.3739216 0.926869 -0.03311336 0.04269635 0.9990769 -0.00476098 0.07120013 0.9974429 -0.006195247 -0.2690879 -0.9630948 -0.006347954 8.54553e-4 -0.8658457 -0.5003105 -0.5827236 -0.8048385 -0.1125528 -0.8329661 -0.5500513 0.06009268 -0.7543424 -0.6550024 -0.04403913 0.8664805 -0.498079 0.03360199 -0.02731454 -0.9996214 -0.003326535 -0.06531178 0.5865547 0.8072719 -0.07229942 0.943921 0.3221582 0.04773157 -0.3307337 0.9425163 -0.5827236 -0.8048385 0.1125528 -0.787334 0.6141986 -0.05353063 -0.7874184 -0.6107749 0.08322507 0.6746229 -0.7344402 0.0740391 -0.8329661 -0.5500513 -0.06009268 -0.1175601 0.9930658 0 -0.1146903 0.9423042 -0.3144981 -0.1049855 0.8071984 -0.5808691 -0.1317796 0.3723889 -0.9186733 -0.001861631 0.9999983 0 0.001892149 0.9554674 -0.295091 -0.08057135 0.6114268 -0.7871884 -0.02606344 0.88155 -0.4713706 -0.04602271 0.7798538 -0.6242676 -0.08459913 0.6692247 -0.7382285 0.03177064 0.83269 -0.5528275 0.01806735 0.7535513 -0.6571409 0.105444 0.8423008 -0.5285935 0.1270496 0.9555124 -0.2661848 0.1303763 0.9914647 0 0.2910291 0.9210022 -0.2589536 0.1196973 0.8966006 -0.4263568 0.2859022 0.8600566 -0.4225664 0.2906618 0.796146 -0.5307233 0.09763121 0.774122 -0.6254625 0.2999122 0.732064 -0.6116657 0.2901158 0.9569916 0 -0.1146903 0.9423042 0.3144981 -0.1050157 0.8071958 0.5808672 -0.08057135 0.6114268 0.7871884 -0.1317796 0.3723889 0.9186733 0.001892149 0.9554674 0.295091 -0.02606344 0.88155 0.4713706 -0.04602271 0.7798538 0.6242676 -0.08459913 0.6692247 0.7382285 0.01806735 0.7535513 0.6571409 0.03177064 0.83269 0.5528275 0.09763121 0.774122 0.6254625 0.105444 0.8423008 0.5285935 0.1270496 0.9555124 0.2661848 0.2910291 0.9210022 0.2589536 0.1196973 0.8966006 0.4263568 0.2859022 0.8600566 0.4225664 0.2906897 0.796139 0.5307186 0.2999122 0.732064 0.6116657 0.05551391 0.998458 0 0.05179148 0.9682597 -0.2445217 0.0453509 0.9004575 -0.4325736 0.05179148 0.9682597 0.2445217 0.0453509 0.9004575 0.4325736</float_array>
          <technique_common>
            <accessor source="#Circle_047-mesh-normals-array" count="577" stride="3">
              <param name="X" type="float"/>
              <param name="Y" type="float"/>
              <param name="Z" type="float"/>
            </accessor>
          </technique_common>
        </source>
        <vertices id="Circle_047-mesh-vertices">
          <input semantic="POSITION" source="#Circle_047-mesh-positions"/>
        </vertices>
        <polylist material="Metall_Alu_011_003-material" count="966">
          <input semantic="VERTEX" source="#Circle_047-mesh-vertices" offset="0"/>
          <input semantic="NORMAL" source="#Circle_047-mesh-normals" offset="1"/>
          <vcount>3 3 3 3 3 3 3 3 3 3 3 3 3 3 3 3 3 3 3 3 3 3 3 3 3 3 3 3 3 3 3 3 3 3 3 3 3 3 3 3 3 3 3 3 3 3 3 3 3 3 3 3 3 3 3 3 3 3 3 3 3 3 3 3 3 3 3 3 3 3 3 3 3 3 3 3 3 3 3 3 3 3 3 3 3 3 3 3 3 3 3 3 3 3 3 3 3 3 3 3 3 3 3 3 3 3 3 3 3 3 3 3 3 3 3 3 3 3 3 3 3 3 3 3 3 3 3 3 3 3 3 3 3 3 3 3 3 3 3 3 3 3 3 3 3 3 3 3 3 3 3 3 3 3 3 3 3 3 3 3 3 3 3 3 3 3 3 3 3 3 3 3 3 3 3 3 3 3 3 3 3 3 3 3 3 3 3 3 3 3 3 3 3 3 3 3 3 3 3 3 3 3 3 3 3 3 3 3 3 3 3 3 3 3 3 3 3 3 3 3 3 3 3 3 3 3 3 3 3 3 3 3 3 3 3 3 3 3 3 3 3 3 3 3 3 3 3 3 3 3 3 3 3 3 3 3 3 3 3 3 3 3 3 3 3 3 3 3 3 3 3 3 3 3 3 3 3 3 3 3 3 3 3 3 3 3 3 3 3 3 3 3 3 3 3 3 3 3 3 3 3 3 3 3 3 3 3 3 3 3 3 3 3 3 3 3 3 3 3 3 3 3 3 3 3 3 3 3 3 3 3 3 3 3 3 3 3 3 3 3 3 3 3 3 3 3 3 3 3 3 3 3 3 3 3 3 3 3 3 3 3 3 3 3 3 3 3 3 3 3 3 3 3 3 3 3 3 3 3 3 3 3 3 3 3 3 3 3 3 3 3 3 3 3 3 3 3 3 3 3 3 3 3 3 3 3 3 3 3 3 3 3 3 3 3 3 3 3 3 3 3 3 3 3 3 3 3 3 3 3 3 3 3 3 3 3 3 3 3 3 3 3 3 3 3 3 3 3 3 3 3 3 3 3 3 3 3 3 3 3 3 3 3 3 3 3 3 3 3 3 3 3 3 3 3 3 3 3 3 3 3 3 3 3 3 3 3 3 3 3 3 3 3 3 3 3 3 3 3 3 3 3 3 3 3 3 3 3 3 3 3 3 3 3 3 3 3 3 3 3 3 3 3 3 3 3 3 3 3 3 3 3 3 3 3 3 3 3 3 3 3 3 3 3 3 3 3 3 3 3 3 3 3 3 3 3 3 3 3 3 3 3 3 3 3 3 3 3 3 3 3 3 3 3 3 3 3 3 3 3 3 3 3 3 3 3 3 3 3 3 3 3 3 3 3 3 3 3 3 3 3 3 3 3 3 3 3 3 3 3 3 3 3 3 3 3 3 3 3 3 3 3 3 3 3 3 3 3 3 3 3 3 3 3 3 3 3 3 3 3 3 3 3 3 3 3 3 3 3 3 3 3 3 3 3 3 3 3 3 3 3 3 3 3 3 3 3 3 3 3 3 3 3 3 3 3 3 3 3 3 3 3 3 3 3 3 3 3 3 3 3 3 3 3 3 3 3 3 3 3 3 3 3 3 3 3 3 3 3 3 3 3 3 3 3 3 3 3 3 3 3 3 3 3 3 3 3 3 3 3 3 3 3 3 3 3 3 3 3 3 3 3 3 3 3 3 3 3 3 3 3 3 3 3 3 3 3 3 3 3 3 3 3 3 3 3 3 3 3 3 3 3 3 3 3 3 3 3 3 3 3 3 3 3 3 3 3 3 3 3 3 3 3 3 3 3 3 3 3 3 3 3 3 3 3 3 3 3 3 3 3 3 3 3 3 3 3 3 3 3 3 3 3 3 3 3 3 3 3 3 3 3 3 3 3 3 3 3 3 3 3 3 3 3 3 3 3 3 3 3 3 3 3 3 3 3 3 3 3 3 3 3 3 3 3 3 3 3 3 3 3 3 3 3 3 3 3 3 3 3 3 3 3 3 3 3 3 3 3 3 3 3 3 3 3 3 3 3 3 3 3 3 3 3 3 3 3 3 3 3 3 3 3 3 3 3 3 3 3 3 3 3 3 3 3 3 3 3 3 3 3 3 3 3 3 3 3 3 3 3 3 3 3 3 3 3 3 3 3 3 3 3 3 3 3 3 3 3 3 3 3 3 3 3 3 3 </vcount>
          <p>13 0 27 1 0 2 12 3 26 4 27 1 11 5 25 6 12 3 10 7 24 8 25 6 9 9 23 10 10 7 8 11 22 12 9 9 7 13 21 14 22 12 6 15 20 16 7 13 5 17 19 18 20 16 4 19 18 20 5 17 3 21 17 22 18 20 2 23 16 24 17 22 1 25 15 26 2 23 0 2 14 27 15 26 14 27 27 1 28 28 27 1 26 4 40 29 12 3 10 7 11 5 25 6 24 8 39 30 24 8 23 10 37 31 23 10 22 12 36 32 22 12 21 14 36 32 21 14 20 16 34 33 20 16 19 18 34 33 19 18 18 20 32 34 18 20 17 22 31 35 17 22 16 24 30 36 16 24 15 26 29 37 15 26 14 27 28 28 26 4 25 6 40 29 28 28 48 38 53 39 32 34 31 35 46 40 31 35 30 36 46 40 30 36 29 37 45 41 33 42 32 34 47 43 47 43 46 40 50 44 46 40 45 41 49 45 42 46 47 43 43 47 41 48 193 49 224 50 54 51 53 39 56 52 54 51 56 52 329 53 63 54 224 50 66 55 59 56 58 57 62 58 49 45 45 41 52 59 57 60 59 56 61 61 61 61 63 54 66 55 52 59 44 62 54 51 44 62 29 37 53 39 187 63 194 64 61 61 82 65 84 66 67 67 81 68 83 69 84 66 80 70 72 71 81 68 79 72 73 73 72 71 356 74 349 75 79 72 71 76 74 77 346 78 70 79 75 80 71 76 69 81 76 82 70 79 68 83 77 84 69 81 67 67 78 85 68 83 76 82 77 84 87 86 75 80 76 82 86 87 74 77 75 80 86 87 350 88 74 77 85 89 87 86 88 90 116 91 86 87 87 86 115 92 85 89 86 87 115 92 363 93 85 89 114 94 116 91 117 95 120 96 115 92 116 91 119 97 114 94 115 92 119 97 398 98 114 94 403 99 120 96 121 100 124 101 119 97 120 96 123 102 118 103 119 97 122 104 403 99 118 103 122 104 124 101 125 105 129 106 123 102 124 101 128 107 122 104 123 102 127 108 408 109 122 104 413 110 78 85 88 90 77 84 113 111 129 106 112 112 84 66 109 113 78 85 110 114 88 90 78 85 88 90 110 114 117 95 111 115 121 100 117 95 112 112 125 105 121 100 134 116 133 117 138 118 131 119 420 120 136 121 130 122 131 119 135 123 132 124 130 122 137 125 133 117 132 124 138 118 139 126 138 118 143 127 136 121 426 128 141 129 135 123 136 121 140 130 137 125 135 123 142 131 138 118 137 125 143 127 128 107 129 106 148 132 127 108 128 107 146 133 126 134 127 108 145 135 413 110 126 134 436 136 144 137 148 132 139 126 134 116 139 126 129 106 113 111 134 116 129 106 148 132 144 137 150 138 155 139 163 140 164 141 165 142 167 143 162 144 166 145 168 146 155 139 156 147 165 142 155 139 151 148 159 149 153 150 154 151 162 144 160 152 149 153 157 154 151 148 152 155 160 152 158 156 149 153 151 148 150 138 156 147 164 141 167 143 153 150 161 157 166 145 154 151 152 155 151 148 154 151 153 150 165 142 145 135 146 133 158 156 146 133 147 158 171 159 168 146 161 157 175 160 147 158 148 132 150 138 150 138 158 156 171 159 436 136 145 135 158 156 167 143 164 141 179 161 163 140 168 146 180 162 162 144 167 143 176 163 164 141 163 140 178 164 161 157 159 149 173 165 160 152 162 144 176 163 159 149 157 154 169 166 158 156 160 152 174 167 172 168 174 167 474 169 158 156 172 168 464 170 173 165 169 166 476 171 432 172 476 171 141 129 169 166 157 154 141 129 144 137 143 127 149 153 183 173 181 174 184 175 142 131 140 130 181 174 143 127 142 131 184 175 140 130 141 129 157 154 157 154 149 153 181 174 182 176 173 165 477 177 174 167 182 176 482 178 178 164 177 179 182 176 177 179 180 162 182 176 178 164 182 176 179 161 174 167 176 163 182 176 173 165 182 176 175 160 82 65 67 67 185 180 81 68 82 65 191 181 80 70 81 68 189 182 79 72 80 70 189 182 68 83 69 81 187 63 67 67 68 83 185 180 356 74 79 72 188 183 185 180 186 184 192 185 186 184 187 63 66 55 71 76 346 78 195 186 70 79 71 76 195 186 191 181 185 180 65 187 69 81 70 79 194 64 61 61 194 64 57 60 329 53 56 52 57 60 56 52 55 188 57 60 57 60 195 186 331 189 210 190 223 191 197 192 209 193 222 194 210 190 208 195 221 196 222 194 207 197 220 198 221 196 206 199 219 200 207 197 205 201 218 202 219 200 204 203 217 204 218 202 203 205 216 206 217 204 202 207 215 208 203 205 255 209 256 210 258 211 256 210 252 212 513 213 199 214 213 215 200 216 198 217 212 218 213 215 197 192 211 219 198 217 209 193 207 197 208 195 58 57 60 220 48 38 60 220 55 188 53 39 224 50 193 49 192 185 192 185 66 55 224 50 63 54 62 58 28 28 62 58 48 38 28 28 40 29 65 187 193 49 42 46 43 47 64 221 36 32 35 222 227 223 33 42 42 46 64 221 35 222 34 33 226 224 37 31 36 32 228 225 229 226 228 225 231 227 190 228 191 181 233 229 235 230 234 231 236 232 237 233 236 232 239 234 231 227 230 235 232 236 239 234 238 237 240 238 232 236 234 231 235 230 230 235 228 225 249 239 189 182 233 229 240 238 242 240 240 238 238 237 236 232 234 231 246 241 234 231 232 236 246 241 232 236 230 235 245 242 238 237 236 232 247 243 245 242 243 244 248 245 228 225 36 32 227 223 246 241 245 242 251 246 243 244 230 235 248 245 189 182 242 240 254 247 242 240 244 248 255 209 247 243 256 210 244 248 247 243 246 241 252 212 251 246 248 245 561 249 252 212 251 246 564 250 255 209 258 211 254 247 249 239 227 223 557 251 201 252 214 253 215 208 200 216 214 253 201 252 248 245 250 254 561 249 513 213 257 255 559 256 258 211 513 213 560 257 250 254 249 239 563 258 257 255 252 212 559 256 189 182 253 259 188 183 253 259 254 247 566 260 188 183 253 259 356 74 254 247 258 211 568 261 253 259 566 260 567 262 189 182 190 228 233 229 240 238 233 229 270 263 239 234 240 238 270 263 231 227 232 236 265 264 232 236 235 230 265 264 237 233 239 234 269 265 235 230 237 233 268 266 233 229 65 187 262 267 229 226 231 227 263 268 37 31 229 226 241 269 65 187 40 29 261 270 40 29 39 30 261 270 39 30 38 30 260 271 38 30 37 31 259 271 284 272 271 273 298 274 283 275 284 272 298 274 282 276 283 275 296 277 281 278 282 276 296 277 280 279 281 278 294 280 279 281 280 279 293 282 278 283 279 281 293 282 277 284 278 283 291 285 276 286 277 284 291 285 275 287 276 286 289 288 274 289 275 287 289 288 273 290 274 289 288 291 272 292 273 290 286 293 271 273 272 292 286 293 285 294 299 295 298 274 298 274 312 296 311 297 281 278 283 275 282 276 296 277 310 298 295 299 295 299 309 298 308 300 294 280 308 300 307 301 293 282 307 301 292 302 292 302 306 303 305 304 291 285 305 304 290 305 290 305 304 306 303 307 289 288 303 307 302 308 288 291 302 308 301 309 287 310 301 309 300 311 286 293 300 311 299 295 297 312 311 297 296 277 299 295 300 311 324 313 303 307 318 314 317 315 302 308 317 315 301 309 301 309 316 316 300 311 304 306 313 317 318 314 318 314 322 318 321 319 317 315 321 319 320 320 313 317 314 321 318 314 312 296 299 295 523 322 325 323 327 324 324 313 325 323 328 325 329 53 337 326 340 327 523 322 333 328 337 326 336 329 320 320 323 330 316 316 330 331 335 332 333 328 335 332 340 327 337 326 323 330 325 323 315 333 315 333 324 313 300 311 485 334 340 327 335 332 360 335 341 336 362 337 359 338 360 335 362 337 358 339 359 338 347 340 357 341 358 339 347 340 356 74 357 341 349 75 345 342 346 78 351 343 344 344 345 342 352 345 343 346 344 344 353 347 342 348 343 346 354 349 341 336 342 348 355 350 353 347 366 351 354 349 352 345 365 352 353 347 351 343 364 353 365 352 350 88 363 93 364 353 366 351 401 354 367 355 365 352 400 356 366 351 364 353 399 357 400 356 363 93 398 98 399 357 401 354 406 358 402 359 400 356 405 360 401 354 399 357 404 361 405 360 398 98 403 99 399 357 406 358 411 362 407 363 405 360 410 364 406 358 404 361 409 365 405 360 403 99 408 109 409 365 411 362 416 366 417 367 410 364 415 368 416 366 409 365 414 369 415 368 408 109 413 110 409 365 355 350 354 349 367 355 397 370 396 371 417 367 362 337 355 350 393 372 394 373 393 372 355 350 367 355 402 359 394 373 395 374 394 373 402 359 396 371 395 374 407 363 423 375 429 376 428 377 419 378 425 379 420 120 418 380 424 381 419 378 421 382 427 383 418 380 422 384 428 377 421 382 429 376 435 385 434 386 425 379 431 387 426 128 424 381 430 388 425 379 427 383 433 389 424 381 428 377 434 386 427 383 416 366 439 390 440 391 415 368 438 392 416 366 414 369 437 393 415 368 413 110 436 136 414 369 435 385 429 376 440 391 423 375 417 367 429 376 397 370 417 367 423 375 440 391 442 394 435 385 447 395 448 396 456 397 457 398 446 399 454 400 458 401 447 395 460 402 448 396 447 395 457 398 443 403 445 404 451 405 446 399 444 406 452 407 441 408 443 403 449 409 444 406 442 394 450 410 441 408 442 394 443 403 448 396 457 398 459 411 445 404 458 401 453 412 446 399 445 404 443 403 446 399 457 398 445 404 437 393 450 410 438 392 438 392 462 413 463 414 460 402 473 415 468 416 439 390 463 414 442 394 442 394 463 414 450 410 436 136 464 170 450 410 459 411 472 417 456 397 455 418 470 419 473 415 454 400 469 420 459 411 456 397 471 421 455 418 453 412 468 416 466 422 452 407 467 423 469 420 451 405 466 422 461 424 450 410 465 425 467 423 465 425 474 169 467 423 450 410 464 170 465 425 466 422 477 177 476 171 432 172 431 387 476 171 461 424 431 387 449 409 435 385 441 408 434 386 480 426 481 427 478 428 433 389 480 426 478 428 434 386 481 427 433 389 430 388 478 428 449 409 449 409 478 428 441 408 479 429 482 178 477 177 467 423 475 430 482 178 471 421 479 429 470 419 470 419 479 429 473 415 471 421 472 417 479 429 467 423 479 429 469 420 466 422 468 416 479 429 360 335 489 431 483 432 359 338 488 433 489 431 358 339 487 434 359 338 357 341 486 435 487 434 342 348 484 436 485 334 341 336 483 432 342 348 356 74 486 435 357 341 483 432 491 437 490 438 484 436 490 438 340 327 345 342 493 439 346 78 344 344 492 440 493 439 489 431 339 441 483 432 343 346 485 334 492 440 335 332 330 331 492 440 329 53 331 189 330 331 327 324 330 331 326 442 330 331 331 189 493 439 508 443 495 444 522 445 507 446 508 443 521 447 506 448 507 446 521 447 505 449 506 448 520 450 504 451 505 449 518 452 503 453 504 451 518 452 502 454 503 453 517 455 501 456 502 454 516 457 500 458 501 456 514 459 554 460 558 461 555 462 555 462 513 213 551 463 497 464 498 465 511 466 496 467 497 464 511 466 495 444 496 467 509 468 505 449 507 446 506 448 332 469 336 329 319 470 334 471 319 470 324 313 523 322 490 438 491 437 490 438 523 322 340 327 337 326 523 322 299 295 336 329 299 295 319 470 311 297 312 296 491 437 313 317 338 472 314 321 307 301 526 473 306 303 304 306 305 304 338 472 306 303 525 474 305 304 308 300 528 475 527 476 528 475 530 477 527 476 488 433 532 478 489 431 534 479 536 480 535 481 536 480 538 482 535 481 530 477 531 483 529 484 538 482 539 485 537 486 531 483 534 479 533 487 529 484 549 488 548 489 487 434 541 490 539 485 541 490 543 491 537 486 535 481 546 492 545 493 533 487 545 493 531 483 531 483 544 494 529 484 537 486 543 491 546 492 544 494 550 495 547 496 527 476 548 489 526 473 545 493 551 463 550 495 542 497 547 496 529 484 487 434 552 498 553 499 541 490 553 499 554 460 546 492 543 491 555 462 546 492 555 462 551 463 550 495 564 250 561 249 551 463 565 500 564 250 554 460 553 499 558 461 548 489 562 501 557 251 499 502 500 458 514 459 498 465 499 502 512 503 547 496 561 249 549 488 513 213 559 256 556 504 558 461 560 257 513 213 549 488 563 258 548 489 556 504 559 256 551 463 487 434 486 435 552 498 552 498 566 260 553 499 486 435 356 74 552 498 553 499 568 261 558 461 552 498 567 262 566 260 487 434 532 478 488 433 539 485 580 505 532 478 538 482 579 506 580 505 530 477 574 507 575 508 531 483 575 508 534 479 536 480 578 509 579 506 534 479 577 510 578 509 532 478 576 511 572 512 528 475 573 513 530 477 308 300 540 514 528 475 339 441 572 512 571 515 311 297 571 515 310 298 310 298 570 516 309 298 309 298 569 516 308 300 27 1 14 27 0 2 13 0 12 3 27 1 25 6 26 4 12 3 11 5 10 7 25 6 23 10 24 8 10 7 22 12 23 10 9 9 8 11 7 13 22 12 20 16 21 14 7 13 6 15 5 17 20 16 18 20 19 18 5 17 4 19 3 21 18 20 3 21 2 23 17 22 15 26 16 24 2 23 1 25 0 2 15 26 27 1 41 48 28 28 41 48 27 1 40 29 5 17 3 21 4 19 1 25 2 23 3 21 1 25 3 21 5 17 13 0 0 2 12 3 12 3 0 2 10 7 7 13 5 17 6 15 1 25 5 17 7 13 0 2 1 25 10 7 1 25 7 13 10 7 7 13 8 11 10 7 8 11 9 9 10 7 24 8 38 30 39 30 38 30 24 8 37 31 37 31 23 10 36 32 21 14 35 222 36 32 35 222 21 14 34 33 19 18 33 42 34 33 33 42 19 18 32 34 32 34 18 20 31 35 31 35 17 22 30 36 30 36 16 24 29 37 29 37 15 26 28 28 25 6 39 30 40 29 29 37 28 28 53 39 47 43 32 34 46 40 30 36 45 41 46 40 29 37 44 62 45 41 42 46 33 42 47 43 51 517 47 43 50 44 50 44 46 40 49 45 47 43 51 517 43 47 28 28 41 48 224 50 53 39 55 188 56 52 328 325 54 51 329 53 63 54 59 56 62 58 45 41 44 62 52 59 59 56 63 54 61 61 44 62 53 39 54 51 66 55 187 63 61 61 84 66 78 85 67 67 82 65 81 68 84 66 72 71 83 69 81 68 80 70 79 72 72 71 349 75 73 73 79 72 74 77 350 88 346 78 75 80 74 77 71 76 76 82 75 80 70 79 77 84 76 82 69 81 78 85 77 84 68 83 77 84 88 90 87 86 76 82 87 86 86 87 85 89 74 77 86 87 363 93 350 88 85 89 88 90 117 95 116 91 87 86 116 91 115 92 114 94 85 89 115 92 398 98 363 93 114 94 117 95 121 100 120 96 116 91 120 96 119 97 118 103 114 94 119 97 114 94 118 103 403 99 121 100 125 105 124 101 120 96 124 101 123 102 119 97 123 102 122 104 408 109 403 99 122 104 128 107 124 101 129 106 127 108 123 102 128 107 126 134 122 104 127 108 122 104 126 134 413 110 129 106 125 105 112 112 109 113 110 114 78 85 110 114 111 115 117 95 111 115 112 112 121 100 139 126 134 116 138 118 420 120 426 128 136 121 131 119 136 121 135 123 130 122 135 123 137 125 132 124 137 125 138 118 144 137 139 126 143 127 426 128 432 172 141 129 136 121 141 129 140 130 135 123 140 130 142 131 137 125 142 131 143 127 147 158 128 107 148 132 128 107 147 158 146 133 127 108 146 133 145 135 126 134 145 135 436 136 148 132 129 106 139 126 144 137 149 153 150 138 156 147 155 139 164 141 154 151 165 142 162 144 168 146 163 140 155 139 165 142 166 145 155 139 159 149 161 157 153 150 152 155 154 151 160 152 157 154 159 149 151 148 150 138 152 155 158 156 151 148 152 155 150 138 165 142 156 147 167 143 161 157 168 146 166 145 153 150 154 151 151 148 153 150 166 145 165 142 146 133 170 518 158 156 170 518 146 133 171 159 180 162 168 146 175 160 171 159 147 158 150 138 158 156 170 518 171 159 464 170 436 136 158 156 164 141 178 164 179 161 177 179 163 140 180 162 167 143 179 161 176 163 163 140 177 179 178 164 175 160 161 157 173 165 174 167 160 152 176 163 173 165 159 149 169 166 172 168 158 156 174 167 174 167 475 430 474 169 172 168 474 169 464 170 477 177 173 165 476 171 476 171 169 166 141 129 143 127 184 175 149 153 183 173 142 131 181 174 142 131 183 173 184 175 181 174 140 130 157 154 149 153 184 175 181 174 482 178 182 176 477 177 475 430 174 167 482 178 176 163 179 161 182 176 182 176 180 162 175 160 191 181 82 65 185 180 190 228 81 68 191 181 81 68 190 228 189 182 188 183 79 72 189 182 186 184 68 83 187 63 68 83 186 184 185 180 193 49 185 180 192 185 192 185 186 184 66 55 346 78 196 519 195 186 194 64 70 79 195 186 185 180 193 49 65 187 187 63 69 81 194 64 194 64 195 186 57 60 331 189 329 53 57 60 55 188 60 220 57 60 60 220 58 57 57 60 58 57 59 56 57 60 195 186 196 519 331 189 223 191 211 219 197 192 222 194 223 191 210 190 209 193 208 195 222 194 208 195 207 197 221 196 219 200 220 198 207 197 206 199 205 201 219 200 205 201 204 203 218 202 204 203 203 205 217 204 215 208 216 206 203 205 256 210 513 213 258 211 252 212 257 255 513 213 213 215 214 253 200 216 199 214 198 217 213 215 211 219 212 218 198 217 202 207 200 216 201 252 205 201 203 205 204 203 206 199 203 205 205 201 198 217 199 214 197 192 197 192 199 214 210 190 199 214 200 216 202 207 210 190 199 214 202 207 207 197 209 193 206 199 206 199 209 193 203 205 209 193 210 190 203 205 210 190 202 207 203 205 62 58 58 57 48 38 48 38 60 220 53 39 224 50 63 54 28 28 41 48 40 29 193 49 43 47 225 520 64 221 35 222 226 224 227 223 34 33 33 42 64 221 34 33 64 221 226 224 229 226 37 31 228 225 228 225 230 235 231 227 191 181 65 187 233 229 237 233 235 230 236 232 236 232 238 237 239 234 250 254 230 235 249 239 242 240 189 182 240 238 244 248 242 240 238 237 247 243 236 232 246 241 232 236 245 242 246 241 230 235 243 244 245 242 244 248 238 237 247 243 251 246 245 242 248 245 249 239 228 225 227 223 252 212 246 241 251 246 230 235 250 254 248 245 253 259 189 182 254 247 254 247 242 240 255 209 256 210 255 209 244 248 256 210 247 243 252 212 564 250 251 246 561 249 565 500 252 212 564 250 562 501 249 239 557 251 202 207 201 252 215 208 250 254 563 258 561 249 249 239 562 501 563 258 252 212 565 500 559 256 254 247 568 261 566 260 253 259 567 262 356 74 258 211 560 257 568 261 233 229 266 521 270 263 269 265 239 234 270 263 264 522 231 227 265 264 235 230 267 523 265 264 268 266 237 233 269 265 267 523 235 230 268 266 266 521 233 229 262 267 231 227 264 522 263 268 229 226 263 268 241 269 262 267 65 187 261 270 39 30 260 271 261 270 38 30 259 271 260 271 37 31 241 269 259 271 271 273 285 294 298 274 297 312 283 275 298 274 283 275 297 312 296 277 295 299 281 278 296 277 281 278 295 299 294 280 280 279 294 280 293 282 292 302 278 283 293 282 278 283 292 302 291 285 290 305 276 286 291 285 276 286 290 305 289 288 288 291 274 289 289 288 287 310 273 290 288 291 273 290 287 310 286 293 285 294 271 273 286 293 299 295 312 296 298 274 297 312 298 274 311 297 274 289 276 286 275 287 273 290 272 292 274 289 274 289 272 292 276 286 271 273 284 272 283 275 271 273 283 275 281 278 276 286 278 283 277 284 276 286 272 292 278 283 272 292 271 273 281 278 272 292 281 278 280 279 278 283 272 292 279 281 272 292 280 279 279 281 310 298 309 298 295 299 294 280 295 299 308 300 293 282 294 280 307 301 307 301 306 303 292 302 291 285 292 302 305 304 305 304 304 306 290 305 289 288 290 305 303 307 288 291 289 288 302 308 287 310 288 291 301 309 286 293 287 310 300 311 285 294 286 293 299 295 311 297 310 298 296 277 319 470 299 295 324 313 302 308 303 307 317 315 317 315 316 316 301 309 316 316 315 333 300 311 303 307 304 306 318 314 317 315 318 314 321 319 316 316 317 315 320 320 314 321 322 318 318 314 491 437 312 296 523 322 327 324 326 442 324 313 327 324 325 323 329 53 332 469 333 328 336 329 323 330 315 333 316 316 335 332 337 326 333 328 325 323 324 313 315 333 492 440 485 334 335 332 341 336 355 350 362 337 361 524 359 338 362 337 359 338 361 524 347 340 348 525 357 341 347 340 357 341 348 525 349 75 346 78 350 88 351 343 345 342 351 343 352 345 344 344 352 345 353 347 343 346 353 347 354 349 342 348 354 349 355 350 366 351 367 355 354 349 365 352 366 351 353 347 352 345 351 343 365 352 351 343 350 88 364 353 401 354 402 359 367 355 400 356 401 354 366 351 365 352 364 353 400 356 364 353 363 93 399 357 406 358 407 363 402 359 405 360 406 358 401 354 400 356 399 357 405 360 403 99 404 361 399 357 411 362 412 526 407 363 410 364 411 362 406 358 409 365 410 364 405 360 404 361 403 99 409 365 412 526 411 362 417 367 411 362 410 364 416 366 410 364 409 365 415 368 413 110 414 369 409 365 396 371 412 526 417 367 367 355 394 373 355 350 407 363 395 374 402 359 412 526 396 371 407 363 422 384 423 375 428 377 425 379 426 128 420 120 424 381 425 379 419 378 427 383 424 381 418 380 428 377 427 383 421 382 428 377 429 376 434 386 431 387 432 172 426 128 430 388 431 387 425 379 433 389 430 388 424 381 434 386 433 389 427 383 417 367 416 366 440 391 438 392 439 390 416 366 437 393 438 392 415 368 436 136 437 393 414 369 429 376 417 367 440 391 442 394 441 408 435 385 455 418 447 395 456 397 459 411 457 398 454 400 447 395 455 418 460 402 447 395 458 401 457 398 445 404 453 412 451 405 454 400 446 399 452 407 443 403 451 405 449 409 452 407 444 406 450 410 442 394 444 406 443 403 456 397 448 396 459 411 458 401 460 402 453 412 444 406 446 399 443 403 457 398 458 401 445 404 450 410 462 413 438 392 439 390 438 392 463 414 453 412 460 402 468 416 440 391 439 390 442 394 463 414 462 413 450 410 437 393 436 136 450 410 472 417 471 421 456 397 460 402 455 418 473 415 469 420 472 417 459 411 471 421 470 419 455 418 451 405 453 412 466 422 454 400 452 407 469 420 449 409 451 405 461 424 452 407 450 410 467 423 474 169 475 430 467 423 464 170 474 169 465 425 461 424 466 422 476 171 431 387 461 424 476 171 441 408 481 427 434 386 430 388 433 389 478 428 481 427 480 426 433 389 431 387 430 388 449 409 478 428 481 427 441 408 466 422 479 429 477 177 479 429 467 423 482 178 479 429 472 417 469 420 468 416 473 415 479 429 341 336 360 335 483 432 360 335 359 338 489 431 487 434 488 433 359 338 358 339 357 341 487 434 343 346 342 348 485 334 483 432 484 436 342 348 484 436 483 432 490 438 485 334 484 436 340 327 493 439 494 527 346 78 345 342 344 344 493 439 339 441 491 437 483 432 344 344 343 346 492 440 330 331 493 439 492 440 327 324 329 53 330 331 330 331 333 328 332 469 326 442 330 331 334 471 330 331 332 469 334 471 331 189 494 527 493 439 495 444 509 468 522 445 508 443 522 445 521 447 520 450 506 448 521 447 519 528 505 449 520 450 505 449 519 528 518 452 517 455 503 453 518 452 516 457 502 454 517 455 515 529 501 456 516 457 501 456 515 529 514 459 558 461 513 213 555 462 513 213 556 504 551 463 498 465 512 503 511 466 510 530 496 467 511 466 496 467 510 530 509 468 498 465 500 458 499 502 501 456 503 453 502 454 501 456 504 451 503 453 496 467 495 444 497 464 495 444 508 443 497 464 497 464 500 458 498 465 497 464 508 443 500 458 507 446 505 449 504 451 507 446 504 451 501 456 508 443 507 446 501 456 500 458 508 443 501 456 334 471 332 469 319 470 326 442 334 471 324 313 336 329 337 326 299 295 339 441 311 297 491 437 338 472 524 531 314 321 526 473 525 474 306 303 313 317 304 306 338 472 525 474 338 472 305 304 307 301 308 300 527 476 530 477 529 484 527 476 532 478 339 441 489 431 533 487 534 479 535 481 538 482 537 486 535 481 527 476 529 484 548 489 532 478 487 434 539 485 539 485 541 490 537 486 533 487 535 481 545 493 545 493 544 494 531 483 544 494 542 497 529 484 535 481 537 486 546 492 542 497 544 494 547 496 307 301 527 476 526 473 544 494 545 493 550 495 547 496 549 488 529 484 541 490 487 434 553 499 543 491 541 490 554 460 543 491 554 460 555 462 545 493 546 492 551 463 547 496 550 495 561 249 550 495 551 463 564 250 526 473 548 489 557 251 512 503 499 502 514 459 561 249 563 258 549 488 563 258 562 501 548 489 559 256 565 500 551 463 566 260 568 261 553 499 356 74 567 262 552 498 568 261 560 257 558 461 580 505 576 511 532 478 539 485 538 482 580 505 531 483 530 477 575 508 575 508 577 510 534 479 538 482 536 480 579 506 536 480 534 479 578 509 339 441 532 478 572 512 573 513 574 507 530 477 540 514 573 513 528 475 311 297 339 441 571 515 571 515 570 516 310 298 570 516 569 516 309 298 569 516 540 514 308 300</p>
        </polylist>
        <polylist material="Kunststoff_druckteile_007_003-material" count="94">
          <input semantic="VERTEX" source="#Circle_047-mesh-vertices" offset="0"/>
          <input semantic="NORMAL" source="#Circle_047-mesh-normals" offset="1"/>
          <vcount>3 3 3 3 3 3 3 3 3 3 3 3 3 3 3 3 3 3 3 3 3 3 3 3 3 3 3 3 3 3 3 3 3 3 3 3 3 3 3 3 3 3 3 3 3 3 3 3 3 3 3 3 3 3 3 3 3 3 3 3 3 3 3 3 3 3 3 3 3 3 3 3 3 3 3 3 3 3 3 3 3 3 3 3 3 3 3 3 3 3 3 3 3 3 </vcount>
          <p>73 73 349 75 370 532 72 71 73 73 90 533 83 69 72 71 89 534 84 66 83 69 92 535 90 533 370 532 375 536 89 534 90 533 94 537 91 538 89 534 93 539 92 535 91 538 95 540 96 541 95 540 99 542 100 543 99 542 103 544 102 545 385 546 106 547 101 548 102 545 105 549 103 544 101 548 107 550 104 551 103 544 108 552 104 551 108 552 113 111 100 543 104 551 112 112 96 541 100 543 110 114 92 535 96 541 109 113 92 535 109 113 84 66 113 111 108 552 134 116 106 547 390 553 131 119 105 549 106 547 130 122 107 550 105 549 132 124 108 552 107 550 133 117 348 525 369 554 370 532 347 340 368 555 369 554 361 524 371 556 368 555 362 337 372 557 361 524 369 554 374 558 375 536 368 555 373 559 374 558 371 556 376 560 373 559 372 557 377 561 376 560 377 561 382 562 381 563 382 562 387 564 386 565 384 566 389 567 385 546 383 568 388 569 384 566 386 565 391 570 383 568 387 564 392 571 386 565 387 564 396 371 397 370 382 562 395 374 396 371 377 561 394 373 382 562 372 557 393 372 377 561 372 557 362 337 393 372 397 370 423 375 392 571 389 567 419 378 390 553 388 569 418 380 389 567 391 570 421 382 388 569 392 571 422 384 391 570 90 533 73 73 370 532 89 534 72 71 90 533 91 538 83 69 89 534 83 69 91 538 92 535 94 537 90 533 375 536 93 539 89 534 94 537 95 540 91 538 93 539 96 541 92 535 95 540 100 543 96 541 99 542 104 551 100 543 103 544 385 546 390 553 106 547 102 545 106 547 105 549 101 548 105 549 107 550 103 544 107 550 108 552 112 112 104 551 113 111 111 115 100 543 112 112 100 543 111 115 110 114 96 541 110 114 109 113 108 552 133 117 134 116 390 553 420 120 131 119 106 547 131 119 130 122 105 549 130 122 132 124 107 550 132 124 133 117 349 75 348 525 370 532 348 525 347 340 369 554 347 340 361 524 368 555 372 557 371 556 361 524 370 532 369 554 375 536 369 554 368 555 374 558 368 555 371 556 373 559 371 556 372 557 376 560 376 560 377 561 381 563 381 563 382 562 386 565 389 567 390 553 385 546 388 569 389 567 384 566 391 570 388 569 383 568 392 571 391 570 386 565 392 571 387 564 397 370 387 564 382 562 396 371 394 373 395 374 382 562 393 372 394 373 377 561 423 375 422 384 392 571 419 378 420 120 390 553 418 380 419 378 389 567 421 382 418 380 388 569 422 384 421 382 391 570</p>
        </polylist>
        <polylist material="Gummi_011_003-material" count="24">
          <input semantic="VERTEX" source="#Circle_047-mesh-vertices" offset="0"/>
          <input semantic="NORMAL" source="#Circle_047-mesh-normals" offset="1"/>
          <vcount>3 3 3 3 3 3 3 3 3 3 3 3 3 3 3 3 3 3 3 3 3 3 3 3 </vcount>
          <p>94 537 375 536 380 572 93 539 94 537 98 573 95 540 93 539 97 574 98 573 380 572 102 545 97 574 98 573 102 545 99 542 97 574 101 548 374 558 379 575 380 572 373 559 378 576 379 575 376 560 381 563 378 576 379 575 384 566 380 572 378 576 383 568 384 566 381 563 386 565 383 568 98 573 94 537 380 572 97 574 93 539 98 573 99 542 95 540 97 574 380 572 385 546 102 545 101 548 97 574 102 545 103 544 99 542 101 548 375 536 374 558 380 572 374 558 373 559 379 575 373 559 376 560 378 576 384 566 385 546 380 572 379 575 378 576 384 566 378 576 381 563 383 568</p>
        </polylist>
      </mesh>
    </geometry>
  </library_geometries>
  <library_controllers/>
  <library_visual_scenes>
    <visual_scene id="Scene" name="Scene">
      <node id="COL_hollie_right_hand_j" name="COL_hollie_right_hand_j" type="NODE">
        <instance_geometry url="#Circle_047-mesh" name="COL_hollie_right_hand_j">
          <bind_material>
            <technique_common>
              <instance_material symbol="Metall_Alu_011_003-material" target="#Metall_Alu_011_003-material"/>
              <instance_material symbol="Kunststoff_druckteile_007_003-material" target="#Kunststoff_druckteile_007_003-material"/>
              <instance_material symbol="Gummi_011_003-material" target="#Gummi_011_003-material"/>
            </technique_common>
          </bind_material>
        </instance_geometry>
      </node>
    </visual_scene>
  </library_visual_scenes>
  <scene>
    <instance_visual_scene url="#Scene"/>
  </scene>
</COLLADA>